/*V R C 4 256 3 3 2 8  00000000 FF000000 0 FFFFFFFF  bpm_red.sym   LCDIcon FileDescriptor: Do not edit or move */
/* Put Your Comments Here */
/* */
/* */
/* */
/* */
/* */
/* */
/* */
/* */
/* */
/* */
/* */
/* */
/* */
/* */
/* */
/* */
/* */
/* */
/* */
/* */


/* Element 0xFFFFFFFF - Char 0xFFFFFFFF */
{{ 0, 0x08, 24, 7 },{
0xE4,
0xE4,
0xE4,
0xE4,
0x00,
0x00,
0x00,
0x00,
0xE4,
0xE4,
0xE4,
0xE4,
0x00,
0x00,
0x00,
0x00,
0xE4,
0x00,
0x00,
0x00,
0x00,
0x00,
0xE4,
0x00,
0xE4,
0x00,
0x00,
0x00,
0xE4,
0x00,
0x00,
0x00,
0xE4,
0x00,
0x00,
0x00,
0xE4,
0x00,
0x00,
0x00,
0xE4,
0xE4,
0x00,
0x00,
0x00,
0xE4,
0xE4,
0x00,
0xE4,
0x00,
0x00,
0x00,
0xE4,
0x00,
0x00,
0x00,
0xE4,
0x00,
0x00,
0x00,
0xE4,
0x00,
0x00,
0x00,
0xE4,
0xE4,
0x00,
0x00,
0x00,
0xE4,
0xE4,
0x00,
0xE4,
0xE4,
0xE4,
0xE4,
0xE4,
0x00,
0x00,
0x00,
0xE4,
0xE4,
0xE4,
0xE4,
0x00,
0x00,
0x00,
0x00,
0xE4,
0x00,
0xE4,
0x00,
0xE4,
0x00,
0xE4,
0x00,
0xE4,
0x00,
0x00,
0x00,
0xE4,
0x00,
0x00,
0x00,
0xE4,
0x00,
0x00,
0x00,
0x00,
0x00,
0x00,
0x00,
0xE4,
0x00,
0xE4,
0x00,
0xE4,
0x00,
0xE4,
0x00,
0xE4,
0x00,
0x00,
0x00,
0xE4,
0x00,
0x00,
0x00,
0xE4,
0x00,
0x00,
0x00,
0x00,
0x00,
0x00,
0x00,
0xE4,
0x00,
0xE4,
0x00,
0xE4,
0x00,
0xE4,
0x00,
0xE4,
0xE4,
0xE4,
0xE4,
0x00,
0x00,
0x00,
0x00,
0xE4,
0x00,
0x00,
0x00,
0x00,
0x00,
0x00,
0x00,
0xE4,
0x00,
0x00,
0xE4,
0x00,
0x00,
0xE4,
0x00
}}
