/*V R C 4 256 3 3 2 8  00000000 00FFFFFF 0 00FFFFFF  Red_4.sym   LCDIcon FileDescriptor: Do not edit or move */
/* Put Your Comments Here */
/* */
/* */
/* */
/* */
/* */
/* */
/* */
/* */
/* */
/* */
/* */
/* */
/* */
/* */
/* */
/* */
/* */
/* */
/* */
/* */


/* Element 0xFFFFFFFF - Char 0xFFFFFFFF */
{{ 0, 0x08, 37, 56 },{
0x00,
0x00,
0x00,
0x00,
0x00,
0x00,
0x00,
0x00,
0x00,
0x00,
0x00,
0x00,
0x00,
0x00,
0x00,
0x00,
0x00,
0x00,
0x00,
0x00,
0x00,
0x00,
0x00,
0x00,
0x00,
0x40,
0xA4,
0xA4,
0xA4,
0xA4,
0xA4,
0xA4,
0xA4,
0x40,
0x00,
0x00,
0x00,
0x00,
0x00,
0x00,
0x00,
0x00,
0x00,
0x00,
0x00,
0x00,
0x00,
0x00,
0x00,
0x00,
0x00,
0x00,
0x00,
0x00,
0x00,
0x00,
0x00,
0x00,
0x00,
0x00,
0x00,
0x20,
0xC4,
0xE4,
0xE4,
0xE4,
0xE4,
0xE4,
0xE4,
0xE4,
0x60,
0x00,
0x00,
0x00,
0x00,
0x00,
0x00,
0x00,
0x00,
0x00,
0x00,
0x00,
0x00,
0x00,
0x00,
0x00,
0x00,
0x00,
0x00,
0x00,
0x00,
0x00,
0x00,
0x00,
0x00,
0x00,
0x00,
0x00,
0xA4,
0xE4,
0xE4,
0xE4,
0xE4,
0xE4,
0xE4,
0xE4,
0xE4,
0x60,
0x00,
0x00,
0x00,
0x00,
0x00,
0x00,
0x00,
0x00,
0x00,
0x00,
0x00,
0x00,
0x00,
0x00,
0x00,
0x00,
0x00,
0x00,
0x00,
0x00,
0x00,
0x00,
0x00,
0x00,
0x00,
0x00,
0x80,
0xE4,
0xE4,
0xE4,
0xE4,
0xE4,
0xE4,
0xE4,
0xE4,
0xE4,
0x60,
0x00,
0x00,
0x00,
0x00,
0x00,
0x00,
0x00,
0x00,
0x00,
0x00,
0x00,
0x00,
0x00,
0x00,
0x00,
0x00,
0x00,
0x00,
0x00,
0x00,
0x00,
0x00,
0x00,
0x00,
0x00,
0x40,
0xE4,
0xE4,
0xE4,
0xE4,
0xE4,
0xE4,
0xE4,
0xE4,
0xE4,
0xE4,
0x60,
0x00,
0x00,
0x00,
0x00,
0x00,
0x00,
0x00,
0x00,
0x00,
0x00,
0x00,
0x00,
0x00,
0x00,
0x00,
0x00,
0x00,
0x00,
0x00,
0x00,
0x00,
0x00,
0x00,
0x00,
0x20,
0xC4,
0xE4,
0xE4,
0xE4,
0xE4,
0xE4,
0xE4,
0xE4,
0xE4,
0xE4,
0xE4,
0x60,
0x00,
0x00,
0x00,
0x00,
0x00,
0x00,
0x00,
0x00,
0x00,
0x00,
0x00,
0x00,
0x00,
0x00,
0x00,
0x00,
0x00,
0x00,
0x00,
0x00,
0x00,
0x00,
0x00,
0x00,
0xC4,
0xE4,
0xE4,
0xE4,
0xE4,
0xE4,
0xE4,
0xE4,
0xE4,
0xE4,
0xE4,
0xE4,
0x60,
0x00,
0x00,
0x00,
0x00,
0x00,
0x00,
0x00,
0x00,
0x00,
0x00,
0x00,
0x00,
0x00,
0x00,
0x00,
0x00,
0x00,
0x00,
0x00,
0x00,
0x00,
0x00,
0x00,
0x84,
0xE4,
0xE4,
0xE4,
0xE4,
0xE4,
0xE4,
0xE4,
0xE4,
0xE4,
0xE4,
0xE4,
0xE4,
0x60,
0x00,
0x00,
0x00,
0x00,
0x00,
0x00,
0x00,
0x00,
0x00,
0x00,
0x00,
0x00,
0x00,
0x00,
0x00,
0x00,
0x00,
0x00,
0x00,
0x00,
0x00,
0x00,
0x60,
0xE4,
0xE4,
0xE4,
0xE4,
0xE4,
0xE4,
0xE4,
0xE4,
0xE4,
0xE4,
0xE4,
0xE4,
0xE4,
0x60,
0x00,
0x00,
0x00,
0x00,
0x00,
0x00,
0x00,
0x00,
0x00,
0x00,
0x00,
0x00,
0x00,
0x00,
0x00,
0x00,
0x00,
0x00,
0x00,
0x00,
0x00,
0x20,
0xE4,
0xE4,
0xE4,
0xE4,
0xE4,
0xE4,
0xE4,
0xE4,
0xE4,
0xE4,
0xE4,
0xE4,
0xE4,
0xE4,
0x60,
0x00,
0x00,
0x00,
0x00,
0x00,
0x00,
0x00,
0x00,
0x00,
0x00,
0x00,
0x00,
0x00,
0x00,
0x00,
0x00,
0x00,
0x00,
0x00,
0x00,
0x00,
0xC4,
0xE4,
0xE4,
0xE4,
0xE4,
0xE4,
0xE4,
0xE4,
0xE4,
0xE4,
0xE4,
0xE4,
0xE4,
0xE4,
0xE4,
0x60,
0x00,
0x00,
0x00,
0x00,
0x00,
0x00,
0x00,
0x00,
0x00,
0x00,
0x00,
0x00,
0x00,
0x00,
0x00,
0x00,
0x00,
0x00,
0x00,
0x00,
0xA4,
0xE4,
0xE4,
0xE4,
0xE4,
0xE4,
0xE4,
0xE4,
0xE4,
0xE4,
0xE4,
0xE4,
0xE4,
0xE4,
0xE4,
0xE4,
0x60,
0x00,
0x00,
0x00,
0x00,
0x00,
0x00,
0x00,
0x00,
0x00,
0x00,
0x00,
0x00,
0x00,
0x00,
0x00,
0x00,
0x00,
0x00,
0x00,
0x80,
0xE4,
0xE4,
0xE4,
0xE4,
0xE4,
0xE4,
0xE4,
0xE4,
0xE4,
0xE4,
0xE4,
0xE4,
0xE4,
0xE4,
0xE4,
0xE4,
0x60,
0x00,
0x00,
0x00,
0x00,
0x00,
0x00,
0x00,
0x00,
0x00,
0x00,
0x00,
0x00,
0x00,
0x00,
0x00,
0x00,
0x00,
0x00,
0x40,
0xE4,
0xE4,
0xE4,
0xE4,
0xE4,
0xE4,
0xE4,
0xE4,
0xE4,
0xE4,
0xE4,
0xE4,
0xE4,
0xE4,
0xE4,
0xE4,
0xE4,
0x60,
0x00,
0x00,
0x00,
0x00,
0x00,
0x00,
0x00,
0x00,
0x00,
0x00,
0x00,
0x00,
0x00,
0x00,
0x00,
0x00,
0x00,
0x20,
0xC4,
0xE4,
0xE4,
0xE4,
0xE4,
0xE4,
0xE4,
0xE4,
0xE4,
0xE4,
0xE4,
0xE4,
0xE4,
0xE4,
0xE4,
0xE4,
0xE4,
0xE4,
0x60,
0x00,
0x00,
0x00,
0x00,
0x00,
0x00,
0x00,
0x00,
0x00,
0x00,
0x00,
0x00,
0x00,
0x00,
0x00,
0x00,
0x00,
0xA4,
0xE4,
0xE4,
0xE4,
0xE4,
0xE4,
0xE4,
0xE4,
0xE4,
0xE4,
0xE4,
0xE4,
0xE4,
0xE4,
0xE4,
0xE4,
0xE4,
0xE4,
0xE4,
0x60,
0x00,
0x00,
0x00,
0x00,
0x00,
0x00,
0x00,
0x00,
0x00,
0x00,
0x00,
0x00,
0x00,
0x00,
0x00,
0x00,
0x80,
0xE4,
0xE4,
0xE4,
0xE4,
0xE4,
0xE4,
0xE4,
0xE4,
0xE4,
0xE4,
0xE4,
0xE4,
0xE4,
0xE4,
0xE4,
0xE4,
0xE4,
0xE4,
0xE4,
0x60,
0x00,
0x00,
0x00,
0x00,
0x00,
0x00,
0x00,
0x00,
0x00,
0x00,
0x00,
0x00,
0x00,
0x00,
0x00,
0x60,
0xE4,
0xE4,
0xE4,
0xE4,
0xE4,
0xE4,
0xE4,
0xE4,
0xE4,
0xE4,
0xE4,
0xE4,
0xE4,
0xE4,
0xE4,
0xE4,
0xE4,
0xE4,
0xE4,
0xE4,
0x60,
0x00,
0x00,
0x00,
0x00,
0x00,
0x00,
0x00,
0x00,
0x00,
0x00,
0x00,
0x00,
0x00,
0x00,
0x20,
0xE4,
0xE4,
0xE4,
0xE4,
0xE4,
0xE4,
0xE4,
0xE4,
0xE4,
0xA4,
0xE4,
0xE4,
0xE4,
0xE4,
0xE4,
0xE4,
0xE4,
0xE4,
0xE4,
0xE4,
0xE4,
0x60,
0x00,
0x00,
0x00,
0x00,
0x00,
0x00,
0x00,
0x00,
0x00,
0x00,
0x00,
0x00,
0x00,
0x00,
0xC4,
0xE4,
0xE4,
0xE4,
0xE4,
0xE4,
0xE4,
0xE4,
0xE4,
0x80,
0x60,
0xE4,
0xE4,
0xE4,
0xE4,
0xE4,
0xE4,
0xE4,
0xE4,
0xE4,
0xE4,
0xE4,
0x60,
0x00,
0x00,
0x00,
0x00,
0x00,
0x00,
0x00,
0x00,
0x00,
0x00,
0x00,
0x00,
0x00,
0xA4,
0xE4,
0xE4,
0xE4,
0xE4,
0xE4,
0xE4,
0xE4,
0xE4,
0xA4,
0x00,
0x60,
0xE4,
0xE4,
0xE4,
0xE4,
0xE4,
0xE4,
0xE4,
0xE4,
0xE4,
0xE4,
0xE4,
0x60,
0x00,
0x00,
0x00,
0x00,
0x00,
0x00,
0x00,
0x00,
0x00,
0x00,
0x00,
0x00,
0x60,
0xE4,
0xE4,
0xE4,
0xE4,
0xE4,
0xE4,
0xE4,
0xE4,
0xC4,
0x00,
0x00,
0x60,
0xE4,
0xE4,
0xE4,
0xE4,
0xE4,
0xE4,
0xE4,
0xE4,
0xE4,
0xE4,
0xE4,
0x60,
0x00,
0x00,
0x00,
0x00,
0x00,
0x00,
0x00,
0x00,
0x00,
0x00,
0x00,
0x20,
0xE4,
0xE4,
0xE4,
0xE4,
0xE4,
0xE4,
0xE4,
0xE4,
0xE4,
0x20,
0x00,
0x00,
0x60,
0xE4,
0xE4,
0xE4,
0xE4,
0xE4,
0xE4,
0xE4,
0xE4,
0xE4,
0xE4,
0xE4,
0x60,
0x00,
0x00,
0x00,
0x00,
0x00,
0x00,
0x00,
0x00,
0x00,
0x00,
0x20,
0xC4,
0xE4,
0xE4,
0xE4,
0xE4,
0xE4,
0xE4,
0xE4,
0xE4,
0x60,
0x00,
0x00,
0x00,
0x60,
0xE4,
0xE4,
0xE4,
0xE4,
0xE4,
0xE4,
0xE4,
0xE4,
0xE4,
0xE4,
0xE4,
0x60,
0x00,
0x00,
0x00,
0x00,
0x00,
0x00,
0x00,
0x00,
0x00,
0x00,
0xA4,
0xE4,
0xE4,
0xE4,
0xE4,
0xE4,
0xE4,
0xE4,
0xE4,
0x84,
0x00,
0x00,
0x00,
0x00,
0x60,
0xE4,
0xE4,
0xE4,
0xE4,
0xE4,
0xE4,
0xE4,
0xE4,
0xE4,
0xE4,
0xE4,
0x60,
0x00,
0x00,
0x00,
0x00,
0x00,
0x00,
0x00,
0x00,
0x00,
0x80,
0xE4,
0xE4,
0xE4,
0xE4,
0xE4,
0xE4,
0xE4,
0xE4,
0xC4,
0x00,
0x00,
0x00,
0x00,
0x00,
0x60,
0xE4,
0xE4,
0xE4,
0xE4,
0xE4,
0xE4,
0xE4,
0xE4,
0xE4,
0xE4,
0xE4,
0x60,
0x00,
0x00,
0x00,
0x00,
0x00,
0x00,
0x00,
0x00,
0x40,
0xE4,
0xE4,
0xE4,
0xE4,
0xE4,
0xE4,
0xE4,
0xE4,
0xC4,
0x20,
0x00,
0x00,
0x00,
0x00,
0x00,
0x60,
0xE4,
0xE4,
0xE4,
0xE4,
0xE4,
0xE4,
0xE4,
0xE4,
0xE4,
0xE4,
0xE4,
0x60,
0x00,
0x00,
0x00,
0x00,
0x00,
0x00,
0x00,
0x20,
0xC4,
0xE4,
0xE4,
0xE4,
0xE4,
0xE4,
0xE4,
0xE4,
0xE4,
0x40,
0x00,
0x00,
0x00,
0x00,
0x00,
0x00,
0x60,
0xE4,
0xE4,
0xE4,
0xE4,
0xE4,
0xE4,
0xE4,
0xE4,
0xE4,
0xE4,
0xE4,
0x60,
0x00,
0x00,
0x00,
0x00,
0x00,
0x00,
0x00,
0xA4,
0xE4,
0xE4,
0xE4,
0xE4,
0xE4,
0xE4,
0xE4,
0xE4,
0x80,
0x00,
0x00,
0x00,
0x00,
0x00,
0x00,
0x00,
0x60,
0xE4,
0xE4,
0xE4,
0xE4,
0xE4,
0xE4,
0xE4,
0xE4,
0xE4,
0xE4,
0xE4,
0x60,
0x00,
0x00,
0x00,
0x00,
0x00,
0x00,
0x84,
0xE4,
0xE4,
0xE4,
0xE4,
0xE4,
0xE4,
0xE4,
0xE4,
0xA4,
0x00,
0x00,
0x00,
0x00,
0x00,
0x00,
0x00,
0x00,
0x60,
0xE4,
0xE4,
0xE4,
0xE4,
0xE4,
0xE4,
0xE4,
0xE4,
0xE4,
0xE4,
0xE4,
0x60,
0x00,
0x00,
0x00,
0x00,
0x00,
0x60,
0xE4,
0xE4,
0xE4,
0xE4,
0xE4,
0xE4,
0xE4,
0xE4,
0xC4,
0x20,
0x00,
0x00,
0x00,
0x00,
0x00,
0x00,
0x00,
0x00,
0x60,
0xE4,
0xE4,
0xE4,
0xE4,
0xE4,
0xE4,
0xE4,
0xE4,
0xE4,
0xE4,
0xE4,
0x60,
0x00,
0x00,
0x00,
0x00,
0x20,
0xE4,
0xE4,
0xE4,
0xE4,
0xE4,
0xE4,
0xE4,
0xE4,
0xE4,
0x40,
0x00,
0x00,
0x00,
0x00,
0x00,
0x00,
0x00,
0x00,
0x00,
0x60,
0xE4,
0xE4,
0xE4,
0xE4,
0xE4,
0xE4,
0xE4,
0xE4,
0xE4,
0xE4,
0xE4,
0x60,
0x00,
0x00,
0x00,
0x00,
0xC4,
0xE4,
0xE4,
0xE4,
0xE4,
0xE4,
0xE4,
0xE4,
0xE4,
0x80,
0x00,
0x00,
0x00,
0x00,
0x00,
0x00,
0x00,
0x00,
0x00,
0x00,
0x60,
0xE4,
0xE4,
0xE4,
0xE4,
0xE4,
0xE4,
0xE4,
0xE4,
0xE4,
0xE4,
0xE4,
0x60,
0x00,
0x00,
0x00,
0x60,
0xE4,
0xE4,
0xE4,
0xE4,
0xE4,
0xE4,
0xE4,
0xE4,
0xE4,
0xA4,
0xA4,
0xA4,
0xA4,
0xA4,
0xA4,
0xA4,
0xA4,
0xA4,
0xA4,
0xA4,
0xC4,
0xE4,
0xE4,
0xE4,
0xE4,
0xE4,
0xE4,
0xE4,
0xE4,
0xE4,
0xE4,
0xE4,
0xC4,
0xA4,
0xA4,
0xA4,
0x60,
0xE4,
0xE4,
0xE4,
0xE4,
0xE4,
0xE4,
0xE4,
0xE4,
0xE4,
0xE4,
0xE4,
0xE4,
0xE4,
0xE4,
0xE4,
0xE4,
0xE4,
0xE4,
0xE4,
0xE4,
0xE4,
0xE4,
0xE4,
0xE4,
0xE4,
0xE4,
0xE4,
0xE4,
0xE4,
0xE4,
0xE4,
0xE4,
0xE4,
0xE4,
0xE4,
0xE4,
0x60,
0xE4,
0xE4,
0xE4,
0xE4,
0xE4,
0xE4,
0xE4,
0xE4,
0xE4,
0xE4,
0xE4,
0xE4,
0xE4,
0xE4,
0xE4,
0xE4,
0xE4,
0xE4,
0xE4,
0xE4,
0xE4,
0xE4,
0xE4,
0xE4,
0xE4,
0xE4,
0xE4,
0xE4,
0xE4,
0xE4,
0xE4,
0xE4,
0xE4,
0xE4,
0xE4,
0xE4,
0x60,
0xE4,
0xE4,
0xE4,
0xE4,
0xE4,
0xE4,
0xE4,
0xE4,
0xE4,
0xE4,
0xE4,
0xE4,
0xE4,
0xE4,
0xE4,
0xE4,
0xE4,
0xE4,
0xE4,
0xE4,
0xE4,
0xE4,
0xE4,
0xE4,
0xE4,
0xE4,
0xE4,
0xE4,
0xE4,
0xE4,
0xE4,
0xE4,
0xE4,
0xE4,
0xE4,
0xE4,
0x60,
0xE4,
0xE4,
0xE4,
0xE4,
0xE4,
0xE4,
0xE4,
0xE4,
0xE4,
0xE4,
0xE4,
0xE4,
0xE4,
0xE4,
0xE4,
0xE4,
0xE4,
0xE4,
0xE4,
0xE4,
0xE4,
0xE4,
0xE4,
0xE4,
0xE4,
0xE4,
0xE4,
0xE4,
0xE4,
0xE4,
0xE4,
0xE4,
0xE4,
0xE4,
0xE4,
0xE4,
0x60,
0xE4,
0xE4,
0xE4,
0xE4,
0xE4,
0xE4,
0xE4,
0xE4,
0xE4,
0xE4,
0xE4,
0xE4,
0xE4,
0xE4,
0xE4,
0xE4,
0xE4,
0xE4,
0xE4,
0xE4,
0xE4,
0xE4,
0xE4,
0xE4,
0xE4,
0xE4,
0xE4,
0xE4,
0xE4,
0xE4,
0xE4,
0xE4,
0xE4,
0xE4,
0xE4,
0xE4,
0x60,
0xE4,
0xE4,
0xE4,
0xE4,
0xE4,
0xE4,
0xE4,
0xE4,
0xE4,
0xE4,
0xE4,
0xE4,
0xE4,
0xE4,
0xE4,
0xE4,
0xE4,
0xE4,
0xE4,
0xE4,
0xE4,
0xE4,
0xE4,
0xE4,
0xE4,
0xE4,
0xE4,
0xE4,
0xE4,
0xE4,
0xE4,
0xE4,
0xE4,
0xE4,
0xE4,
0xE4,
0x60,
0xE4,
0xE4,
0xE4,
0xE4,
0xE4,
0xE4,
0xE4,
0xE4,
0xE4,
0xE4,
0xE4,
0xE4,
0xE4,
0xE4,
0xE4,
0xE4,
0xE4,
0xE4,
0xE4,
0xE4,
0xE4,
0xE4,
0xE4,
0xE4,
0xE4,
0xE4,
0xE4,
0xE4,
0xE4,
0xE4,
0xE4,
0xE4,
0xE4,
0xE4,
0xE4,
0xE4,
0x60,
0xE4,
0xE4,
0xE4,
0xE4,
0xE4,
0xE4,
0xE4,
0xE4,
0xE4,
0xE4,
0xE4,
0xE4,
0xE4,
0xE4,
0xE4,
0xE4,
0xE4,
0xE4,
0xE4,
0xE4,
0xE4,
0xE4,
0xE4,
0xE4,
0xE4,
0xE4,
0xE4,
0xE4,
0xE4,
0xE4,
0xE4,
0xE4,
0xE4,
0xE4,
0xE4,
0xE4,
0x00,
0x00,
0x00,
0x00,
0x00,
0x00,
0x00,
0x00,
0x00,
0x00,
0x00,
0x00,
0x00,
0x00,
0x00,
0x00,
0x00,
0x00,
0x00,
0x00,
0x00,
0x60,
0xE4,
0xE4,
0xE4,
0xE4,
0xE4,
0xE4,
0xE4,
0xE4,
0xE4,
0xE4,
0xE4,
0x60,
0x00,
0x00,
0x00,
0x00,
0x00,
0x00,
0x00,
0x00,
0x00,
0x00,
0x00,
0x00,
0x00,
0x00,
0x00,
0x00,
0x00,
0x00,
0x00,
0x00,
0x00,
0x00,
0x00,
0x00,
0x60,
0xE4,
0xE4,
0xE4,
0xE4,
0xE4,
0xE4,
0xE4,
0xE4,
0xE4,
0xE4,
0xE4,
0x60,
0x00,
0x00,
0x00,
0x00,
0x00,
0x00,
0x00,
0x00,
0x00,
0x00,
0x00,
0x00,
0x00,
0x00,
0x00,
0x00,
0x00,
0x00,
0x00,
0x00,
0x00,
0x00,
0x00,
0x00,
0x60,
0xE4,
0xE4,
0xE4,
0xE4,
0xE4,
0xE4,
0xE4,
0xE4,
0xE4,
0xE4,
0xE4,
0x60,
0x00,
0x00,
0x00,
0x00,
0x00,
0x00,
0x00,
0x00,
0x00,
0x00,
0x00,
0x00,
0x00,
0x00,
0x00,
0x00,
0x00,
0x00,
0x00,
0x00,
0x00,
0x00,
0x00,
0x00,
0x60,
0xE4,
0xE4,
0xE4,
0xE4,
0xE4,
0xE4,
0xE4,
0xE4,
0xE4,
0xE4,
0xE4,
0x60,
0x00,
0x00,
0x00,
0x00,
0x00,
0x00,
0x00,
0x00,
0x00,
0x00,
0x00,
0x00,
0x00,
0x00,
0x00,
0x00,
0x00,
0x00,
0x00,
0x00,
0x00,
0x00,
0x00,
0x00,
0x60,
0xE4,
0xE4,
0xE4,
0xE4,
0xE4,
0xE4,
0xE4,
0xE4,
0xE4,
0xE4,
0xE4,
0x60,
0x00,
0x00,
0x00,
0x00,
0x00,
0x00,
0x00,
0x00,
0x00,
0x00,
0x00,
0x00,
0x00,
0x00,
0x00,
0x00,
0x00,
0x00,
0x00,
0x00,
0x00,
0x00,
0x00,
0x00,
0x60,
0xE4,
0xE4,
0xE4,
0xE4,
0xE4,
0xE4,
0xE4,
0xE4,
0xE4,
0xE4,
0xE4,
0x60,
0x00,
0x00,
0x00,
0x00,
0x00,
0x00,
0x00,
0x00,
0x00,
0x00,
0x00,
0x00,
0x00,
0x00,
0x00,
0x00,
0x00,
0x00,
0x00,
0x00,
0x00,
0x00,
0x00,
0x00,
0x60,
0xE4,
0xE4,
0xE4,
0xE4,
0xE4,
0xE4,
0xE4,
0xE4,
0xE4,
0xE4,
0xE4,
0x60,
0x00,
0x00,
0x00,
0x00,
0x00,
0x00,
0x00,
0x00,
0x00,
0x00,
0x00,
0x00,
0x00,
0x00,
0x00,
0x00,
0x00,
0x00,
0x00,
0x00,
0x00,
0x00,
0x00,
0x00,
0x60,
0xE4,
0xE4,
0xE4,
0xE4,
0xE4,
0xE4,
0xE4,
0xE4,
0xE4,
0xE4,
0xE4,
0x60,
0x00,
0x00,
0x00,
0x00,
0x00,
0x00,
0x00,
0x00,
0x00,
0x00,
0x00,
0x00,
0x00,
0x00,
0x00,
0x00,
0x00,
0x00,
0x00,
0x00,
0x00,
0x00,
0x00,
0x00,
0x60,
0xE4,
0xE4,
0xE4,
0xE4,
0xE4,
0xE4,
0xE4,
0xE4,
0xE4,
0xE4,
0xE4,
0x60,
0x00,
0x00,
0x00,
0x00,
0x00,
0x00,
0x00,
0x00,
0x00,
0x00,
0x00,
0x00,
0x00,
0x00,
0x00,
0x00,
0x00,
0x00,
0x00,
0x00,
0x00,
0x00,
0x00,
0x00,
0x60,
0xE4,
0xE4,
0xE4,
0xE4,
0xE4,
0xE4,
0xE4,
0xE4,
0xE4,
0xE4,
0xE4,
0x60,
0x00,
0x00,
0x00,
0x00,
0x00,
0x00,
0x00,
0x00,
0x00,
0x00,
0x00,
0x00,
0x00,
0x00,
0x00,
0x00,
0x00,
0x00,
0x00,
0x00,
0x00,
0x00,
0x00,
0x00,
0x60,
0xE4,
0xE4,
0xE4,
0xE4,
0xE4,
0xE4,
0xE4,
0xE4,
0xE4,
0xE4,
0xE4,
0x60,
0x00,
0x00,
0x00,
0x00,
0x00,
0x00,
0x00,
0x00,
0x00,
0x00,
0x00,
0x00,
0x00,
0x00,
0x00,
0x00,
0x00,
0x00,
0x00,
0x00,
0x00,
0x00,
0x00,
0x00,
0x60,
0xE4,
0xE4,
0xE4,
0xE4,
0xE4,
0xE4,
0xE4,
0xE4,
0xE4,
0xE4,
0xE4,
0x60,
0x00,
0x00,
0x00,
0x00,
0x00,
0x00,
0x00,
0x00,
0x00,
0x00,
0x00,
0x00,
0x00,
0x00,
0x00,
0x00,
0x00,
0x00,
0x00,
0x00,
0x00,
0x00,
0x00,
0x00,
0x60,
0xE4,
0xE4,
0xE4,
0xE4,
0xE4,
0xE4,
0xE4,
0xE4,
0xE4,
0xE4,
0xE4,
0x60,
0x00,
0x00,
0x00,
0x00,
0x00,
0x00,
0x00,
0x00,
0x00,
0x00,
0x00,
0x00,
0x00,
0x00,
0x00,
0x00,
0x00,
0x00,
0x00,
0x00,
0x00,
0x00,
0x00,
0x00,
0x20,
0x20,
0x20,
0x20,
0x20,
0x20,
0x20,
0x20,
0x20,
0x20,
0x20,
0x20,
0x20,
0x00,
0x00,
0x00
}}
