/*X 8  BatteryCapacityBlockBig.sym   LCDIcon FileDescriptor: Do not edit or move */
/* Put Your Comments Here */
/* */
/* */
/* */
/* */
/* */
/* */
/* */
/* */
/* */
/* */
/* */
/* */
/* */
/* */
/* */
/* */
/* */
/* */
/* */
/* */

/* Element 0x0000 - Char 0x0000 */
{{22, 37},{
0x00,0x00,0x00,  /*  ........................  */
0x00,0x00,0x00,  /*  ........................  */
0x00,0x00,0x00,  /*  ........................  */
0x00,0x00,0x00,  /*  ........................  */
0x00,0x00,0x00,  /*  ........................  */
0x00,0x00,0x00,  /*  ........................  */
0x00,0x00,0x00,  /*  ........................  */
0x00,0x00,0x00,  /*  ........................  */
0x00,0x00,0x00,  /*  ........................  */
0x00,0x00,0x00,  /*  ........................  */
0x00,0x00,0x00,  /*  ........................  */
0x00,0x00,0x00,  /*  ........................  */
0x00,0x00,0x00,  /*  ........................  */
0x00,0x00,0x00,  /*  ........................  */
0x00,0x00,0x00,  /*  ........................  */
0x00,0x00,0x00,  /*  ........................  */
0x00,0x00,0x00,  /*  ........................  */
0x00,0x00,0x00,  /*  ........................  */
0x00,0x00,0x00,  /*  ........................  */
0x00,0x00,0x00,  /*  ........................  */
0x00,0x00,0x00,  /*  ........................  */
0x00,0x00,0x00,  /*  ........................  */
0x00,0x00,0x00,  /*  ........................  */
0x00,0x00,0x00,  /*  ........................  */
0x00,0x00,0x00,  /*  ........................  */
0x00,0x00,0x00,  /*  ........................  */
0x00,0x00,0x00,  /*  ........................  */
0x00,0x00,0x00,  /*  ........................  */
0x00,0x00,0x00,  /*  ........................  */
0x00,0x00,0x00,  /*  ........................  */
0x00,0x00,0x00,  /*  ........................  */
0x00,0x00,0x00,  /*  ........................  */
0x00,0x00,0x00,  /*  ........................  */
0x00,0x00,0x00,  /*  ........................  */
0x00,0x00,0x00,  /*  ........................  */
0x00,0x00,0x00,  /*  ........................  */
0x00,0x00,0x00   /*  ........................  */
}}

