/*X 8  BatteryFrame.sym   LCDIcon FileDescriptor: Do not edit or move */
/* Put Your Comments Here */
/* */
/* */
/* */
/* */
/* */
/* */
/* */
/* */
/* */
/* */
/* */
/* */
/* */
/* */
/* */
/* */
/* */
/* */
/* */
/* */

/* Element 0x0000 - Char 0x0000 */
{{20, 10},{
0x80,0x00,0x70,  /*  %................%%%....  */
0x7F,0xFF,0xB0,  /*  .%%%%%%%%%%%%%%%%.%%....  */
0x7F,0xFF,0xB0,  /*  .%%%%%%%%%%%%%%%%.%%....  */
0x7F,0xFF,0x80,  /*  .%%%%%%%%%%%%%%%%.......  */
0x7F,0xFF,0x80,  /*  .%%%%%%%%%%%%%%%%.......  */
0x7F,0xFF,0x80,  /*  .%%%%%%%%%%%%%%%%.......  */
0x7F,0xFF,0x80,  /*  .%%%%%%%%%%%%%%%%.......  */
0x7F,0xFF,0xB0,  /*  .%%%%%%%%%%%%%%%%.%%....  */
0x7F,0xFF,0xB0,  /*  .%%%%%%%%%%%%%%%%.%%....  */
0x80,0x00,0x70   /*  %................%%%....  */
}}

