/*X 8  BatteryCapacityBlock.sym   LCDIcon FileDescriptor: Do not edit or move */
/* Put Your Comments Here */
/* */
/* */
/* */
/* */
/* */
/* */
/* */
/* */
/* */
/* */
/* */
/* */
/* */
/* */
/* */
/* */
/* */
/* */
/* */
/* */

/* Element 0x0000 - Char 0x0000 */
{{4, 6},{
0x00,  /*  ........  */
0x00,  /*  ........  */
0x00,  /*  ........  */
0x00,  /*  ........  */
0x00,  /*  ........  */
0x00   /*  ........  */
}}

