/*X 8  BatteryCharging.sym   LCDIcon FileDescriptor: Do not edit or move */
/* Put Your Comments Here */
/* */
/* */
/* */
/* */
/* */
/* */
/* */
/* */
/* */
/* */
/* */
/* */
/* */
/* */
/* */
/* */
/* */
/* */
/* */
/* */

/* Element 0x0000 - Char 0x0000 */
{{56, 34},{
0xFF,0xFF,0xFE,0xFF,0xFF,0xFF,0xFF,  /*  %%%%%%%%%%%%%%%%%%%%%%%.%%%%%%%%%%%%%%%%%%%%%%%%%%%%%%%%  */
0xFF,0xFF,0xFE,0x3F,0xFF,0xFF,0xFF,  /*  %%%%%%%%%%%%%%%%%%%%%%%...%%%%%%%%%%%%%%%%%%%%%%%%%%%%%%  */
0xFF,0xFF,0xFE,0x1F,0xFF,0xFF,0xFF,  /*  %%%%%%%%%%%%%%%%%%%%%%%....%%%%%%%%%%%%%%%%%%%%%%%%%%%%%  */
0xFF,0xFF,0xFE,0x0F,0xFF,0xFF,0xFF,  /*  %%%%%%%%%%%%%%%%%%%%%%%.....%%%%%%%%%%%%%%%%%%%%%%%%%%%%  */
0xFF,0xFF,0xFE,0x07,0xFF,0xFF,0xFF,  /*  %%%%%%%%%%%%%%%%%%%%%%%......%%%%%%%%%%%%%%%%%%%%%%%%%%%  */
0xFF,0xFF,0xFE,0x01,0xFF,0xFF,0xFF,  /*  %%%%%%%%%%%%%%%%%%%%%%%........%%%%%%%%%%%%%%%%%%%%%%%%%  */
0xFF,0xFF,0xFE,0x00,0xFF,0xFF,0xFF,  /*  %%%%%%%%%%%%%%%%%%%%%%%.........%%%%%%%%%%%%%%%%%%%%%%%%  */
0xFF,0xFF,0xFE,0x00,0x7F,0xFF,0xFF,  /*  %%%%%%%%%%%%%%%%%%%%%%%..........%%%%%%%%%%%%%%%%%%%%%%%  */
0x9F,0xFF,0xFE,0x00,0x3F,0xFF,0xFF,  /*  %..%%%%%%%%%%%%%%%%%%%%...........%%%%%%%%%%%%%%%%%%%%%%  */
0xC3,0xFF,0xFE,0x00,0x1F,0xFF,0xFF,  /*  %%....%%%%%%%%%%%%%%%%%............%%%%%%%%%%%%%%%%%%%%%  */
0xE0,0x7F,0xFE,0x00,0x07,0xFF,0xFF,  /*  %%%......%%%%%%%%%%%%%%..............%%%%%%%%%%%%%%%%%%%  */
0xF0,0x0F,0xFE,0x00,0x03,0xFF,0xFF,  /*  %%%%........%%%%%%%%%%%...............%%%%%%%%%%%%%%%%%%  */
0xFC,0x01,0xFE,0x00,0x01,0xFF,0xFF,  /*  %%%%%%.........%%%%%%%%................%%%%%%%%%%%%%%%%%  */
0xFE,0x00,0x3E,0x00,0x00,0xFF,0xFF,  /*  %%%%%%%...........%%%%%.................%%%%%%%%%%%%%%%%  */
0xFF,0x00,0x06,0x00,0x00,0x3F,0xFF,  /*  %%%%%%%%.............%%...................%%%%%%%%%%%%%%  */
0xFF,0x80,0x00,0x00,0x00,0x1F,0xFF,  /*  %%%%%%%%%..................................%%%%%%%%%%%%%  */
0xFF,0xE0,0x00,0x00,0x00,0x0F,0xFF,  /*  %%%%%%%%%%%.................................%%%%%%%%%%%%  */
0xFF,0xF0,0x00,0x00,0x00,0x07,0xFF,  /*  %%%%%%%%%%%%.................................%%%%%%%%%%%  */
0xFF,0xF8,0x00,0x00,0x00,0x01,0xFF,  /*  %%%%%%%%%%%%%..................................%%%%%%%%%  */
0xFF,0xFC,0x00,0x00,0x60,0x00,0xFF,  /*  %%%%%%%%%%%%%%...................%%.............%%%%%%%%  */
0xFF,0xFF,0x00,0x00,0x7C,0x00,0x7F,  /*  %%%%%%%%%%%%%%%%.................%%%%%...........%%%%%%%  */
0xFF,0xFF,0x80,0x00,0x7F,0x80,0x3F,  /*  %%%%%%%%%%%%%%%%%................%%%%%%%%.........%%%%%%  */
0xFF,0xFF,0xC0,0x00,0x7F,0xF0,0x0F,  /*  %%%%%%%%%%%%%%%%%%...............%%%%%%%%%%%........%%%%  */
0xFF,0xFF,0xE0,0x00,0x7F,0xFE,0x07,  /*  %%%%%%%%%%%%%%%%%%%..............%%%%%%%%%%%%%%......%%%  */
0xFF,0xFF,0xF8,0x00,0x7F,0xFF,0xC3,  /*  %%%%%%%%%%%%%%%%%%%%%............%%%%%%%%%%%%%%%%%....%%  */
0xFF,0xFF,0xFC,0x00,0x7F,0xFF,0xF9,  /*  %%%%%%%%%%%%%%%%%%%%%%...........%%%%%%%%%%%%%%%%%%%%..%  */
0xFF,0xFF,0xFE,0x00,0x7F,0xFF,0xFF,  /*  %%%%%%%%%%%%%%%%%%%%%%%..........%%%%%%%%%%%%%%%%%%%%%%%  */
0xFF,0xFF,0xFF,0x00,0x7F,0xFF,0xFF,  /*  %%%%%%%%%%%%%%%%%%%%%%%%.........%%%%%%%%%%%%%%%%%%%%%%%  */
0xFF,0xFF,0xFF,0xC0,0x7F,0xFF,0xFF,  /*  %%%%%%%%%%%%%%%%%%%%%%%%%%.......%%%%%%%%%%%%%%%%%%%%%%%  */
0xFF,0xFF,0xFF,0xE0,0x7F,0xFF,0xFF,  /*  %%%%%%%%%%%%%%%%%%%%%%%%%%%......%%%%%%%%%%%%%%%%%%%%%%%  */
0xFF,0xFF,0xFF,0xF0,0x7F,0xFF,0xFF,  /*  %%%%%%%%%%%%%%%%%%%%%%%%%%%%.....%%%%%%%%%%%%%%%%%%%%%%%  */
0xFF,0xFF,0xFF,0xF8,0x7F,0xFF,0xFF,  /*  %%%%%%%%%%%%%%%%%%%%%%%%%%%%%....%%%%%%%%%%%%%%%%%%%%%%%  */
0xFF,0xFF,0xFF,0xFE,0x7F,0xFF,0xFF,  /*  %%%%%%%%%%%%%%%%%%%%%%%%%%%%%%%..%%%%%%%%%%%%%%%%%%%%%%%  */
0xFF,0xFF,0xFF,0xFF,0x7F,0xFF,0xFF   /*  %%%%%%%%%%%%%%%%%%%%%%%%%%%%%%%%.%%%%%%%%%%%%%%%%%%%%%%%  */
}}

