/*V R C 4 256 3 3 2 8  00FFDBDB 00000000 0 00000000  BigBatteryChargingbar3on.sym   LCDIcon FileDescriptor: Do not edit or move */
/* Put Your Comments Here */
/* */
/* */
/* */
/* */
/* */
/* */
/* */
/* */
/* */
/* */
/* */
/* */
/* */
/* */
/* */
/* */
/* */
/* */
/* */
/* */


/* Element 0xFFFFFFFF - Char 0xFFFFFFFF */
{{ 0, 0x08, 32, 61 },{
0x79,
0x79,
0x79,
0x79,
0x79,
0x79,
0x79,
0x79,
0x79,
0x79,
0x79,
0x79,
0x79,
0x79,
0x79,
0x79,
0x79,
0x79,
0x79,
0x79,
0x79,
0x79,
0x79,
0x79,
0x79,
0x79,
0x70,
0x28,
0x00,
0x00,
0x00,
0x00,
0x79,
0x79,
0x79,
0x79,
0x79,
0x79,
0x79,
0x79,
0x79,
0x79,
0x79,
0x79,
0x79,
0x79,
0x79,
0x79,
0x79,
0x79,
0x79,
0x79,
0x79,
0x79,
0x79,
0x79,
0x79,
0x79,
0x79,
0x79,
0x74,
0x04,
0x00,
0x00,
0x79,
0x79,
0x79,
0x79,
0x79,
0x79,
0x79,
0x79,
0x79,
0x79,
0x79,
0x79,
0x79,
0x79,
0x79,
0x79,
0x79,
0x79,
0x79,
0x79,
0x79,
0x79,
0x79,
0x79,
0x79,
0x79,
0x79,
0x79,
0x79,
0x75,
0x04,
0x00,
0x79,
0x79,
0x79,
0x79,
0x79,
0x79,
0x79,
0x79,
0x79,
0x79,
0x79,
0x79,
0x79,
0x79,
0x79,
0x79,
0x79,
0x79,
0x79,
0x79,
0x79,
0x79,
0x79,
0x79,
0x79,
0x79,
0x79,
0x79,
0x79,
0x79,
0x74,
0x00,
0x79,
0x79,
0x79,
0x79,
0x79,
0x79,
0x79,
0x79,
0x79,
0x79,
0x79,
0x79,
0x79,
0x79,
0x79,
0x79,
0x79,
0x79,
0x79,
0x79,
0x79,
0x79,
0x79,
0x79,
0x79,
0x79,
0x79,
0x79,
0x79,
0x79,
0x79,
0x28,
0x79,
0x79,
0x79,
0x79,
0x79,
0x79,
0x79,
0x79,
0x79,
0x79,
0x79,
0x79,
0x79,
0x79,
0x79,
0x79,
0x79,
0x79,
0x79,
0x79,
0x79,
0x79,
0x79,
0x79,
0x79,
0x79,
0x79,
0x79,
0x79,
0x79,
0x79,
0x70,
0x79,
0x79,
0x79,
0x79,
0x79,
0x79,
0x79,
0x79,
0x79,
0x79,
0x79,
0x79,
0x79,
0x79,
0x79,
0x79,
0x79,
0x79,
0x79,
0x79,
0x79,
0x79,
0x79,
0x79,
0x79,
0x79,
0x79,
0x79,
0x79,
0x79,
0x79,
0x79,
0x79,
0x79,
0x79,
0x79,
0x79,
0x79,
0x79,
0x79,
0x79,
0x79,
0x79,
0x79,
0x79,
0x79,
0x79,
0x79,
0x79,
0x79,
0x79,
0x79,
0x79,
0x79,
0x79,
0x79,
0x79,
0x79,
0x79,
0x79,
0x79,
0x79,
0x79,
0x79,
0x79,
0x79,
0x79,
0x79,
0x79,
0x79,
0x79,
0x79,
0x79,
0x79,
0x79,
0x79,
0x79,
0x79,
0x79,
0x79,
0x79,
0x79,
0x79,
0x79,
0x79,
0x79,
0x79,
0x79,
0x79,
0x79,
0x79,
0x79,
0x79,
0x79,
0x79,
0x79,
0x79,
0x79,
0x79,
0x79,
0x79,
0x79,
0x79,
0x79,
0x79,
0x79,
0x79,
0x79,
0x79,
0x79,
0x79,
0x79,
0x79,
0x79,
0x79,
0x79,
0x79,
0x79,
0x79,
0x79,
0x79,
0x79,
0x79,
0x79,
0x79,
0x79,
0x79,
0x79,
0x79,
0x79,
0x79,
0x79,
0x79,
0x79,
0x79,
0x79,
0x79,
0x79,
0x79,
0x79,
0x79,
0x79,
0x79,
0x79,
0x79,
0x79,
0x79,
0x79,
0x79,
0x79,
0x79,
0x79,
0x79,
0x79,
0x79,
0x79,
0x79,
0x79,
0x79,
0x79,
0x79,
0x79,
0x79,
0x79,
0x79,
0x79,
0x79,
0x79,
0x79,
0x79,
0x79,
0x79,
0x79,
0x79,
0x79,
0x79,
0x79,
0x79,
0x79,
0x79,
0x79,
0x79,
0x79,
0x79,
0x79,
0x79,
0x79,
0x79,
0x79,
0x79,
0x79,
0x79,
0x79,
0x79,
0x79,
0x79,
0x79,
0x79,
0x79,
0x79,
0x79,
0x79,
0x79,
0x79,
0x79,
0x79,
0x79,
0x79,
0x79,
0x79,
0x79,
0x79,
0x79,
0x79,
0x79,
0x79,
0x79,
0x79,
0x79,
0x79,
0x79,
0x79,
0x79,
0x79,
0x79,
0x79,
0x79,
0x79,
0x79,
0x79,
0x79,
0x79,
0x79,
0x79,
0x79,
0x79,
0x79,
0x79,
0x79,
0x79,
0x79,
0x79,
0x79,
0x79,
0x79,
0x79,
0x79,
0x79,
0x79,
0x79,
0x79,
0x79,
0x79,
0x79,
0x79,
0x79,
0x79,
0x79,
0x79,
0x79,
0x79,
0x79,
0x79,
0x79,
0x79,
0x79,
0x79,
0x79,
0x79,
0x79,
0x79,
0x79,
0x79,
0x79,
0x79,
0x79,
0x79,
0x79,
0x79,
0x79,
0x79,
0x79,
0x79,
0x79,
0x79,
0x79,
0x79,
0x79,
0x79,
0x79,
0x79,
0x79,
0x79,
0x79,
0x79,
0x79,
0x79,
0x79,
0x79,
0x79,
0x79,
0x79,
0x79,
0x79,
0x79,
0x79,
0x79,
0x79,
0x79,
0x79,
0x79,
0x79,
0x79,
0x79,
0x79,
0x79,
0x79,
0x79,
0x79,
0x79,
0x79,
0x79,
0x79,
0x79,
0x79,
0x79,
0x79,
0x79,
0x79,
0x79,
0x79,
0x79,
0x79,
0x79,
0x79,
0x79,
0x79,
0x79,
0x79,
0x79,
0x79,
0x79,
0x79,
0x79,
0x79,
0x79,
0x79,
0x79,
0x79,
0x79,
0x79,
0x79,
0x79,
0x79,
0x79,
0x79,
0x79,
0x79,
0x79,
0x79,
0x79,
0x79,
0x79,
0x79,
0x79,
0x79,
0x79,
0x79,
0x79,
0x79,
0x79,
0x79,
0x79,
0x79,
0x79,
0x79,
0x79,
0x79,
0x79,
0x79,
0x79,
0x79,
0x79,
0x79,
0x79,
0x79,
0x79,
0x79,
0x79,
0x79,
0x79,
0x79,
0x79,
0x79,
0x79,
0x79,
0x79,
0x79,
0x79,
0x79,
0x79,
0x79,
0x79,
0x79,
0x79,
0x79,
0x79,
0x79,
0x79,
0x79,
0x79,
0x79,
0x79,
0x79,
0x79,
0x79,
0xFF,
0xFF,
0xFF,
0xFF,
0xFF,
0xFF,
0xFF,
0xFF,
0xFF,
0xFF,
0xDF,
0x79,
0x79,
0x79,
0x79,
0x79,
0x79,
0x79,
0x79,
0x79,
0x79,
0x79,
0x79,
0x79,
0x79,
0x79,
0x79,
0x79,
0x79,
0x79,
0x79,
0x79,
0xFF,
0xFF,
0xFF,
0xFF,
0xFF,
0xFF,
0xFF,
0xFF,
0xFF,
0xFF,
0x99,
0x79,
0x79,
0x79,
0x79,
0x79,
0x79,
0x79,
0x79,
0x79,
0x79,
0x79,
0x79,
0x79,
0x79,
0x79,
0x79,
0x79,
0x79,
0x79,
0x79,
0x79,
0xFF,
0xFF,
0xFF,
0xFF,
0xFF,
0xFF,
0xFF,
0xFF,
0xFF,
0x99,
0x79,
0x79,
0x79,
0x79,
0x79,
0x79,
0x79,
0x79,
0x79,
0x79,
0x79,
0x79,
0x79,
0x79,
0x79,
0x79,
0x79,
0x79,
0x79,
0x79,
0x79,
0x79,
0xFF,
0xFF,
0xFF,
0xFF,
0xFF,
0xFF,
0xFF,
0xFF,
0xBA,
0x79,
0x79,
0x79,
0x79,
0x79,
0x79,
0x79,
0x79,
0x79,
0x79,
0x79,
0x79,
0x79,
0x79,
0x79,
0x79,
0x79,
0x79,
0x79,
0x79,
0x79,
0x79,
0x79,
0xFF,
0xFF,
0xFF,
0xFF,
0xFF,
0xFF,
0xFF,
0xDA,
0x79,
0x79,
0x79,
0x79,
0x79,
0x79,
0x79,
0x79,
0x79,
0x79,
0x79,
0x79,
0x79,
0x79,
0x79,
0x79,
0x79,
0x79,
0x79,
0x79,
0x79,
0x79,
0x79,
0x79,
0xFF,
0xFF,
0xFF,
0xFF,
0xFF,
0xFF,
0xDF,
0x79,
0x79,
0x79,
0x79,
0x79,
0x79,
0x79,
0x79,
0x79,
0x79,
0x79,
0x79,
0x79,
0x79,
0x79,
0x79,
0x79,
0x79,
0x79,
0x79,
0x79,
0x79,
0x79,
0x79,
0x79,
0xFF,
0xFF,
0xFF,
0xFF,
0xFF,
0xFF,
0x99,
0x79,
0x79,
0x79,
0x79,
0x79,
0x79,
0x79,
0x79,
0x79,
0x79,
0x79,
0x79,
0x79,
0x79,
0x79,
0x79,
0x79,
0x79,
0x79,
0x79,
0x79,
0x79,
0x79,
0x79,
0x79,
0xFF,
0xFF,
0xFF,
0xFF,
0xFF,
0x99,
0x79,
0x79,
0x79,
0x79,
0x79,
0x79,
0x79,
0x79,
0x79,
0x79,
0x79,
0x79,
0x79,
0x79,
0x79,
0x79,
0x79,
0x79,
0x79,
0x79,
0x79,
0x79,
0x79,
0x79,
0x79,
0x79,
0xFF,
0xFF,
0xFF,
0xFF,
0xBA,
0x79,
0x79,
0x79,
0x79,
0x79,
0x79,
0x79,
0x79,
0x79,
0x79,
0x79,
0x79,
0x79,
0x79,
0x79,
0x79,
0x79,
0x79,
0x79,
0x79,
0x79,
0x79,
0x79,
0x79,
0x79,
0x79,
0x79,
0xFF,
0xFF,
0xFF,
0xBA,
0x79,
0x79,
0x79,
0x79,
0x79,
0x79,
0x79,
0x79,
0x79,
0x79,
0x79,
0x79,
0x79,
0x79,
0x79,
0x79,
0x79,
0x79,
0x79,
0x79,
0x79,
0x79,
0x79,
0x79,
0x79,
0x79,
0x79,
0x79,
0xFF,
0xFF,
0xDF,
0x79,
0x79,
0x79,
0x79,
0x79,
0x79,
0x79,
0x79,
0x79,
0x79,
0x79,
0x79,
0x79,
0x79,
0x79,
0x79,
0x79,
0x79,
0x79,
0x79,
0x79,
0x79,
0x79,
0x79,
0x79,
0x79,
0x79,
0x79,
0x79,
0xFF,
0xDF,
0x99,
0x79,
0x79,
0x79,
0x79,
0x79,
0x79,
0x79,
0x79,
0x79,
0x79,
0x79,
0x79,
0x79,
0x79,
0x79,
0x79,
0x79,
0x79,
0x79,
0x79,
0x79,
0x79,
0x79,
0x79,
0x79,
0x79,
0x79,
0x79,
0x79,
0xDB,
0x99,
0x79,
0x79,
0x79,
0x79,
0x79,
0x79,
0x79,
0x79,
0x79,
0x79,
0x79,
0x79,
0x79,
0x79,
0x79,
0x79,
0x79,
0x79,
0x79,
0x79,
0x79,
0x79,
0x79,
0x79,
0x79,
0x79,
0x79,
0x79,
0x79,
0x79,
0x79,
0x79,
0x79,
0x79,
0x79,
0x79,
0x79,
0x79,
0x79,
0x79,
0x79,
0x79,
0x79,
0x79,
0x79,
0x79,
0x79,
0x79,
0x79,
0x79,
0x79,
0x79,
0x79,
0x79,
0x79,
0x79,
0x79,
0x79,
0x79,
0x79,
0x79,
0x79,
0x79,
0x79,
0x79,
0x79,
0x79,
0x79,
0x79,
0x79,
0x79,
0x79,
0x79,
0x79,
0x79,
0x79,
0x79,
0x79,
0x79,
0x79,
0x79,
0x79,
0x79,
0x79,
0x79,
0x79,
0x79,
0x79,
0x79,
0x79,
0x79,
0x79,
0x79,
0x79,
0x79,
0x79,
0x79,
0x79,
0x79,
0x79,
0x79,
0x79,
0x79,
0x79,
0x79,
0x79,
0x79,
0x79,
0x79,
0x79,
0x79,
0x79,
0x79,
0x79,
0x79,
0x79,
0x79,
0x79,
0x79,
0x79,
0x79,
0x79,
0x79,
0x79,
0x79,
0x79,
0x79,
0x79,
0x79,
0x79,
0x79,
0x79,
0x79,
0x79,
0x79,
0x79,
0x79,
0x79,
0x79,
0x79,
0x79,
0x79,
0x79,
0x79,
0x79,
0x79,
0x79,
0x79,
0x79,
0x79,
0x79,
0x79,
0x79,
0x79,
0x79,
0x79,
0x79,
0x79,
0x79,
0x79,
0x79,
0x79,
0x79,
0x79,
0x79,
0x79,
0x79,
0x79,
0x79,
0x79,
0x79,
0x79,
0x79,
0x79,
0x79,
0x79,
0x79,
0x79,
0x79,
0x79,
0x79,
0x79,
0x79,
0x79,
0x79,
0x79,
0x79,
0x79,
0x79,
0x79,
0x79,
0x79,
0x79,
0x79,
0x79,
0x79,
0x79,
0x79,
0x79,
0x79,
0x79,
0x79,
0x79,
0x79,
0x79,
0x79,
0x79,
0x79,
0x79,
0x79,
0x79,
0x79,
0x79,
0x79,
0x79,
0x79,
0x79,
0x79,
0x79,
0x79,
0x79,
0x79,
0x79,
0x79,
0x79,
0x79,
0x79,
0x79,
0x79,
0x79,
0x79,
0x79,
0x79,
0x79,
0x79,
0x79,
0x79,
0x79,
0x79,
0x79,
0x79,
0x79,
0x79,
0x79,
0x79,
0x79,
0x79,
0x79,
0x79,
0x79,
0x79,
0x79,
0x79,
0x79,
0x79,
0x79,
0x79,
0x79,
0x79,
0x79,
0x79,
0x79,
0x79,
0x79,
0x79,
0x79,
0x79,
0x79,
0x79,
0x79,
0x79,
0x79,
0x79,
0x79,
0x79,
0x79,
0x79,
0x79,
0x79,
0x79,
0x79,
0x79,
0x79,
0x79,
0x79,
0x79,
0x79,
0x79,
0x79,
0x79,
0x79,
0x79,
0x79,
0x79,
0x79,
0x79,
0x79,
0x79,
0x79,
0x79,
0x79,
0x79,
0x79,
0x79,
0x79,
0x79,
0x79,
0x79,
0x79,
0x79,
0x79,
0x79,
0x79,
0x79,
0x79,
0x79,
0x79,
0x79,
0x79,
0x79,
0x79,
0x79,
0x79,
0x79,
0x79,
0x79,
0x79,
0x79,
0x79,
0x79,
0x79,
0x79,
0x79,
0x79,
0x79,
0x79,
0x79,
0x79,
0x79,
0x79,
0x79,
0x79,
0x79,
0x79,
0x79,
0x79,
0x79,
0x79,
0x79,
0x79,
0x79,
0x79,
0x79,
0x79,
0x79,
0x79,
0x79,
0x79,
0x79,
0x79,
0x79,
0x79,
0x79,
0x79,
0x79,
0x79,
0x79,
0x79,
0x79,
0x79,
0x79,
0x79,
0x79,
0x79,
0x79,
0x79,
0x79,
0x79,
0x79,
0x79,
0x79,
0x79,
0x79,
0x79,
0x79,
0x79,
0x79,
0x79,
0x79,
0x79,
0x79,
0x79,
0x79,
0x79,
0x79,
0x79,
0x79,
0x79,
0x79,
0x79,
0x79,
0x79,
0x79,
0x79,
0x79,
0x79,
0x79,
0x79,
0x79,
0x79,
0x79,
0x79,
0x79,
0x79,
0x79,
0x79,
0x79,
0x79,
0x79,
0x79,
0x79,
0x79,
0x79,
0x79,
0x79,
0x79,
0x79,
0x79,
0x79,
0x79,
0x79,
0x79,
0x79,
0x79,
0x79,
0x79,
0x79,
0x79,
0x79,
0x79,
0x79,
0x79,
0x79,
0x79,
0x79,
0x79,
0x79,
0x79,
0x79,
0x79,
0x79,
0x79,
0x79,
0x79,
0x79,
0x79,
0x79,
0x79,
0x79,
0x79,
0x79,
0x79,
0x79,
0x79,
0x79,
0x79,
0x79,
0x79,
0x79,
0x79,
0x79,
0x79,
0x79,
0x79,
0x79,
0x79,
0x79,
0x79,
0x79,
0x79,
0x79,
0x79,
0x79,
0x79,
0x79,
0x79,
0x79,
0x79,
0x79,
0x79,
0x79,
0x79,
0x79,
0x79,
0x79,
0x79,
0x79,
0x79,
0x79,
0x79,
0x79,
0x79,
0x79,
0x79,
0x79,
0x79,
0x79,
0x79,
0x79,
0x79,
0x79,
0x79,
0x79,
0x79,
0x79,
0x79,
0x79,
0x79,
0x79,
0x79,
0x79,
0x79,
0x79,
0x79,
0x79,
0x79,
0x79,
0x79,
0x79,
0x79,
0x79,
0x79,
0x79,
0x79,
0x79,
0x79,
0x79,
0x79,
0x79,
0x79,
0x79,
0x79,
0x79,
0x79,
0x79,
0x79,
0x79,
0x79,
0x79,
0x79,
0x79,
0x79,
0x79,
0x79,
0x79,
0x79,
0x79,
0x79,
0x79,
0x79,
0x79,
0x79,
0x79,
0x79,
0x79,
0x79,
0x79,
0x79,
0x79,
0x79,
0x79,
0x79,
0x79,
0x79,
0x79,
0x79,
0x79,
0x79,
0x79,
0x79,
0x79,
0x79,
0x79,
0x79,
0x79,
0x79,
0x79,
0x79,
0x79,
0x79,
0x79,
0x79,
0x79,
0x79,
0x79,
0x79,
0x79,
0x79,
0x79,
0x79,
0x79,
0x79,
0x79,
0x79,
0x79,
0x79,
0x79,
0x79,
0x79,
0x79,
0x79,
0x79,
0x79,
0x79,
0x79,
0x79,
0x79,
0x79,
0x79,
0x79,
0x79,
0x79,
0x79,
0x79,
0x79,
0x79,
0x79,
0x79,
0x79,
0x79,
0x79,
0x79,
0x79,
0x79,
0x79,
0x79,
0x79,
0x79,
0x79,
0x79,
0x79,
0x79,
0x79,
0x79,
0x79,
0x79,
0x79,
0x79,
0x79,
0x79,
0x79,
0x79,
0x79,
0x79,
0x79,
0x79,
0x79,
0x79,
0x79,
0x79,
0x79,
0x79,
0x79,
0x79,
0x79,
0x79,
0x79,
0x79,
0x79,
0x79,
0x79,
0x79,
0x79,
0x79,
0x79,
0x79,
0x79,
0x79,
0x79,
0x79,
0x79,
0x79,
0x79,
0x79,
0x79,
0x79,
0x79,
0x79,
0x79,
0x79,
0x79,
0x79,
0x79,
0x79,
0x79,
0x79,
0x79,
0x79,
0x79,
0x79,
0x79,
0x79,
0x79,
0x79,
0x79,
0x79,
0x79,
0x79,
0x79,
0x79,
0x79,
0x79,
0x79,
0x79,
0x79,
0x79,
0x79,
0x79,
0x79,
0x79,
0x79,
0x79,
0x79,
0x79,
0x79,
0x79,
0x79,
0x79,
0x79,
0x79,
0x79,
0x79,
0x79,
0x79,
0x79,
0x79,
0x79,
0x79,
0x79,
0x79,
0x79,
0x79,
0x79,
0x79,
0x79,
0x79,
0x79,
0x79,
0x79,
0x79,
0x79,
0x79,
0x79,
0x79,
0x79,
0x79,
0x79,
0x79,
0x79,
0x79,
0x79,
0x79,
0x79,
0x79,
0x79,
0x79,
0x79,
0x79,
0x79,
0x79,
0x79,
0x79,
0x79,
0x79,
0x79,
0x79,
0x79,
0x79,
0x79,
0x79,
0x79,
0x79,
0x79,
0x79,
0x79,
0x79,
0x79,
0x79,
0x79,
0x79,
0x79,
0x79,
0x79,
0x79,
0x79,
0x79,
0x79,
0x79,
0x79,
0x79,
0x79,
0x79,
0x79,
0x79,
0x79,
0x79,
0x79,
0x79,
0x79,
0x79,
0x79,
0x79,
0x79,
0x79,
0x79,
0x79,
0x79,
0x79,
0x79,
0x79,
0x79,
0x79,
0x79,
0x79,
0x79,
0x79,
0x79,
0x79,
0x79,
0x50,
0x79,
0x79,
0x79,
0x79,
0x79,
0x79,
0x79,
0x79,
0x79,
0x79,
0x79,
0x79,
0x79,
0x79,
0x79,
0x79,
0x79,
0x79,
0x79,
0x79,
0x79,
0x79,
0x79,
0x79,
0x79,
0x79,
0x79,
0x79,
0x79,
0x79,
0x79,
0x24,
0x79,
0x79,
0x79,
0x79,
0x79,
0x79,
0x79,
0x79,
0x79,
0x79,
0x79,
0x79,
0x79,
0x79,
0x79,
0x79,
0x79,
0x79,
0x79,
0x79,
0x79,
0x79,
0x79,
0x79,
0x79,
0x79,
0x79,
0x79,
0x79,
0x79,
0x4C,
0x00,
0x79,
0x79,
0x79,
0x79,
0x79,
0x79,
0x79,
0x79,
0x79,
0x79,
0x79,
0x79,
0x79,
0x79,
0x79,
0x79,
0x79,
0x79,
0x79,
0x79,
0x79,
0x79,
0x79,
0x79,
0x79,
0x79,
0x79,
0x79,
0x79,
0x4C,
0x00,
0x00,
0x79,
0x79,
0x79,
0x79,
0x79,
0x79,
0x79,
0x79,
0x79,
0x79,
0x79,
0x79,
0x79,
0x79,
0x79,
0x79,
0x79,
0x79,
0x79,
0x79,
0x79,
0x79,
0x79,
0x79,
0x79,
0x79,
0x79,
0x50,
0x24,
0x00,
0x00,
0x00
}}
