/*X 8  FHR_numbers_3_BW.sym   LCDIcon FileDescriptor: Do not edit or move */
/* Put Your Comments Here */
/* */
/* */
/* */
/* */
/* */
/* */
/* */
/* */
/* */
/* */
/* */
/* */
/* */
/* */
/* */
/* */
/* */
/* */
/* */
/* */

/* Element 0x0000 - Char 0x0000 */
{{46, 75},{
0xFF,0xFF,0xFF,0xFF,0xFF,0xFC,  /*  %%%%%%%%%%%%%%%%%%%%%%%%%%%%%%%%%%%%%%%%%%%%%%..  */
0xFF,0xFF,0xFF,0xFF,0xFF,0xFC,  /*  %%%%%%%%%%%%%%%%%%%%%%%%%%%%%%%%%%%%%%%%%%%%%%..  */
0xFF,0xFF,0xFF,0xFF,0xFF,0xFC,  /*  %%%%%%%%%%%%%%%%%%%%%%%%%%%%%%%%%%%%%%%%%%%%%%..  */
0xFF,0xFF,0xFF,0xFF,0xFF,0xFC,  /*  %%%%%%%%%%%%%%%%%%%%%%%%%%%%%%%%%%%%%%%%%%%%%%..  */
0xFF,0xFF,0xFF,0xFF,0xFF,0xFC,  /*  %%%%%%%%%%%%%%%%%%%%%%%%%%%%%%%%%%%%%%%%%%%%%%..  */
0xFF,0xFF,0xFF,0xFF,0xFF,0xFC,  /*  %%%%%%%%%%%%%%%%%%%%%%%%%%%%%%%%%%%%%%%%%%%%%%..  */
0xFF,0xFF,0xFF,0xFF,0xFF,0xFC,  /*  %%%%%%%%%%%%%%%%%%%%%%%%%%%%%%%%%%%%%%%%%%%%%%..  */
0xFF,0xFF,0xFF,0xFF,0xFF,0xFC,  /*  %%%%%%%%%%%%%%%%%%%%%%%%%%%%%%%%%%%%%%%%%%%%%%..  */
0xFF,0xFF,0xFF,0xFF,0xFF,0xFC,  /*  %%%%%%%%%%%%%%%%%%%%%%%%%%%%%%%%%%%%%%%%%%%%%%..  */
0xFF,0xFF,0xFF,0xFF,0xFF,0xFC,  /*  %%%%%%%%%%%%%%%%%%%%%%%%%%%%%%%%%%%%%%%%%%%%%%..  */
0xFF,0xF0,0x00,0x7F,0xFF,0xFC,  /*  %%%%%%%%%%%%.............%%%%%%%%%%%%%%%%%%%%%..  */
0xFF,0x00,0x00,0x0F,0xFF,0xFC,  /*  %%%%%%%%....................%%%%%%%%%%%%%%%%%%..  */
0xFC,0x00,0x00,0x03,0xFF,0xFC,  /*  %%%%%%........................%%%%%%%%%%%%%%%%..  */
0xFC,0x00,0x00,0x01,0xFF,0xFC,  /*  %%%%%%.........................%%%%%%%%%%%%%%%..  */
0xFC,0x00,0x00,0x00,0x7F,0xFC,  /*  %%%%%%...........................%%%%%%%%%%%%%..  */
0xFC,0x00,0x00,0x00,0x7F,0xFC,  /*  %%%%%%...........................%%%%%%%%%%%%%..  */
0xFC,0x00,0x00,0x00,0x3F,0xFC,  /*  %%%%%%............................%%%%%%%%%%%%..  */
0xFC,0x00,0x00,0x00,0x1F,0xFC,  /*  %%%%%%.............................%%%%%%%%%%%..  */
0xFC,0x00,0x00,0x00,0x1F,0xFC,  /*  %%%%%%.............................%%%%%%%%%%%..  */
0xFC,0x00,0x00,0x00,0x0F,0xFC,  /*  %%%%%%..............................%%%%%%%%%%..  */
0xFC,0x1F,0xF0,0x00,0x0F,0xFC,  /*  %%%%%%.....%%%%%%%%%................%%%%%%%%%%..  */
0xFC,0xFF,0xFC,0x00,0x0F,0xFC,  /*  %%%%%%..%%%%%%%%%%%%%%..............%%%%%%%%%%..  */
0xFF,0xFF,0xFE,0x00,0x07,0xFC,  /*  %%%%%%%%%%%%%%%%%%%%%%%..............%%%%%%%%%..  */
0xFF,0xFF,0xFE,0x00,0x07,0xFC,  /*  %%%%%%%%%%%%%%%%%%%%%%%..............%%%%%%%%%..  */
0xFF,0xFF,0xFF,0x00,0x07,0xFC,  /*  %%%%%%%%%%%%%%%%%%%%%%%%.............%%%%%%%%%..  */
0xFF,0xFF,0xFF,0x00,0x0F,0xFC,  /*  %%%%%%%%%%%%%%%%%%%%%%%%............%%%%%%%%%%..  */
0xFF,0xFF,0xFF,0x00,0x0F,0xFC,  /*  %%%%%%%%%%%%%%%%%%%%%%%%............%%%%%%%%%%..  */
0xFF,0xFF,0xFF,0x00,0x0F,0xFC,  /*  %%%%%%%%%%%%%%%%%%%%%%%%............%%%%%%%%%%..  */
0xFF,0xFF,0xFE,0x00,0x0F,0xFC,  /*  %%%%%%%%%%%%%%%%%%%%%%%.............%%%%%%%%%%..  */
0xFF,0xFF,0xFE,0x00,0x1F,0xFC,  /*  %%%%%%%%%%%%%%%%%%%%%%%............%%%%%%%%%%%..  */
0xFF,0xFF,0xFC,0x00,0x1F,0xFC,  /*  %%%%%%%%%%%%%%%%%%%%%%.............%%%%%%%%%%%..  */
0xFF,0xFF,0xF8,0x00,0x3F,0xFC,  /*  %%%%%%%%%%%%%%%%%%%%%.............%%%%%%%%%%%%..  */
0xFF,0xFF,0xE0,0x00,0x3F,0xFC,  /*  %%%%%%%%%%%%%%%%%%%...............%%%%%%%%%%%%..  */
0xFF,0xFF,0x00,0x00,0x7F,0xFC,  /*  %%%%%%%%%%%%%%%%.................%%%%%%%%%%%%%..  */
0xFF,0xFF,0x00,0x00,0xFF,0xFC,  /*  %%%%%%%%%%%%%%%%................%%%%%%%%%%%%%%..  */
0xFF,0xFF,0x00,0x01,0xFF,0xFC,  /*  %%%%%%%%%%%%%%%%...............%%%%%%%%%%%%%%%..  */
0xFF,0xFF,0x00,0x07,0xFF,0xFC,  /*  %%%%%%%%%%%%%%%%.............%%%%%%%%%%%%%%%%%..  */
0xFF,0xFF,0x00,0x03,0xFF,0xFC,  /*  %%%%%%%%%%%%%%%%..............%%%%%%%%%%%%%%%%..  */
0xFF,0xFF,0x00,0x01,0xFF,0xFC,  /*  %%%%%%%%%%%%%%%%...............%%%%%%%%%%%%%%%..  */
0xFF,0xFF,0x00,0x00,0x7F,0xFC,  /*  %%%%%%%%%%%%%%%%.................%%%%%%%%%%%%%..  */
0xFF,0xFF,0x00,0x00,0x3F,0xFC,  /*  %%%%%%%%%%%%%%%%..................%%%%%%%%%%%%..  */
0xFF,0xFF,0x00,0x00,0x1F,0xFC,  /*  %%%%%%%%%%%%%%%%...................%%%%%%%%%%%..  */
0xFF,0xFF,0x00,0x00,0x1F,0xFC,  /*  %%%%%%%%%%%%%%%%...................%%%%%%%%%%%..  */
0xFF,0xFF,0xE0,0x00,0x0F,0xFC,  /*  %%%%%%%%%%%%%%%%%%%.................%%%%%%%%%%..  */
0xFF,0xFF,0xF8,0x00,0x07,0xFC,  /*  %%%%%%%%%%%%%%%%%%%%%................%%%%%%%%%..  */
0xFF,0xFF,0xFE,0x00,0x07,0xFC,  /*  %%%%%%%%%%%%%%%%%%%%%%%..............%%%%%%%%%..  */
0xFF,0xFF,0xFE,0x00,0x07,0xFC,  /*  %%%%%%%%%%%%%%%%%%%%%%%..............%%%%%%%%%..  */
0xFF,0xFF,0xFF,0x00,0x03,0xFC,  /*  %%%%%%%%%%%%%%%%%%%%%%%%..............%%%%%%%%..  */
0xFF,0xFF,0xFF,0x00,0x03,0xFC,  /*  %%%%%%%%%%%%%%%%%%%%%%%%..............%%%%%%%%..  */
0xFF,0xFF,0xFF,0x80,0x03,0xFC,  /*  %%%%%%%%%%%%%%%%%%%%%%%%%.............%%%%%%%%..  */
0xFF,0xFF,0xFF,0x80,0x03,0xFC,  /*  %%%%%%%%%%%%%%%%%%%%%%%%%.............%%%%%%%%..  */
0xFF,0xFF,0xFF,0x80,0x03,0xFC,  /*  %%%%%%%%%%%%%%%%%%%%%%%%%.............%%%%%%%%..  */
0xFF,0xFF,0xFF,0x80,0x03,0xFC,  /*  %%%%%%%%%%%%%%%%%%%%%%%%%.............%%%%%%%%..  */
0xFF,0xFF,0xFF,0x00,0x03,0xFC,  /*  %%%%%%%%%%%%%%%%%%%%%%%%..............%%%%%%%%..  */
0xF3,0xFF,0xFF,0x00,0x03,0xFC,  /*  %%%%..%%%%%%%%%%%%%%%%%%..............%%%%%%%%..  */
0xF1,0xFF,0xFE,0x00,0x03,0xFC,  /*  %%%%...%%%%%%%%%%%%%%%%...............%%%%%%%%..  */
0xF0,0x7F,0xFC,0x00,0x07,0xFC,  /*  %%%%.....%%%%%%%%%%%%%...............%%%%%%%%%..  */
0xF0,0x0F,0xF0,0x00,0x07,0xFC,  /*  %%%%........%%%%%%%%.................%%%%%%%%%..  */
0xF0,0x00,0x00,0x00,0x07,0xFC,  /*  %%%%.................................%%%%%%%%%..  */
0xF0,0x00,0x00,0x00,0x0F,0xFC,  /*  %%%%................................%%%%%%%%%%..  */
0xF0,0x00,0x00,0x00,0x1F,0xFC,  /*  %%%%...............................%%%%%%%%%%%..  */
0xF0,0x00,0x00,0x00,0x1F,0xFC,  /*  %%%%...............................%%%%%%%%%%%..  */
0xF0,0x00,0x00,0x00,0x3F,0xFC,  /*  %%%%..............................%%%%%%%%%%%%..  */
0xF0,0x00,0x00,0x00,0x7F,0xFC,  /*  %%%%.............................%%%%%%%%%%%%%..  */
0xF0,0x00,0x00,0x01,0xFF,0xFC,  /*  %%%%...........................%%%%%%%%%%%%%%%..  */
0xFC,0x00,0x00,0x03,0xFF,0xFC,  /*  %%%%%%........................%%%%%%%%%%%%%%%%..  */
0xFF,0x00,0x00,0x0F,0xFF,0xFC,  /*  %%%%%%%%....................%%%%%%%%%%%%%%%%%%..  */
0xFF,0xF0,0x00,0xFF,0xFF,0xFC,  /*  %%%%%%%%%%%%............%%%%%%%%%%%%%%%%%%%%%%..  */
0xFF,0xFF,0xFF,0xFF,0xFF,0xFC,  /*  %%%%%%%%%%%%%%%%%%%%%%%%%%%%%%%%%%%%%%%%%%%%%%..  */
0xFF,0xFF,0xFF,0xFF,0xFF,0xFC,  /*  %%%%%%%%%%%%%%%%%%%%%%%%%%%%%%%%%%%%%%%%%%%%%%..  */
0xFF,0xFF,0xFF,0xFF,0xFF,0xFC,  /*  %%%%%%%%%%%%%%%%%%%%%%%%%%%%%%%%%%%%%%%%%%%%%%..  */
0xFF,0xFF,0xFF,0xFF,0xFF,0xFC,  /*  %%%%%%%%%%%%%%%%%%%%%%%%%%%%%%%%%%%%%%%%%%%%%%..  */
0xFF,0xFF,0xFF,0xFF,0xFF,0xFC,  /*  %%%%%%%%%%%%%%%%%%%%%%%%%%%%%%%%%%%%%%%%%%%%%%..  */
0xFF,0xFF,0xFF,0xFF,0xFF,0xFC,  /*  %%%%%%%%%%%%%%%%%%%%%%%%%%%%%%%%%%%%%%%%%%%%%%..  */
0xFF,0xFF,0xFF,0xFF,0xFF,0xFC   /*  %%%%%%%%%%%%%%%%%%%%%%%%%%%%%%%%%%%%%%%%%%%%%%..  */
}}

