/*V R C 4 256 3 3 2 8  00000000 FF55FF6D 0 FF000000  FHR_numbers_0_green_8bit_no_col_red.sym   LCDIcon FileDescriptor: Do not edit or move */
/* Put Your Comments Here */
/* */
/* */
/* */
/* */
/* */
/* */
/* */
/* */
/* */
/* */
/* */
/* */
/* */
/* */
/* */
/* */
/* */
/* */
/* */
/* */


/* Element 0xFFFFFFFF - Char 0xFFFFFFFF */
{{ 0, 0x08, 46, 75 },{
0x00,
0x00,
0x00,
0x00,
0x00,
0x00,
0x00,
0x00,
0x00,
0x00,
0x00,
0x00,
0x00,
0x00,
0x00,
0x00,
0x00,
0x00,
0x00,
0x00,
0x00,
0x00,
0x00,
0x00,
0x00,
0x00,
0x00,
0x00,
0x00,
0x00,
0x00,
0x00,
0x00,
0x00,
0x00,
0x00,
0x00,
0x00,
0x00,
0x00,
0x00,
0x00,
0x00,
0x00,
0x00,
0x00,
0x00,
0x00,
0x00,
0x00,
0x00,
0x00,
0x00,
0x00,
0x00,
0x00,
0x00,
0x00,
0x00,
0x00,
0x00,
0x00,
0x00,
0x00,
0x00,
0x00,
0x00,
0x00,
0x00,
0x00,
0x00,
0x00,
0x00,
0x00,
0x00,
0x00,
0x00,
0x00,
0x00,
0x00,
0x00,
0x00,
0x00,
0x00,
0x00,
0x00,
0x00,
0x00,
0x00,
0x00,
0x00,
0x00,
0x00,
0x00,
0x00,
0x00,
0x00,
0x00,
0x00,
0x00,
0x00,
0x00,
0x00,
0x00,
0x00,
0x00,
0x00,
0x00,
0x00,
0x00,
0x00,
0x00,
0x00,
0x00,
0x00,
0x00,
0x00,
0x00,
0x00,
0x00,
0x00,
0x00,
0x00,
0x00,
0x00,
0x00,
0x00,
0x00,
0x00,
0x00,
0x00,
0x00,
0x00,
0x00,
0x00,
0x00,
0x00,
0x00,
0x00,
0x00,
0x00,
0x00,
0x00,
0x00,
0x00,
0x00,
0x00,
0x00,
0x00,
0x00,
0x00,
0x00,
0x00,
0x00,
0x00,
0x00,
0x00,
0x00,
0x00,
0x00,
0x00,
0x00,
0x00,
0x00,
0x00,
0x00,
0x00,
0x00,
0x00,
0x00,
0x00,
0x00,
0x00,
0x00,
0x00,
0x00,
0x00,
0x00,
0x00,
0x00,
0x00,
0x00,
0x00,
0x00,
0x00,
0x00,
0x00,
0x00,
0x00,
0x00,
0x00,
0x00,
0x00,
0x00,
0x00,
0x00,
0x00,
0x00,
0x00,
0x00,
0x00,
0x00,
0x00,
0x00,
0x00,
0x00,
0x00,
0x00,
0x00,
0x00,
0x00,
0x00,
0x00,
0x00,
0x00,
0x00,
0x00,
0x00,
0x00,
0x00,
0x00,
0x00,
0x00,
0x00,
0x00,
0x00,
0x00,
0x00,
0x00,
0x00,
0x00,
0x00,
0x00,
0x00,
0x00,
0x00,
0x00,
0x00,
0x00,
0x00,
0x00,
0x00,
0x00,
0x00,
0x00,
0x00,
0x00,
0x00,
0x00,
0x00,
0x00,
0x00,
0x00,
0x00,
0x00,
0x00,
0x00,
0x00,
0x00,
0x00,
0x00,
0x00,
0x00,
0x00,
0x00,
0x00,
0x00,
0x00,
0x00,
0x00,
0x00,
0x00,
0x00,
0x00,
0x00,
0x00,
0x00,
0x00,
0x00,
0x00,
0x00,
0x00,
0x00,
0x00,
0x00,
0x00,
0x00,
0x00,
0x00,
0x00,
0x00,
0x00,
0x00,
0x00,
0x00,
0x00,
0x00,
0x00,
0x00,
0x00,
0x00,
0x00,
0x00,
0x00,
0x00,
0x00,
0x00,
0x00,
0x00,
0x00,
0x00,
0x00,
0x00,
0x00,
0x00,
0x00,
0x00,
0x00,
0x00,
0x00,
0x00,
0x00,
0x00,
0x00,
0x00,
0x00,
0x00,
0x00,
0x00,
0x00,
0x00,
0x00,
0x00,
0x00,
0x00,
0x00,
0x00,
0x00,
0x00,
0x00,
0x00,
0x00,
0x00,
0x00,
0x00,
0x00,
0x00,
0x00,
0x00,
0x00,
0x00,
0x00,
0x00,
0x00,
0x00,
0x00,
0x00,
0x00,
0x00,
0x00,
0x00,
0x00,
0x00,
0x00,
0x00,
0x00,
0x00,
0x00,
0x00,
0x00,
0x00,
0x00,
0x00,
0x00,
0x00,
0x00,
0x00,
0x00,
0x00,
0x00,
0x00,
0x00,
0x00,
0x00,
0x00,
0x00,
0x00,
0x00,
0x00,
0x00,
0x00,
0x00,
0x00,
0x00,
0x00,
0x00,
0x00,
0x00,
0x00,
0x00,
0x00,
0x00,
0x00,
0x00,
0x00,
0x00,
0x00,
0x00,
0x00,
0x00,
0x00,
0x00,
0x00,
0x00,
0x00,
0x00,
0x00,
0x00,
0x00,
0x00,
0x00,
0x00,
0x00,
0x00,
0x00,
0x00,
0x00,
0x00,
0x00,
0x00,
0x00,
0x00,
0x04,
0x2C,
0x50,
0x55,
0x79,
0x79,
0x79,
0x55,
0x50,
0x2C,
0x04,
0x00,
0x00,
0x00,
0x00,
0x00,
0x00,
0x00,
0x00,
0x00,
0x00,
0x00,
0x00,
0x00,
0x00,
0x00,
0x00,
0x00,
0x00,
0x00,
0x00,
0x00,
0x00,
0x00,
0x00,
0x00,
0x00,
0x00,
0x00,
0x00,
0x00,
0x00,
0x00,
0x00,
0x28,
0x59,
0x79,
0x79,
0x79,
0x79,
0x79,
0x79,
0x79,
0x79,
0x79,
0x79,
0x79,
0x59,
0x2C,
0x00,
0x00,
0x00,
0x00,
0x00,
0x00,
0x00,
0x00,
0x00,
0x00,
0x00,
0x00,
0x00,
0x00,
0x00,
0x00,
0x00,
0x00,
0x00,
0x00,
0x00,
0x00,
0x00,
0x00,
0x00,
0x00,
0x00,
0x00,
0x00,
0x04,
0x59,
0x79,
0x79,
0x79,
0x79,
0x79,
0x79,
0x79,
0x79,
0x79,
0x79,
0x79,
0x79,
0x79,
0x79,
0x79,
0x79,
0x28,
0x00,
0x00,
0x00,
0x00,
0x00,
0x00,
0x00,
0x00,
0x00,
0x00,
0x00,
0x00,
0x00,
0x00,
0x00,
0x00,
0x00,
0x00,
0x00,
0x00,
0x00,
0x00,
0x00,
0x00,
0x00,
0x00,
0x2C,
0x79,
0x79,
0x79,
0x79,
0x79,
0x79,
0x79,
0x79,
0x79,
0x79,
0x79,
0x79,
0x79,
0x79,
0x79,
0x79,
0x79,
0x79,
0x79,
0x50,
0x00,
0x00,
0x00,
0x00,
0x00,
0x00,
0x00,
0x00,
0x00,
0x00,
0x00,
0x00,
0x00,
0x00,
0x00,
0x00,
0x00,
0x00,
0x00,
0x00,
0x00,
0x00,
0x00,
0x00,
0x50,
0x79,
0x79,
0x79,
0x79,
0x79,
0x79,
0x79,
0x79,
0x79,
0x79,
0x79,
0x79,
0x79,
0x79,
0x79,
0x79,
0x79,
0x79,
0x79,
0x79,
0x79,
0x55,
0x00,
0x00,
0x00,
0x00,
0x00,
0x00,
0x00,
0x00,
0x00,
0x00,
0x00,
0x00,
0x00,
0x00,
0x00,
0x00,
0x00,
0x00,
0x00,
0x00,
0x00,
0x00,
0x50,
0x79,
0x79,
0x79,
0x79,
0x79,
0x79,
0x79,
0x79,
0x79,
0x79,
0x79,
0x79,
0x79,
0x79,
0x79,
0x79,
0x79,
0x79,
0x79,
0x79,
0x79,
0x79,
0x79,
0x55,
0x00,
0x00,
0x00,
0x00,
0x00,
0x00,
0x00,
0x00,
0x00,
0x00,
0x00,
0x00,
0x00,
0x00,
0x00,
0x00,
0x00,
0x00,
0x00,
0x00,
0x2C,
0x79,
0x79,
0x79,
0x79,
0x79,
0x79,
0x79,
0x79,
0x79,
0x79,
0x79,
0x79,
0x79,
0x79,
0x79,
0x79,
0x79,
0x79,
0x79,
0x79,
0x79,
0x79,
0x79,
0x79,
0x79,
0x2C,
0x00,
0x00,
0x00,
0x00,
0x00,
0x00,
0x00,
0x00,
0x00,
0x00,
0x00,
0x00,
0x00,
0x00,
0x00,
0x00,
0x00,
0x00,
0x04,
0x79,
0x79,
0x79,
0x79,
0x79,
0x79,
0x79,
0x79,
0x79,
0x79,
0x79,
0x79,
0x79,
0x79,
0x79,
0x79,
0x79,
0x79,
0x79,
0x79,
0x79,
0x79,
0x79,
0x79,
0x79,
0x79,
0x79,
0x28,
0x00,
0x00,
0x00,
0x00,
0x00,
0x00,
0x00,
0x00,
0x00,
0x00,
0x00,
0x00,
0x00,
0x00,
0x00,
0x00,
0x00,
0x59,
0x79,
0x79,
0x79,
0x79,
0x79,
0x79,
0x79,
0x79,
0x79,
0x79,
0x79,
0x79,
0x79,
0x79,
0x79,
0x79,
0x79,
0x79,
0x79,
0x79,
0x79,
0x79,
0x79,
0x79,
0x79,
0x79,
0x79,
0x79,
0x00,
0x00,
0x00,
0x00,
0x00,
0x00,
0x00,
0x00,
0x00,
0x00,
0x00,
0x00,
0x00,
0x00,
0x00,
0x00,
0x2C,
0x79,
0x79,
0x79,
0x79,
0x79,
0x79,
0x79,
0x79,
0x79,
0x79,
0x79,
0x79,
0x79,
0x79,
0x79,
0x79,
0x79,
0x79,
0x79,
0x79,
0x79,
0x79,
0x79,
0x79,
0x79,
0x79,
0x79,
0x79,
0x79,
0x2C,
0x00,
0x00,
0x00,
0x00,
0x00,
0x00,
0x00,
0x00,
0x00,
0x00,
0x00,
0x00,
0x00,
0x00,
0x00,
0x79,
0x79,
0x79,
0x79,
0x79,
0x79,
0x79,
0x79,
0x79,
0x79,
0x79,
0x79,
0x79,
0x55,
0x30,
0x2C,
0x30,
0x55,
0x79,
0x79,
0x79,
0x79,
0x79,
0x79,
0x79,
0x79,
0x79,
0x79,
0x79,
0x79,
0x79,
0x00,
0x00,
0x00,
0x00,
0x00,
0x00,
0x00,
0x00,
0x00,
0x00,
0x00,
0x00,
0x00,
0x00,
0x2C,
0x79,
0x79,
0x79,
0x79,
0x79,
0x79,
0x79,
0x79,
0x79,
0x79,
0x79,
0x79,
0x2C,
0x00,
0x00,
0x00,
0x00,
0x00,
0x2C,
0x79,
0x79,
0x79,
0x79,
0x79,
0x79,
0x79,
0x79,
0x79,
0x79,
0x79,
0x79,
0x2C,
0x00,
0x00,
0x00,
0x00,
0x00,
0x00,
0x00,
0x00,
0x00,
0x00,
0x00,
0x00,
0x00,
0x55,
0x79,
0x79,
0x79,
0x79,
0x79,
0x79,
0x79,
0x79,
0x79,
0x79,
0x79,
0x30,
0x00,
0x00,
0x00,
0x00,
0x00,
0x00,
0x00,
0x2C,
0x79,
0x79,
0x79,
0x79,
0x79,
0x79,
0x79,
0x79,
0x79,
0x79,
0x79,
0x55,
0x00,
0x00,
0x00,
0x00,
0x00,
0x00,
0x00,
0x00,
0x00,
0x00,
0x00,
0x00,
0x04,
0x79,
0x79,
0x79,
0x79,
0x79,
0x79,
0x79,
0x79,
0x79,
0x79,
0x79,
0x59,
0x00,
0x00,
0x00,
0x00,
0x00,
0x00,
0x00,
0x00,
0x00,
0x55,
0x79,
0x79,
0x79,
0x79,
0x79,
0x79,
0x79,
0x79,
0x79,
0x79,
0x79,
0x04,
0x00,
0x00,
0x00,
0x00,
0x00,
0x00,
0x00,
0x00,
0x00,
0x00,
0x00,
0x2C,
0x79,
0x79,
0x79,
0x79,
0x79,
0x79,
0x79,
0x79,
0x79,
0x79,
0x79,
0x2C,
0x00,
0x00,
0x00,
0x00,
0x00,
0x00,
0x00,
0x00,
0x00,
0x2C,
0x79,
0x79,
0x79,
0x79,
0x79,
0x79,
0x79,
0x79,
0x79,
0x79,
0x79,
0x2C,
0x00,
0x00,
0x00,
0x00,
0x00,
0x00,
0x00,
0x00,
0x00,
0x00,
0x00,
0x55,
0x79,
0x79,
0x79,
0x79,
0x79,
0x79,
0x79,
0x79,
0x79,
0x79,
0x79,
0x04,
0x00,
0x00,
0x00,
0x00,
0x00,
0x00,
0x00,
0x00,
0x00,
0x00,
0x79,
0x79,
0x79,
0x79,
0x79,
0x79,
0x79,
0x79,
0x79,
0x79,
0x79,
0x55,
0x00,
0x00,
0x00,
0x00,
0x00,
0x00,
0x00,
0x00,
0x00,
0x00,
0x00,
0x79,
0x79,
0x79,
0x79,
0x79,
0x79,
0x79,
0x79,
0x79,
0x79,
0x79,
0x59,
0x00,
0x00,
0x00,
0x00,
0x00,
0x00,
0x00,
0x00,
0x00,
0x00,
0x00,
0x55,
0x79,
0x79,
0x79,
0x79,
0x79,
0x79,
0x79,
0x79,
0x79,
0x79,
0x79,
0x00,
0x00,
0x00,
0x00,
0x00,
0x00,
0x00,
0x00,
0x00,
0x00,
0x28,
0x79,
0x79,
0x79,
0x79,
0x79,
0x79,
0x79,
0x79,
0x79,
0x79,
0x79,
0x50,
0x00,
0x00,
0x00,
0x00,
0x00,
0x00,
0x00,
0x00,
0x00,
0x00,
0x00,
0x50,
0x79,
0x79,
0x79,
0x79,
0x79,
0x79,
0x79,
0x79,
0x79,
0x79,
0x79,
0x28,
0x00,
0x00,
0x00,
0x00,
0x00,
0x00,
0x00,
0x00,
0x00,
0x2C,
0x79,
0x79,
0x79,
0x79,
0x79,
0x79,
0x79,
0x79,
0x79,
0x79,
0x79,
0x2C,
0x00,
0x00,
0x00,
0x00,
0x00,
0x00,
0x00,
0x00,
0x00,
0x00,
0x00,
0x2C,
0x79,
0x79,
0x79,
0x79,
0x79,
0x79,
0x79,
0x79,
0x79,
0x79,
0x79,
0x2C,
0x00,
0x00,
0x00,
0x00,
0x00,
0x00,
0x00,
0x00,
0x00,
0x50,
0x79,
0x79,
0x79,
0x79,
0x79,
0x79,
0x79,
0x79,
0x79,
0x79,
0x79,
0x2C,
0x00,
0x00,
0x00,
0x00,
0x00,
0x00,
0x00,
0x00,
0x00,
0x00,
0x00,
0x28,
0x79,
0x79,
0x79,
0x79,
0x79,
0x79,
0x79,
0x79,
0x79,
0x79,
0x79,
0x50,
0x00,
0x00,
0x00,
0x00,
0x00,
0x00,
0x00,
0x00,
0x00,
0x54,
0x59,
0x59,
0x59,
0x59,
0x59,
0x59,
0x59,
0x59,
0x59,
0x59,
0x59,
0x04,
0x00,
0x00,
0x00,
0x00,
0x00,
0x00,
0x00,
0x00,
0x00,
0x00,
0x00,
0x04,
0x59,
0x59,
0x59,
0x59,
0x59,
0x59,
0x59,
0x59,
0x59,
0x59,
0x59,
0x55,
0x00,
0x00,
0x00,
0x00,
0x00,
0x00,
0x00,
0x00,
0x00,
0x59,
0x59,
0x59,
0x59,
0x59,
0x59,
0x59,
0x59,
0x59,
0x59,
0x59,
0x59,
0x04,
0x00,
0x00,
0x00,
0x00,
0x00,
0x00,
0x00,
0x00,
0x00,
0x00,
0x00,
0x04,
0x59,
0x59,
0x59,
0x59,
0x59,
0x59,
0x59,
0x59,
0x59,
0x59,
0x59,
0x59,
0x00,
0x00,
0x00,
0x00,
0x00,
0x00,
0x00,
0x00,
0x00,
0x59,
0x59,
0x59,
0x59,
0x59,
0x59,
0x59,
0x59,
0x59,
0x59,
0x59,
0x59,
0x04,
0x00,
0x00,
0x00,
0x00,
0x00,
0x00,
0x00,
0x00,
0x00,
0x00,
0x00,
0x00,
0x59,
0x59,
0x59,
0x59,
0x59,
0x59,
0x59,
0x59,
0x59,
0x59,
0x59,
0x59,
0x00,
0x00,
0x00,
0x00,
0x00,
0x00,
0x00,
0x00,
0x04,
0x59,
0x59,
0x59,
0x59,
0x59,
0x59,
0x59,
0x59,
0x59,
0x59,
0x59,
0x59,
0x00,
0x00,
0x00,
0x00,
0x00,
0x00,
0x00,
0x00,
0x00,
0x00,
0x00,
0x00,
0x00,
0x59,
0x59,
0x59,
0x59,
0x59,
0x59,
0x59,
0x59,
0x59,
0x59,
0x59,
0x59,
0x04,
0x00,
0x00,
0x00,
0x00,
0x00,
0x00,
0x00,
0x04,
0x59,
0x59,
0x59,
0x59,
0x59,
0x59,
0x59,
0x59,
0x59,
0x59,
0x59,
0x59,
0x00,
0x00,
0x00,
0x00,
0x00,
0x00,
0x00,
0x00,
0x00,
0x00,
0x00,
0x00,
0x00,
0x59,
0x59,
0x59,
0x59,
0x59,
0x59,
0x59,
0x59,
0x59,
0x59,
0x59,
0x59,
0x04,
0x00,
0x00,
0x00,
0x00,
0x00,
0x00,
0x00,
0x08,
0x59,
0x59,
0x59,
0x59,
0x59,
0x59,
0x59,
0x59,
0x59,
0x59,
0x59,
0x59,
0x00,
0x00,
0x00,
0x00,
0x00,
0x00,
0x00,
0x00,
0x00,
0x00,
0x00,
0x00,
0x00,
0x59,
0x59,
0x59,
0x59,
0x59,
0x59,
0x59,
0x59,
0x59,
0x59,
0x59,
0x59,
0x28,
0x00,
0x00,
0x00,
0x00,
0x00,
0x00,
0x00,
0x2C,
0x59,
0x59,
0x59,
0x59,
0x59,
0x59,
0x59,
0x59,
0x59,
0x59,
0x59,
0x59,
0x00,
0x00,
0x00,
0x00,
0x00,
0x00,
0x00,
0x00,
0x00,
0x00,
0x00,
0x00,
0x00,
0x59,
0x59,
0x59,
0x59,
0x59,
0x59,
0x59,
0x59,
0x59,
0x59,
0x59,
0x59,
0x2C,
0x00,
0x00,
0x00,
0x00,
0x00,
0x00,
0x00,
0x2C,
0x59,
0x59,
0x59,
0x59,
0x59,
0x59,
0x59,
0x59,
0x59,
0x59,
0x59,
0x59,
0x00,
0x00,
0x00,
0x00,
0x00,
0x00,
0x00,
0x00,
0x00,
0x00,
0x00,
0x00,
0x00,
0x59,
0x59,
0x59,
0x59,
0x59,
0x59,
0x59,
0x59,
0x59,
0x59,
0x59,
0x59,
0x2C,
0x00,
0x00,
0x00,
0x00,
0x00,
0x00,
0x00,
0x2C,
0x59,
0x59,
0x59,
0x59,
0x59,
0x59,
0x59,
0x59,
0x59,
0x59,
0x59,
0x59,
0x00,
0x00,
0x00,
0x00,
0x00,
0x00,
0x00,
0x00,
0x00,
0x00,
0x00,
0x00,
0x00,
0x59,
0x59,
0x59,
0x59,
0x59,
0x59,
0x59,
0x59,
0x59,
0x59,
0x59,
0x59,
0x2C,
0x00,
0x00,
0x00,
0x00,
0x00,
0x00,
0x00,
0x2C,
0x59,
0x59,
0x59,
0x59,
0x59,
0x59,
0x59,
0x59,
0x59,
0x59,
0x59,
0x59,
0x00,
0x00,
0x00,
0x00,
0x00,
0x00,
0x00,
0x00,
0x00,
0x00,
0x00,
0x00,
0x00,
0x59,
0x59,
0x59,
0x59,
0x59,
0x59,
0x59,
0x59,
0x59,
0x59,
0x59,
0x59,
0x2C,
0x00,
0x00,
0x00,
0x00,
0x00,
0x00,
0x00,
0x2C,
0x59,
0x59,
0x59,
0x59,
0x59,
0x59,
0x59,
0x59,
0x59,
0x59,
0x59,
0x59,
0x00,
0x00,
0x00,
0x00,
0x00,
0x00,
0x00,
0x00,
0x00,
0x00,
0x00,
0x00,
0x00,
0x59,
0x59,
0x59,
0x59,
0x59,
0x59,
0x59,
0x59,
0x59,
0x59,
0x59,
0x59,
0x2C,
0x00,
0x00,
0x00,
0x00,
0x00,
0x00,
0x00,
0x2C,
0x59,
0x59,
0x59,
0x59,
0x59,
0x59,
0x59,
0x59,
0x59,
0x59,
0x59,
0x59,
0x00,
0x00,
0x00,
0x00,
0x00,
0x00,
0x00,
0x00,
0x00,
0x00,
0x00,
0x00,
0x00,
0x59,
0x59,
0x59,
0x59,
0x59,
0x59,
0x59,
0x59,
0x59,
0x59,
0x59,
0x59,
0x2C,
0x00,
0x00,
0x00,
0x00,
0x00,
0x00,
0x00,
0x08,
0x59,
0x59,
0x59,
0x59,
0x59,
0x59,
0x59,
0x59,
0x59,
0x59,
0x59,
0x59,
0x00,
0x00,
0x00,
0x00,
0x00,
0x00,
0x00,
0x00,
0x00,
0x00,
0x00,
0x00,
0x00,
0x59,
0x59,
0x59,
0x59,
0x59,
0x59,
0x59,
0x59,
0x59,
0x59,
0x59,
0x59,
0x04,
0x00,
0x00,
0x00,
0x00,
0x00,
0x00,
0x00,
0x04,
0x58,
0x58,
0x58,
0x58,
0x58,
0x58,
0x58,
0x58,
0x58,
0x58,
0x58,
0x58,
0x00,
0x00,
0x00,
0x00,
0x00,
0x00,
0x00,
0x00,
0x00,
0x00,
0x00,
0x00,
0x00,
0x58,
0x58,
0x58,
0x58,
0x58,
0x58,
0x58,
0x58,
0x58,
0x58,
0x58,
0x58,
0x04,
0x00,
0x00,
0x00,
0x00,
0x00,
0x00,
0x00,
0x04,
0x58,
0x58,
0x58,
0x58,
0x58,
0x58,
0x58,
0x58,
0x58,
0x58,
0x58,
0x58,
0x00,
0x00,
0x00,
0x00,
0x00,
0x00,
0x00,
0x00,
0x00,
0x00,
0x00,
0x00,
0x00,
0x58,
0x58,
0x58,
0x58,
0x58,
0x58,
0x58,
0x58,
0x58,
0x58,
0x58,
0x58,
0x04,
0x00,
0x00,
0x00,
0x00,
0x00,
0x00,
0x00,
0x00,
0x58,
0x58,
0x58,
0x58,
0x58,
0x58,
0x58,
0x58,
0x58,
0x58,
0x58,
0x58,
0x04,
0x00,
0x00,
0x00,
0x00,
0x00,
0x00,
0x00,
0x00,
0x00,
0x00,
0x00,
0x04,
0x58,
0x58,
0x58,
0x58,
0x58,
0x58,
0x58,
0x58,
0x58,
0x58,
0x58,
0x58,
0x00,
0x00,
0x00,
0x00,
0x00,
0x00,
0x00,
0x00,
0x00,
0x58,
0x58,
0x58,
0x58,
0x58,
0x58,
0x58,
0x58,
0x58,
0x58,
0x58,
0x58,
0x04,
0x00,
0x00,
0x00,
0x00,
0x00,
0x00,
0x00,
0x00,
0x00,
0x00,
0x00,
0x04,
0x58,
0x58,
0x58,
0x58,
0x58,
0x58,
0x58,
0x58,
0x58,
0x58,
0x58,
0x58,
0x00,
0x00,
0x00,
0x00,
0x00,
0x00,
0x00,
0x00,
0x00,
0x54,
0x58,
0x58,
0x58,
0x58,
0x58,
0x58,
0x58,
0x58,
0x58,
0x58,
0x58,
0x04,
0x00,
0x00,
0x00,
0x00,
0x00,
0x00,
0x00,
0x00,
0x00,
0x00,
0x00,
0x04,
0x58,
0x58,
0x58,
0x58,
0x58,
0x58,
0x58,
0x58,
0x58,
0x58,
0x58,
0x54,
0x00,
0x00,
0x00,
0x00,
0x00,
0x00,
0x00,
0x00,
0x00,
0x30,
0x58,
0x58,
0x58,
0x58,
0x58,
0x58,
0x58,
0x58,
0x58,
0x58,
0x58,
0x2C,
0x00,
0x00,
0x00,
0x00,
0x00,
0x00,
0x00,
0x00,
0x00,
0x00,
0x00,
0x2C,
0x58,
0x58,
0x58,
0x58,
0x58,
0x58,
0x58,
0x58,
0x58,
0x58,
0x58,
0x30,
0x00,
0x00,
0x00,
0x00,
0x00,
0x00,
0x00,
0x00,
0x00,
0x2C,
0x58,
0x58,
0x58,
0x58,
0x58,
0x58,
0x58,
0x58,
0x58,
0x58,
0x58,
0x2C,
0x00,
0x00,
0x00,
0x00,
0x00,
0x00,
0x00,
0x00,
0x00,
0x00,
0x00,
0x2C,
0x58,
0x58,
0x58,
0x58,
0x58,
0x58,
0x58,
0x58,
0x58,
0x58,
0x58,
0x2C,
0x00,
0x00,
0x00,
0x00,
0x00,
0x00,
0x00,
0x00,
0x00,
0x08,
0x58,
0x58,
0x58,
0x58,
0x58,
0x58,
0x58,
0x58,
0x58,
0x58,
0x58,
0x30,
0x00,
0x00,
0x00,
0x00,
0x00,
0x00,
0x00,
0x00,
0x00,
0x00,
0x00,
0x30,
0x58,
0x58,
0x58,
0x58,
0x58,
0x58,
0x58,
0x58,
0x58,
0x58,
0x58,
0x08,
0x00,
0x00,
0x00,
0x00,
0x00,
0x00,
0x00,
0x00,
0x00,
0x00,
0x58,
0x58,
0x58,
0x58,
0x58,
0x58,
0x58,
0x58,
0x58,
0x58,
0x58,
0x58,
0x00,
0x00,
0x00,
0x00,
0x00,
0x00,
0x00,
0x00,
0x00,
0x00,
0x00,
0x58,
0x58,
0x58,
0x58,
0x58,
0x58,
0x58,
0x58,
0x58,
0x58,
0x58,
0x58,
0x00,
0x00,
0x00,
0x00,
0x00,
0x00,
0x00,
0x00,
0x00,
0x00,
0x00,
0x34,
0x58,
0x58,
0x58,
0x58,
0x58,
0x58,
0x58,
0x58,
0x58,
0x58,
0x58,
0x08,
0x00,
0x00,
0x00,
0x00,
0x00,
0x00,
0x00,
0x00,
0x00,
0x04,
0x58,
0x58,
0x58,
0x58,
0x58,
0x58,
0x58,
0x58,
0x58,
0x58,
0x58,
0x54,
0x00,
0x00,
0x00,
0x00,
0x00,
0x00,
0x00,
0x00,
0x00,
0x00,
0x00,
0x2C,
0x58,
0x58,
0x58,
0x58,
0x58,
0x58,
0x58,
0x58,
0x58,
0x58,
0x58,
0x2C,
0x00,
0x00,
0x00,
0x00,
0x00,
0x00,
0x00,
0x00,
0x00,
0x2C,
0x58,
0x58,
0x58,
0x58,
0x58,
0x58,
0x58,
0x58,
0x58,
0x58,
0x58,
0x2C,
0x00,
0x00,
0x00,
0x00,
0x00,
0x00,
0x00,
0x00,
0x00,
0x00,
0x00,
0x04,
0x58,
0x58,
0x58,
0x58,
0x58,
0x58,
0x58,
0x58,
0x58,
0x58,
0x58,
0x58,
0x00,
0x00,
0x00,
0x00,
0x00,
0x00,
0x00,
0x00,
0x00,
0x54,
0x58,
0x58,
0x58,
0x58,
0x58,
0x58,
0x58,
0x58,
0x58,
0x58,
0x58,
0x08,
0x00,
0x00,
0x00,
0x00,
0x00,
0x00,
0x00,
0x00,
0x00,
0x00,
0x00,
0x00,
0x34,
0x58,
0x58,
0x58,
0x58,
0x58,
0x58,
0x58,
0x58,
0x58,
0x58,
0x58,
0x30,
0x00,
0x00,
0x00,
0x00,
0x00,
0x00,
0x00,
0x2C,
0x58,
0x58,
0x58,
0x58,
0x58,
0x58,
0x58,
0x58,
0x58,
0x58,
0x58,
0x54,
0x00,
0x00,
0x00,
0x00,
0x00,
0x00,
0x00,
0x00,
0x00,
0x00,
0x00,
0x00,
0x00,
0x28,
0x58,
0x58,
0x58,
0x58,
0x58,
0x58,
0x58,
0x58,
0x58,
0x58,
0x58,
0x58,
0x2C,
0x00,
0x00,
0x00,
0x00,
0x00,
0x2C,
0x58,
0x58,
0x58,
0x58,
0x58,
0x58,
0x58,
0x58,
0x58,
0x58,
0x58,
0x58,
0x28,
0x00,
0x00,
0x00,
0x00,
0x00,
0x00,
0x00,
0x00,
0x00,
0x00,
0x00,
0x00,
0x00,
0x00,
0x54,
0x58,
0x58,
0x58,
0x58,
0x58,
0x58,
0x58,
0x58,
0x58,
0x58,
0x58,
0x58,
0x54,
0x2C,
0x28,
0x2C,
0x34,
0x58,
0x58,
0x58,
0x58,
0x58,
0x58,
0x58,
0x58,
0x58,
0x58,
0x58,
0x58,
0x58,
0x00,
0x00,
0x00,
0x00,
0x00,
0x00,
0x00,
0x00,
0x00,
0x00,
0x00,
0x00,
0x00,
0x00,
0x00,
0x28,
0x58,
0x58,
0x58,
0x58,
0x58,
0x58,
0x58,
0x58,
0x58,
0x58,
0x58,
0x58,
0x58,
0x58,
0x58,
0x58,
0x58,
0x58,
0x58,
0x58,
0x58,
0x58,
0x58,
0x58,
0x58,
0x58,
0x58,
0x58,
0x58,
0x2C,
0x00,
0x00,
0x00,
0x00,
0x00,
0x00,
0x00,
0x00,
0x00,
0x00,
0x00,
0x00,
0x00,
0x00,
0x00,
0x00,
0x34,
0x58,
0x58,
0x58,
0x58,
0x58,
0x58,
0x58,
0x58,
0x58,
0x58,
0x58,
0x58,
0x58,
0x58,
0x58,
0x58,
0x58,
0x58,
0x58,
0x58,
0x58,
0x58,
0x58,
0x58,
0x58,
0x58,
0x58,
0x34,
0x00,
0x00,
0x00,
0x00,
0x00,
0x00,
0x00,
0x00,
0x00,
0x00,
0x00,
0x00,
0x00,
0x00,
0x00,
0x00,
0x00,
0x04,
0x58,
0x58,
0x58,
0x58,
0x58,
0x58,
0x58,
0x58,
0x58,
0x58,
0x58,
0x58,
0x58,
0x58,
0x58,
0x58,
0x58,
0x58,
0x58,
0x58,
0x58,
0x58,
0x58,
0x58,
0x58,
0x58,
0x58,
0x28,
0x00,
0x00,
0x00,
0x00,
0x00,
0x00,
0x00,
0x00,
0x00,
0x00,
0x00,
0x00,
0x00,
0x00,
0x00,
0x00,
0x00,
0x00,
0x2C,
0x58,
0x58,
0x58,
0x58,
0x58,
0x58,
0x58,
0x58,
0x58,
0x58,
0x58,
0x58,
0x58,
0x58,
0x58,
0x58,
0x58,
0x58,
0x58,
0x58,
0x58,
0x58,
0x58,
0x58,
0x58,
0x34,
0x00,
0x00,
0x00,
0x00,
0x00,
0x00,
0x00,
0x00,
0x00,
0x00,
0x00,
0x00,
0x00,
0x00,
0x00,
0x00,
0x00,
0x00,
0x00,
0x00,
0x30,
0x58,
0x58,
0x58,
0x58,
0x58,
0x58,
0x58,
0x58,
0x58,
0x58,
0x58,
0x58,
0x58,
0x58,
0x58,
0x58,
0x58,
0x58,
0x58,
0x58,
0x58,
0x58,
0x58,
0x34,
0x00,
0x00,
0x00,
0x00,
0x00,
0x00,
0x00,
0x00,
0x00,
0x00,
0x00,
0x00,
0x00,
0x00,
0x00,
0x00,
0x00,
0x00,
0x00,
0x00,
0x00,
0x00,
0x30,
0x58,
0x58,
0x58,
0x58,
0x58,
0x58,
0x58,
0x58,
0x58,
0x58,
0x58,
0x58,
0x58,
0x58,
0x58,
0x58,
0x58,
0x58,
0x58,
0x58,
0x58,
0x34,
0x04,
0x00,
0x00,
0x00,
0x00,
0x00,
0x00,
0x00,
0x00,
0x00,
0x00,
0x00,
0x00,
0x00,
0x00,
0x00,
0x00,
0x00,
0x00,
0x00,
0x00,
0x00,
0x00,
0x00,
0x2C,
0x58,
0x58,
0x58,
0x58,
0x58,
0x58,
0x58,
0x58,
0x58,
0x58,
0x58,
0x58,
0x58,
0x58,
0x58,
0x58,
0x58,
0x58,
0x58,
0x34,
0x00,
0x00,
0x00,
0x00,
0x00,
0x00,
0x00,
0x00,
0x00,
0x00,
0x00,
0x00,
0x00,
0x00,
0x00,
0x00,
0x00,
0x00,
0x00,
0x00,
0x00,
0x00,
0x00,
0x00,
0x00,
0x00,
0x08,
0x34,
0x58,
0x58,
0x58,
0x58,
0x58,
0x58,
0x58,
0x58,
0x58,
0x58,
0x58,
0x58,
0x58,
0x58,
0x58,
0x58,
0x2C,
0x00,
0x00,
0x00,
0x00,
0x00,
0x00,
0x00,
0x00,
0x00,
0x00,
0x00,
0x00,
0x00,
0x00,
0x00,
0x00,
0x00,
0x00,
0x00,
0x00,
0x00,
0x00,
0x00,
0x00,
0x00,
0x00,
0x00,
0x00,
0x00,
0x08,
0x34,
0x58,
0x58,
0x58,
0x58,
0x58,
0x58,
0x58,
0x58,
0x58,
0x58,
0x58,
0x34,
0x2C,
0x00,
0x00,
0x00,
0x00,
0x00,
0x00,
0x00,
0x00,
0x00,
0x00,
0x00,
0x00,
0x00,
0x00,
0x00,
0x00,
0x00,
0x00,
0x00,
0x00,
0x00,
0x00,
0x00,
0x00,
0x00,
0x00,
0x00,
0x00,
0x00,
0x00,
0x00,
0x00,
0x00,
0x04,
0x08,
0x2C,
0x30,
0x34,
0x58,
0x58,
0x30,
0x30,
0x08,
0x08,
0x00,
0x00,
0x00,
0x00,
0x00,
0x00,
0x00,
0x00,
0x00,
0x00,
0x00,
0x00,
0x00,
0x00,
0x00,
0x00,
0x00,
0x00,
0x00,
0x00,
0x00,
0x00,
0x00,
0x00,
0x00,
0x00,
0x00,
0x00,
0x00,
0x00,
0x00,
0x00,
0x00,
0x00,
0x00,
0x00,
0x00,
0x00,
0x00,
0x00,
0x00,
0x00,
0x00,
0x00,
0x00,
0x00,
0x00,
0x00,
0x00,
0x00,
0x00,
0x00,
0x00,
0x00,
0x00,
0x00,
0x00,
0x00,
0x00,
0x00,
0x00,
0x00,
0x00,
0x00,
0x00,
0x00,
0x00,
0x00,
0x00,
0x00,
0x00,
0x00,
0x00,
0x00,
0x00,
0x00,
0x00,
0x00,
0x00,
0x00,
0x00,
0x00,
0x00,
0x00,
0x00,
0x00,
0x00,
0x00,
0x00,
0x00,
0x00,
0x00,
0x00,
0x00,
0x00,
0x00,
0x00,
0x00,
0x00,
0x00,
0x00,
0x00,
0x00,
0x00,
0x00,
0x00,
0x00,
0x00,
0x00,
0x00,
0x00,
0x00,
0x00,
0x00,
0x00,
0x00,
0x00,
0x00,
0x00,
0x00,
0x00,
0x00,
0x00,
0x00,
0x00,
0x00,
0x00,
0x00,
0x00,
0x00,
0x00,
0x00,
0x00,
0x00,
0x00,
0x00,
0x00,
0x00,
0x00,
0x00,
0x00,
0x00,
0x00,
0x00,
0x00,
0x00,
0x00,
0x00,
0x00,
0x00,
0x00,
0x00,
0x00,
0x00,
0x00,
0x00,
0x00,
0x00,
0x00,
0x00,
0x00,
0x00,
0x00,
0x00,
0x00,
0x00,
0x00,
0x00,
0x00,
0x00,
0x00,
0x00,
0x00,
0x00,
0x00,
0x00,
0x00,
0x00,
0x00,
0x00,
0x00,
0x00,
0x00,
0x00,
0x00,
0x00,
0x00,
0x00,
0x00,
0x00,
0x00,
0x00,
0x00,
0x00,
0x00,
0x00,
0x00,
0x00,
0x00,
0x00,
0x00,
0x00,
0x00,
0x00,
0x00,
0x00,
0x00,
0x00,
0x00,
0x00,
0x00,
0x00,
0x00,
0x00,
0x00,
0x00,
0x00,
0x00,
0x00,
0x00,
0x00,
0x00,
0x00,
0x00,
0x00,
0x00,
0x00,
0x00,
0x00,
0x00,
0x00,
0x00,
0x00,
0x00,
0x00,
0x00,
0x00,
0x00,
0x00,
0x00,
0x00,
0x00,
0x00,
0x00,
0x00,
0x00,
0x00,
0x00,
0x00,
0x00,
0x00,
0x00,
0x00,
0x00,
0x00,
0x00,
0x00,
0x00,
0x00,
0x00,
0x00,
0x00,
0x00,
0x00,
0x00,
0x00,
0x00,
0x00,
0x00,
0x00,
0x00,
0x00,
0x00,
0x00,
0x00,
0x00,
0x00,
0x00,
0x00,
0x00,
0x00,
0x00,
0x00,
0x00,
0x00,
0x00,
0x00,
0x00,
0x00,
0x00,
0x00,
0x00,
0x00,
0x00,
0x00,
0x00,
0x00,
0x00,
0x00,
0x00,
0x00,
0x00,
0x00,
0x00,
0x00,
0x00,
0x00,
0x00,
0x00,
0x00,
0x00,
0x00,
0x00,
0x00,
0x00,
0x00,
0x00,
0x00,
0x00,
0x00,
0x00,
0x00,
0x00,
0x00,
0x00,
0x00,
0x00,
0x00,
0x00,
0x00,
0x00,
0x00,
0x00,
0x00,
0x00,
0x00,
0x00,
0x00,
0x00,
0x00,
0x00,
0x00,
0x00,
0x00,
0x00,
0x00,
0x00,
0x00,
0x00,
0x00,
0x00,
0x00,
0x00,
0x00,
0x00,
0x00,
0x00,
0x00,
0x00,
0x00,
0x00,
0x00,
0x00,
0x00,
0x00,
0x00,
0x00,
0x00,
0x00,
0x00,
0x00,
0x00,
0x00,
0x00,
0x00,
0x00,
0x00,
0x00,
0x00,
0x00,
0x00,
0x00,
0x00,
0x00,
0x00
}}
