/*V R C 4 256 3 3 2 8  00000000 FF000000 0 FFFFFFFF  Logo_color.sym   LCDIcon FileDescriptor: Do not edit or move */
/* Put Your Comments Here */
/* */
/* */
/* */
/* */
/* */
/* */
/* */
/* */
/* */
/* */
/* */
/* */
/* */
/* */
/* */
/* */
/* */
/* */
/* */
/* */


/* Element 0xFFFFFFFF - Char 0xFFFFFFFF */
{{ 0, 0x08, 153, 62 },{
0x00,
0x00,
0x00,
0x00,
0x00,
0x00,
0x00,
0x00,
0x00,
0x00,
0x00,
0x00,
0x00,
0x00,
0x00,
0x00,
0x00,
0x00,
0x00,
0x00,
0x00,
0x00,
0x00,
0x00,
0x00,
0x00,
0x49,
0x92,
0x6D,
0x49,
0x00,
0x00,
0x00,
0x00,
0x00,
0x00,
0x00,
0x00,
0x00,
0x00,
0x00,
0x00,
0x00,
0x00,
0x00,
0x00,
0x00,
0x00,
0x00,
0x00,
0x00,
0x00,
0x00,
0x00,
0x00,
0x00,
0x00,
0x00,
0x00,
0x00,
0x00,
0x00,
0x00,
0x00,
0x00,
0x00,
0x00,
0x00,
0x00,
0x00,
0x00,
0x00,
0x00,
0x00,
0x00,
0x00,
0x00,
0x00,
0x00,
0x00,
0x00,
0x00,
0x00,
0x00,
0x00,
0x00,
0x00,
0x00,
0x00,
0x00,
0x00,
0x00,
0x00,
0x00,
0x00,
0x00,
0x00,
0x00,
0x00,
0x00,
0x00,
0x00,
0x00,
0x00,
0x00,
0x00,
0x00,
0x00,
0x00,
0x00,
0x00,
0x00,
0x00,
0x00,
0x00,
0x00,
0x00,
0x00,
0x00,
0x00,
0x00,
0x00,
0x00,
0x00,
0x00,
0x00,
0x00,
0x00,
0x00,
0x00,
0x00,
0x00,
0x00,
0x00,
0x00,
0x00,
0x00,
0x00,
0x00,
0x00,
0x00,
0x00,
0x00,
0x00,
0x00,
0x00,
0x00,
0x00,
0x00,
0x00,
0x00,
0x00,
0x00,
0x00,
0x00,
0x00,
0x00,
0x00,
0x00,
0x00,
0x00,
0x00,
0x00,
0x00,
0x00,
0x00,
0x00,
0x00,
0x00,
0x00,
0x00,
0x00,
0x00,
0x00,
0x00,
0x00,
0x00,
0x24,
0xDB,
0xFF,
0xFF,
0xFF,
0xFF,
0xB6,
0x24,
0x00,
0x00,
0x00,
0x00,
0x00,
0x00,
0x00,
0x00,
0x00,
0x00,
0x00,
0x00,
0x00,
0x00,
0x00,
0x00,
0x00,
0x00,
0x00,
0x00,
0x00,
0x00,
0x00,
0x00,
0x00,
0x00,
0x00,
0x00,
0x00,
0x00,
0x00,
0x00,
0x00,
0x00,
0x00,
0x00,
0x00,
0x00,
0x00,
0x00,
0x00,
0x00,
0x00,
0x00,
0x00,
0x00,
0x00,
0x00,
0x00,
0x00,
0x00,
0x00,
0x00,
0x00,
0x00,
0x00,
0x00,
0x00,
0x00,
0x00,
0x00,
0x00,
0x00,
0x00,
0x00,
0x00,
0x00,
0x00,
0x00,
0x00,
0x00,
0x00,
0x00,
0x00,
0x00,
0x00,
0x00,
0x00,
0x00,
0x00,
0x00,
0x00,
0x00,
0x00,
0x00,
0x00,
0x00,
0x00,
0x00,
0x00,
0x00,
0x00,
0x00,
0x00,
0x00,
0x00,
0x00,
0x00,
0x00,
0x00,
0x00,
0x00,
0x00,
0x00,
0x00,
0x00,
0x00,
0x00,
0x00,
0x00,
0x00,
0x00,
0x00,
0x00,
0x00,
0x00,
0x00,
0x00,
0x00,
0x00,
0x00,
0x00,
0x00,
0x00,
0x00,
0x00,
0x00,
0x00,
0x00,
0x00,
0x00,
0x00,
0x00,
0x00,
0x00,
0x00,
0x00,
0x00,
0x00,
0x00,
0x28,
0x4C,
0x4C,
0x00,
0x4D,
0xFF,
0xFF,
0xFF,
0xFF,
0xFF,
0xFF,
0xFF,
0xFF,
0x49,
0x00,
0x00,
0x00,
0x00,
0x00,
0x00,
0x00,
0x00,
0x00,
0x00,
0x00,
0x00,
0x00,
0x00,
0x00,
0x00,
0x00,
0x00,
0x00,
0x00,
0x00,
0x00,
0x00,
0x00,
0x00,
0x00,
0x00,
0x00,
0x00,
0x00,
0x00,
0x00,
0x00,
0x00,
0x00,
0x00,
0x00,
0x00,
0x00,
0x00,
0x00,
0x00,
0x00,
0x00,
0x00,
0x00,
0x00,
0x00,
0x00,
0x00,
0x00,
0x00,
0x00,
0x00,
0x00,
0x00,
0x00,
0x00,
0x00,
0x00,
0x00,
0x00,
0x00,
0x00,
0x00,
0x00,
0x00,
0x00,
0x00,
0x00,
0x00,
0x00,
0x00,
0x00,
0x00,
0x00,
0x00,
0x00,
0x00,
0x00,
0x00,
0x00,
0x00,
0x00,
0x00,
0x00,
0x00,
0x00,
0x00,
0x00,
0x00,
0x00,
0x00,
0x00,
0x00,
0x00,
0x00,
0x00,
0x00,
0x00,
0x00,
0x00,
0x00,
0x00,
0x00,
0x00,
0x00,
0x00,
0x00,
0x00,
0x00,
0x00,
0x00,
0x00,
0x00,
0x00,
0x00,
0x00,
0x00,
0x00,
0x00,
0x00,
0x00,
0x00,
0x00,
0x00,
0x00,
0x00,
0x00,
0x00,
0x00,
0x00,
0x00,
0x00,
0x00,
0x00,
0x24,
0x70,
0x99,
0x99,
0x74,
0x00,
0x92,
0xFF,
0xFF,
0xFF,
0xFF,
0xFF,
0xFF,
0xFF,
0xFF,
0xFF,
0xFF,
0x24,
0x00,
0x4C,
0x04,
0x00,
0x00,
0x00,
0x00,
0x00,
0x00,
0x00,
0x00,
0x00,
0x00,
0x00,
0x00,
0x00,
0x00,
0x00,
0x00,
0x00,
0x00,
0x00,
0x00,
0x00,
0x00,
0x00,
0x00,
0x00,
0x00,
0x00,
0x00,
0x00,
0x00,
0x00,
0x00,
0x00,
0x00,
0x00,
0x00,
0x00,
0x00,
0x00,
0x00,
0x00,
0x00,
0x00,
0x00,
0x00,
0x00,
0x00,
0x00,
0x00,
0x00,
0x00,
0x00,
0x00,
0x00,
0x00,
0x00,
0x00,
0x00,
0x00,
0x00,
0x00,
0x00,
0x00,
0x00,
0x00,
0x00,
0x00,
0x00,
0x00,
0x00,
0x00,
0x00,
0x00,
0x00,
0x00,
0x00,
0x00,
0x00,
0x00,
0x00,
0x00,
0x00,
0x00,
0x00,
0x00,
0x00,
0x00,
0x00,
0x00,
0x00,
0x00,
0x00,
0x00,
0x00,
0x00,
0x00,
0x00,
0x00,
0x00,
0x00,
0x00,
0x00,
0x00,
0x00,
0x00,
0x00,
0x00,
0x00,
0x00,
0x00,
0x00,
0x00,
0x00,
0x00,
0x00,
0x00,
0x00,
0x00,
0x00,
0x00,
0x00,
0x00,
0x00,
0x00,
0x00,
0x00,
0x00,
0x00,
0x00,
0x00,
0x28,
0x71,
0x99,
0x99,
0x99,
0x94,
0x00,
0x6D,
0xFF,
0xFF,
0xFF,
0xFF,
0xFF,
0xFF,
0xFF,
0xFF,
0xFF,
0xFF,
0xFF,
0xFF,
0x24,
0x28,
0xB9,
0x70,
0x04,
0x00,
0x00,
0x00,
0x00,
0x00,
0x00,
0x00,
0x00,
0x00,
0x00,
0x00,
0x00,
0x00,
0x00,
0x00,
0x00,
0x00,
0x00,
0x00,
0x00,
0x00,
0x00,
0x00,
0x00,
0x00,
0x00,
0x00,
0x00,
0x00,
0x00,
0x00,
0x00,
0x00,
0x00,
0x00,
0x00,
0x00,
0x00,
0x00,
0x00,
0x00,
0x00,
0x00,
0x00,
0x00,
0x00,
0x00,
0x00,
0x00,
0x00,
0x00,
0x00,
0x00,
0x00,
0x00,
0x00,
0x00,
0x00,
0x00,
0x00,
0x00,
0x00,
0x00,
0x00,
0x00,
0x00,
0x00,
0x00,
0x00,
0x00,
0x00,
0x00,
0x00,
0x00,
0x00,
0x00,
0x00,
0x00,
0x00,
0x00,
0x00,
0x00,
0x00,
0x00,
0x00,
0x00,
0x00,
0x00,
0x00,
0x00,
0x00,
0x00,
0x00,
0x00,
0x00,
0x00,
0x00,
0x00,
0x00,
0x00,
0x00,
0x00,
0x00,
0x00,
0x00,
0x00,
0x00,
0x00,
0x00,
0x00,
0x00,
0x00,
0x00,
0x00,
0x00,
0x00,
0x00,
0x00,
0x00,
0x00,
0x00,
0x00,
0x00,
0x00,
0x00,
0x00,
0x24,
0x75,
0x99,
0x99,
0x99,
0x99,
0x99,
0x24,
0x49,
0xFF,
0xFF,
0xFF,
0xFF,
0xFF,
0xFF,
0xFF,
0xFF,
0xFF,
0xFF,
0xFF,
0xFF,
0xFF,
0xDB,
0x00,
0x70,
0xB9,
0xB9,
0x70,
0x00,
0x00,
0x00,
0x00,
0x00,
0x00,
0x00,
0x00,
0x00,
0x00,
0x00,
0x00,
0x00,
0x00,
0x00,
0x00,
0x00,
0x00,
0x00,
0x00,
0x00,
0x00,
0x00,
0x00,
0x00,
0x00,
0x00,
0x00,
0x00,
0x00,
0x00,
0x00,
0x00,
0x00,
0x00,
0x00,
0x00,
0x00,
0x00,
0x00,
0x00,
0x00,
0x00,
0x00,
0x00,
0x00,
0x00,
0x00,
0x00,
0x00,
0x00,
0x00,
0x00,
0x00,
0x00,
0x00,
0x00,
0x00,
0x00,
0x00,
0x00,
0x00,
0x00,
0x00,
0x00,
0x00,
0x00,
0x00,
0x00,
0x00,
0x00,
0x00,
0x00,
0x00,
0x00,
0x00,
0x00,
0x00,
0x00,
0x00,
0x00,
0x00,
0x00,
0x00,
0x00,
0x00,
0x00,
0x00,
0x00,
0x00,
0x00,
0x00,
0x00,
0x00,
0x00,
0x00,
0x00,
0x00,
0x00,
0x00,
0x00,
0x00,
0x00,
0x00,
0x00,
0x00,
0x00,
0x00,
0x00,
0x00,
0x00,
0x00,
0x00,
0x00,
0x00,
0x00,
0x00,
0x00,
0x00,
0x00,
0x00,
0x00,
0x00,
0x00,
0x4C,
0x99,
0x99,
0x99,
0x99,
0x99,
0x99,
0x70,
0x00,
0xFF,
0xFF,
0xFF,
0xFF,
0xFF,
0xFF,
0xFF,
0xFF,
0xFF,
0xFF,
0xFF,
0xFF,
0xFF,
0xFF,
0xFF,
0x92,
0x24,
0xD9,
0xD9,
0xD9,
0x95,
0x24,
0x00,
0x00,
0x00,
0x00,
0x00,
0x00,
0x00,
0x00,
0x00,
0x00,
0x00,
0x00,
0x00,
0x00,
0x00,
0x00,
0x00,
0x00,
0x00,
0x00,
0x00,
0x00,
0x00,
0x00,
0x00,
0x00,
0x00,
0x00,
0x00,
0x00,
0x00,
0x00,
0x00,
0x00,
0x00,
0x00,
0x00,
0x00,
0x00,
0x00,
0x00,
0x00,
0x00,
0x00,
0x00,
0x00,
0x00,
0x00,
0x00,
0x00,
0x00,
0x00,
0x00,
0x00,
0x00,
0x00,
0x00,
0x00,
0x00,
0x00,
0x00,
0x00,
0x00,
0x00,
0x00,
0x00,
0x00,
0x00,
0x00,
0x00,
0x00,
0x00,
0x00,
0x00,
0x00,
0x00,
0x00,
0x00,
0x00,
0x00,
0x00,
0x00,
0x00,
0x00,
0x00,
0x00,
0x00,
0x00,
0x00,
0x00,
0x00,
0x00,
0x00,
0x00,
0x00,
0x00,
0x00,
0x00,
0x00,
0x00,
0x00,
0x00,
0x00,
0x00,
0x00,
0x00,
0x00,
0x00,
0x00,
0x00,
0x00,
0x00,
0x00,
0x00,
0x00,
0x00,
0x00,
0x00,
0x00,
0x00,
0x00,
0x70,
0x99,
0x99,
0x99,
0x99,
0x99,
0x99,
0x99,
0x24,
0x6D,
0xFF,
0xFF,
0xFF,
0xFF,
0xFF,
0xFF,
0xFF,
0xFF,
0xFF,
0xFF,
0xFF,
0x92,
0x49,
0x6D,
0xDB,
0xFF,
0x04,
0xD9,
0xD9,
0xD9,
0xD9,
0xB9,
0x4C,
0x00,
0x00,
0x00,
0x00,
0x00,
0x00,
0x00,
0x00,
0x00,
0x00,
0x00,
0x00,
0x00,
0x00,
0x00,
0x00,
0x00,
0x00,
0x00,
0x00,
0x00,
0x00,
0x00,
0x00,
0x00,
0x00,
0x00,
0x00,
0x00,
0x00,
0x00,
0x00,
0x00,
0x00,
0x00,
0x00,
0x00,
0x00,
0x00,
0x00,
0x00,
0x00,
0x00,
0x00,
0x00,
0x00,
0x00,
0x00,
0x00,
0x00,
0x00,
0x00,
0x00,
0x00,
0x00,
0x00,
0x00,
0x00,
0x00,
0x00,
0x00,
0x00,
0x00,
0x00,
0x00,
0x00,
0x00,
0x00,
0x00,
0x00,
0x00,
0x00,
0x00,
0x00,
0x00,
0x00,
0x00,
0x00,
0x00,
0x00,
0x00,
0x00,
0x00,
0x00,
0x00,
0x00,
0x00,
0x00,
0x00,
0x00,
0x00,
0x00,
0x00,
0x00,
0x00,
0x00,
0x00,
0x00,
0x00,
0x00,
0x00,
0x00,
0x00,
0x00,
0x00,
0x00,
0x00,
0x00,
0x00,
0x00,
0x00,
0x00,
0x00,
0x00,
0x00,
0x00,
0x00,
0x00,
0x04,
0x95,
0x99,
0x99,
0x99,
0x99,
0x99,
0x99,
0x99,
0x94,
0x00,
0xDB,
0xFF,
0xFF,
0xFF,
0xFF,
0xFF,
0xFF,
0xFF,
0xFF,
0xFF,
0xDB,
0x24,
0x49,
0xDB,
0xDB,
0x92,
0xDB,
0x4D,
0xD9,
0xD9,
0xD9,
0xD9,
0xD9,
0xD9,
0x4C,
0x00,
0x00,
0x00,
0x00,
0x00,
0x00,
0x00,
0x00,
0x00,
0x00,
0x00,
0x00,
0x00,
0x00,
0x00,
0x00,
0x00,
0x00,
0x00,
0x00,
0x00,
0x00,
0x00,
0x00,
0x00,
0x00,
0x00,
0x00,
0x00,
0x00,
0x00,
0x00,
0x00,
0x00,
0x00,
0x00,
0x00,
0x00,
0x00,
0x00,
0x00,
0x00,
0x00,
0x00,
0x00,
0x00,
0x00,
0x00,
0x00,
0x00,
0x00,
0x00,
0x00,
0x00,
0x00,
0x00,
0x00,
0x00,
0x00,
0x00,
0x00,
0x00,
0x00,
0x00,
0x00,
0x00,
0x00,
0x00,
0x00,
0x00,
0x00,
0x00,
0x00,
0x00,
0x00,
0x00,
0x00,
0x00,
0x00,
0x00,
0x00,
0x00,
0x00,
0x00,
0x00,
0x00,
0x00,
0x00,
0x00,
0x00,
0x00,
0x00,
0x00,
0x00,
0x00,
0x00,
0x00,
0x00,
0x00,
0x00,
0x00,
0x00,
0x00,
0x00,
0x00,
0x00,
0x00,
0x00,
0x00,
0x00,
0x00,
0x00,
0x00,
0x00,
0x00,
0x00,
0x00,
0x75,
0x99,
0x99,
0x99,
0x99,
0x99,
0x99,
0x99,
0x99,
0x70,
0x00,
0xFF,
0xFF,
0xFF,
0xFF,
0xFF,
0xFF,
0xFF,
0xFF,
0xFF,
0xFF,
0x49,
0x49,
0xFF,
0xFF,
0xFF,
0xFF,
0xB6,
0xB9,
0xD9,
0xD9,
0xD9,
0xD9,
0xD9,
0xD9,
0xD9,
0x70,
0x00,
0x00,
0x00,
0x00,
0x00,
0x00,
0x00,
0x00,
0x00,
0x00,
0x00,
0x00,
0x00,
0x00,
0x00,
0x00,
0x00,
0x00,
0x00,
0x00,
0x00,
0x00,
0x00,
0x00,
0x00,
0x00,
0x00,
0x00,
0x00,
0x00,
0x00,
0x00,
0x00,
0x00,
0x00,
0x00,
0x00,
0x00,
0x00,
0x00,
0x00,
0x00,
0x00,
0x00,
0x00,
0x00,
0x00,
0x00,
0x00,
0x00,
0x00,
0x00,
0x00,
0x00,
0x00,
0x00,
0x00,
0x00,
0x00,
0x00,
0x00,
0x00,
0x00,
0x00,
0x00,
0x00,
0x00,
0x00,
0x00,
0x00,
0x00,
0x00,
0x00,
0x00,
0x00,
0x00,
0x00,
0x00,
0x00,
0x00,
0x00,
0x00,
0x00,
0x00,
0x00,
0x00,
0x00,
0x00,
0x00,
0x00,
0x00,
0x00,
0x00,
0x00,
0x00,
0x00,
0x00,
0x00,
0x00,
0x00,
0x00,
0x00,
0x00,
0x00,
0x00,
0x00,
0x00,
0x00,
0x00,
0x00,
0x00,
0x00,
0x00,
0x00,
0x00,
0x70,
0x99,
0x99,
0x99,
0x99,
0x99,
0x99,
0x99,
0x99,
0x99,
0x70,
0x00,
0xFF,
0xFF,
0xFF,
0xFF,
0xFF,
0xFF,
0xFF,
0xFF,
0xFF,
0x92,
0x24,
0xFF,
0xFF,
0xFF,
0xFF,
0xFF,
0x6D,
0x70,
0xD9,
0xD9,
0xD9,
0xD9,
0xD9,
0xD9,
0xD9,
0xD9,
0x4C,
0x00,
0x00,
0x00,
0x00,
0x00,
0x00,
0x00,
0x00,
0x00,
0x00,
0x00,
0x00,
0x00,
0x00,
0x00,
0x00,
0x00,
0x00,
0x00,
0x00,
0x00,
0x00,
0x00,
0x00,
0x00,
0x00,
0x00,
0x00,
0x00,
0x00,
0x00,
0x00,
0x00,
0x00,
0x00,
0x00,
0x00,
0x00,
0x00,
0x00,
0x00,
0x00,
0x00,
0x00,
0x00,
0x00,
0x00,
0x00,
0x00,
0x00,
0x00,
0x00,
0x00,
0x00,
0x00,
0x00,
0x00,
0x00,
0x00,
0x00,
0x00,
0x00,
0x00,
0x00,
0x00,
0x00,
0x00,
0x00,
0x00,
0x00,
0x00,
0x00,
0x00,
0x00,
0x00,
0x00,
0x00,
0x00,
0x00,
0x00,
0x00,
0x00,
0x00,
0x00,
0x00,
0x00,
0x00,
0x00,
0x00,
0x00,
0x00,
0x00,
0x00,
0x00,
0x00,
0x00,
0x00,
0x00,
0x00,
0x00,
0x00,
0x00,
0x00,
0x00,
0x00,
0x00,
0x00,
0x00,
0x00,
0x00,
0x00,
0x00,
0x00,
0x70,
0x99,
0x99,
0x99,
0x99,
0x99,
0x99,
0x99,
0x99,
0x99,
0x99,
0x94,
0x00,
0x92,
0xFF,
0xFF,
0xFF,
0xFF,
0xFF,
0xFF,
0xFF,
0xFF,
0x00,
0xB6,
0xFF,
0xFF,
0xFF,
0xFF,
0xDB,
0x00,
0xB9,
0xD9,
0xD9,
0xD9,
0xD9,
0xD9,
0xD9,
0xF9,
0xFD,
0xD9,
0x28,
0x00,
0x00,
0x00,
0x00,
0x00,
0x00,
0x00,
0x00,
0x00,
0x00,
0x00,
0x00,
0x00,
0x00,
0x00,
0x00,
0x00,
0x00,
0x00,
0x00,
0x00,
0x00,
0x00,
0x00,
0x00,
0x00,
0x00,
0x00,
0x00,
0x00,
0x00,
0x00,
0x00,
0x00,
0x00,
0x00,
0x00,
0x00,
0x00,
0x00,
0x00,
0x00,
0x00,
0x00,
0x00,
0x00,
0x00,
0x00,
0x00,
0x00,
0x00,
0x00,
0x00,
0x00,
0x00,
0x00,
0x00,
0x00,
0x00,
0x00,
0x00,
0x00,
0x00,
0x00,
0x00,
0x00,
0x00,
0x00,
0x00,
0x00,
0x00,
0x00,
0x00,
0x00,
0x00,
0x00,
0x00,
0x00,
0x00,
0x00,
0x00,
0x00,
0x00,
0x00,
0x00,
0x00,
0x00,
0x00,
0x00,
0x00,
0x00,
0x00,
0x00,
0x00,
0x00,
0x00,
0x00,
0x00,
0x00,
0x00,
0x00,
0x00,
0x00,
0x00,
0x00,
0x00,
0x00,
0x00,
0x00,
0x00,
0x00,
0x48,
0x99,
0x99,
0x99,
0x99,
0x99,
0x99,
0x99,
0x99,
0x99,
0x99,
0xB9,
0xB9,
0x24,
0x24,
0xFF,
0xFF,
0xFF,
0xFF,
0xFF,
0xFF,
0xFF,
0x6D,
0x24,
0xFF,
0xFF,
0xFF,
0xFF,
0xFF,
0x24,
0x6C,
0xD9,
0xD9,
0xD9,
0xD9,
0xD9,
0xD9,
0xF9,
0xFD,
0xFD,
0xFD,
0xB9,
0x24,
0x00,
0x00,
0x00,
0x00,
0x00,
0x00,
0x00,
0x00,
0x00,
0x00,
0x00,
0x00,
0x00,
0x00,
0x00,
0x00,
0x00,
0x00,
0x00,
0x00,
0x00,
0x00,
0x00,
0x00,
0x00,
0x00,
0x00,
0x00,
0x00,
0x00,
0x00,
0x00,
0x00,
0x00,
0x00,
0x00,
0x00,
0x00,
0x00,
0x00,
0x00,
0x00,
0x00,
0x00,
0x00,
0x00,
0x00,
0x00,
0x00,
0x00,
0x00,
0x00,
0x00,
0x00,
0x00,
0x00,
0x00,
0x00,
0x00,
0x00,
0x00,
0x00,
0x00,
0x00,
0x00,
0x00,
0x00,
0x00,
0x00,
0x00,
0x00,
0x00,
0x00,
0x00,
0x00,
0x00,
0x00,
0x00,
0x00,
0x00,
0x00,
0x00,
0x00,
0x00,
0x00,
0x00,
0x00,
0x00,
0x00,
0x00,
0x00,
0x00,
0x00,
0x00,
0x00,
0x00,
0x00,
0x00,
0x00,
0x00,
0x00,
0x00,
0x00,
0x00,
0x00,
0x00,
0x00,
0x00,
0x00,
0x24,
0x99,
0x99,
0x99,
0x99,
0x99,
0x99,
0x99,
0x99,
0x99,
0x99,
0xB9,
0xB9,
0x94,
0x4C,
0x00,
0x49,
0xFF,
0xFF,
0xFF,
0xFF,
0xFF,
0xDB,
0x00,
0xB6,
0xFF,
0xFF,
0xFF,
0xFF,
0x49,
0x00,
0xD9,
0xD9,
0xD9,
0xD9,
0xD9,
0xD9,
0xF9,
0xFD,
0xFD,
0xFD,
0xFD,
0xFD,
0x95,
0x00,
0x00,
0x00,
0x00,
0x00,
0x00,
0x00,
0x00,
0x00,
0x00,
0x00,
0x00,
0x00,
0x00,
0x00,
0x00,
0x00,
0x00,
0x00,
0x00,
0x00,
0x00,
0x00,
0x00,
0x00,
0x00,
0x00,
0x00,
0x00,
0x00,
0x00,
0x00,
0x00,
0x00,
0x00,
0x00,
0x00,
0x00,
0x00,
0x00,
0x00,
0x00,
0x00,
0x00,
0x00,
0x00,
0x00,
0x00,
0x00,
0x00,
0x00,
0x00,
0x00,
0x00,
0x00,
0x00,
0x00,
0x00,
0x00,
0x00,
0x00,
0x00,
0x00,
0x00,
0x00,
0x00,
0x00,
0x00,
0x00,
0x00,
0x00,
0x00,
0x00,
0x00,
0x00,
0x00,
0x00,
0x00,
0x00,
0x00,
0x00,
0x00,
0x00,
0x00,
0x00,
0x00,
0x00,
0x00,
0x00,
0x00,
0x00,
0x00,
0x00,
0x00,
0x00,
0x00,
0x00,
0x00,
0x00,
0x00,
0x00,
0x00,
0x00,
0x00,
0x00,
0x00,
0x00,
0x00,
0x00,
0x70,
0x99,
0x99,
0x99,
0x99,
0x99,
0x99,
0x99,
0x99,
0x99,
0x95,
0x4C,
0x00,
0x00,
0x00,
0x00,
0x00,
0x6D,
0xFF,
0xFF,
0xFF,
0xFF,
0x49,
0x24,
0xFF,
0xFF,
0xFF,
0xFF,
0xFF,
0x00,
0x4C,
0xD9,
0xD9,
0xD9,
0xD9,
0xD9,
0xFD,
0xFD,
0xFD,
0xFD,
0xFD,
0xFD,
0xFD,
0xD9,
0x48,
0x00,
0x00,
0x00,
0x00,
0x00,
0x00,
0x00,
0x00,
0x00,
0x00,
0x00,
0x00,
0x00,
0x00,
0x00,
0x00,
0x00,
0x00,
0x00,
0x00,
0x00,
0x00,
0x00,
0x00,
0x00,
0x00,
0x00,
0x00,
0x00,
0x00,
0x00,
0x00,
0x00,
0x00,
0x00,
0x00,
0x00,
0x00,
0x00,
0x00,
0x00,
0x00,
0x00,
0x00,
0x00,
0x00,
0x00,
0x00,
0x00,
0x00,
0x00,
0x00,
0x00,
0x00,
0x00,
0x00,
0x00,
0x00,
0x00,
0x00,
0x00,
0x00,
0x00,
0x00,
0x00,
0x00,
0x00,
0x00,
0x00,
0x00,
0x00,
0x00,
0x00,
0x00,
0x00,
0x00,
0x00,
0x00,
0x00,
0x00,
0x00,
0x00,
0x00,
0x00,
0x00,
0x00,
0x00,
0x00,
0x00,
0x00,
0x00,
0x00,
0x00,
0x00,
0x00,
0x00,
0x00,
0x00,
0x00,
0x00,
0x00,
0x00,
0x00,
0x00,
0x00,
0x00,
0x00,
0x28,
0x99,
0x99,
0x99,
0x99,
0x99,
0x99,
0x99,
0x99,
0x99,
0x70,
0x00,
0x00,
0x6D,
0xB6,
0xFF,
0xFF,
0x6D,
0x00,
0x24,
0x6D,
0x6D,
0x24,
0x00,
0xDB,
0xFF,
0xFF,
0xFF,
0xFF,
0xFF,
0x00,
0x6C,
0xD9,
0xD9,
0xD9,
0xDD,
0xD9,
0xFD,
0xFD,
0xFD,
0xFD,
0xFD,
0xFD,
0xFD,
0xFD,
0x95,
0x00,
0x00,
0x00,
0x00,
0x00,
0x00,
0x00,
0x00,
0x00,
0x00,
0x00,
0x00,
0x00,
0x00,
0x00,
0x00,
0x00,
0x00,
0x00,
0x00,
0x00,
0x00,
0x00,
0x00,
0x00,
0x00,
0x00,
0x00,
0x00,
0x00,
0x00,
0x00,
0x00,
0x00,
0x00,
0x00,
0x00,
0x00,
0x00,
0x00,
0x00,
0x00,
0x00,
0x00,
0x00,
0x00,
0x00,
0x00,
0x00,
0x00,
0x00,
0x00,
0x00,
0x00,
0x00,
0x00,
0x00,
0x00,
0x00,
0x00,
0x00,
0x00,
0x00,
0x00,
0x00,
0x00,
0x00,
0x00,
0x00,
0x00,
0x00,
0x00,
0x00,
0x00,
0x00,
0x00,
0x00,
0x00,
0x00,
0x00,
0x00,
0x00,
0x00,
0x00,
0x00,
0x00,
0x00,
0x00,
0x00,
0x00,
0x00,
0x00,
0x00,
0x00,
0x00,
0x00,
0x00,
0x00,
0x00,
0x00,
0x00,
0x00,
0x00,
0x00,
0x00,
0x00,
0x00,
0x75,
0x99,
0x99,
0x99,
0x99,
0x99,
0x99,
0x99,
0x99,
0x6C,
0x00,
0x6D,
0xFF,
0xFF,
0xFF,
0xFF,
0xFF,
0xFF,
0xB6,
0x49,
0x24,
0x49,
0x6D,
0xFF,
0xFF,
0xFF,
0xFF,
0xFF,
0xFF,
0x92,
0x00,
0x28,
0xB5,
0xD9,
0xD9,
0xF9,
0xF9,
0xFD,
0xFD,
0xFD,
0xFD,
0xFD,
0xFD,
0xFD,
0xFD,
0xDD,
0x4C,
0x00,
0x00,
0x00,
0x00,
0x00,
0x00,
0x00,
0x00,
0x00,
0x00,
0x00,
0x00,
0x00,
0x00,
0x00,
0x00,
0x00,
0x00,
0x00,
0x00,
0x00,
0x00,
0x00,
0x00,
0x00,
0x00,
0x00,
0x00,
0x00,
0x00,
0x00,
0x00,
0x00,
0x00,
0x00,
0x00,
0x00,
0x00,
0x00,
0x00,
0x00,
0x00,
0x00,
0x00,
0x00,
0x00,
0x00,
0x00,
0x00,
0x00,
0x00,
0x00,
0x00,
0x00,
0x00,
0x00,
0x00,
0x00,
0x00,
0x00,
0x00,
0x00,
0x00,
0x00,
0x00,
0x00,
0x00,
0x00,
0x00,
0x00,
0x00,
0x00,
0x00,
0x00,
0x00,
0x00,
0x00,
0x00,
0x00,
0x00,
0x00,
0x00,
0x00,
0x00,
0x00,
0x00,
0x00,
0x00,
0x00,
0x00,
0x00,
0x00,
0x00,
0x00,
0x00,
0x00,
0x00,
0x00,
0x00,
0x00,
0x00,
0x00,
0x00,
0x00,
0x00,
0x24,
0x99,
0x99,
0x99,
0x99,
0x99,
0x99,
0x99,
0x99,
0x70,
0x00,
0x49,
0xFF,
0xFF,
0xFF,
0xFF,
0xFF,
0xFF,
0xFF,
0xFF,
0xFF,
0xFF,
0xFF,
0xDB,
0xFF,
0xFF,
0xFF,
0xFF,
0xFF,
0xDB,
0x00,
0x24,
0xDB,
0x49,
0x6C,
0xD9,
0xFD,
0xFD,
0xFD,
0xFD,
0xFD,
0xFD,
0xFD,
0xFD,
0xFD,
0xFD,
0xFD,
0x95,
0x00,
0x00,
0x00,
0x00,
0x00,
0x00,
0x00,
0x00,
0x00,
0x00,
0x00,
0x00,
0x00,
0x00,
0x00,
0x00,
0x00,
0x00,
0x00,
0x00,
0x00,
0x00,
0x00,
0x00,
0x00,
0x00,
0x00,
0x00,
0x00,
0x00,
0x00,
0x00,
0x00,
0x00,
0x00,
0x00,
0x00,
0x00,
0x00,
0x00,
0x00,
0x00,
0x00,
0x00,
0x00,
0x00,
0x00,
0x00,
0x00,
0x00,
0x00,
0x00,
0x00,
0x00,
0x00,
0x00,
0x00,
0x00,
0x00,
0x00,
0x00,
0x00,
0x00,
0x00,
0x00,
0x00,
0x00,
0x00,
0x00,
0x00,
0x00,
0x00,
0x00,
0x00,
0x00,
0x00,
0x00,
0x00,
0x00,
0x00,
0x00,
0x00,
0x00,
0x00,
0x00,
0x00,
0x00,
0x00,
0x00,
0x00,
0x00,
0x00,
0x00,
0x00,
0x00,
0x00,
0x00,
0x00,
0x00,
0x00,
0x00,
0x00,
0x00,
0x00,
0x00,
0x4C,
0x99,
0x99,
0x99,
0x99,
0x99,
0x99,
0x99,
0x99,
0x00,
0x24,
0xFF,
0xFF,
0xFF,
0xFF,
0xFF,
0xFF,
0xFF,
0xFF,
0xFF,
0xFF,
0xFF,
0xFF,
0x49,
0xFF,
0xFF,
0xFF,
0xFF,
0x92,
0x00,
0x49,
0xFF,
0xFF,
0xFF,
0x92,
0x24,
0xD9,
0xFD,
0xFD,
0xFD,
0xFD,
0xFD,
0xFD,
0xFD,
0xFD,
0xFD,
0xFD,
0xD9,
0x28,
0x00,
0x00,
0x00,
0x00,
0x00,
0x00,
0x00,
0x00,
0x00,
0x00,
0x00,
0x00,
0x92,
0x92,
0x92,
0x24,
0x00,
0x00,
0x00,
0x00,
0x00,
0x00,
0x00,
0x00,
0x00,
0x00,
0x00,
0x00,
0x00,
0x00,
0x00,
0x00,
0x00,
0x00,
0x00,
0x00,
0x00,
0x00,
0x00,
0x00,
0x00,
0x00,
0x00,
0x00,
0x00,
0x00,
0x00,
0x00,
0x00,
0x00,
0x00,
0x00,
0x00,
0x00,
0x00,
0x00,
0x00,
0x00,
0x00,
0x00,
0x00,
0x00,
0x00,
0x00,
0x00,
0x00,
0x00,
0x00,
0x00,
0x00,
0x00,
0x00,
0x00,
0x00,
0x00,
0x00,
0x00,
0x00,
0x24,
0x92,
0x92,
0x6D,
0x00,
0x00,
0x00,
0x00,
0x00,
0x00,
0x00,
0x00,
0x00,
0x00,
0x00,
0x00,
0x00,
0x00,
0x00,
0x00,
0x00,
0x92,
0x92,
0x92,
0x00,
0x00,
0x95,
0x99,
0x99,
0x99,
0x99,
0x99,
0x99,
0x99,
0x4C,
0x00,
0xDB,
0xFF,
0xFF,
0xFF,
0xFF,
0xFF,
0xFF,
0xFF,
0xFF,
0xFF,
0xFF,
0xFF,
0xFF,
0x6D,
0x6D,
0xFF,
0xFF,
0x92,
0x00,
0x49,
0xFF,
0xFF,
0xFF,
0xFF,
0xFF,
0x92,
0x24,
0xD9,
0xFD,
0xFD,
0xFD,
0xFD,
0xFD,
0xFD,
0xFD,
0xFD,
0xFD,
0xFD,
0x70,
0x00,
0x00,
0x00,
0x00,
0x00,
0x00,
0x00,
0x00,
0x00,
0x00,
0x00,
0x24,
0xFF,
0xFF,
0xFF,
0x24,
0x00,
0x00,
0x00,
0x00,
0x00,
0x00,
0x00,
0x00,
0x00,
0x00,
0x00,
0x00,
0x00,
0x00,
0x00,
0x00,
0x00,
0x00,
0x00,
0x00,
0x00,
0x00,
0x00,
0x00,
0x00,
0x00,
0x00,
0x00,
0x00,
0x00,
0x00,
0x00,
0x00,
0x00,
0x00,
0x00,
0x00,
0x00,
0x00,
0x00,
0x00,
0x00,
0x00,
0x00,
0x00,
0x00,
0x00,
0x00,
0x00,
0x00,
0x00,
0x00,
0x00,
0x00,
0x00,
0x00,
0x00,
0x00,
0x00,
0x00,
0x00,
0x00,
0x49,
0xFF,
0xFF,
0xB6,
0x00,
0x00,
0x00,
0x00,
0x00,
0x00,
0x00,
0x00,
0x00,
0x00,
0x00,
0x00,
0x00,
0x00,
0x00,
0x00,
0x00,
0xFF,
0xFF,
0xFF,
0x00,
0x24,
0x99,
0x99,
0x99,
0x99,
0x99,
0x99,
0x99,
0x99,
0x00,
0x6D,
0xFF,
0xFF,
0xFF,
0xFF,
0xFF,
0xFF,
0xFF,
0xFF,
0xFF,
0xFF,
0xFF,
0xFF,
0xFF,
0xFF,
0x24,
0x29,
0x6D,
0x00,
0x49,
0xFF,
0xFF,
0xFF,
0xFF,
0xFF,
0xFF,
0xFF,
0x6D,
0x48,
0xFD,
0xFD,
0xFD,
0xFD,
0xFD,
0xFD,
0xFD,
0xFD,
0xFD,
0xFD,
0xB9,
0x00,
0x00,
0x00,
0x00,
0x00,
0x00,
0x00,
0x00,
0x00,
0x00,
0x00,
0x24,
0xFF,
0xFF,
0xFF,
0x24,
0x00,
0x00,
0x00,
0x00,
0x00,
0x00,
0x00,
0x00,
0x00,
0x00,
0x00,
0x00,
0x00,
0x00,
0x00,
0x00,
0x00,
0x00,
0x00,
0x00,
0x00,
0x00,
0x00,
0x00,
0x00,
0x00,
0x00,
0x00,
0x00,
0x00,
0x00,
0x00,
0x00,
0x00,
0x00,
0x00,
0x00,
0x00,
0x00,
0x00,
0x00,
0x00,
0x00,
0x00,
0x00,
0x00,
0x00,
0x00,
0x00,
0x00,
0x00,
0x00,
0x00,
0x00,
0x00,
0x00,
0x00,
0x00,
0x00,
0x00,
0x00,
0x00,
0x49,
0xFF,
0xFF,
0xB6,
0x00,
0x00,
0x00,
0x00,
0x00,
0x00,
0x00,
0x00,
0x00,
0x00,
0x00,
0x00,
0x00,
0x00,
0x00,
0x00,
0x00,
0xFF,
0xFF,
0xFF,
0x00,
0x4C,
0x99,
0x99,
0x99,
0x99,
0x99,
0x99,
0xB9,
0x4C,
0x00,
0xDB,
0xFF,
0xFF,
0xFF,
0xFF,
0xFF,
0xFF,
0xFF,
0xFF,
0xFF,
0xFF,
0xFF,
0xFF,
0xFF,
0xFF,
0xFF,
0x6D,
0x49,
0x92,
0xFF,
0xFF,
0xFF,
0xFF,
0xFF,
0xFF,
0xFF,
0xFF,
0xFF,
0x29,
0x91,
0xFD,
0xFD,
0xFD,
0xFD,
0xFD,
0xFD,
0xFD,
0xFD,
0xFD,
0xD9,
0x24,
0x00,
0x00,
0x00,
0x00,
0x00,
0x00,
0x00,
0x00,
0x00,
0x00,
0x24,
0xFF,
0xFF,
0xFF,
0x24,
0x00,
0x00,
0x00,
0x00,
0x00,
0x00,
0x00,
0x00,
0x00,
0x00,
0x00,
0x00,
0x00,
0x00,
0x00,
0x00,
0x00,
0x00,
0x00,
0x00,
0x00,
0x00,
0x00,
0x00,
0x00,
0x00,
0x00,
0x00,
0x00,
0x00,
0x00,
0x00,
0x00,
0x00,
0x00,
0x00,
0x00,
0x00,
0x00,
0x00,
0x00,
0x00,
0x00,
0x00,
0x00,
0x00,
0x00,
0x00,
0x00,
0x00,
0x00,
0x00,
0x00,
0x00,
0x00,
0x00,
0x00,
0x00,
0x00,
0x00,
0x00,
0x00,
0x49,
0xFF,
0xFF,
0xB6,
0x00,
0x00,
0x00,
0x00,
0x00,
0x00,
0x00,
0x00,
0x00,
0x00,
0x00,
0x00,
0x00,
0x00,
0x00,
0x00,
0x00,
0xFF,
0xFF,
0xFF,
0x00,
0x70,
0x99,
0x99,
0x99,
0x99,
0x99,
0x99,
0xB9,
0x04,
0x24,
0xFF,
0xFF,
0xFF,
0xFF,
0xFF,
0xFF,
0xFF,
0xFF,
0xFF,
0xFF,
0xFF,
0xFF,
0xFF,
0xFF,
0xFF,
0xFF,
0xFF,
0xFF,
0xFF,
0xFF,
0xFF,
0xFF,
0xFF,
0xFF,
0xFF,
0xFF,
0xFF,
0xFF,
0xDB,
0x24,
0xFD,
0xFD,
0xFD,
0xFD,
0xFD,
0xFD,
0xFD,
0xFD,
0xFD,
0xDD,
0x48,
0x00,
0x00,
0x00,
0x00,
0x00,
0x00,
0x00,
0x00,
0x00,
0x00,
0x24,
0xFF,
0xFF,
0xFF,
0x24,
0x00,
0x00,
0x00,
0x00,
0x00,
0x00,
0x00,
0x00,
0x00,
0x00,
0x00,
0x00,
0x00,
0x00,
0x00,
0x00,
0x00,
0x00,
0x00,
0x00,
0x00,
0x00,
0x00,
0x00,
0x00,
0x00,
0x00,
0x00,
0x00,
0x00,
0x00,
0x00,
0x00,
0x00,
0x00,
0x00,
0x00,
0x00,
0x00,
0x00,
0x00,
0x00,
0x00,
0x00,
0x00,
0x00,
0x00,
0x00,
0x00,
0x00,
0x00,
0x00,
0x00,
0x00,
0x00,
0x00,
0x00,
0x00,
0x00,
0x00,
0x00,
0x00,
0x49,
0xFF,
0xFF,
0xB6,
0x00,
0x00,
0x00,
0x00,
0x00,
0x00,
0x00,
0x00,
0x00,
0x00,
0x00,
0x00,
0x00,
0x00,
0x00,
0x00,
0x00,
0xFF,
0xFF,
0xFF,
0x00,
0x99,
0x99,
0x99,
0x99,
0x99,
0xB9,
0xB9,
0x94,
0x00,
0x92,
0xFF,
0xFF,
0xFF,
0xFF,
0xFF,
0xFF,
0xFF,
0xFF,
0xFF,
0xFF,
0xFF,
0xFF,
0xFF,
0xFF,
0xFF,
0xFF,
0xFF,
0xFF,
0xFF,
0xFF,
0xDB,
0x49,
0x00,
0x00,
0x04,
0x6D,
0xFF,
0xFF,
0xFF,
0x49,
0x6C,
0xFD,
0xFD,
0xFD,
0xFD,
0xFD,
0xFD,
0xFD,
0xFD,
0xFD,
0x4C,
0x00,
0x00,
0x00,
0x00,
0x00,
0x00,
0x00,
0x00,
0x00,
0x00,
0x24,
0xFF,
0xFF,
0xFF,
0x24,
0x00,
0x00,
0x00,
0x00,
0x00,
0x00,
0x00,
0x00,
0x00,
0x00,
0x00,
0x00,
0x00,
0x00,
0x00,
0x00,
0x00,
0x00,
0x00,
0x00,
0x00,
0x00,
0x00,
0x00,
0x00,
0x00,
0x00,
0x00,
0x00,
0x00,
0x00,
0x00,
0x00,
0x00,
0x00,
0x00,
0x00,
0x00,
0x00,
0x00,
0x00,
0x00,
0x00,
0x00,
0x00,
0x00,
0x00,
0x00,
0x00,
0x00,
0x00,
0x00,
0x00,
0x00,
0x00,
0x00,
0x00,
0x00,
0x00,
0x00,
0x00,
0x00,
0x49,
0xFF,
0xFF,
0xB6,
0x00,
0x00,
0x00,
0x00,
0x00,
0x00,
0x00,
0x00,
0x00,
0x00,
0x00,
0x00,
0x00,
0x00,
0x00,
0x00,
0x00,
0xFF,
0xFF,
0xFF,
0x00,
0x99,
0x99,
0x99,
0x99,
0x99,
0xB9,
0xB9,
0x4C,
0x00,
0xFF,
0xFF,
0xFF,
0xFF,
0xFF,
0xFF,
0xFF,
0xFF,
0xFF,
0xFF,
0xFF,
0xFF,
0xFF,
0xFF,
0xFF,
0xFF,
0xFF,
0xFF,
0xFF,
0xFF,
0x92,
0x00,
0x00,
0x6D,
0x92,
0x49,
0x00,
0x00,
0xDB,
0xFF,
0xDB,
0x00,
0xD9,
0xFD,
0xFD,
0xFD,
0xFD,
0xFD,
0xFD,
0xFD,
0xFD,
0x70,
0x00,
0x00,
0x00,
0x00,
0x00,
0x00,
0x00,
0x00,
0x00,
0x00,
0x24,
0xFF,
0xFF,
0xFF,
0x24,
0x00,
0x00,
0x00,
0x00,
0x00,
0x00,
0x00,
0x00,
0x00,
0x00,
0x00,
0x00,
0x00,
0x00,
0x00,
0x00,
0x00,
0x00,
0x00,
0x00,
0x00,
0x00,
0x00,
0x00,
0x00,
0x00,
0x00,
0x00,
0x00,
0x00,
0x00,
0x00,
0x00,
0x00,
0x00,
0x00,
0x00,
0x00,
0x00,
0x00,
0x00,
0x00,
0x00,
0x00,
0x00,
0x00,
0x00,
0x00,
0x00,
0x00,
0x00,
0x00,
0x00,
0x00,
0x00,
0x00,
0x00,
0x00,
0x00,
0x00,
0x00,
0x00,
0x49,
0xFF,
0xFF,
0xB6,
0x00,
0x00,
0x00,
0x00,
0x00,
0x00,
0x00,
0x00,
0x00,
0x00,
0x00,
0x00,
0x00,
0x00,
0x00,
0x00,
0x00,
0xFF,
0xFF,
0xFF,
0x24,
0x99,
0x99,
0x99,
0x99,
0xB9,
0xB9,
0xB9,
0x24,
0x24,
0xFF,
0xFF,
0xFF,
0xFF,
0xFF,
0xFF,
0xFF,
0xFF,
0xFF,
0xFF,
0xFF,
0xFF,
0xFF,
0xFF,
0xFF,
0xFF,
0xFF,
0xFF,
0xDB,
0x49,
0x00,
0x24,
0xDB,
0xFF,
0xFF,
0xFF,
0xB6,
0x00,
0x24,
0xFF,
0xFF,
0x24,
0x8C,
0xFD,
0xFD,
0xFD,
0xFD,
0xFD,
0xFD,
0xFD,
0xFD,
0x70,
0x00,
0x00,
0x00,
0x00,
0x00,
0x00,
0x00,
0x00,
0x00,
0x00,
0x24,
0xFF,
0xFF,
0xFF,
0x24,
0x00,
0x00,
0x00,
0x00,
0x00,
0x00,
0x00,
0x00,
0x00,
0x00,
0x00,
0x00,
0x00,
0x00,
0x00,
0x00,
0x00,
0x00,
0x00,
0x00,
0x00,
0x00,
0x00,
0x00,
0x00,
0x00,
0x00,
0x00,
0x00,
0x00,
0x00,
0x00,
0x00,
0x00,
0x00,
0x00,
0x00,
0x00,
0x00,
0x00,
0x00,
0x00,
0x00,
0x00,
0x00,
0x00,
0x00,
0x00,
0x00,
0x00,
0x00,
0x00,
0x00,
0x00,
0x00,
0x00,
0x00,
0x00,
0x00,
0x00,
0x00,
0x00,
0x49,
0xFF,
0xFF,
0xB6,
0x00,
0x00,
0x00,
0x00,
0x00,
0x00,
0x00,
0x00,
0x00,
0x00,
0x00,
0x00,
0x00,
0x00,
0x00,
0x00,
0x00,
0xFF,
0xFF,
0xFF,
0x24,
0x99,
0x99,
0x99,
0xB9,
0xB9,
0xB9,
0xB9,
0x00,
0x92,
0xFF,
0xFF,
0xFF,
0xFF,
0xFF,
0xDB,
0xFF,
0xFF,
0xFF,
0xFF,
0xFF,
0xFF,
0xFF,
0xFF,
0xFF,
0xFF,
0xFF,
0xFF,
0x24,
0x49,
0xB6,
0xFF,
0xFF,
0xFF,
0xFF,
0xFF,
0xFF,
0xB6,
0x00,
0x6D,
0xFF,
0xB6,
0x24,
0xFD,
0xFD,
0xFD,
0xFD,
0xFD,
0xFD,
0xFD,
0xF9,
0x95,
0x00,
0x00,
0x00,
0x00,
0x00,
0x00,
0x00,
0x00,
0x00,
0x00,
0x24,
0xFF,
0xFF,
0xFF,
0x24,
0x00,
0x00,
0x00,
0x00,
0x00,
0x00,
0x00,
0x00,
0x00,
0x00,
0x00,
0x00,
0x00,
0x92,
0xDB,
0xFF,
0xFF,
0xDB,
0x92,
0x24,
0x00,
0x00,
0x00,
0x00,
0x00,
0x00,
0x00,
0x00,
0x49,
0xB6,
0xDB,
0xFF,
0xFF,
0xB6,
0x6D,
0x00,
0x00,
0x00,
0x00,
0x00,
0x00,
0xB6,
0xB6,
0xB6,
0x00,
0x00,
0x24,
0xB6,
0xFF,
0xDB,
0x6D,
0x00,
0x00,
0x00,
0x00,
0x00,
0x6D,
0xB6,
0xFF,
0xFF,
0xDB,
0xB6,
0x92,
0xFF,
0xFF,
0xB6,
0x00,
0x00,
0x00,
0x00,
0x49,
0xB6,
0xDB,
0xFF,
0xFF,
0xB6,
0x6D,
0x00,
0x00,
0x00,
0x00,
0x00,
0x00,
0xFF,
0xFF,
0xFF,
0x24,
0x99,
0x99,
0xB9,
0xB9,
0xB9,
0xB9,
0x90,
0x00,
0xDB,
0xFF,
0xFF,
0xFF,
0xFF,
0xDB,
0x92,
0xFF,
0xFF,
0xFF,
0xFF,
0xFF,
0xFF,
0xFF,
0xFF,
0xFF,
0xFF,
0xFF,
0xDB,
0x24,
0xFF,
0xFF,
0xFF,
0xFF,
0xFF,
0xFF,
0xFF,
0xFF,
0xFF,
0x49,
0x00,
0xFF,
0xFF,
0x00,
0xD5,
0xFD,
0xFD,
0xFD,
0xFD,
0xFD,
0xF9,
0xF9,
0x95,
0x00,
0x00,
0x00,
0x00,
0x00,
0x00,
0x00,
0x00,
0x00,
0x00,
0x24,
0xFF,
0xFF,
0xFF,
0x24,
0x00,
0x00,
0x00,
0x00,
0x00,
0x00,
0x00,
0x00,
0x00,
0x00,
0x00,
0x49,
0xFF,
0xFF,
0xFF,
0xFF,
0xFF,
0xFF,
0xFF,
0xFF,
0x6D,
0x00,
0x00,
0x00,
0x00,
0x00,
0x00,
0xB6,
0xFF,
0xFF,
0xFF,
0xFF,
0xFF,
0xFF,
0xFF,
0xDB,
0x00,
0x00,
0x00,
0x00,
0x00,
0xFF,
0xFF,
0xFF,
0x00,
0x49,
0xFF,
0xFF,
0xFF,
0xFF,
0xFF,
0xDB,
0x00,
0x00,
0x49,
0xFF,
0xFF,
0xFF,
0xFF,
0xFF,
0xFF,
0xFF,
0xFF,
0xFF,
0xFF,
0xB6,
0x00,
0x00,
0x00,
0xDB,
0xFF,
0xFF,
0xFF,
0xFF,
0xFF,
0xFF,
0xFF,
0xDB,
0x00,
0x00,
0x00,
0x00,
0x00,
0xFF,
0xFF,
0xFF,
0x24,
0x99,
0xB9,
0xB9,
0xB9,
0xB9,
0xB9,
0x4C,
0x00,
0xFF,
0xFF,
0xFF,
0xFF,
0xFF,
0x6D,
0xB6,
0xFF,
0xFF,
0xFF,
0xFF,
0xFF,
0xFF,
0xFF,
0xFF,
0xFF,
0xFF,
0xFF,
0xDB,
0x49,
0xFF,
0xFF,
0xFF,
0xFF,
0xFF,
0xFF,
0xFF,
0xFF,
0xFF,
0x92,
0x00,
0xDB,
0xFF,
0x49,
0x6C,
0xFD,
0xFD,
0xFD,
0xFD,
0xFD,
0xF9,
0xF9,
0x91,
0x00,
0x00,
0x00,
0x00,
0x00,
0x00,
0x00,
0x00,
0x00,
0x00,
0x24,
0xFF,
0xFF,
0xFF,
0x24,
0x00,
0x00,
0x00,
0x00,
0x00,
0x00,
0x00,
0x00,
0x00,
0x00,
0x00,
0xDB,
0xFF,
0xFF,
0xFF,
0xFF,
0xFF,
0xFF,
0xFF,
0xFF,
0xFF,
0x24,
0x00,
0x00,
0x00,
0x00,
0xB6,
0xFF,
0xFF,
0xFF,
0xDB,
0xB6,
0xDB,
0xFF,
0xFF,
0xFF,
0xDB,
0x00,
0x00,
0x00,
0x00,
0xFF,
0xFF,
0xFF,
0x24,
0xFF,
0xFF,
0xFF,
0xFF,
0xFF,
0xFF,
0xDB,
0x00,
0x49,
0xFF,
0xFF,
0xFF,
0xFF,
0xFF,
0xDB,
0xDB,
0xFF,
0xFF,
0xFF,
0xFF,
0xB6,
0x00,
0x00,
0x6D,
0xFF,
0xFF,
0xFF,
0xFF,
0xFF,
0xFF,
0xFF,
0xFF,
0xFF,
0xB6,
0x00,
0x00,
0x00,
0x00,
0xFF,
0xFF,
0xFF,
0x24,
0x99,
0xB9,
0xB9,
0xB9,
0xB9,
0xB9,
0x28,
0x49,
0xFF,
0xFF,
0xFF,
0xFF,
0xFF,
0x24,
0xFF,
0xFF,
0xFF,
0xFF,
0xFF,
0xFF,
0xFF,
0xFF,
0xFF,
0xFF,
0xFF,
0xFF,
0xFF,
0x49,
0xFF,
0xFF,
0xFF,
0xFF,
0xFF,
0xFF,
0xFF,
0xFF,
0xFF,
0x92,
0x00,
0xB6,
0xFF,
0x92,
0x24,
0xFD,
0xFD,
0xFD,
0xFD,
0xF9,
0xF9,
0xF9,
0x70,
0x00,
0x00,
0x00,
0x00,
0x00,
0x00,
0x00,
0x00,
0x00,
0x00,
0x24,
0xFF,
0xFF,
0xFF,
0x24,
0x00,
0x00,
0x00,
0x00,
0x00,
0x00,
0x00,
0x00,
0x00,
0x00,
0x00,
0xFF,
0xFF,
0x6E,
0x24,
0x00,
0x00,
0x24,
0xDB,
0xFF,
0xFF,
0x92,
0x00,
0x00,
0x00,
0x6D,
0xFF,
0xFF,
0xFF,
0x49,
0x00,
0x00,
0x00,
0x00,
0xDB,
0xFF,
0xFF,
0x49,
0x00,
0x00,
0x00,
0xFF,
0xFF,
0xFF,
0xB6,
0xDB,
0x24,
0x00,
0x24,
0x92,
0xFF,
0x24,
0x24,
0xFF,
0xFF,
0xFF,
0xDB,
0x49,
0x00,
0x00,
0x00,
0x00,
0x6D,
0xFF,
0xFF,
0xB6,
0x00,
0x00,
0x6D,
0xFF,
0xB6,
0x49,
0x00,
0x00,
0x00,
0x92,
0xFF,
0xFF,
0xFF,
0x00,
0x00,
0x00,
0x00,
0xFF,
0xFF,
0xFF,
0x00,
0x99,
0xB9,
0xB9,
0xB9,
0xB9,
0xB9,
0x24,
0x6D,
0xFF,
0xFF,
0xFF,
0xFF,
0xDB,
0x49,
0xFF,
0xFF,
0xFF,
0xFF,
0xFF,
0xFF,
0xFF,
0xFF,
0xFF,
0xFF,
0xFF,
0xFF,
0xFF,
0x92,
0xFF,
0xFF,
0xFF,
0xFF,
0xFF,
0xFF,
0xFF,
0xFF,
0xFF,
0x49,
0x00,
0xDB,
0xFF,
0xDB,
0x00,
0xFD,
0xFD,
0xF9,
0xF9,
0xF9,
0xF9,
0xF5,
0x70,
0x00,
0x00,
0x00,
0x00,
0x00,
0x00,
0x00,
0x00,
0x00,
0x00,
0x24,
0xFF,
0xFF,
0xFF,
0x24,
0x00,
0x00,
0x00,
0x00,
0x00,
0x00,
0x00,
0x00,
0x00,
0x00,
0x00,
0xDB,
0x24,
0x00,
0x00,
0x00,
0x00,
0x00,
0x6D,
0xFF,
0xFF,
0xB6,
0x00,
0x00,
0x00,
0xFF,
0xFF,
0xFF,
0x49,
0x00,
0x00,
0x00,
0x00,
0x00,
0x24,
0xFF,
0xFF,
0xB6,
0x00,
0x00,
0x00,
0xFF,
0xFF,
0xFF,
0xFF,
0x00,
0x00,
0x00,
0x00,
0x00,
0x24,
0x00,
0x92,
0xFF,
0xFF,
0xFF,
0x04,
0x00,
0x00,
0x00,
0x00,
0x00,
0x49,
0xFF,
0xFF,
0xB6,
0x00,
0x00,
0x6D,
0x92,
0x00,
0x00,
0x00,
0x00,
0x00,
0x00,
0xFF,
0xFF,
0xFF,
0x49,
0x00,
0x00,
0x00,
0xFF,
0xFF,
0xFF,
0x00,
0x95,
0xB9,
0xB9,
0xB9,
0xB9,
0x95,
0x00,
0x92,
0xFF,
0xFF,
0xFF,
0xFF,
0x92,
0x49,
0xFF,
0xFF,
0xFF,
0xFF,
0xFF,
0xFF,
0xFF,
0xFF,
0xFF,
0xFF,
0xFF,
0xB6,
0x92,
0x92,
0x92,
0xFF,
0xFF,
0xFF,
0xFF,
0xFF,
0xFF,
0xFF,
0xDB,
0x00,
0x24,
0xFF,
0xFF,
0xFF,
0x00,
0x91,
0xF9,
0xF9,
0xF9,
0xF9,
0xF5,
0xF5,
0x4C,
0x00,
0x00,
0x00,
0x00,
0x00,
0x00,
0x00,
0x00,
0x00,
0x00,
0x24,
0xFF,
0xFF,
0xFF,
0x24,
0x00,
0x00,
0x00,
0x00,
0x00,
0x00,
0x00,
0x00,
0x00,
0x00,
0x00,
0x24,
0x00,
0x00,
0x00,
0x00,
0x00,
0x00,
0x49,
0xFF,
0xFF,
0xB6,
0x00,
0x00,
0x49,
0xFF,
0xFF,
0xFF,
0x00,
0x00,
0x00,
0x00,
0x00,
0x00,
0x00,
0xDB,
0xFF,
0xFF,
0x00,
0x00,
0x00,
0xFF,
0xFF,
0xFF,
0x6D,
0x00,
0x00,
0x00,
0x00,
0x00,
0x00,
0x00,
0xFF,
0xFF,
0xFF,
0x6D,
0x00,
0x00,
0x00,
0x00,
0x00,
0x00,
0x49,
0xFF,
0xFF,
0xB6,
0x00,
0x00,
0x24,
0x00,
0x00,
0x00,
0x00,
0x00,
0x00,
0x00,
0xB6,
0xFF,
0xFF,
0x49,
0x00,
0x00,
0x00,
0xFF,
0xFF,
0xFF,
0x00,
0x70,
0xB9,
0xB9,
0xB9,
0xB9,
0x90,
0x00,
0xB6,
0xFF,
0xFF,
0xFF,
0xFF,
0x6D,
0x49,
0xFF,
0xFF,
0xFF,
0xFF,
0xFF,
0xFF,
0xFF,
0xFF,
0xFF,
0x92,
0x00,
0x00,
0x00,
0x00,
0x00,
0x04,
0x4D,
0xB6,
0xDB,
0xFF,
0xFF,
0xB6,
0x24,
0x00,
0xDB,
0xFF,
0xFF,
0xFF,
0x24,
0x8C,
0xF9,
0xF9,
0xF9,
0xF5,
0xF5,
0xD5,
0x28,
0x00,
0x00,
0x00,
0x00,
0x00,
0x00,
0x00,
0x00,
0x00,
0x00,
0x24,
0xFF,
0xFF,
0xFF,
0x24,
0x00,
0x00,
0x00,
0x00,
0x00,
0x00,
0x00,
0x00,
0x00,
0x00,
0x00,
0x00,
0x00,
0x00,
0x00,
0x00,
0x00,
0x24,
0x92,
0xFF,
0xFF,
0xB6,
0x00,
0x00,
0x6D,
0xFF,
0xFF,
0xDB,
0x92,
0x92,
0x92,
0x92,
0x92,
0x92,
0x92,
0xDB,
0xFF,
0xFF,
0x24,
0x00,
0x00,
0xFF,
0xFF,
0xFF,
0x24,
0x00,
0x00,
0x00,
0x00,
0x00,
0x00,
0x00,
0xFF,
0xFF,
0xFF,
0x00,
0x00,
0x00,
0x00,
0x00,
0x00,
0x00,
0x49,
0xFF,
0xFF,
0xB6,
0x00,
0x00,
0x00,
0x00,
0x00,
0x00,
0x00,
0x00,
0x00,
0x6D,
0xDB,
0xFF,
0xFF,
0x49,
0x00,
0x00,
0x00,
0xFF,
0xFF,
0xFF,
0x00,
0x48,
0xB9,
0xB9,
0xB9,
0xB9,
0x6C,
0x00,
0xDB,
0xFF,
0xFF,
0xFF,
0xFF,
0x6D,
0x49,
0xFF,
0xFF,
0xFF,
0xFF,
0xFF,
0xFF,
0xFF,
0xFF,
0xDB,
0x00,
0x00,
0x92,
0xDB,
0xDB,
0xB6,
0x49,
0x00,
0x00,
0x00,
0x24,
0x24,
0x00,
0x00,
0xDB,
0xFF,
0xFF,
0xFF,
0xFF,
0x49,
0x68,
0xF9,
0xF9,
0xF5,
0xF5,
0xF5,
0xB5,
0x04,
0x00,
0x00,
0x00,
0x00,
0x00,
0x00,
0x00,
0x00,
0x00,
0x00,
0x24,
0xFF,
0xFF,
0xFF,
0x24,
0x00,
0x00,
0x00,
0x00,
0x00,
0x00,
0x00,
0x00,
0x00,
0x00,
0x00,
0x00,
0x00,
0x00,
0x00,
0x49,
0xB6,
0xFF,
0xFF,
0xFF,
0xFF,
0xB6,
0x00,
0x00,
0x92,
0xFF,
0xFF,
0xFF,
0xFF,
0xFF,
0xFF,
0xFF,
0xFF,
0xFF,
0xFF,
0xFF,
0xFF,
0xFF,
0x49,
0x00,
0x00,
0xFF,
0xFF,
0xFF,
0x00,
0x00,
0x00,
0x00,
0x00,
0x00,
0x00,
0x24,
0xFF,
0xFF,
0xFF,
0x00,
0x00,
0x00,
0x00,
0x00,
0x00,
0x00,
0x49,
0xFF,
0xFF,
0xB6,
0x00,
0x00,
0x00,
0x00,
0x00,
0x00,
0x24,
0x92,
0xFF,
0xFF,
0xFF,
0xFF,
0xFF,
0x49,
0x00,
0x00,
0x00,
0xFF,
0xFF,
0xFF,
0x00,
0x04,
0x99,
0xB9,
0xB9,
0xB9,
0x4C,
0x00,
0xFF,
0xFF,
0xFF,
0xFF,
0xFF,
0x92,
0x00,
0xDB,
0xFF,
0xFF,
0xFF,
0xFF,
0xFF,
0xFF,
0xB6,
0x00,
0x24,
0xFF,
0xFF,
0xFF,
0xFF,
0xFF,
0xFF,
0xFF,
0xDB,
0x92,
0x6D,
0x49,
0x00,
0xDB,
0xFF,
0xFF,
0xFF,
0xFF,
0xFF,
0x49,
0x48,
0xF9,
0xF5,
0xF5,
0xF5,
0xF1,
0x91,
0x00,
0x00,
0x00,
0x00,
0x00,
0x00,
0x00,
0x00,
0x00,
0x00,
0x00,
0x24,
0xFF,
0xFF,
0xFF,
0x24,
0x00,
0x00,
0x00,
0x00,
0x00,
0x00,
0x00,
0x00,
0x00,
0x00,
0x00,
0x00,
0x00,
0x92,
0xFF,
0xFF,
0xFF,
0x92,
0x6D,
0xFF,
0xFF,
0xB6,
0x00,
0x00,
0x92,
0xFF,
0xFF,
0xB6,
0x92,
0x92,
0x92,
0x92,
0x92,
0x92,
0x92,
0x92,
0x92,
0x92,
0x24,
0x00,
0x00,
0xFF,
0xFF,
0xFF,
0x00,
0x00,
0x00,
0x00,
0x00,
0x00,
0x00,
0x24,
0xFF,
0xFF,
0xFF,
0x00,
0x00,
0x00,
0x00,
0x00,
0x00,
0x00,
0x49,
0xFF,
0xFF,
0xB6,
0x00,
0x00,
0x00,
0x00,
0x49,
0xDB,
0xFF,
0xFF,
0xB6,
0x49,
0xDB,
0xFF,
0xFF,
0x49,
0x00,
0x00,
0x00,
0xFF,
0xFF,
0xFF,
0x00,
0x00,
0x75,
0xB9,
0xB9,
0xB9,
0x48,
0x00,
0xFF,
0xFF,
0xFF,
0xFF,
0xFF,
0x6D,
0x00,
0x49,
0xFF,
0xFF,
0xFF,
0xFF,
0xFF,
0x6D,
0x00,
0x24,
0xFF,
0xFF,
0xFF,
0xFF,
0xFF,
0xFF,
0xFF,
0xFF,
0xFF,
0xFF,
0xFF,
0xFF,
0x00,
0x00,
0x49,
0xFF,
0xFF,
0xFF,
0xFF,
0x49,
0x48,
0xF5,
0xF5,
0xF5,
0xF1,
0xD1,
0x4C,
0x00,
0x00,
0x00,
0x00,
0x00,
0x00,
0x00,
0x00,
0x00,
0x00,
0x00,
0x24,
0xFF,
0xFF,
0xFF,
0x24,
0x00,
0x00,
0x00,
0x00,
0x00,
0x00,
0x00,
0x00,
0x00,
0x00,
0x00,
0x24,
0xFF,
0xFF,
0xFF,
0x6D,
0x00,
0x00,
0x49,
0xFF,
0xFF,
0xB6,
0x00,
0x00,
0x6D,
0xFF,
0xFF,
0xDB,
0x00,
0x00,
0x00,
0x00,
0x00,
0x00,
0x00,
0x00,
0x00,
0x00,
0x00,
0x00,
0x00,
0xFF,
0xFF,
0xFF,
0x00,
0x00,
0x00,
0x00,
0x00,
0x00,
0x00,
0x00,
0xFF,
0xFF,
0xFF,
0x00,
0x00,
0x00,
0x00,
0x00,
0x00,
0x00,
0x49,
0xFF,
0xFF,
0xB6,
0x00,
0x00,
0x00,
0x92,
0xFF,
0xFF,
0xB6,
0x24,
0x00,
0x00,
0xB6,
0xFF,
0xFF,
0x49,
0x00,
0x00,
0x00,
0xFF,
0xFF,
0xFF,
0x00,
0x00,
0x4C,
0xB9,
0xB9,
0xB9,
0x4C,
0x00,
0xFF,
0xFF,
0xFF,
0xFF,
0xFF,
0xDB,
0x24,
0x00,
0x6D,
0xFF,
0xFF,
0x6D,
0x00,
0x00,
0x6D,
0xFF,
0xFF,
0xFF,
0xFF,
0xFF,
0xFF,
0xFF,
0xFF,
0xFF,
0xFF,
0xFF,
0xFF,
0xFF,
0x00,
0x00,
0xDB,
0xFF,
0xFF,
0xFF,
0xFF,
0x49,
0x68,
0xF5,
0xF5,
0xF1,
0xED,
0xB1,
0x24,
0x00,
0x00,
0x00,
0x00,
0x00,
0x00,
0x00,
0x00,
0x00,
0x00,
0x00,
0x24,
0xFF,
0xFF,
0xFF,
0x24,
0x00,
0x00,
0x00,
0x00,
0x00,
0x00,
0x00,
0x00,
0x00,
0x00,
0x00,
0xDB,
0xFF,
0xFF,
0x49,
0x00,
0x00,
0x00,
0x49,
0xFF,
0xFF,
0xB6,
0x00,
0x00,
0x24,
0xFF,
0xFF,
0xFF,
0x24,
0x00,
0x00,
0x00,
0x00,
0x00,
0x00,
0x00,
0x00,
0x00,
0x00,
0x00,
0x00,
0xFF,
0xFF,
0xFF,
0x00,
0x00,
0x00,
0x00,
0x00,
0x00,
0x00,
0x00,
0xDB,
0xFF,
0xFF,
0x49,
0x00,
0x00,
0x00,
0x00,
0x00,
0x00,
0x49,
0xFF,
0xFF,
0xB6,
0x00,
0x00,
0x49,
0xFF,
0xFF,
0xDB,
0x00,
0x00,
0x00,
0x00,
0xB6,
0xFF,
0xFF,
0x49,
0x00,
0x00,
0x00,
0xFF,
0xFF,
0xFF,
0x00,
0x00,
0x00,
0x99,
0xB9,
0xB9,
0x6C,
0x00,
0xFF,
0xFF,
0xFF,
0xFF,
0xFF,
0xFF,
0xDB,
0x24,
0x00,
0x00,
0x00,
0x49,
0x92,
0xDB,
0xFF,
0xFF,
0xFF,
0xFF,
0xFF,
0xFF,
0xFF,
0xFF,
0xFF,
0xFF,
0xFF,
0xFF,
0xFF,
0xB6,
0x00,
0x92,
0xFF,
0xFF,
0xFF,
0xFF,
0xFF,
0x24,
0x8C,
0xF1,
0xF1,
0xED,
0xCC,
0x71,
0x00,
0x00,
0x00,
0x00,
0x00,
0x00,
0x00,
0x00,
0x00,
0x00,
0x00,
0x00,
0x24,
0xFF,
0xFF,
0xFF,
0x24,
0x00,
0x00,
0x00,
0x00,
0x00,
0x00,
0x00,
0x00,
0x00,
0x00,
0x00,
0xFF,
0xFF,
0xFF,
0x00,
0x00,
0x00,
0x00,
0x49,
0xFF,
0xFF,
0xB6,
0x00,
0x00,
0x00,
0xDB,
0xFF,
0xFF,
0xDB,
0x00,
0x00,
0x00,
0x00,
0x00,
0x00,
0x00,
0x00,
0x6D,
0x00,
0x00,
0x00,
0xFF,
0xFF,
0xFF,
0x00,
0x00,
0x00,
0x00,
0x00,
0x00,
0x00,
0x00,
0x6D,
0xFF,
0xFF,
0xDB,
0x00,
0x00,
0x00,
0x00,
0x00,
0x00,
0x49,
0xFF,
0xFF,
0xB6,
0x00,
0x00,
0x92,
0xFF,
0xFF,
0x6D,
0x00,
0x00,
0x00,
0x00,
0xB6,
0xFF,
0xFF,
0x49,
0x00,
0x00,
0x00,
0xFF,
0xFF,
0xFF,
0x00,
0x00,
0x00,
0x70,
0xB9,
0xB9,
0x94,
0x00,
0xB6,
0xFF,
0xFF,
0xFF,
0xFF,
0xFF,
0xFF,
0xB6,
0x00,
0x24,
0xDB,
0xFF,
0xFF,
0xFF,
0xFF,
0xFF,
0xFF,
0xFF,
0xFF,
0xFF,
0xFF,
0xFF,
0xFF,
0xFF,
0xFF,
0xFF,
0xFF,
0x49,
0x24,
0xFF,
0xFF,
0xFF,
0xFF,
0xFF,
0xFF,
0x00,
0xD1,
0xF1,
0xED,
0xCC,
0xB0,
0x24,
0x00,
0x00,
0x00,
0x00,
0x00,
0x00,
0x00,
0x00,
0x00,
0x00,
0x00,
0x00,
0x24,
0xFF,
0xFF,
0xFF,
0x6D,
0x49,
0x49,
0x49,
0x49,
0x49,
0x49,
0x49,
0x49,
0x49,
0x24,
0x24,
0xFF,
0xFF,
0xFF,
0x00,
0x00,
0x00,
0x00,
0x49,
0xFF,
0xFF,
0xB6,
0x00,
0x00,
0x00,
0x49,
0xFF,
0xFF,
0xFF,
0xDB,
0x49,
0x00,
0x00,
0x00,
0x00,
0x6D,
0xDB,
0xFF,
0x00,
0x00,
0x00,
0xFF,
0xFF,
0xFF,
0x00,
0x00,
0x00,
0x00,
0x00,
0x00,
0x00,
0x00,
0x00,
0xFF,
0xFF,
0xFF,
0xB6,
0x24,
0x00,
0x00,
0x00,
0x00,
0x49,
0xFF,
0xFF,
0xB6,
0x00,
0x00,
0xB6,
0xFF,
0xFF,
0x92,
0x00,
0x00,
0x00,
0x00,
0xDB,
0xFF,
0xFF,
0x49,
0x00,
0x00,
0x00,
0xFF,
0xFF,
0xFF,
0x00,
0x00,
0x00,
0x24,
0x99,
0xB9,
0xB9,
0x24,
0x49,
0xFF,
0xFF,
0xFF,
0xFF,
0xFF,
0xFF,
0xFF,
0x6D,
0x24,
0xFF,
0xFF,
0xFF,
0xFF,
0xFF,
0xFF,
0xFF,
0xFF,
0xFF,
0xFF,
0xFF,
0xFF,
0xFF,
0xFF,
0xFF,
0xFF,
0xDB,
0x00,
0xB6,
0xFF,
0xFF,
0xFF,
0xFF,
0xFF,
0x92,
0x24,
0xF1,
0xED,
0xCC,
0xC8,
0x70,
0x00,
0x00,
0x00,
0x00,
0x00,
0x00,
0x00,
0x00,
0x00,
0x00,
0x00,
0x00,
0x00,
0x24,
0xFF,
0xFF,
0xFF,
0xFF,
0xFF,
0xFF,
0xFF,
0xFF,
0xFF,
0xFF,
0xFF,
0xFF,
0xFF,
0xB6,
0x00,
0xFF,
0xFF,
0xFF,
0xB6,
0x49,
0x24,
0x6D,
0xFF,
0xFF,
0xFF,
0xDB,
0x49,
0xB6,
0x00,
0x00,
0x92,
0xFF,
0xFF,
0xFF,
0xFF,
0xFF,
0xFF,
0xFF,
0xFF,
0xFF,
0xFF,
0xFF,
0x00,
0x00,
0x00,
0xFF,
0xFF,
0xFF,
0x00,
0x00,
0x00,
0x00,
0x00,
0x00,
0x00,
0x00,
0x00,
0x49,
0xFF,
0xFF,
0xFF,
0xFF,
0xFF,
0xDB,
0xDB,
0xDB,
0xDB,
0xFF,
0xFF,
0xB6,
0x00,
0x00,
0x6D,
0xFF,
0xFF,
0xFF,
0x6D,
0x24,
0x49,
0xDB,
0xFF,
0xFF,
0xFF,
0x6D,
0x6D,
0x6D,
0x00,
0xFF,
0xFF,
0xFF,
0x00,
0x00,
0x00,
0x00,
0x4C,
0xB9,
0xD9,
0x95,
0x00,
0x92,
0xFF,
0xFF,
0xFF,
0xFF,
0xFF,
0xFF,
0xFF,
0x24,
0x6D,
0xFF,
0xFF,
0xFF,
0xFF,
0xFF,
0xFF,
0xFF,
0xFF,
0xFF,
0xFF,
0xFF,
0xFF,
0xFF,
0xFF,
0xFF,
0x4D,
0x49,
0xFF,
0xFF,
0xFF,
0xFF,
0xFF,
0xFF,
0x24,
0x88,
0xEC,
0xCC,
0xC8,
0xB0,
0x24,
0x00,
0x00,
0x00,
0x00,
0x00,
0x00,
0x00,
0x00,
0x00,
0x00,
0x00,
0x00,
0x00,
0x24,
0xFF,
0xFF,
0xFF,
0xFF,
0xFF,
0xFF,
0xFF,
0xFF,
0xFF,
0xFF,
0xFF,
0xFF,
0xFF,
0xB6,
0x00,
0x6D,
0xFF,
0xFF,
0xFF,
0xFF,
0xFF,
0xFF,
0xB6,
0xFF,
0xFF,
0xFF,
0xFF,
0xFF,
0x00,
0x00,
0x00,
0x92,
0xFF,
0xFF,
0xFF,
0xFF,
0xFF,
0xFF,
0xFF,
0xFF,
0xFF,
0x6D,
0x00,
0x00,
0x00,
0xFF,
0xFF,
0xFF,
0x00,
0x00,
0x00,
0x00,
0x00,
0x00,
0x00,
0x00,
0x00,
0x00,
0x24,
0xDB,
0xFF,
0xFF,
0xFF,
0xFF,
0xFF,
0xFF,
0xFF,
0xFF,
0xFF,
0xB6,
0x00,
0x00,
0x00,
0xDB,
0xFF,
0xFF,
0xFF,
0xFF,
0xFF,
0xDB,
0xDB,
0xFF,
0xFF,
0xFF,
0xFF,
0x6D,
0x00,
0xFF,
0xFF,
0xFF,
0x00,
0x00,
0x00,
0x00,
0x00,
0x95,
0xD9,
0xD9,
0x48,
0x00,
0xB6,
0xFF,
0xFF,
0xFF,
0xFF,
0xFF,
0xFF,
0xDB,
0x00,
0xDB,
0xFF,
0xFF,
0xFF,
0xFF,
0xFF,
0xFF,
0xFF,
0xFF,
0xFF,
0xFF,
0xFF,
0xFF,
0xFF,
0xFF,
0x00,
0xB6,
0xFF,
0xFF,
0xFF,
0xFF,
0xFF,
0xB6,
0x20,
0xCC,
0xCC,
0xC8,
0xA8,
0x6C,
0x00,
0x00,
0x00,
0x00,
0x00,
0x00,
0x00,
0x00,
0x00,
0x00,
0x00,
0x00,
0x00,
0x00,
0x24,
0xB6,
0xB6,
0xB6,
0xB6,
0xB6,
0xB6,
0xB6,
0xB6,
0xB6,
0xB6,
0xB6,
0xB6,
0xB6,
0x92,
0x00,
0x00,
0x6D,
0xDB,
0xFF,
0xFF,
0xB6,
0x49,
0x00,
0x92,
0xFF,
0xFF,
0xB6,
0x24,
0x00,
0x00,
0x00,
0x00,
0x24,
0xB6,
0xFF,
0xFF,
0xFF,
0xFF,
0xDB,
0x92,
0x24,
0x00,
0x00,
0x00,
0x00,
0xB6,
0xB6,
0xB6,
0x00,
0x00,
0x00,
0x00,
0x00,
0x00,
0x00,
0x00,
0x00,
0x00,
0x00,
0x00,
0x49,
0x92,
0xB6,
0xB6,
0xB6,
0xB6,
0xB6,
0xB6,
0xB6,
0x92,
0x00,
0x00,
0x00,
0x24,
0xB6,
0xFF,
0xFF,
0xDB,
0x6D,
0x00,
0x49,
0xFF,
0xFF,
0xDB,
0x6D,
0x00,
0x00,
0xB6,
0xB6,
0xB6,
0x00,
0x00,
0x00,
0x00,
0x00,
0x24,
0xB9,
0xD9,
0xD9,
0x48,
0x00,
0x92,
0xFF,
0xFF,
0xFF,
0xFF,
0xFF,
0xFF,
0xB6,
0x00,
0x92,
0xFF,
0xFF,
0xFF,
0xFF,
0xFF,
0xFF,
0xFF,
0xFF,
0xFF,
0xFF,
0xFF,
0xFF,
0x6D,
0x24,
0xFF,
0xFF,
0xFF,
0xFF,
0xFF,
0xDB,
0x00,
0x88,
0xCC,
0xC8,
0xC8,
0x70,
0x00,
0x00,
0x00,
0x00,
0x00,
0x00,
0x00,
0x00,
0x00,
0x00,
0x00,
0x00,
0x00,
0x00,
0x00,
0x00,
0x00,
0x00,
0x00,
0x00,
0x00,
0x00,
0x00,
0x00,
0x00,
0x00,
0x00,
0x00,
0x00,
0x00,
0x00,
0x00,
0x00,
0x00,
0x00,
0x00,
0x00,
0x00,
0x00,
0x00,
0x00,
0x00,
0x00,
0x00,
0x00,
0x00,
0x00,
0x00,
0x00,
0x00,
0x00,
0x00,
0x00,
0x00,
0x00,
0x00,
0x00,
0x00,
0x00,
0x00,
0x00,
0x00,
0x00,
0x00,
0x00,
0x00,
0x00,
0x00,
0x00,
0x00,
0x00,
0x00,
0x00,
0x00,
0x00,
0x00,
0x00,
0x00,
0x00,
0x00,
0x00,
0x00,
0x00,
0x00,
0x00,
0x00,
0x00,
0x00,
0x00,
0x00,
0x00,
0x00,
0x00,
0x00,
0x00,
0x00,
0x00,
0x00,
0x00,
0x00,
0x00,
0x00,
0x00,
0x00,
0x00,
0x00,
0x00,
0x00,
0x00,
0x00,
0x00,
0x00,
0x48,
0xB9,
0xD9,
0xD9,
0x6C,
0x00,
0x49,
0xFF,
0xFF,
0xFF,
0xFF,
0xFF,
0xFF,
0xDB,
0x49,
0x29,
0xDB,
0xFF,
0xFF,
0xFF,
0xFF,
0xFF,
0xFF,
0xDB,
0xFF,
0xFF,
0xFF,
0x00,
0x92,
0xFF,
0xFF,
0xFF,
0xFF,
0xFF,
0x24,
0x44,
0xCC,
0xC8,
0xC4,
0x91,
0x00,
0x00,
0x00,
0x00,
0x00,
0x00,
0x00,
0x00,
0x00,
0x00,
0x00,
0x00,
0x00,
0x00,
0x00,
0x00,
0x00,
0x00,
0x00,
0x00,
0x00,
0x00,
0x00,
0x00,
0x00,
0x00,
0x00,
0x00,
0x00,
0x00,
0x00,
0x00,
0x00,
0x00,
0x00,
0x00,
0x00,
0x00,
0x00,
0x00,
0x00,
0x00,
0x00,
0x00,
0x00,
0x00,
0x00,
0x00,
0x00,
0x00,
0x00,
0x00,
0x00,
0x00,
0x00,
0x00,
0x00,
0x00,
0x00,
0x00,
0x00,
0x00,
0x00,
0x00,
0x00,
0x00,
0x00,
0x00,
0x00,
0x00,
0x00,
0x00,
0x00,
0x00,
0x00,
0x00,
0x00,
0x00,
0x00,
0x00,
0x00,
0x00,
0x00,
0x00,
0x00,
0x00,
0x00,
0x00,
0x00,
0x00,
0x00,
0x00,
0x00,
0x00,
0x00,
0x00,
0x00,
0x00,
0x00,
0x00,
0x00,
0x00,
0x00,
0x00,
0x00,
0x00,
0x00,
0x00,
0x00,
0x00,
0x00,
0x00,
0x00,
0x00,
0x4C,
0xB9,
0xD9,
0xD9,
0x90,
0x00,
0x24,
0xB6,
0xFF,
0xFF,
0xFF,
0xFF,
0xFF,
0xFF,
0xB6,
0x6D,
0x92,
0xFF,
0xFF,
0x92,
0x6D,
0x49,
0x24,
0x00,
0xB6,
0x92,
0x00,
0xDB,
0xFF,
0xFF,
0xFF,
0xFF,
0x24,
0x20,
0xC8,
0xC8,
0xC4,
0xB0,
0x28,
0x00,
0x00,
0x00,
0x00,
0x00,
0x00,
0x00,
0x00,
0x00,
0x00,
0x00,
0x00,
0x00,
0x00,
0x00,
0x00,
0x00,
0x00,
0x00,
0x00,
0x00,
0x00,
0x00,
0x00,
0x00,
0x00,
0x00,
0x00,
0x00,
0x00,
0x00,
0x00,
0x00,
0x00,
0x00,
0x00,
0x00,
0x00,
0x00,
0x00,
0x00,
0x00,
0x00,
0x00,
0x00,
0x00,
0x00,
0x00,
0x00,
0x00,
0x00,
0x00,
0x00,
0x00,
0x00,
0x00,
0x00,
0x00,
0x00,
0x00,
0x00,
0x00,
0x00,
0x00,
0x00,
0x00,
0x00,
0x00,
0x00,
0x00,
0x00,
0x00,
0x00,
0x00,
0x00,
0x00,
0x00,
0x00,
0x00,
0x00,
0x00,
0x00,
0x00,
0x00,
0x00,
0x00,
0x00,
0x00,
0x00,
0x00,
0x00,
0x00,
0x00,
0x00,
0x00,
0x00,
0x00,
0x00,
0x00,
0x00,
0x00,
0x00,
0x00,
0x00,
0x00,
0x00,
0x00,
0x00,
0x00,
0x00,
0x00,
0x00,
0x00,
0x00,
0x00,
0x4C,
0xB9,
0xD9,
0xD9,
0xD9,
0x24,
0x00,
0x24,
0xB6,
0xFF,
0xFF,
0xFF,
0xFF,
0xFF,
0xFF,
0xFF,
0xFF,
0xFF,
0xFF,
0xFF,
0xFF,
0xFF,
0x6D,
0x24,
0x00,
0x6D,
0xFF,
0xFF,
0xFF,
0xDB,
0x24,
0x20,
0xC8,
0xC8,
0xC4,
0x90,
0x28,
0x00,
0x00,
0x00,
0x00,
0x00,
0x00,
0x00,
0x00,
0x00,
0x00,
0x00,
0x00,
0x00,
0x00,
0x00,
0x00,
0x00,
0x00,
0x00,
0x00,
0x00,
0x00,
0x00,
0x00,
0x00,
0x00,
0x00,
0x00,
0x00,
0x00,
0x00,
0x00,
0x00,
0x00,
0x00,
0x00,
0x00,
0x00,
0x00,
0x00,
0x00,
0x00,
0x00,
0x00,
0x00,
0x00,
0x00,
0x00,
0x00,
0x00,
0x00,
0x00,
0x00,
0x00,
0x00,
0x00,
0x00,
0x00,
0x00,
0x00,
0x00,
0x00,
0x00,
0x00,
0x00,
0x00,
0x00,
0x00,
0x00,
0x00,
0x00,
0x00,
0x00,
0x00,
0x00,
0x00,
0x00,
0x00,
0x00,
0x00,
0x00,
0x00,
0x00,
0x00,
0x00,
0x00,
0x00,
0x00,
0x00,
0x00,
0x00,
0x00,
0x00,
0x00,
0x00,
0x00,
0x00,
0x00,
0x00,
0x00,
0x00,
0x00,
0x00,
0x00,
0x00,
0x00,
0x00,
0x00,
0x00,
0x00,
0x00,
0x00,
0x00,
0x00,
0x00,
0x00,
0x00,
0x4C,
0xB9,
0xD9,
0xD9,
0x44,
0x49,
0x49,
0x00,
0x49,
0xDB,
0xFF,
0xFF,
0xFF,
0xFF,
0xFF,
0xFF,
0xFF,
0xFF,
0xFF,
0xFF,
0xFF,
0xDB,
0x00,
0x00,
0xFF,
0xFF,
0xFF,
0xB6,
0x00,
0x20,
0xC8,
0xC8,
0xC4,
0x90,
0x24,
0x00,
0x00,
0x00,
0x00,
0x00,
0x00,
0x00,
0x00,
0x00,
0x00,
0x00,
0x00,
0x00,
0x00,
0x00,
0x00,
0x00,
0x00,
0x24,
0x99,
0x99,
0x99,
0x99,
0x99,
0x99,
0x99,
0x99,
0x99,
0x99,
0x99,
0x99,
0x99,
0x99,
0x99,
0x99,
0x99,
0x99,
0x99,
0x99,
0x99,
0x99,
0x99,
0x99,
0x99,
0x99,
0x99,
0x99,
0x99,
0x99,
0x99,
0x99,
0x99,
0x99,
0x99,
0x99,
0x99,
0x99,
0x99,
0x99,
0x99,
0x99,
0x99,
0x99,
0x99,
0x99,
0x99,
0x99,
0x99,
0x99,
0x99,
0x99,
0x99,
0x99,
0x99,
0x99,
0x99,
0x99,
0x99,
0x99,
0x99,
0x99,
0x99,
0x99,
0x99,
0x99,
0x99,
0x99,
0x99,
0x99,
0x99,
0x99,
0x99,
0x99,
0x99,
0x99,
0x99,
0x99,
0x99,
0x99,
0x99,
0x99,
0x99,
0x99,
0x99,
0x99,
0x99,
0x99,
0x99,
0x99,
0x00,
0x00,
0x00,
0x00,
0x00,
0x00,
0x00,
0x00,
0x00,
0x00,
0x28,
0xB9,
0xD9,
0x48,
0x49,
0xFF,
0xB6,
0x49,
0x00,
0x49,
0xB6,
0xFF,
0xFF,
0xFF,
0xFF,
0xFF,
0xFF,
0xFF,
0xFF,
0xFF,
0xB6,
0x00,
0x92,
0xFF,
0xFF,
0x6D,
0x00,
0x64,
0xC8,
0xC8,
0xA8,
0x91,
0x24,
0x00,
0x00,
0x00,
0x00,
0x00,
0x00,
0x00,
0x00,
0x00,
0x00,
0x00,
0x00,
0x00,
0x00,
0x00,
0x00,
0x00,
0x00,
0x00,
0x00,
0x99,
0x99,
0x99,
0x99,
0x99,
0x99,
0x99,
0x99,
0x99,
0x99,
0x99,
0x99,
0x99,
0x99,
0x99,
0x99,
0x99,
0x99,
0x99,
0x99,
0x99,
0x99,
0x99,
0x99,
0x99,
0x99,
0x99,
0x99,
0x99,
0x99,
0x99,
0x99,
0x99,
0x99,
0x99,
0x99,
0x99,
0x99,
0x99,
0x99,
0x99,
0x99,
0x99,
0x99,
0x99,
0x99,
0x99,
0x99,
0x99,
0x99,
0x99,
0x99,
0x99,
0x99,
0x99,
0x99,
0x99,
0x99,
0x99,
0x99,
0x99,
0x99,
0x99,
0x99,
0x99,
0x99,
0x99,
0x99,
0x99,
0x99,
0x99,
0x99,
0x99,
0x99,
0x99,
0x99,
0x99,
0x99,
0x99,
0x99,
0x99,
0x99,
0x99,
0x99,
0x99,
0x99,
0x99,
0x99,
0x99,
0x99,
0x00,
0x00,
0x00,
0x00,
0x00,
0x00,
0x00,
0x00,
0x00,
0x00,
0x00,
0x04,
0x71,
0x4C,
0x00,
0xFF,
0xFF,
0xFF,
0xDB,
0x6D,
0x00,
0x24,
0xDB,
0xFF,
0xFF,
0xFF,
0xFF,
0xFF,
0xFF,
0xFF,
0x49,
0x24,
0xFF,
0xFF,
0x24,
0x00,
0xA8,
0xC8,
0xC8,
0xAC,
0x4C,
0x00,
0x00,
0x00,
0x00,
0x00,
0x00,
0x00,
0x00,
0x00,
0x00,
0x00,
0x00,
0x00,
0x00,
0x00,
0x00,
0x00,
0x00,
0x00,
0x00,
0x00,
0x00,
0x00,
0x00,
0x00,
0x00,
0x00,
0x00,
0x00,
0x00,
0x00,
0x00,
0x00,
0x00,
0x00,
0x00,
0x00,
0x00,
0x00,
0x00,
0x00,
0x00,
0x00,
0x00,
0x00,
0x00,
0x00,
0x00,
0x00,
0x00,
0x00,
0x00,
0x00,
0x00,
0x00,
0x00,
0x00,
0x00,
0x00,
0x00,
0x00,
0x00,
0x00,
0x00,
0x00,
0x00,
0x00,
0x00,
0x00,
0x00,
0x00,
0x00,
0x00,
0x00,
0x00,
0x00,
0x00,
0x00,
0x00,
0x00,
0x00,
0x00,
0x00,
0x00,
0x00,
0x00,
0x00,
0x00,
0x00,
0x00,
0x00,
0x00,
0x00,
0x00,
0x00,
0x00,
0x00,
0x00,
0x00,
0x00,
0x00,
0x00,
0x00,
0x00,
0x00,
0x00,
0x00,
0x00,
0x00,
0x00,
0x00,
0x00,
0x00,
0x00,
0x00,
0x00,
0x00,
0x00,
0x00,
0x00,
0x00,
0x00,
0x00,
0x00,
0x00,
0x24,
0x00,
0x92,
0xFF,
0xFF,
0xFF,
0xFF,
0xDB,
0x49,
0x00,
0x92,
0xFF,
0xFF,
0xFF,
0xFF,
0xFF,
0xDB,
0x00,
0x92,
0xDB,
0x24,
0x20,
0xA8,
0xC8,
0xAC,
0x70,
0x24,
0x00,
0x00,
0x00,
0x00,
0x00,
0x00,
0x00,
0x00,
0x00,
0x00,
0x00,
0x00,
0x00,
0x00,
0x00,
0x00,
0x00,
0x00,
0x00,
0x00,
0x00,
0x00,
0x00,
0x00,
0x00,
0x00,
0x00,
0x00,
0x00,
0x00,
0x00,
0x00,
0x00,
0x00,
0x00,
0x00,
0x00,
0x00,
0x00,
0x00,
0x00,
0x00,
0x00,
0x00,
0x00,
0x00,
0x00,
0x00,
0x00,
0x00,
0x00,
0x00,
0x00,
0x00,
0x00,
0x00,
0x00,
0x00,
0x00,
0x00,
0x00,
0x00,
0x00,
0x00,
0x00,
0x00,
0x00,
0x00,
0x00,
0x00,
0x00,
0x00,
0x00,
0x00,
0x00,
0x00,
0x00,
0x00,
0x00,
0x00,
0x00,
0x00,
0x00,
0x00,
0x00,
0x00,
0x00,
0x00,
0x00,
0x00,
0x00,
0x00,
0x00,
0x00,
0x00,
0x00,
0x00,
0x00,
0x00,
0x00,
0x00,
0x00,
0x00,
0x00,
0x00,
0x00,
0x00,
0x00,
0x00,
0x00,
0x00,
0x00,
0x00,
0x00,
0x00,
0x00,
0x00,
0x00,
0x00,
0x00,
0x00,
0x00,
0x00,
0x00,
0x00,
0x00,
0x00,
0x00,
0x00,
0xDB,
0xFF,
0xFF,
0xFF,
0xFF,
0xFF,
0x6D,
0x00,
0x24,
0x92,
0xFF,
0xFF,
0xB6,
0x00,
0x6D,
0xFF,
0x24,
0x20,
0xC8,
0xB0,
0x71,
0x28,
0x00,
0x00,
0x00,
0x00,
0x00,
0x00,
0x00,
0x00,
0x00,
0x00,
0x00,
0x00,
0x00,
0x00,
0x00,
0x00,
0x00,
0x00,
0x00,
0x00,
0x00,
0x00,
0x00,
0x00,
0x00,
0x00,
0x00,
0x00,
0x00,
0x00,
0x00,
0x00,
0x00,
0x00,
0x00,
0x00,
0x00,
0x00,
0x00,
0x00,
0x00,
0x00,
0x00,
0x00,
0x00,
0x00,
0x00,
0x00,
0x00,
0x00,
0x00,
0x00,
0x00,
0x00,
0x00,
0x00,
0x00,
0x00,
0x00,
0x00,
0x00,
0x00,
0x00,
0x00,
0x00,
0x00,
0x00,
0x00,
0x00,
0x00,
0x00,
0x00,
0x00,
0x00,
0x00,
0x00,
0x00,
0x00,
0x00,
0x00,
0x00,
0x00,
0x00,
0x00,
0x00,
0x00,
0x00,
0x00,
0x00,
0x00,
0x00,
0x00,
0x00,
0x00,
0x00,
0x00,
0x00,
0x00,
0x00,
0x00,
0x00,
0x00,
0x00,
0x00,
0x00,
0x00,
0x00,
0x00,
0x00,
0x00,
0x00,
0x00,
0x00,
0x00,
0x00,
0x00,
0x00,
0x00,
0x00,
0x00,
0x00,
0x00,
0x00,
0x00,
0x00,
0x00,
0x00,
0x00,
0x00,
0x00,
0x00,
0x00,
0xDB,
0xFF,
0xFF,
0xFF,
0xFF,
0xFF,
0xDB,
0x24,
0x00,
0x00,
0x00,
0x00,
0x49,
0xFF,
0x6D,
0x00,
0x95,
0x4C,
0x04,
0x00,
0x00,
0x00,
0x00,
0x00,
0x00,
0x00,
0x00,
0x00,
0x00,
0x00,
0x00,
0x00,
0x00,
0x00,
0x00,
0x00,
0x00,
0x00,
0x00,
0x00,
0x00,
0x00,
0x00,
0x00,
0x00,
0x00,
0x00,
0x00,
0x00,
0x00,
0x00,
0x00,
0x00,
0x00,
0x00,
0x00,
0x00,
0x00,
0x00,
0x00,
0x00,
0x00,
0x00,
0x00,
0x00,
0x00,
0x00,
0x00,
0x00,
0x00,
0x00,
0x00,
0x00,
0x00,
0x00,
0x00,
0x00,
0x00,
0x00,
0x00,
0x00,
0x00,
0x00,
0x00,
0x00,
0x00,
0x00,
0x00,
0x00,
0x00,
0x00,
0x00,
0x00,
0x00,
0x00,
0x00,
0x00,
0x00,
0x00,
0x00,
0x00,
0x00,
0x00,
0x00,
0x00,
0x00,
0x00,
0x00,
0x00,
0x00,
0x00,
0x00,
0x00,
0x00,
0x00,
0x00,
0x00,
0x00,
0x00,
0x00,
0x00,
0x00,
0x00,
0x00,
0x00,
0x00,
0x00,
0x00,
0x00,
0x00,
0x00,
0x00,
0x00,
0x00,
0x00,
0x00,
0x00,
0x00,
0x00,
0x00,
0x00,
0x00,
0x00,
0x00,
0x00,
0x00,
0x00,
0x00,
0x00,
0x00,
0x00,
0x00,
0x00,
0x00,
0x6D,
0xDB,
0xFF,
0xFF,
0xFF,
0xDB,
0x49,
0x00,
0x00,
0x92,
0xDB,
0xFF,
0x92,
0x00,
0x00,
0x00,
0x00,
0x00,
0x00,
0x00,
0x00,
0x00,
0x00,
0x00,
0x00,
0x00,
0x00,
0x00,
0x00,
0x00,
0x00,
0x00,
0x00,
0x00,
0x00,
0x00,
0x00,
0x00,
0x00,
0x00,
0x00,
0x00,
0x00,
0x00,
0x00,
0x00,
0x00,
0x00,
0x00,
0x00,
0x00,
0x00,
0x00,
0x00,
0x00,
0x00,
0x00,
0x00,
0x00,
0x00,
0x00,
0x00,
0x00,
0x00,
0x00,
0x00,
0x49,
0x92,
0x00,
0x00,
0x00,
0x00,
0x00,
0x00,
0x00,
0x00,
0x49,
0xB6,
0x00,
0x00,
0x00,
0x00,
0x00,
0x00,
0x6D,
0x00,
0x00,
0x00,
0x00,
0x00,
0x00,
0x00,
0x00,
0x00,
0x00,
0x00,
0x00,
0x00,
0x00,
0x00,
0x00,
0x00,
0x00,
0x00,
0x00,
0x00,
0x00,
0x00,
0x00,
0x00,
0x00,
0x00,
0x00,
0x00,
0x00,
0x00,
0x00,
0x00,
0x49,
0xB6,
0x00,
0x6D,
0x00,
0x00,
0x00,
0x00,
0x00,
0x00,
0x00,
0x00,
0x00,
0x00,
0x00,
0x00,
0x00,
0x00,
0x00,
0x00,
0x00,
0x00,
0x00,
0x00,
0x00,
0x00,
0x00,
0x00,
0x00,
0x00,
0x00,
0x00,
0x00,
0x00,
0x00,
0x00,
0x00,
0x00,
0x24,
0x00,
0x00,
0x24,
0x92,
0xFF,
0xFF,
0xFF,
0xDB,
0x00,
0x00,
0x00,
0x00,
0x00,
0x00,
0x00,
0x00,
0x00,
0x00,
0x00,
0x00,
0x00,
0x00,
0x00,
0x00,
0x00,
0x00,
0x00,
0x00,
0x00,
0x00,
0x00,
0x00,
0x00,
0x00,
0x00,
0x00,
0x00,
0x00,
0x00,
0x00,
0x00,
0x00,
0x00,
0x00,
0x00,
0x00,
0x00,
0x00,
0x00,
0x00,
0x00,
0x00,
0x00,
0x00,
0x00,
0x00,
0x00,
0x00,
0x00,
0x00,
0x00,
0x00,
0x49,
0x92,
0x00,
0x00,
0x00,
0x00,
0x00,
0x00,
0x00,
0x00,
0x49,
0xB6,
0x00,
0x00,
0x00,
0x00,
0x00,
0x00,
0x6D,
0x00,
0x00,
0x00,
0x00,
0x00,
0x00,
0x00,
0x00,
0x00,
0x00,
0x00,
0x00,
0x00,
0x00,
0x00,
0x00,
0x00,
0x00,
0x00,
0x00,
0x00,
0x00,
0x00,
0x00,
0x00,
0x00,
0x00,
0x00,
0x00,
0x00,
0x00,
0x00,
0x00,
0x49,
0xB6,
0x00,
0x6D,
0x00,
0x00,
0x00,
0x00,
0x00,
0x00,
0x00,
0x00,
0x00,
0x00,
0x00,
0x00,
0x00,
0x00,
0x00,
0x00,
0x00,
0x00,
0x00,
0x00,
0x00,
0x00,
0x00,
0x00,
0x00,
0x00,
0x00,
0x00,
0x00,
0x00,
0x00,
0x00,
0x00,
0x00,
0x00,
0x00,
0x6D,
0xFF,
0xFF,
0xFF,
0xFF,
0xFF,
0x24,
0x00,
0x00,
0x00,
0x00,
0x00,
0x00,
0x00,
0x00,
0x00,
0x00,
0x00,
0x00,
0x00,
0x00,
0x00,
0x00,
0x00,
0x00,
0x00,
0x00,
0x00,
0x00,
0x00,
0x00,
0x00,
0x00,
0x00,
0x00,
0x00,
0x00,
0x00,
0x00,
0x00,
0x00,
0x00,
0x00,
0x00,
0x00,
0x00,
0x00,
0x00,
0x00,
0x00,
0x00,
0x00,
0x00,
0x00,
0x00,
0x00,
0x00,
0x00,
0x00,
0x00,
0x00,
0x49,
0xB6,
0x92,
0x92,
0x00,
0x00,
0x49,
0x92,
0x6D,
0x00,
0x49,
0xB6,
0x00,
0x92,
0x92,
0x6D,
0x00,
0x00,
0x92,
0x00,
0x6D,
0x49,
0x92,
0x49,
0x00,
0x00,
0x6D,
0x92,
0x92,
0x00,
0x00,
0x00,
0x00,
0x6D,
0x92,
0x49,
0x00,
0x92,
0x92,
0x24,
0x6D,
0x24,
0x00,
0x24,
0x49,
0x00,
0x92,
0x92,
0x24,
0x00,
0x00,
0x00,
0x49,
0xB6,
0x00,
0x6D,
0x04,
0x49,
0x00,
0x00,
0x6D,
0x00,
0x6D,
0x92,
0x49,
0x00,
0x6D,
0x92,
0x49,
0x00,
0x00,
0x00,
0x00,
0x00,
0x00,
0x00,
0x00,
0x00,
0x00,
0x00,
0x00,
0x00,
0x00,
0x00,
0x00,
0x00,
0x00,
0x00,
0x00,
0x00,
0x00,
0x00,
0x00,
0x24,
0x6D,
0x92,
0x6D,
0x00,
0x00,
0x00,
0x00,
0x00,
0x00,
0x00,
0x00,
0x00,
0x00,
0x00,
0x00,
0x00,
0x00,
0x00,
0x00,
0x00,
0x00,
0x00,
0x00,
0x00,
0x00,
0x00,
0x00,
0x00,
0x00,
0x00,
0x00,
0x00,
0x00,
0x00,
0x00,
0x00,
0x00,
0x00,
0x00,
0x00,
0x00,
0x00,
0x00,
0x00,
0x00,
0x00,
0x00,
0x00,
0x00,
0x00,
0x00,
0x00,
0x00,
0x00,
0x00,
0x00,
0x00,
0x00,
0x00,
0x49,
0xDB,
0x24,
0x6D,
0x92,
0x24,
0xDB,
0x24,
0x92,
0x6D,
0x49,
0xB6,
0x24,
0xFF,
0x49,
0x6D,
0xDB,
0x00,
0xFF,
0x00,
0xB6,
0x6D,
0x24,
0xDB,
0x00,
0xB6,
0x6D,
0x6D,
0xB6,
0x00,
0x00,
0x00,
0x49,
0xDB,
0x24,
0x49,
0x49,
0x49,
0x6D,
0xB6,
0x49,
0x92,
0x00,
0xDB,
0x24,
0xFF,
0x49,
0x49,
0xDB,
0x00,
0x00,
0x00,
0x49,
0xB6,
0x00,
0xDB,
0x00,
0xDB,
0x00,
0x49,
0xB6,
0xB6,
0x6D,
0x24,
0xDB,
0x24,
0xFF,
0x49,
0x49,
0x00,
0x00,
0x00,
0x00,
0x00,
0x00,
0x00,
0x00,
0x00,
0x00,
0x00,
0x00,
0x00,
0x00,
0x00,
0x00,
0x00,
0x00,
0x00,
0x00,
0x00,
0x00,
0x00,
0x00,
0x00,
0x00,
0x00,
0x00,
0x00,
0x00,
0x00,
0x00,
0x00,
0x00,
0x00,
0x00,
0x00,
0x00,
0x00,
0x00,
0x00,
0x00,
0x00,
0x00,
0x00,
0x00,
0x00,
0x00,
0x00,
0x00,
0x00,
0x00,
0x00,
0x00,
0x00,
0x00,
0x00,
0x00,
0x00,
0x00,
0x00,
0x00,
0x00,
0x00,
0x00,
0x00,
0x00,
0x00,
0x00,
0x00,
0x00,
0x00,
0x00,
0x00,
0x00,
0x00,
0x00,
0x00,
0x00,
0x00,
0x00,
0x00,
0x00,
0x00,
0x49,
0x92,
0x00,
0x49,
0xB6,
0x92,
0xDB,
0x92,
0xB6,
0x92,
0x49,
0xB6,
0x24,
0xFF,
0x00,
0x00,
0xDB,
0x24,
0xFF,
0x00,
0xB6,
0x00,
0x00,
0xB6,
0x00,
0xB6,
0x49,
0x49,
0xB6,
0x00,
0x00,
0x00,
0x00,
0xB6,
0xB6,
0x24,
0x00,
0x29,
0x6D,
0xDB,
0x00,
0xDB,
0x49,
0xB6,
0x24,
0xFF,
0x92,
0x92,
0xDB,
0x00,
0x00,
0x00,
0x49,
0xB6,
0x00,
0xDB,
0x00,
0x6D,
0x92,
0xB6,
0x24,
0xFF,
0x92,
0x92,
0xB6,
0x24,
0x92,
0xDB,
0x24,
0x00,
0x00,
0x00,
0x00,
0x00,
0x00,
0x00,
0x00,
0x00,
0x00,
0x00,
0x00,
0x00,
0x00,
0x00,
0x00,
0x00,
0x00,
0x00,
0x00,
0x00,
0x00,
0x00,
0x00,
0x00,
0x00,
0x00,
0x00,
0x00,
0x00,
0x00,
0x00,
0x00,
0x00,
0x00,
0x00,
0x00,
0x00,
0x00,
0x00,
0x00,
0x00,
0x00,
0x00,
0x00,
0x00,
0x00,
0x00,
0x00,
0x00,
0x00,
0x00,
0x00,
0x00,
0x00,
0x00,
0x00,
0x00,
0x00,
0x00,
0x00,
0x00,
0x00,
0x00,
0x00,
0x00,
0x00,
0x00,
0x00,
0x00,
0x00,
0x00,
0x00,
0x00,
0x00,
0x00,
0x00,
0x00,
0x00,
0x00,
0x00,
0x00,
0x00,
0x00,
0x49,
0x92,
0x00,
0x49,
0xB6,
0x6D,
0x92,
0x00,
0x00,
0x00,
0x49,
0xB6,
0x24,
0xFF,
0x00,
0x00,
0xFF,
0x24,
0xFF,
0x00,
0xB6,
0x00,
0x00,
0xB6,
0x00,
0x24,
0xDB,
0xB6,
0x24,
0x00,
0x00,
0x00,
0x00,
0x00,
0x92,
0xB6,
0x49,
0xB6,
0x00,
0xDB,
0x00,
0x92,
0xFF,
0x49,
0x24,
0xFF,
0x00,
0x00,
0x00,
0x00,
0x00,
0x00,
0x49,
0xB6,
0x00,
0xDB,
0x00,
0x00,
0xFF,
0xDB,
0x00,
0xFF,
0x24,
0x00,
0x00,
0x00,
0x00,
0x49,
0xDB,
0x00,
0x00,
0x00,
0x00,
0x00,
0x00,
0x00,
0x00,
0x00,
0x00,
0x00,
0x00,
0x00,
0x00,
0x00,
0x00,
0x00,
0x00,
0x00,
0x00,
0x00,
0x00,
0x00,
0x00,
0x00,
0x00,
0x00,
0x00,
0x00,
0x00,
0x00,
0x00,
0x00,
0x00,
0x00,
0x00,
0x00,
0x00,
0x00,
0x00,
0x00,
0x00,
0x00,
0x00,
0x00,
0x00,
0x00,
0x00,
0x00,
0x00,
0x00,
0x00,
0x00,
0x00,
0x00,
0x00,
0x00,
0x00,
0x00,
0x00,
0x00,
0x00,
0x00,
0x00,
0x00,
0x00,
0x00,
0x00,
0x00,
0x00,
0x00,
0x00,
0x00,
0x00,
0x00,
0x00,
0x00,
0x00,
0x00,
0x00,
0x00,
0x00,
0x00,
0x00,
0x49,
0x92,
0x00,
0x49,
0xB6,
0x00,
0xDB,
0xB6,
0xDB,
0x6D,
0x49,
0xB6,
0x24,
0xFF,
0xB6,
0xDB,
0x92,
0x00,
0xFF,
0x00,
0xB6,
0x00,
0x00,
0xB6,
0x00,
0x6D,
0xB6,
0x6D,
0x00,
0x00,
0x00,
0x00,
0x49,
0xDB,
0xB6,
0x92,
0x6D,
0xDB,
0x92,
0xFF,
0x49,
0x00,
0xDB,
0x00,
0x00,
0x6D,
0xDB,
0xB6,
0xDB,
0x00,
0x00,
0x00,
0x49,
0xB6,
0x00,
0xDB,
0x00,
0x00,
0x92,
0x6D,
0x00,
0x49,
0xDB,
0xB6,
0xDB,
0x49,
0xDB,
0xB6,
0xDB,
0x00,
0x00,
0x00,
0x00,
0x00,
0x00,
0x00,
0x00,
0x00,
0x00,
0x00,
0x00,
0x00,
0x00,
0x00,
0x00,
0x00,
0x00,
0x00,
0x00,
0x00,
0x00,
0x00,
0x00,
0x00,
0x00,
0x00,
0x00,
0x00,
0x00,
0x00,
0x00,
0x00,
0x00,
0x00,
0x00,
0x00,
0x00,
0x00,
0x00,
0x00,
0x00,
0x00,
0x00,
0x00,
0x00,
0x00,
0x00,
0x00,
0x00,
0x00,
0x00,
0x00,
0x00,
0x00,
0x00,
0x00,
0x00,
0x00,
0x00,
0x00,
0x00,
0x00,
0x00,
0x00,
0x00,
0x00,
0x00,
0x00,
0x00,
0x00,
0x00,
0x00,
0x00,
0x00,
0x00,
0x00,
0x00,
0x00,
0x00,
0x00,
0x00,
0x00,
0x00,
0x00,
0x00,
0x00,
0x00,
0x00,
0x00,
0x00,
0x24,
0x00,
0x00,
0x00,
0x00,
0x24,
0xFF,
0x24,
0x00,
0x00,
0x00,
0x00,
0x00,
0x00,
0x00,
0x00,
0x00,
0x00,
0xDB,
0x49,
0x6D,
0xDB,
0x00,
0x00,
0x00,
0x00,
0x00,
0x24,
0x00,
0x00,
0x24,
0x00,
0x24,
0x00,
0x00,
0x00,
0x00,
0x00,
0x00,
0x00,
0x24,
0x00,
0x00,
0x00,
0x00,
0x00,
0x00,
0x00,
0x00,
0x00,
0x00,
0x00,
0x00,
0x00,
0x00,
0x00,
0x24,
0x00,
0x00,
0x00,
0x24,
0x00,
0x00,
0x00,
0x00,
0x00,
0x00,
0x00,
0x00,
0x00,
0x00,
0x00,
0x00,
0x00,
0x00,
0x00,
0x00,
0x00,
0x00,
0x00,
0x00,
0x00,
0x00,
0x00,
0x00,
0x00,
0x00,
0x00,
0x00,
0x00,
0x00,
0x00,
0x00,
0x00,
0x00,
0x00,
0x00,
0x00,
0x00,
0x00,
0x00,
0x00,
0x00,
0x00,
0x00,
0x00,
0x00,
0x00,
0x00,
0x00,
0x00,
0x00,
0x00,
0x00,
0x00,
0x00,
0x00,
0x00,
0x00,
0x00,
0x00,
0x00,
0x00,
0x00,
0x00,
0x00,
0x00,
0x00,
0x00,
0x00,
0x00,
0x00,
0x00,
0x00,
0x00,
0x00,
0x00,
0x00,
0x00,
0x00,
0x00,
0x00,
0x00,
0x00,
0x00,
0x00,
0x00,
0x00,
0x00,
0x00,
0x00,
0x00,
0x00,
0x00,
0x00,
0x00,
0x00,
0x00,
0x24,
0xFF,
0x00,
0x00,
0x00,
0x00,
0x00,
0x00,
0x00,
0x00,
0x00,
0x00,
0x00,
0xDB,
0x49,
0x49,
0xDB,
0x00,
0x00,
0x00,
0x00,
0x00,
0x00,
0x00,
0x00,
0x00,
0x00,
0x00,
0x00,
0x00,
0x00,
0x00,
0x00,
0x00,
0x00,
0x00,
0x00,
0x00,
0x00,
0x00,
0x00,
0x00,
0x00,
0x00,
0x00,
0x00,
0x00,
0x00,
0x00,
0x00,
0x00,
0x00,
0x00,
0x00,
0x00,
0x00,
0x00,
0x00,
0x00,
0x00,
0x00,
0x00,
0x00,
0x00,
0x00,
0x00,
0x00,
0x00,
0x00,
0x00,
0x00,
0x00,
0x00,
0x00,
0x00,
0x00,
0x00,
0x00,
0x00,
0x00,
0x00,
0x00,
0x00,
0x00,
0x00,
0x00,
0x00,
0x00,
0x00,
0x00,
0x00,
0x00,
0x00,
0x00,
0x00,
0x00,
0x00,
0x00,
0x00,
0x00,
0x00,
0x00,
0x00,
0x00,
0x00,
0x00,
0x00,
0x00,
0x00,
0x00,
0x00,
0x00,
0x00,
0x00,
0x00,
0x00,
0x00,
0x00,
0x00,
0x00,
0x00,
0x00,
0x00,
0x00,
0x00,
0x00,
0x00,
0x00,
0x00,
0x00,
0x00,
0x00,
0x00,
0x00,
0x00,
0x00,
0x00,
0x00,
0x00,
0x00,
0x00,
0x00,
0x00,
0x00,
0x00,
0x00,
0x00,
0x00,
0x00,
0x00,
0x00,
0x00,
0x00,
0x00,
0x6D,
0x00,
0x00,
0x00,
0x00,
0x00,
0x00,
0x00,
0x00,
0x00,
0x00,
0x00,
0x24,
0x6D,
0x6D,
0x24,
0x00,
0x00,
0x00,
0x00,
0x00,
0x00,
0x00,
0x00,
0x00,
0x00,
0x00,
0x00,
0x00,
0x00,
0x00,
0x00,
0x00,
0x00,
0x00,
0x00,
0x00,
0x00,
0x00,
0x00,
0x00,
0x00,
0x00,
0x00,
0x00,
0x00,
0x00,
0x00,
0x00,
0x00,
0x00,
0x00,
0x00,
0x00,
0x00,
0x00
}}
