/*X 8  moyo_alarm_ack.sym   LCDIcon FileDescriptor: Do not edit or move */
/* Put Your Comments Here */
/* */
/* */
/* */
/* */
/* */
/* */
/* */
/* */
/* */
/* */
/* */
/* */
/* */
/* */
/* */
/* */
/* */
/* */
/* */
/* */

/* Element 0x0000 - Char 0x0000 */
{{12, 12},{
0x86,0x10,  /*  %....%%....%....  */
0x46,0x20,  /*  .%...%%...%.....  */
0x29,0x40,  /*  ..%.%..%.%......  */
0x10,0x80,  /*  ...%....%.......  */
0x29,0x40,  /*  ..%.%..%.%......  */
0x26,0x40,  /*  ..%..%%..%......  */
0x26,0x40,  /*  ..%..%%..%......  */
0x29,0x40,  /*  ..%.%..%.%......  */
0x50,0xA0,  /*  .%.%....%.%.....  */
0xFF,0xF0,  /*  %%%%%%%%%%%%....  */
0x46,0x20,  /*  .%...%%...%.....  */
0x86,0x10   /*  %....%%....%....  */
}}

