/*V R C 4 256 5 6 5 8  00000000 00FFFFFF 0 00000000  signal_quality_1_3.sym   LCDIcon FileDescriptor: Do not edit or move */
/* Put Your Comments Here */
/* */
/* */
/* */
/* */
/* */
/* */
/* */
/* */
/* */
/* */
/* */
/* */
/* */
/* */
/* */
/* */
/* */
/* */
/* */
/* */


/* Element 0xFFFFFFFF - Char 0xFFFFFFFF */
{{ 0, 0x10, 13, 12 },{
0x00, 0x00,
0x00, 0x00,
0x00, 0x00,
0x00, 0x00,
0x00, 0x00,
0x00, 0x00,
0x00, 0x00,
0x00, 0x00,
0x00, 0x00,
0x00, 0x00,
0xF7, 0xBE,
0xF7, 0xBE,
0xF7, 0x9E,
0x00, 0x00,
0x00, 0x00,
0x00, 0x00,
0x00, 0x00,
0x00, 0x00,
0x00, 0x00,
0x00, 0x00,
0x00, 0x00,
0x00, 0x00,
0x00, 0x00,
0xF7, 0xBE,
0xF7, 0x9E,
0xF7, 0xBE,
0x00, 0x00,
0x00, 0x00,
0x00, 0x00,
0x00, 0x00,
0x00, 0x00,
0x00, 0x00,
0x00, 0x00,
0x00, 0x00,
0x00, 0x00,
0x00, 0x00,
0xF7, 0xBE,
0xF7, 0x9E,
0xF7, 0xBE,
0x00, 0x00,
0x00, 0x00,
0x00, 0x00,
0x00, 0x00,
0x00, 0x00,
0x00, 0x00,
0x00, 0x00,
0x00, 0x00,
0x00, 0x00,
0x00, 0x00,
0xF7, 0xBE,
0xF7, 0xBE,
0xF7, 0x9E,
0x00, 0x00,
0x00, 0x00,
0x00, 0x00,
0x00, 0x00,
0x00, 0x00,
0xF7, 0x9E,
0xF7, 0xBE,
0xF7, 0x9E,
0x00, 0x00,
0x00, 0x00,
0xF7, 0x9E,
0xF7, 0xBE,
0xF7, 0xBE,
0x00, 0x00,
0x00, 0x00,
0x00, 0x00,
0x00, 0x00,
0x00, 0x00,
0xF7, 0xBE,
0xF7, 0xBE,
0xF7, 0xBE,
0x00, 0x00,
0x00, 0x00,
0xF7, 0x9E,
0xF7, 0x9E,
0xF7, 0xBE,
0x00, 0x00,
0x00, 0x00,
0x00, 0x00,
0x00, 0x00,
0x00, 0x00,
0xF7, 0x9E,
0xF7, 0x9E,
0xF7, 0x9E,
0x00, 0x00,
0x00, 0x00,
0xF7, 0x9E,
0xF7, 0x9E,
0xF7, 0xBE,
0x00, 0x00,
0x00, 0x00,
0x00, 0x00,
0x00, 0x00,
0x00, 0x00,
0xF7, 0xBE,
0xF7, 0xBE,
0xF7, 0xBE,
0x00, 0x00,
0x00, 0x00,
0xF7, 0xBE,
0xF7, 0xBE,
0xF7, 0xBE,
0xF7, 0xBE,
0xF7, 0xBE,
0xF7, 0xBE,
0x00, 0x00,
0x00, 0x00,
0xF7, 0xBE,
0xF7, 0x9E,
0xF7, 0xBE,
0x00, 0x00,
0x00, 0x00,
0xF7, 0xBE,
0xF7, 0x9E,
0xF7, 0x9E,
0xF7, 0x9E,
0xF7, 0x9E,
0xF7, 0xBE,
0x00, 0x00,
0x00, 0x00,
0xF7, 0x9E,
0xF7, 0xBE,
0xF7, 0xBE,
0x00, 0x00,
0x00, 0x00,
0xF7, 0xBE,
0xF7, 0xBE,
0xF7, 0x9E,
0xF7, 0xBE,
0xF7, 0xBE,
0xF7, 0xBE,
0x00, 0x00,
0x00, 0x00,
0xF7, 0xBE,
0xF7, 0xBE,
0xF7, 0x9E,
0x00, 0x00,
0x00, 0x00,
0xF7, 0x9E,
0xF7, 0x9E,
0xF7, 0xBE,
0xF7, 0xBE,
0xF7, 0x9E,
0xF7, 0xBE,
0x00, 0x00,
0x00, 0x00,
0xF7, 0x9E,
0xF7, 0x9E,
0xF7, 0x9E,
0x00, 0x00,
0x00, 0x00,
0xF7, 0x9E,
0xF7, 0xBE,
0xF7, 0xBE
}}
