/*X 8  sound high.sym   LCDIcon FileDescriptor: Do not edit or move */
/* Put Your Comments Here */
/* */
/* */
/* */
/* */
/* */
/* */
/* */
/* */
/* */
/* */
/* */
/* */
/* */
/* */
/* */
/* */
/* */
/* */
/* */
/* */

/* Element 0x0000 - Char 0x0000 */
{{20, 14},{
0xFF,0xFF,0xF0,  /*  %%%%%%%%%%%%%%%%%%%%....  */
0xFF,0xFF,0xF0,  /*  %%%%%%%%%%%%%%%%%%%%....  */
0xFE,0x79,0xF0,  /*  %%%%%%%..%%%%..%%%%%....  */
0xFC,0x7C,0xF0,  /*  %%%%%%...%%%%%..%%%%....  */
0xC0,0x6E,0xF0,  /*  %%.......%%.%%%.%%%%....  */
0xC0,0x66,0x70,  /*  %%.......%%..%%..%%%....  */
0xC0,0x76,0x70,  /*  %%.......%%%.%%..%%%....  */
0xC0,0x76,0x70,  /*  %%.......%%%.%%..%%%....  */
0xC0,0x66,0x70,  /*  %%.......%%..%%..%%%....  */
0xC0,0x6E,0xF0,  /*  %%.......%%.%%%.%%%%....  */
0xFC,0x7C,0xF0,  /*  %%%%%%...%%%%%..%%%%....  */
0xFE,0x79,0xF0,  /*  %%%%%%%..%%%%..%%%%%....  */
0xFF,0xFF,0xF0,  /*  %%%%%%%%%%%%%%%%%%%%....  */
0xFF,0xFF,0xF0   /*  %%%%%%%%%%%%%%%%%%%%....  */
}}

