/*Y 8 64 64 1 . bwsym_64x64[1]={  bwsym_64x64.sym   LCDIcon FileDescriptor: Do not edit or move */
/* Put Your Comments Here */
/* */
/* */
/* */
/* */
/* */
/* */
/* */
/* */
/* */
/* */
/* */
/* */
/* */
/* */
/* */
/* */
/* */
/* */
/* */
/* */

/* Element 0x0000 - Char 0x0000 */
{{64, 64},{
0xFF,0xFF,0xFF,0xFF,0xFF,0xFF,0xFF,0xFF,  /*  %%%%%%%%%%%%%%%%%%%%%%%%%%%%%%%%%%%%%%%%%%%%%%%%%%%%%%%%%%%%%%%%  */
0x80,0x00,0x00,0x00,0x00,0x00,0x00,0x01,  /*  %..............................................................%  */
0x80,0x00,0x00,0x00,0x00,0x00,0x00,0x01,  /*  %..............................................................%  */
0x80,0x00,0x00,0x00,0x00,0x00,0x00,0x01,  /*  %..............................................................%  */
0x80,0x00,0x00,0x00,0x00,0x00,0x00,0x01,  /*  %..............................................................%  */
0x80,0x00,0x00,0x00,0x00,0x00,0x00,0x01,  /*  %..............................................................%  */
0x80,0x0F,0xFD,0xFF,0x1F,0x9F,0xF8,0x01,  /*  %...........%%%%%%%%%%.%%%%%%%%%...%%%%%%..%%%%%%%%%%..........%  */
0x80,0x00,0xC1,0x80,0x30,0xC1,0x80,0x01,  /*  %...............%%.....%%.........%%....%%.....%%..............%  */
0x80,0x00,0xC1,0x80,0x30,0x61,0x80,0x01,  /*  %...............%%.....%%.........%%.....%%....%%..............%  */
0x80,0x00,0xC1,0x80,0x30,0x01,0x80,0x01,  /*  %...............%%.....%%.........%%...........%%..............%  */
0x80,0x00,0xC1,0x80,0x38,0x01,0x80,0x01,  /*  %...............%%.....%%.........%%%..........%%..............%  */
0x80,0x00,0xC1,0xFE,0x1F,0x01,0x80,0x01,  /*  %...............%%.....%%%%%%%%....%%%%%.......%%..............%  */
0x80,0x00,0xC1,0x80,0x03,0xC1,0x80,0x01,  /*  %...............%%.....%%.............%%%%.....%%..............%  */
0x80,0x00,0xC1,0x80,0x00,0x61,0x80,0x01,  /*  %...............%%.....%%................%%....%%..............%  */
0x80,0x00,0xC1,0x80,0x00,0x61,0x80,0x01,  /*  %...............%%.....%%................%%....%%..............%  */
0x80,0x00,0xC1,0x80,0x30,0x61,0x80,0x01,  /*  %...............%%.....%%.........%%.....%%....%%..............%  */
0x80,0x00,0xC1,0x80,0x18,0xC1,0x80,0x01,  /*  %...............%%.....%%..........%%...%%.....%%..............%  */
0x80,0x00,0xC1,0xFF,0x0F,0x81,0x80,0x01,  /*  %...............%%.....%%%%%%%%%....%%%%%......%%..............%  */
0x80,0x00,0x00,0x00,0x00,0x00,0x00,0x01,  /*  %..............................................................%  */
0x80,0x00,0x00,0x00,0x00,0x00,0x00,0x01,  /*  %..............................................................%  */
0x80,0x00,0x00,0x00,0x00,0x00,0x00,0x01,  /*  %..............................................................%  */
0x80,0x00,0x00,0x00,0x00,0x00,0x00,0x01,  /*  %..............................................................%  */
0x80,0x00,0x00,0x00,0x00,0x00,0x00,0x01,  /*  %..............................................................%  */
0x80,0xFF,0x3F,0xCF,0xF9,0xFE,0x0C,0x01,  /*  %.......%%%%%%%%..%%%%%%%%..%%%%%%%%%..%%%%%%%%.....%%.........%  */
0x80,0xFF,0x3F,0xC8,0x09,0x02,0x33,0x01,  /*  %.......%%%%%%%%..%%%%%%%%..%.......%..%......%...%%..%%.......%  */
0x80,0xFF,0x3F,0xC8,0x09,0x02,0x40,0x81,  /*  %.......%%%%%%%%..%%%%%%%%..%.......%..%......%..%......%......%  */
0x80,0xFF,0x3F,0xC8,0x09,0x02,0x40,0x81,  /*  %.......%%%%%%%%..%%%%%%%%..%.......%..%......%..%......%......%  */
0x80,0xFF,0x3F,0xC8,0x09,0x02,0x80,0x41,  /*  %.......%%%%%%%%..%%%%%%%%..%.......%..%......%.%........%.....%  */
0x80,0xFF,0x3F,0xC8,0x09,0x02,0x80,0x41,  /*  %.......%%%%%%%%..%%%%%%%%..%.......%..%......%.%........%.....%  */
0x80,0xFF,0x3F,0xC8,0x09,0x02,0x40,0x81,  /*  %.......%%%%%%%%..%%%%%%%%..%.......%..%......%..%......%......%  */
0x80,0xFF,0x3F,0xC8,0x09,0x02,0x40,0x81,  /*  %.......%%%%%%%%..%%%%%%%%..%.......%..%......%..%......%......%  */
0x80,0xFF,0x3F,0xC8,0x09,0x02,0x33,0x01,  /*  %.......%%%%%%%%..%%%%%%%%..%.......%..%......%...%%..%%.......%  */
0x80,0xFF,0x3F,0xCF,0xF9,0xFE,0x0C,0x01,  /*  %.......%%%%%%%%..%%%%%%%%..%%%%%%%%%..%%%%%%%%.....%%.........%  */
0x80,0x00,0x00,0x00,0x00,0x00,0x00,0x01,  /*  %..............................................................%  */
0x80,0x00,0x00,0x00,0x00,0x00,0x00,0x01,  /*  %..............................................................%  */
0x80,0xFF,0x3F,0xCF,0xF9,0xFE,0x0C,0x01,  /*  %.......%%%%%%%%..%%%%%%%%..%%%%%%%%%..%%%%%%%%.....%%.........%  */
0x80,0xFF,0x3F,0xC8,0x09,0x02,0x33,0x01,  /*  %.......%%%%%%%%..%%%%%%%%..%.......%..%......%...%%..%%.......%  */
0x80,0xFF,0x3F,0xC8,0x09,0x02,0x40,0x81,  /*  %.......%%%%%%%%..%%%%%%%%..%.......%..%......%..%......%......%  */
0x80,0xFF,0x3F,0xC8,0x09,0x02,0x40,0x81,  /*  %.......%%%%%%%%..%%%%%%%%..%.......%..%......%..%......%......%  */
0x80,0xFF,0x3F,0xC8,0x09,0x02,0x80,0x41,  /*  %.......%%%%%%%%..%%%%%%%%..%.......%..%......%.%........%.....%  */
0x80,0xFF,0x3F,0xC8,0x09,0x02,0x80,0x41,  /*  %.......%%%%%%%%..%%%%%%%%..%.......%..%......%.%........%.....%  */
0x80,0xFF,0x3F,0xC8,0x09,0x02,0x40,0x81,  /*  %.......%%%%%%%%..%%%%%%%%..%.......%..%......%..%......%......%  */
0x80,0xFF,0x3F,0xC8,0x09,0x02,0x40,0x81,  /*  %.......%%%%%%%%..%%%%%%%%..%.......%..%......%..%......%......%  */
0x80,0xFF,0x3F,0xC8,0x09,0x02,0x33,0x01,  /*  %.......%%%%%%%%..%%%%%%%%..%.......%..%......%...%%..%%.......%  */
0x80,0xFF,0x3F,0xCF,0xF9,0xFE,0x0C,0x01,  /*  %.......%%%%%%%%..%%%%%%%%..%%%%%%%%%..%%%%%%%%.....%%.........%  */
0x80,0x00,0x00,0x00,0x00,0x00,0x00,0x01,  /*  %..............................................................%  */
0x80,0x00,0x00,0x00,0x00,0x00,0x00,0x01,  /*  %..............................................................%  */
0x80,0x00,0x00,0x00,0x00,0x00,0x00,0x01,  /*  %..............................................................%  */
0x80,0x00,0x00,0x00,0x00,0x00,0x00,0x01,  /*  %..............................................................%  */
0x80,0xAA,0xAA,0xAA,0xAA,0xAA,0xAA,0x01,  /*  %.......%.%.%.%.%.%.%.%.%.%.%.%.%.%.%.%.%.%.%.%.%.%.%.%........%  */
0x80,0x55,0x55,0x55,0x55,0x55,0x55,0x01,  /*  %........%.%.%.%.%.%.%.%.%.%.%.%.%.%.%.%.%.%.%.%.%.%.%.%.......%  */
0x80,0xAA,0xAA,0xAA,0xAA,0xAA,0xAA,0x01,  /*  %.......%.%.%.%.%.%.%.%.%.%.%.%.%.%.%.%.%.%.%.%.%.%.%.%........%  */
0x80,0x55,0x55,0x55,0x55,0x55,0x55,0x01,  /*  %........%.%.%.%.%.%.%.%.%.%.%.%.%.%.%.%.%.%.%.%.%.%.%.%.......%  */
0x80,0xAA,0xAA,0xAA,0xAA,0xAA,0xAA,0x01,  /*  %.......%.%.%.%.%.%.%.%.%.%.%.%.%.%.%.%.%.%.%.%.%.%.%.%........%  */
0x80,0x55,0x55,0x55,0x55,0x55,0x55,0x01,  /*  %........%.%.%.%.%.%.%.%.%.%.%.%.%.%.%.%.%.%.%.%.%.%.%.%.......%  */
0x80,0xAA,0xAA,0xAA,0xAA,0xAA,0xAA,0x01,  /*  %.......%.%.%.%.%.%.%.%.%.%.%.%.%.%.%.%.%.%.%.%.%.%.%.%........%  */
0x80,0x55,0x55,0x55,0x55,0x55,0x55,0x01,  /*  %........%.%.%.%.%.%.%.%.%.%.%.%.%.%.%.%.%.%.%.%.%.%.%.%.......%  */
0x80,0xAA,0xAA,0xAA,0xAA,0xAA,0xAA,0x01,  /*  %.......%.%.%.%.%.%.%.%.%.%.%.%.%.%.%.%.%.%.%.%.%.%.%.%........%  */
0x80,0x55,0x55,0x55,0x55,0x55,0x55,0x01,  /*  %........%.%.%.%.%.%.%.%.%.%.%.%.%.%.%.%.%.%.%.%.%.%.%.%.......%  */
0x80,0xAA,0xAA,0xAA,0xAA,0xAA,0xAA,0x01,  /*  %.......%.%.%.%.%.%.%.%.%.%.%.%.%.%.%.%.%.%.%.%.%.%.%.%........%  */
0x80,0x55,0x55,0x55,0x55,0x55,0x55,0x01,  /*  %........%.%.%.%.%.%.%.%.%.%.%.%.%.%.%.%.%.%.%.%.%.%.%.%.......%  */
0x80,0x00,0x00,0x00,0x00,0x00,0x00,0x01,  /*  %..............................................................%  */
0x80,0x00,0x00,0x00,0x00,0x00,0x00,0x01,  /*  %..............................................................%  */
0xFF,0xFF,0xFF,0xFF,0xFF,0xFF,0xFF,0xFF   /*  %%%%%%%%%%%%%%%%%%%%%%%%%%%%%%%%%%%%%%%%%%%%%%%%%%%%%%%%%%%%%%%%  */
}}

