/*V R C 4 256 5 6 5 8  00000000 00000000 0 00000000  Yellow_4.sym   LCDIcon FileDescriptor: Do not edit or move */
/* Put Your Comments Here */
/* */
/* */
/* */
/* */
/* */
/* */
/* */
/* */
/* */
/* */
/* */
/* */
/* */
/* */
/* */
/* */
/* */
/* */
/* */
/* */


/* Element 0xFFFFFFFF - Char 0xFFFFFFFF */
{{ 0, 0x10, 37, 56 },{
0x00, 0x00,
0x00, 0x00,
0x00, 0x00,
0x00, 0x00,
0x00, 0x00,
0x00, 0x00,
0x00, 0x00,
0x00, 0x00,
0x00, 0x00,
0x00, 0x00,
0x00, 0x00,
0x00, 0x00,
0x00, 0x00,
0x00, 0x00,
0x00, 0x00,
0x00, 0x00,
0x00, 0x00,
0x00, 0x00,
0x00, 0x00,
0x00, 0x00,
0x00, 0x00,
0x00, 0x00,
0x00, 0x00,
0x00, 0x00,
0x00, 0x00,
0x7B, 0x01,
0xBC, 0xA1,
0xBC, 0xA1,
0xBC, 0xA1,
0xBC, 0xA1,
0xBC, 0xA1,
0xBC, 0xA1,
0xBC, 0xA1,
0x31, 0x00,
0x00, 0x00,
0x00, 0x00,
0x00, 0x00,
0x00, 0x00,
0x00, 0x00,
0x00, 0x00,
0x00, 0x00,
0x00, 0x00,
0x00, 0x00,
0x00, 0x00,
0x00, 0x00,
0x00, 0x00,
0x00, 0x00,
0x00, 0x00,
0x00, 0x00,
0x00, 0x00,
0x00, 0x00,
0x00, 0x00,
0x00, 0x00,
0x00, 0x00,
0x00, 0x00,
0x00, 0x00,
0x00, 0x00,
0x00, 0x00,
0x00, 0x00,
0x00, 0x00,
0x00, 0x00,
0x51, 0xC0,
0xFE, 0x22,
0xFE, 0x22,
0xFE, 0x22,
0xFE, 0x22,
0xFE, 0x22,
0xFE, 0x22,
0xFE, 0x22,
0xFE, 0x22,
0x41, 0x80,
0x00, 0x00,
0x00, 0x00,
0x00, 0x00,
0x00, 0x00,
0x00, 0x00,
0x00, 0x00,
0x00, 0x00,
0x00, 0x00,
0x00, 0x00,
0x00, 0x00,
0x00, 0x00,
0x00, 0x00,
0x00, 0x00,
0x00, 0x00,
0x00, 0x00,
0x00, 0x00,
0x00, 0x00,
0x00, 0x00,
0x00, 0x00,
0x00, 0x00,
0x00, 0x00,
0x00, 0x00,
0x00, 0x00,
0x00, 0x00,
0x00, 0x00,
0x00, 0x00,
0x31, 0x00,
0xED, 0xA2,
0xFE, 0x22,
0xFE, 0x22,
0xFE, 0x22,
0xFE, 0x22,
0xFE, 0x22,
0xFE, 0x22,
0xFE, 0x22,
0xFE, 0x22,
0x41, 0x80,
0x00, 0x00,
0x00, 0x00,
0x00, 0x00,
0x00, 0x00,
0x00, 0x00,
0x00, 0x00,
0x00, 0x00,
0x00, 0x00,
0x00, 0x00,
0x00, 0x00,
0x00, 0x00,
0x00, 0x00,
0x00, 0x00,
0x00, 0x00,
0x00, 0x00,
0x00, 0x00,
0x00, 0x00,
0x00, 0x00,
0x00, 0x00,
0x00, 0x00,
0x00, 0x00,
0x00, 0x00,
0x00, 0x00,
0x00, 0x00,
0x00, 0x00,
0x10, 0x40,
0xCC, 0xE1,
0xFE, 0x22,
0xFE, 0x22,
0xFE, 0x22,
0xFE, 0x22,
0xFE, 0x22,
0xFE, 0x22,
0xFE, 0x22,
0xFE, 0x22,
0xFE, 0x22,
0x41, 0x80,
0x00, 0x00,
0x00, 0x00,
0x00, 0x00,
0x00, 0x00,
0x00, 0x00,
0x00, 0x00,
0x00, 0x00,
0x00, 0x00,
0x00, 0x00,
0x00, 0x00,
0x00, 0x00,
0x00, 0x00,
0x00, 0x00,
0x00, 0x00,
0x00, 0x00,
0x00, 0x00,
0x00, 0x00,
0x00, 0x00,
0x00, 0x00,
0x00, 0x00,
0x00, 0x00,
0x00, 0x00,
0x00, 0x00,
0x00, 0x00,
0x00, 0x00,
0x9B, 0xC1,
0xFE, 0x22,
0xFE, 0x22,
0xFE, 0x22,
0xFE, 0x22,
0xFE, 0x22,
0xFE, 0x22,
0xFE, 0x22,
0xFE, 0x22,
0xFE, 0x22,
0xFE, 0x22,
0x41, 0x80,
0x00, 0x00,
0x00, 0x00,
0x00, 0x00,
0x00, 0x00,
0x00, 0x00,
0x00, 0x00,
0x00, 0x00,
0x00, 0x00,
0x00, 0x00,
0x00, 0x00,
0x00, 0x00,
0x00, 0x00,
0x00, 0x00,
0x00, 0x00,
0x00, 0x00,
0x00, 0x00,
0x00, 0x00,
0x00, 0x00,
0x00, 0x00,
0x00, 0x00,
0x00, 0x00,
0x00, 0x00,
0x00, 0x00,
0x00, 0x00,
0x62, 0x41,
0xFE, 0x22,
0xFE, 0x22,
0xFE, 0x22,
0xFE, 0x22,
0xFE, 0x22,
0xFE, 0x22,
0xFE, 0x22,
0xFE, 0x22,
0xFE, 0x22,
0xFE, 0x22,
0xFE, 0x22,
0x41, 0x80,
0x00, 0x00,
0x00, 0x00,
0x00, 0x00,
0x00, 0x00,
0x00, 0x00,
0x00, 0x00,
0x00, 0x00,
0x00, 0x00,
0x00, 0x00,
0x00, 0x00,
0x00, 0x00,
0x00, 0x00,
0x00, 0x00,
0x00, 0x00,
0x00, 0x00,
0x00, 0x00,
0x00, 0x00,
0x00, 0x00,
0x00, 0x00,
0x00, 0x00,
0x00, 0x00,
0x00, 0x00,
0x00, 0x00,
0x31, 0x00,
0xFE, 0x22,
0xFE, 0x22,
0xFE, 0x22,
0xFE, 0x22,
0xFE, 0x22,
0xFE, 0x22,
0xFE, 0x22,
0xFE, 0x22,
0xFE, 0x22,
0xFE, 0x22,
0xFE, 0x22,
0xFE, 0x22,
0x41, 0x80,
0x00, 0x00,
0x00, 0x00,
0x00, 0x00,
0x00, 0x00,
0x00, 0x00,
0x00, 0x00,
0x00, 0x00,
0x00, 0x00,
0x00, 0x00,
0x00, 0x00,
0x00, 0x00,
0x00, 0x00,
0x00, 0x00,
0x00, 0x00,
0x00, 0x00,
0x00, 0x00,
0x00, 0x00,
0x00, 0x00,
0x00, 0x00,
0x00, 0x00,
0x00, 0x00,
0x00, 0x00,
0x10, 0x40,
0xDD, 0x61,
0xFE, 0x22,
0xFE, 0x22,
0xFE, 0x22,
0xFE, 0x22,
0xFE, 0x22,
0xFE, 0x22,
0xFE, 0x22,
0xFE, 0x22,
0xFE, 0x22,
0xFE, 0x22,
0xFE, 0x22,
0xFE, 0x22,
0x41, 0x80,
0x00, 0x00,
0x00, 0x00,
0x00, 0x00,
0x00, 0x00,
0x00, 0x00,
0x00, 0x00,
0x00, 0x00,
0x00, 0x00,
0x00, 0x00,
0x00, 0x00,
0x00, 0x00,
0x00, 0x00,
0x00, 0x00,
0x00, 0x00,
0x00, 0x00,
0x00, 0x00,
0x00, 0x00,
0x00, 0x00,
0x00, 0x00,
0x00, 0x00,
0x00, 0x00,
0x00, 0x00,
0xBC, 0xA1,
0xFE, 0x22,
0xFE, 0x22,
0xFE, 0x22,
0xFE, 0x22,
0xFE, 0x22,
0xFE, 0x22,
0xFE, 0x22,
0xFE, 0x22,
0xFE, 0x22,
0xFE, 0x22,
0xFE, 0x22,
0xFE, 0x22,
0xFE, 0x22,
0x41, 0x80,
0x00, 0x00,
0x00, 0x00,
0x00, 0x00,
0x00, 0x00,
0x00, 0x00,
0x00, 0x00,
0x00, 0x00,
0x00, 0x00,
0x00, 0x00,
0x00, 0x00,
0x00, 0x00,
0x00, 0x00,
0x00, 0x00,
0x00, 0x00,
0x00, 0x00,
0x00, 0x00,
0x00, 0x00,
0x00, 0x00,
0x00, 0x00,
0x00, 0x00,
0x00, 0x00,
0x7B, 0x01,
0xFE, 0x22,
0xFE, 0x22,
0xFE, 0x22,
0xFE, 0x22,
0xFE, 0x22,
0xFE, 0x22,
0xFE, 0x22,
0xFE, 0x22,
0xFE, 0x22,
0xFE, 0x22,
0xFE, 0x22,
0xFE, 0x22,
0xFE, 0x22,
0xFE, 0x22,
0x41, 0x80,
0x00, 0x00,
0x00, 0x00,
0x00, 0x00,
0x00, 0x00,
0x00, 0x00,
0x00, 0x00,
0x00, 0x00,
0x00, 0x00,
0x00, 0x00,
0x00, 0x00,
0x00, 0x00,
0x00, 0x00,
0x00, 0x00,
0x00, 0x00,
0x00, 0x00,
0x00, 0x00,
0x00, 0x00,
0x00, 0x00,
0x00, 0x00,
0x00, 0x00,
0x41, 0x80,
0xFE, 0x22,
0xFE, 0x22,
0xFE, 0x22,
0xFE, 0x22,
0xFE, 0x22,
0xFE, 0x22,
0xFE, 0x22,
0xFE, 0x22,
0xFE, 0x22,
0xFE, 0x22,
0xFE, 0x22,
0xFE, 0x22,
0xFE, 0x22,
0xFE, 0x22,
0xFE, 0x22,
0x41, 0x80,
0x00, 0x00,
0x00, 0x00,
0x00, 0x00,
0x00, 0x00,
0x00, 0x00,
0x00, 0x00,
0x00, 0x00,
0x00, 0x00,
0x00, 0x00,
0x00, 0x00,
0x00, 0x00,
0x00, 0x00,
0x00, 0x00,
0x00, 0x00,
0x00, 0x00,
0x00, 0x00,
0x00, 0x00,
0x00, 0x00,
0x00, 0x00,
0x20, 0xC0,
0xED, 0xA2,
0xFE, 0x22,
0xFE, 0x22,
0xFE, 0x22,
0xFE, 0x22,
0xFE, 0x22,
0xFE, 0x22,
0xFE, 0x22,
0xFE, 0x22,
0xFE, 0x22,
0xFE, 0x22,
0xFE, 0x22,
0xFE, 0x22,
0xFE, 0x22,
0xFE, 0x22,
0xFE, 0x22,
0x41, 0x80,
0x00, 0x00,
0x00, 0x00,
0x00, 0x00,
0x00, 0x00,
0x00, 0x00,
0x00, 0x00,
0x00, 0x00,
0x00, 0x00,
0x00, 0x00,
0x00, 0x00,
0x00, 0x00,
0x00, 0x00,
0x00, 0x00,
0x00, 0x00,
0x00, 0x00,
0x00, 0x00,
0x00, 0x00,
0x00, 0x00,
0x00, 0x00,
0xCC, 0xE1,
0xFE, 0x22,
0xFE, 0x22,
0xFE, 0x22,
0xFE, 0x22,
0xFE, 0x22,
0xFE, 0x22,
0xFE, 0x22,
0xFE, 0x22,
0xFE, 0x22,
0xFE, 0x22,
0xFE, 0x22,
0xFE, 0x22,
0xFE, 0x22,
0xFE, 0x22,
0xFE, 0x22,
0xFE, 0x22,
0x41, 0x80,
0x00, 0x00,
0x00, 0x00,
0x00, 0x00,
0x00, 0x00,
0x00, 0x00,
0x00, 0x00,
0x00, 0x00,
0x00, 0x00,
0x00, 0x00,
0x00, 0x00,
0x00, 0x00,
0x00, 0x00,
0x00, 0x00,
0x00, 0x00,
0x00, 0x00,
0x00, 0x00,
0x00, 0x00,
0x00, 0x00,
0x8B, 0x41,
0xFE, 0x22,
0xFE, 0x22,
0xFE, 0x22,
0xFE, 0x22,
0xFE, 0x22,
0xFE, 0x22,
0xFE, 0x22,
0xFE, 0x22,
0xFE, 0x22,
0xFE, 0x22,
0xFE, 0x22,
0xFE, 0x22,
0xFE, 0x22,
0xFE, 0x22,
0xFE, 0x22,
0xFE, 0x22,
0xFE, 0x22,
0x41, 0x80,
0x00, 0x00,
0x00, 0x00,
0x00, 0x00,
0x00, 0x00,
0x00, 0x00,
0x00, 0x00,
0x00, 0x00,
0x00, 0x00,
0x00, 0x00,
0x00, 0x00,
0x00, 0x00,
0x00, 0x00,
0x00, 0x00,
0x00, 0x00,
0x00, 0x00,
0x00, 0x00,
0x00, 0x00,
0x62, 0x41,
0xFE, 0x22,
0xFE, 0x22,
0xFE, 0x22,
0xFE, 0x22,
0xFE, 0x22,
0xFE, 0x22,
0xFE, 0x22,
0xFE, 0x22,
0xFE, 0x22,
0xFE, 0x22,
0xFE, 0x22,
0xFE, 0x22,
0xFE, 0x22,
0xFE, 0x22,
0xFE, 0x22,
0xFE, 0x22,
0xFE, 0x22,
0xFE, 0x22,
0x41, 0x80,
0x00, 0x00,
0x00, 0x00,
0x00, 0x00,
0x00, 0x00,
0x00, 0x00,
0x00, 0x00,
0x00, 0x00,
0x00, 0x00,
0x00, 0x00,
0x00, 0x00,
0x00, 0x00,
0x00, 0x00,
0x00, 0x00,
0x00, 0x00,
0x00, 0x00,
0x00, 0x00,
0x31, 0x00,
0xED, 0xA2,
0xFE, 0x22,
0xFE, 0x22,
0xFE, 0x22,
0xFE, 0x22,
0xFE, 0x22,
0xFE, 0x22,
0xFE, 0x22,
0xFE, 0x22,
0xFE, 0x22,
0xFE, 0x22,
0xFE, 0x22,
0xFE, 0x22,
0xFE, 0x22,
0xFE, 0x22,
0xFE, 0x22,
0xFE, 0x22,
0xFE, 0x22,
0xFE, 0x22,
0x41, 0x80,
0x00, 0x00,
0x00, 0x00,
0x00, 0x00,
0x00, 0x00,
0x00, 0x00,
0x00, 0x00,
0x00, 0x00,
0x00, 0x00,
0x00, 0x00,
0x00, 0x00,
0x00, 0x00,
0x00, 0x00,
0x00, 0x00,
0x00, 0x00,
0x00, 0x00,
0x10, 0x40,
0xCC, 0xE1,
0xFE, 0x22,
0xFE, 0x22,
0xFE, 0x22,
0xFE, 0x22,
0xFE, 0x22,
0xFE, 0x22,
0xFE, 0x22,
0xFE, 0x22,
0xFE, 0x22,
0xFE, 0x22,
0xFE, 0x22,
0xFE, 0x22,
0xFE, 0x22,
0xFE, 0x22,
0xFE, 0x22,
0xFE, 0x22,
0xFE, 0x22,
0xFE, 0x22,
0xFE, 0x22,
0x41, 0x80,
0x00, 0x00,
0x00, 0x00,
0x00, 0x00,
0x00, 0x00,
0x00, 0x00,
0x00, 0x00,
0x00, 0x00,
0x00, 0x00,
0x00, 0x00,
0x00, 0x00,
0x00, 0x00,
0x00, 0x00,
0x00, 0x00,
0x00, 0x00,
0x00, 0x00,
0xAC, 0x21,
0xFE, 0x22,
0xFE, 0x22,
0xFE, 0x22,
0xFE, 0x22,
0xFE, 0x22,
0xFE, 0x22,
0xFE, 0x22,
0xFE, 0x22,
0xFE, 0x22,
0xFE, 0x22,
0xFE, 0x22,
0xFE, 0x22,
0xFE, 0x22,
0xFE, 0x22,
0xFE, 0x22,
0xFE, 0x22,
0xFE, 0x22,
0xFE, 0x22,
0xFE, 0x22,
0xFE, 0x22,
0x41, 0x80,
0x00, 0x00,
0x00, 0x00,
0x00, 0x00,
0x00, 0x00,
0x00, 0x00,
0x00, 0x00,
0x00, 0x00,
0x00, 0x00,
0x00, 0x00,
0x00, 0x00,
0x00, 0x00,
0x00, 0x00,
0x00, 0x00,
0x00, 0x00,
0x6A, 0x81,
0xFE, 0x22,
0xFE, 0x22,
0xFE, 0x22,
0xFE, 0x22,
0xFE, 0x22,
0xFE, 0x22,
0xFE, 0x22,
0xFE, 0x22,
0xED, 0xA2,
0xDD, 0x61,
0xFE, 0x22,
0xFE, 0x22,
0xFE, 0x22,
0xFE, 0x22,
0xFE, 0x22,
0xFE, 0x22,
0xFE, 0x22,
0xFE, 0x22,
0xFE, 0x22,
0xFE, 0x22,
0xFE, 0x22,
0x41, 0x80,
0x00, 0x00,
0x00, 0x00,
0x00, 0x00,
0x00, 0x00,
0x00, 0x00,
0x00, 0x00,
0x00, 0x00,
0x00, 0x00,
0x00, 0x00,
0x00, 0x00,
0x00, 0x00,
0x00, 0x00,
0x00, 0x00,
0x31, 0x00,
0xFE, 0x22,
0xFE, 0x22,
0xFE, 0x22,
0xFE, 0x22,
0xFE, 0x22,
0xFE, 0x22,
0xFE, 0x22,
0xFE, 0x22,
0xFE, 0x22,
0x51, 0xC0,
0xBC, 0xA1,
0xFE, 0x22,
0xFE, 0x22,
0xFE, 0x22,
0xFE, 0x22,
0xFE, 0x22,
0xFE, 0x22,
0xFE, 0x22,
0xFE, 0x22,
0xFE, 0x22,
0xFE, 0x22,
0xFE, 0x22,
0x41, 0x80,
0x00, 0x00,
0x00, 0x00,
0x00, 0x00,
0x00, 0x00,
0x00, 0x00,
0x00, 0x00,
0x00, 0x00,
0x00, 0x00,
0x00, 0x00,
0x00, 0x00,
0x00, 0x00,
0x00, 0x00,
0x10, 0x40,
0xED, 0xA2,
0xFE, 0x22,
0xFE, 0x22,
0xFE, 0x22,
0xFE, 0x22,
0xFE, 0x22,
0xFE, 0x22,
0xFE, 0x22,
0xFE, 0x22,
0x8B, 0x41,
0x00, 0x00,
0xBC, 0xA1,
0xFE, 0x22,
0xFE, 0x22,
0xFE, 0x22,
0xFE, 0x22,
0xFE, 0x22,
0xFE, 0x22,
0xFE, 0x22,
0xFE, 0x22,
0xFE, 0x22,
0xFE, 0x22,
0xFE, 0x22,
0x41, 0x80,
0x00, 0x00,
0x00, 0x00,
0x00, 0x00,
0x00, 0x00,
0x00, 0x00,
0x00, 0x00,
0x00, 0x00,
0x00, 0x00,
0x00, 0x00,
0x00, 0x00,
0x00, 0x00,
0x00, 0x00,
0xBC, 0xA1,
0xFE, 0x22,
0xFE, 0x22,
0xFE, 0x22,
0xFE, 0x22,
0xFE, 0x22,
0xFE, 0x22,
0xFE, 0x22,
0xFE, 0x22,
0xBC, 0xA1,
0x00, 0x00,
0x00, 0x00,
0xBC, 0xA1,
0xFE, 0x22,
0xFE, 0x22,
0xFE, 0x22,
0xFE, 0x22,
0xFE, 0x22,
0xFE, 0x22,
0xFE, 0x22,
0xFE, 0x22,
0xFE, 0x22,
0xFE, 0x22,
0xFE, 0x22,
0x41, 0x80,
0x00, 0x00,
0x00, 0x00,
0x00, 0x00,
0x00, 0x00,
0x00, 0x00,
0x00, 0x00,
0x00, 0x00,
0x00, 0x00,
0x00, 0x00,
0x00, 0x00,
0x00, 0x00,
0x7B, 0x01,
0xFE, 0x22,
0xFE, 0x22,
0xFE, 0x22,
0xFE, 0x22,
0xFE, 0x22,
0xFE, 0x22,
0xFE, 0x22,
0xFE, 0x22,
0xED, 0xA2,
0x10, 0x40,
0x00, 0x00,
0x00, 0x00,
0xBC, 0xA1,
0xFE, 0x22,
0xFE, 0x22,
0xFE, 0x22,
0xFE, 0x22,
0xFE, 0x22,
0xFE, 0x22,
0xFE, 0x22,
0xFE, 0x22,
0xFE, 0x22,
0xFE, 0x22,
0xFE, 0x22,
0x41, 0x80,
0x00, 0x00,
0x00, 0x00,
0x00, 0x00,
0x00, 0x00,
0x00, 0x00,
0x00, 0x00,
0x00, 0x00,
0x00, 0x00,
0x00, 0x00,
0x00, 0x00,
0x51, 0xC0,
0xFE, 0x22,
0xFE, 0x22,
0xFE, 0x22,
0xFE, 0x22,
0xFE, 0x22,
0xFE, 0x22,
0xFE, 0x22,
0xFE, 0x22,
0xFE, 0x22,
0x31, 0x00,
0x00, 0x00,
0x00, 0x00,
0x00, 0x00,
0xBC, 0xA1,
0xFE, 0x22,
0xFE, 0x22,
0xFE, 0x22,
0xFE, 0x22,
0xFE, 0x22,
0xFE, 0x22,
0xFE, 0x22,
0xFE, 0x22,
0xFE, 0x22,
0xFE, 0x22,
0xFE, 0x22,
0x41, 0x80,
0x00, 0x00,
0x00, 0x00,
0x00, 0x00,
0x00, 0x00,
0x00, 0x00,
0x00, 0x00,
0x00, 0x00,
0x00, 0x00,
0x00, 0x00,
0x20, 0xC0,
0xED, 0xA2,
0xFE, 0x22,
0xFE, 0x22,
0xFE, 0x22,
0xFE, 0x22,
0xFE, 0x22,
0xFE, 0x22,
0xFE, 0x22,
0xFE, 0x22,
0x6A, 0x81,
0x00, 0x00,
0x00, 0x00,
0x00, 0x00,
0x00, 0x00,
0xBC, 0xA1,
0xFE, 0x22,
0xFE, 0x22,
0xFE, 0x22,
0xFE, 0x22,
0xFE, 0x22,
0xFE, 0x22,
0xFE, 0x22,
0xFE, 0x22,
0xFE, 0x22,
0xFE, 0x22,
0xFE, 0x22,
0x41, 0x80,
0x00, 0x00,
0x00, 0x00,
0x00, 0x00,
0x00, 0x00,
0x00, 0x00,
0x00, 0x00,
0x00, 0x00,
0x00, 0x00,
0x10, 0x40,
0xCC, 0xE1,
0xFE, 0x22,
0xFE, 0x22,
0xFE, 0x22,
0xFE, 0x22,
0xFE, 0x22,
0xFE, 0x22,
0xFE, 0x22,
0xFE, 0x22,
0xAC, 0x21,
0x00, 0x00,
0x00, 0x00,
0x00, 0x00,
0x00, 0x00,
0x00, 0x00,
0xBC, 0xA1,
0xFE, 0x22,
0xFE, 0x22,
0xFE, 0x22,
0xFE, 0x22,
0xFE, 0x22,
0xFE, 0x22,
0xFE, 0x22,
0xFE, 0x22,
0xFE, 0x22,
0xFE, 0x22,
0xFE, 0x22,
0x41, 0x80,
0x00, 0x00,
0x00, 0x00,
0x00, 0x00,
0x00, 0x00,
0x00, 0x00,
0x00, 0x00,
0x00, 0x00,
0x00, 0x00,
0x9B, 0xC1,
0xFE, 0x22,
0xFE, 0x22,
0xFE, 0x22,
0xFE, 0x22,
0xFE, 0x22,
0xFE, 0x22,
0xFE, 0x22,
0xFE, 0x22,
0xCC, 0xE1,
0x10, 0x40,
0x00, 0x00,
0x00, 0x00,
0x00, 0x00,
0x00, 0x00,
0x00, 0x00,
0xBC, 0xA1,
0xFE, 0x22,
0xFE, 0x22,
0xFE, 0x22,
0xFE, 0x22,
0xFE, 0x22,
0xFE, 0x22,
0xFE, 0x22,
0xFE, 0x22,
0xFE, 0x22,
0xFE, 0x22,
0xFE, 0x22,
0x41, 0x80,
0x00, 0x00,
0x00, 0x00,
0x00, 0x00,
0x00, 0x00,
0x00, 0x00,
0x00, 0x00,
0x00, 0x00,
0x62, 0x41,
0xFE, 0x22,
0xFE, 0x22,
0xFE, 0x22,
0xFE, 0x22,
0xFE, 0x22,
0xFE, 0x22,
0xFE, 0x22,
0xFE, 0x22,
0xED, 0xA2,
0x31, 0x00,
0x00, 0x00,
0x00, 0x00,
0x00, 0x00,
0x00, 0x00,
0x00, 0x00,
0x00, 0x00,
0xBC, 0xA1,
0xFE, 0x22,
0xFE, 0x22,
0xFE, 0x22,
0xFE, 0x22,
0xFE, 0x22,
0xFE, 0x22,
0xFE, 0x22,
0xFE, 0x22,
0xFE, 0x22,
0xFE, 0x22,
0xFE, 0x22,
0x41, 0x80,
0x00, 0x00,
0x00, 0x00,
0x00, 0x00,
0x00, 0x00,
0x00, 0x00,
0x00, 0x00,
0x31, 0x00,
0xED, 0xA2,
0xFE, 0x22,
0xFE, 0x22,
0xFE, 0x22,
0xFE, 0x22,
0xFE, 0x22,
0xFE, 0x22,
0xFE, 0x22,
0xFE, 0x22,
0x62, 0x41,
0x00, 0x00,
0x00, 0x00,
0x00, 0x00,
0x00, 0x00,
0x00, 0x00,
0x00, 0x00,
0x00, 0x00,
0xBC, 0xA1,
0xFE, 0x22,
0xFE, 0x22,
0xFE, 0x22,
0xFE, 0x22,
0xFE, 0x22,
0xFE, 0x22,
0xFE, 0x22,
0xFE, 0x22,
0xFE, 0x22,
0xFE, 0x22,
0xFE, 0x22,
0x41, 0x80,
0x00, 0x00,
0x00, 0x00,
0x00, 0x00,
0x00, 0x00,
0x00, 0x00,
0x10, 0x40,
0xDD, 0x61,
0xFE, 0x22,
0xFE, 0x22,
0xFE, 0x22,
0xFE, 0x22,
0xFE, 0x22,
0xFE, 0x22,
0xFE, 0x22,
0xFE, 0x22,
0x9B, 0xC1,
0x00, 0x00,
0x00, 0x00,
0x00, 0x00,
0x00, 0x00,
0x00, 0x00,
0x00, 0x00,
0x00, 0x00,
0x00, 0x00,
0xBC, 0xA1,
0xFE, 0x22,
0xFE, 0x22,
0xFE, 0x22,
0xFE, 0x22,
0xFE, 0x22,
0xFE, 0x22,
0xFE, 0x22,
0xFE, 0x22,
0xFE, 0x22,
0xFE, 0x22,
0xFE, 0x22,
0x41, 0x80,
0x00, 0x00,
0x00, 0x00,
0x00, 0x00,
0x00, 0x00,
0x00, 0x00,
0xAC, 0x21,
0xFE, 0x22,
0xFE, 0x22,
0xFE, 0x22,
0xFE, 0x22,
0xFE, 0x22,
0xFE, 0x22,
0xFE, 0x22,
0xFE, 0x22,
0xCC, 0xE1,
0x00, 0x00,
0x00, 0x00,
0x00, 0x00,
0x00, 0x00,
0x00, 0x00,
0x00, 0x00,
0x00, 0x00,
0x00, 0x00,
0x00, 0x00,
0xBC, 0xA1,
0xFE, 0x22,
0xFE, 0x22,
0xFE, 0x22,
0xFE, 0x22,
0xFE, 0x22,
0xFE, 0x22,
0xFE, 0x22,
0xFE, 0x22,
0xFE, 0x22,
0xFE, 0x22,
0xFE, 0x22,
0x41, 0x80,
0x00, 0x00,
0x00, 0x00,
0x00, 0x00,
0x00, 0x00,
0x6A, 0x81,
0xFE, 0x22,
0xFE, 0x22,
0xFE, 0x22,
0xFE, 0x22,
0xFE, 0x22,
0xFE, 0x22,
0xFE, 0x22,
0xFE, 0x22,
0xED, 0xA2,
0x20, 0xC0,
0x00, 0x00,
0x00, 0x00,
0x00, 0x00,
0x00, 0x00,
0x00, 0x00,
0x00, 0x00,
0x00, 0x00,
0x00, 0x00,
0x00, 0x00,
0xBC, 0xA1,
0xFE, 0x22,
0xFE, 0x22,
0xFE, 0x22,
0xFE, 0x22,
0xFE, 0x22,
0xFE, 0x22,
0xFE, 0x22,
0xFE, 0x22,
0xFE, 0x22,
0xFE, 0x22,
0xFE, 0x22,
0x41, 0x80,
0x00, 0x00,
0x00, 0x00,
0x00, 0x00,
0x41, 0x80,
0xFE, 0x22,
0xFE, 0x22,
0xFE, 0x22,
0xFE, 0x22,
0xFE, 0x22,
0xFE, 0x22,
0xFE, 0x22,
0xFE, 0x22,
0xFE, 0x22,
0x51, 0xC0,
0x00, 0x00,
0x00, 0x00,
0x00, 0x00,
0x00, 0x00,
0x00, 0x00,
0x00, 0x00,
0x00, 0x00,
0x00, 0x00,
0x00, 0x00,
0x00, 0x00,
0xBC, 0xA1,
0xFE, 0x22,
0xFE, 0x22,
0xFE, 0x22,
0xFE, 0x22,
0xFE, 0x22,
0xFE, 0x22,
0xFE, 0x22,
0xFE, 0x22,
0xFE, 0x22,
0xFE, 0x22,
0xFE, 0x22,
0x41, 0x80,
0x00, 0x00,
0x00, 0x00,
0x00, 0x00,
0xBC, 0xA1,
0xFE, 0x22,
0xFE, 0x22,
0xFE, 0x22,
0xFE, 0x22,
0xFE, 0x22,
0xFE, 0x22,
0xFE, 0x22,
0xFE, 0x22,
0xED, 0xA2,
0xBC, 0xA1,
0xBC, 0xA1,
0xBC, 0xA1,
0xBC, 0xA1,
0xBC, 0xA1,
0xBC, 0xA1,
0xBC, 0xA1,
0xBC, 0xA1,
0xBC, 0xA1,
0xBC, 0xA1,
0xBC, 0xA1,
0xED, 0xA2,
0xFE, 0x22,
0xFE, 0x22,
0xFE, 0x22,
0xFE, 0x22,
0xFE, 0x22,
0xFE, 0x22,
0xFE, 0x22,
0xFE, 0x22,
0xFE, 0x22,
0xFE, 0x22,
0xFE, 0x22,
0xCC, 0xE1,
0xBC, 0xA1,
0xBC, 0xA1,
0xBC, 0xA1,
0xBC, 0xA1,
0xFE, 0x22,
0xFE, 0x22,
0xFE, 0x22,
0xFE, 0x22,
0xFE, 0x22,
0xFE, 0x22,
0xFE, 0x22,
0xFE, 0x22,
0xFE, 0x22,
0xFE, 0x22,
0xFE, 0x22,
0xFE, 0x22,
0xFE, 0x22,
0xFE, 0x22,
0xFE, 0x22,
0xFE, 0x22,
0xFE, 0x22,
0xFE, 0x22,
0xFE, 0x22,
0xFE, 0x22,
0xFE, 0x22,
0xFE, 0x22,
0xFE, 0x22,
0xFE, 0x22,
0xFE, 0x22,
0xFE, 0x22,
0xFE, 0x22,
0xFE, 0x22,
0xFE, 0x22,
0xFE, 0x22,
0xFE, 0x22,
0xFE, 0x22,
0xFE, 0x22,
0xFE, 0x22,
0xFE, 0x22,
0xFE, 0x22,
0xBC, 0xA1,
0xFE, 0x22,
0xFE, 0x22,
0xFE, 0x22,
0xFE, 0x22,
0xFE, 0x22,
0xFE, 0x22,
0xFE, 0x22,
0xFE, 0x22,
0xFE, 0x22,
0xFE, 0x22,
0xFE, 0x22,
0xFE, 0x22,
0xFE, 0x22,
0xFE, 0x22,
0xFE, 0x22,
0xFE, 0x22,
0xFE, 0x22,
0xFE, 0x22,
0xFE, 0x22,
0xFE, 0x22,
0xFE, 0x22,
0xFE, 0x22,
0xFE, 0x22,
0xFE, 0x22,
0xFE, 0x22,
0xFE, 0x22,
0xFE, 0x22,
0xFE, 0x22,
0xFE, 0x22,
0xFE, 0x22,
0xFE, 0x22,
0xFE, 0x22,
0xFE, 0x22,
0xFE, 0x22,
0xFE, 0x22,
0xFE, 0x22,
0xBC, 0xA1,
0xFE, 0x22,
0xFE, 0x22,
0xFE, 0x22,
0xFE, 0x22,
0xFE, 0x22,
0xFE, 0x22,
0xFE, 0x22,
0xFE, 0x22,
0xFE, 0x22,
0xFE, 0x22,
0xFE, 0x22,
0xFE, 0x22,
0xFE, 0x22,
0xFE, 0x22,
0xFE, 0x22,
0xFE, 0x22,
0xFE, 0x22,
0xFE, 0x22,
0xFE, 0x22,
0xFE, 0x22,
0xFE, 0x22,
0xFE, 0x22,
0xFE, 0x22,
0xFE, 0x22,
0xFE, 0x22,
0xFE, 0x22,
0xFE, 0x22,
0xFE, 0x22,
0xFE, 0x22,
0xFE, 0x22,
0xFE, 0x22,
0xFE, 0x22,
0xFE, 0x22,
0xFE, 0x22,
0xFE, 0x22,
0xFE, 0x22,
0xBC, 0xA1,
0xFE, 0x22,
0xFE, 0x22,
0xFE, 0x22,
0xFE, 0x22,
0xFE, 0x22,
0xFE, 0x22,
0xFE, 0x22,
0xFE, 0x22,
0xFE, 0x22,
0xFE, 0x22,
0xFE, 0x22,
0xFE, 0x22,
0xFE, 0x22,
0xFE, 0x22,
0xFE, 0x22,
0xFE, 0x22,
0xFE, 0x22,
0xFE, 0x22,
0xFE, 0x22,
0xFE, 0x22,
0xFE, 0x22,
0xFE, 0x22,
0xFE, 0x22,
0xFE, 0x22,
0xFE, 0x22,
0xFE, 0x22,
0xFE, 0x22,
0xFE, 0x22,
0xFE, 0x22,
0xFE, 0x22,
0xFE, 0x22,
0xFE, 0x22,
0xFE, 0x22,
0xFE, 0x22,
0xFE, 0x22,
0xFE, 0x22,
0xBC, 0xA1,
0xFE, 0x22,
0xFE, 0x22,
0xFE, 0x22,
0xFE, 0x22,
0xFE, 0x22,
0xFE, 0x22,
0xFE, 0x22,
0xFE, 0x22,
0xFE, 0x22,
0xFE, 0x22,
0xFE, 0x22,
0xFE, 0x22,
0xFE, 0x22,
0xFE, 0x22,
0xFE, 0x22,
0xFE, 0x22,
0xFE, 0x22,
0xFE, 0x22,
0xFE, 0x22,
0xFE, 0x22,
0xFE, 0x22,
0xFE, 0x22,
0xFE, 0x22,
0xFE, 0x22,
0xFE, 0x22,
0xFE, 0x22,
0xFE, 0x22,
0xFE, 0x22,
0xFE, 0x22,
0xFE, 0x22,
0xFE, 0x22,
0xFE, 0x22,
0xFE, 0x22,
0xFE, 0x22,
0xFE, 0x22,
0xFE, 0x22,
0xBC, 0xA1,
0xFE, 0x22,
0xFE, 0x22,
0xFE, 0x22,
0xFE, 0x22,
0xFE, 0x22,
0xFE, 0x22,
0xFE, 0x22,
0xFE, 0x22,
0xFE, 0x22,
0xFE, 0x22,
0xFE, 0x22,
0xFE, 0x22,
0xFE, 0x22,
0xFE, 0x22,
0xFE, 0x22,
0xFE, 0x22,
0xFE, 0x22,
0xFE, 0x22,
0xFE, 0x22,
0xFE, 0x22,
0xFE, 0x22,
0xFE, 0x22,
0xFE, 0x22,
0xFE, 0x22,
0xFE, 0x22,
0xFE, 0x22,
0xFE, 0x22,
0xFE, 0x22,
0xFE, 0x22,
0xFE, 0x22,
0xFE, 0x22,
0xFE, 0x22,
0xFE, 0x22,
0xFE, 0x22,
0xFE, 0x22,
0xFE, 0x22,
0xBC, 0xA1,
0xFE, 0x22,
0xFE, 0x22,
0xFE, 0x22,
0xFE, 0x22,
0xFE, 0x22,
0xFE, 0x22,
0xFE, 0x22,
0xFE, 0x22,
0xFE, 0x22,
0xFE, 0x22,
0xFE, 0x22,
0xFE, 0x22,
0xFE, 0x22,
0xFE, 0x22,
0xFE, 0x22,
0xFE, 0x22,
0xFE, 0x22,
0xFE, 0x22,
0xFE, 0x22,
0xFE, 0x22,
0xFE, 0x22,
0xFE, 0x22,
0xFE, 0x22,
0xFE, 0x22,
0xFE, 0x22,
0xFE, 0x22,
0xFE, 0x22,
0xFE, 0x22,
0xFE, 0x22,
0xFE, 0x22,
0xFE, 0x22,
0xFE, 0x22,
0xFE, 0x22,
0xFE, 0x22,
0xFE, 0x22,
0xFE, 0x22,
0xBC, 0xA1,
0xFE, 0x22,
0xFE, 0x22,
0xFE, 0x22,
0xFE, 0x22,
0xFE, 0x22,
0xFE, 0x22,
0xFE, 0x22,
0xFE, 0x22,
0xFE, 0x22,
0xFE, 0x22,
0xFE, 0x22,
0xFE, 0x22,
0xFE, 0x22,
0xFE, 0x22,
0xFE, 0x22,
0xFE, 0x22,
0xFE, 0x22,
0xFE, 0x22,
0xFE, 0x22,
0xFE, 0x22,
0xFE, 0x22,
0xFE, 0x22,
0xFE, 0x22,
0xFE, 0x22,
0xFE, 0x22,
0xFE, 0x22,
0xFE, 0x22,
0xFE, 0x22,
0xFE, 0x22,
0xFE, 0x22,
0xFE, 0x22,
0xFE, 0x22,
0xFE, 0x22,
0xFE, 0x22,
0xFE, 0x22,
0xFE, 0x22,
0x00, 0x00,
0x00, 0x00,
0x00, 0x00,
0x00, 0x00,
0x00, 0x00,
0x00, 0x00,
0x00, 0x00,
0x00, 0x00,
0x00, 0x00,
0x00, 0x00,
0x00, 0x00,
0x00, 0x00,
0x00, 0x00,
0x00, 0x00,
0x00, 0x00,
0x00, 0x00,
0x00, 0x00,
0x00, 0x00,
0x00, 0x00,
0x00, 0x00,
0x00, 0x00,
0xBC, 0xA1,
0xFE, 0x22,
0xFE, 0x22,
0xFE, 0x22,
0xFE, 0x22,
0xFE, 0x22,
0xFE, 0x22,
0xFE, 0x22,
0xFE, 0x22,
0xFE, 0x22,
0xFE, 0x22,
0xFE, 0x22,
0x41, 0x80,
0x00, 0x00,
0x00, 0x00,
0x00, 0x00,
0x00, 0x00,
0x00, 0x00,
0x00, 0x00,
0x00, 0x00,
0x00, 0x00,
0x00, 0x00,
0x00, 0x00,
0x00, 0x00,
0x00, 0x00,
0x00, 0x00,
0x00, 0x00,
0x00, 0x00,
0x00, 0x00,
0x00, 0x00,
0x00, 0x00,
0x00, 0x00,
0x00, 0x00,
0x00, 0x00,
0x00, 0x00,
0x00, 0x00,
0x00, 0x00,
0xBC, 0xA1,
0xFE, 0x22,
0xFE, 0x22,
0xFE, 0x22,
0xFE, 0x22,
0xFE, 0x22,
0xFE, 0x22,
0xFE, 0x22,
0xFE, 0x22,
0xFE, 0x22,
0xFE, 0x22,
0xFE, 0x22,
0x41, 0x80,
0x00, 0x00,
0x00, 0x00,
0x00, 0x00,
0x00, 0x00,
0x00, 0x00,
0x00, 0x00,
0x00, 0x00,
0x00, 0x00,
0x00, 0x00,
0x00, 0x00,
0x00, 0x00,
0x00, 0x00,
0x00, 0x00,
0x00, 0x00,
0x00, 0x00,
0x00, 0x00,
0x00, 0x00,
0x00, 0x00,
0x00, 0x00,
0x00, 0x00,
0x00, 0x00,
0x00, 0x00,
0x00, 0x00,
0x00, 0x00,
0xBC, 0xA1,
0xFE, 0x22,
0xFE, 0x22,
0xFE, 0x22,
0xFE, 0x22,
0xFE, 0x22,
0xFE, 0x22,
0xFE, 0x22,
0xFE, 0x22,
0xFE, 0x22,
0xFE, 0x22,
0xFE, 0x22,
0x41, 0x80,
0x00, 0x00,
0x00, 0x00,
0x00, 0x00,
0x00, 0x00,
0x00, 0x00,
0x00, 0x00,
0x00, 0x00,
0x00, 0x00,
0x00, 0x00,
0x00, 0x00,
0x00, 0x00,
0x00, 0x00,
0x00, 0x00,
0x00, 0x00,
0x00, 0x00,
0x00, 0x00,
0x00, 0x00,
0x00, 0x00,
0x00, 0x00,
0x00, 0x00,
0x00, 0x00,
0x00, 0x00,
0x00, 0x00,
0x00, 0x00,
0xBC, 0xA1,
0xFE, 0x22,
0xFE, 0x22,
0xFE, 0x22,
0xFE, 0x22,
0xFE, 0x22,
0xFE, 0x22,
0xFE, 0x22,
0xFE, 0x22,
0xFE, 0x22,
0xFE, 0x22,
0xFE, 0x22,
0x41, 0x80,
0x00, 0x00,
0x00, 0x00,
0x00, 0x00,
0x00, 0x00,
0x00, 0x00,
0x00, 0x00,
0x00, 0x00,
0x00, 0x00,
0x00, 0x00,
0x00, 0x00,
0x00, 0x00,
0x00, 0x00,
0x00, 0x00,
0x00, 0x00,
0x00, 0x00,
0x00, 0x00,
0x00, 0x00,
0x00, 0x00,
0x00, 0x00,
0x00, 0x00,
0x00, 0x00,
0x00, 0x00,
0x00, 0x00,
0x00, 0x00,
0xBC, 0xA1,
0xFE, 0x22,
0xFE, 0x22,
0xFE, 0x22,
0xFE, 0x22,
0xFE, 0x22,
0xFE, 0x22,
0xFE, 0x22,
0xFE, 0x22,
0xFE, 0x22,
0xFE, 0x22,
0xFE, 0x22,
0x41, 0x80,
0x00, 0x00,
0x00, 0x00,
0x00, 0x00,
0x00, 0x00,
0x00, 0x00,
0x00, 0x00,
0x00, 0x00,
0x00, 0x00,
0x00, 0x00,
0x00, 0x00,
0x00, 0x00,
0x00, 0x00,
0x00, 0x00,
0x00, 0x00,
0x00, 0x00,
0x00, 0x00,
0x00, 0x00,
0x00, 0x00,
0x00, 0x00,
0x00, 0x00,
0x00, 0x00,
0x00, 0x00,
0x00, 0x00,
0x00, 0x00,
0xBC, 0xA1,
0xFE, 0x22,
0xFE, 0x22,
0xFE, 0x22,
0xFE, 0x22,
0xFE, 0x22,
0xFE, 0x22,
0xFE, 0x22,
0xFE, 0x22,
0xFE, 0x22,
0xFE, 0x22,
0xFE, 0x22,
0x41, 0x80,
0x00, 0x00,
0x00, 0x00,
0x00, 0x00,
0x00, 0x00,
0x00, 0x00,
0x00, 0x00,
0x00, 0x00,
0x00, 0x00,
0x00, 0x00,
0x00, 0x00,
0x00, 0x00,
0x00, 0x00,
0x00, 0x00,
0x00, 0x00,
0x00, 0x00,
0x00, 0x00,
0x00, 0x00,
0x00, 0x00,
0x00, 0x00,
0x00, 0x00,
0x00, 0x00,
0x00, 0x00,
0x00, 0x00,
0x00, 0x00,
0xBC, 0xA1,
0xFE, 0x22,
0xFE, 0x22,
0xFE, 0x22,
0xFE, 0x22,
0xFE, 0x22,
0xFE, 0x22,
0xFE, 0x22,
0xFE, 0x22,
0xFE, 0x22,
0xFE, 0x22,
0xFE, 0x22,
0x41, 0x80,
0x00, 0x00,
0x00, 0x00,
0x00, 0x00,
0x00, 0x00,
0x00, 0x00,
0x00, 0x00,
0x00, 0x00,
0x00, 0x00,
0x00, 0x00,
0x00, 0x00,
0x00, 0x00,
0x00, 0x00,
0x00, 0x00,
0x00, 0x00,
0x00, 0x00,
0x00, 0x00,
0x00, 0x00,
0x00, 0x00,
0x00, 0x00,
0x00, 0x00,
0x00, 0x00,
0x00, 0x00,
0x00, 0x00,
0x00, 0x00,
0xBC, 0xA1,
0xFE, 0x22,
0xFE, 0x22,
0xFE, 0x22,
0xFE, 0x22,
0xFE, 0x22,
0xFE, 0x22,
0xFE, 0x22,
0xFE, 0x22,
0xFE, 0x22,
0xFE, 0x22,
0xFE, 0x22,
0x41, 0x80,
0x00, 0x00,
0x00, 0x00,
0x00, 0x00,
0x00, 0x00,
0x00, 0x00,
0x00, 0x00,
0x00, 0x00,
0x00, 0x00,
0x00, 0x00,
0x00, 0x00,
0x00, 0x00,
0x00, 0x00,
0x00, 0x00,
0x00, 0x00,
0x00, 0x00,
0x00, 0x00,
0x00, 0x00,
0x00, 0x00,
0x00, 0x00,
0x00, 0x00,
0x00, 0x00,
0x00, 0x00,
0x00, 0x00,
0x00, 0x00,
0xBC, 0xA1,
0xFE, 0x22,
0xFE, 0x22,
0xFE, 0x22,
0xFE, 0x22,
0xFE, 0x22,
0xFE, 0x22,
0xFE, 0x22,
0xFE, 0x22,
0xFE, 0x22,
0xFE, 0x22,
0xFE, 0x22,
0x41, 0x80,
0x00, 0x00,
0x00, 0x00,
0x00, 0x00,
0x00, 0x00,
0x00, 0x00,
0x00, 0x00,
0x00, 0x00,
0x00, 0x00,
0x00, 0x00,
0x00, 0x00,
0x00, 0x00,
0x00, 0x00,
0x00, 0x00,
0x00, 0x00,
0x00, 0x00,
0x00, 0x00,
0x00, 0x00,
0x00, 0x00,
0x00, 0x00,
0x00, 0x00,
0x00, 0x00,
0x00, 0x00,
0x00, 0x00,
0x00, 0x00,
0xBC, 0xA1,
0xFE, 0x22,
0xFE, 0x22,
0xFE, 0x22,
0xFE, 0x22,
0xFE, 0x22,
0xFE, 0x22,
0xFE, 0x22,
0xFE, 0x22,
0xFE, 0x22,
0xFE, 0x22,
0xFE, 0x22,
0x41, 0x80,
0x00, 0x00,
0x00, 0x00,
0x00, 0x00,
0x00, 0x00,
0x00, 0x00,
0x00, 0x00,
0x00, 0x00,
0x00, 0x00,
0x00, 0x00,
0x00, 0x00,
0x00, 0x00,
0x00, 0x00,
0x00, 0x00,
0x00, 0x00,
0x00, 0x00,
0x00, 0x00,
0x00, 0x00,
0x00, 0x00,
0x00, 0x00,
0x00, 0x00,
0x00, 0x00,
0x00, 0x00,
0x00, 0x00,
0x00, 0x00,
0xBC, 0xA1,
0xFE, 0x22,
0xFE, 0x22,
0xFE, 0x22,
0xFE, 0x22,
0xFE, 0x22,
0xFE, 0x22,
0xFE, 0x22,
0xFE, 0x22,
0xFE, 0x22,
0xFE, 0x22,
0xFE, 0x22,
0x41, 0x80,
0x00, 0x00,
0x00, 0x00,
0x00, 0x00,
0x00, 0x00,
0x00, 0x00,
0x00, 0x00,
0x00, 0x00,
0x00, 0x00,
0x00, 0x00,
0x00, 0x00,
0x00, 0x00,
0x00, 0x00,
0x00, 0x00,
0x00, 0x00,
0x00, 0x00,
0x00, 0x00,
0x00, 0x00,
0x00, 0x00,
0x00, 0x00,
0x00, 0x00,
0x00, 0x00,
0x00, 0x00,
0x00, 0x00,
0x00, 0x00,
0xBC, 0xA1,
0xFE, 0x22,
0xFE, 0x22,
0xFE, 0x22,
0xFE, 0x22,
0xFE, 0x22,
0xFE, 0x22,
0xFE, 0x22,
0xFE, 0x22,
0xFE, 0x22,
0xFE, 0x22,
0xFE, 0x22,
0x41, 0x80,
0x00, 0x00,
0x00, 0x00,
0x00, 0x00,
0x00, 0x00,
0x00, 0x00,
0x00, 0x00,
0x00, 0x00,
0x00, 0x00,
0x00, 0x00,
0x00, 0x00,
0x00, 0x00,
0x00, 0x00,
0x00, 0x00,
0x00, 0x00,
0x00, 0x00,
0x00, 0x00,
0x00, 0x00,
0x00, 0x00,
0x00, 0x00,
0x00, 0x00,
0x00, 0x00,
0x00, 0x00,
0x00, 0x00,
0x00, 0x00,
0xBC, 0xA1,
0xFE, 0x22,
0xFE, 0x22,
0xFE, 0x22,
0xFE, 0x22,
0xFE, 0x22,
0xFE, 0x22,
0xFE, 0x22,
0xFE, 0x22,
0xFE, 0x22,
0xFE, 0x22,
0xFE, 0x22,
0x41, 0x80,
0x00, 0x00,
0x00, 0x00,
0x00, 0x00,
0x00, 0x00,
0x00, 0x00,
0x00, 0x00,
0x00, 0x00,
0x00, 0x00,
0x00, 0x00,
0x00, 0x00,
0x00, 0x00,
0x00, 0x00,
0x00, 0x00,
0x00, 0x00,
0x00, 0x00,
0x00, 0x00,
0x00, 0x00,
0x00, 0x00,
0x00, 0x00,
0x00, 0x00,
0x00, 0x00,
0x00, 0x00,
0x00, 0x00,
0x00, 0x00,
0x31, 0x00,
0x41, 0x80,
0x41, 0x80,
0x41, 0x80,
0x41, 0x80,
0x41, 0x80,
0x41, 0x80,
0x41, 0x80,
0x41, 0x80,
0x41, 0x80,
0x41, 0x80,
0x41, 0x80,
0x10, 0x40,
0x00, 0x00,
0x00, 0x00,
0x00, 0x00
}}
