/*Y 8 7 5 4 . scrollbarv[4]={  scrollbarv.sym   LCDIcon FileDescriptor: Do not edit or move */
/* Put Your Comments Here */
/* Used by functions in wnscrolb.c */
/* */
/* */
/* */
/* */
/* */
/* */
/* */
/* */
/* */
/* */
/* */
/* */
/* */
/* */
/* */
/* */
/* */
/* */
/* */

/* Element 0x0000 - Char 0x0000 */
{{7, 5},{
0x10,  /*  ...%....  */
0x38,  /*  ..%%%...  */
0x7C,  /*  .%%%%%..  */
0xFE,  /*  %%%%%%%.  */
0x00   /*  ........  */
}}
,

/* Element 0x0001 - Char 0x0001 */
{{7, 5},{
0x00,  /*  ........  */
0xFE,  /*  %%%%%%%.  */
0x7C,  /*  .%%%%%..  */
0x38,  /*  ..%%%...  */
0x10   /*  ...%....  */
}}
,

/* Element 0x0002 - Char 0x0002 */
{{7, 5},{
0xFE,  /*  %%%%%%%.  */
0x10,  /*  ...%....  */
0x38,  /*  ..%%%...  */
0x7C,  /*  .%%%%%..  */
0xFE   /*  %%%%%%%.  */
}}
,

/* Element 0x0003 - Char 0x0003 */
{{7, 5},{
0xFE,  /*  %%%%%%%.  */
0x7C,  /*  .%%%%%..  */
0x38,  /*  ..%%%...  */
0x10,  /*  ...%....  */
0xFE   /*  %%%%%%%.  */
}}

