/*V R C 4 256 3 3 2 8  00000000 00FFFFFF 0 00FFFFFF  Green_9.sym   LCDIcon FileDescriptor: Do not edit or move */
/* Put Your Comments Here */
/* */
/* */
/* */
/* */
/* */
/* */
/* */
/* */
/* */
/* */
/* */
/* */
/* */
/* */
/* */
/* */
/* */
/* */
/* */
/* */


/* Element 0xFFFFFFFF - Char 0xFFFFFFFF */
{{ 0, 0x08, 37, 56 },{
0x00,
0x00,
0x00,
0x00,
0x00,
0x00,
0x00,
0x00,
0x00,
0x00,
0x00,
0x00,
0x00,
0x00,
0x28,
0x4C,
0x50,
0x50,
0x50,
0x50,
0x4C,
0x4C,
0x24,
0x00,
0x00,
0x00,
0x00,
0x00,
0x00,
0x00,
0x00,
0x00,
0x00,
0x00,
0x00,
0x00,
0x00,
0x00,
0x00,
0x00,
0x00,
0x00,
0x00,
0x00,
0x00,
0x00,
0x00,
0x00,
0x28,
0x74,
0x79,
0x79,
0x79,
0x79,
0x79,
0x79,
0x79,
0x79,
0x79,
0x79,
0x75,
0x4C,
0x24,
0x00,
0x00,
0x00,
0x00,
0x00,
0x00,
0x00,
0x00,
0x00,
0x00,
0x00,
0x00,
0x00,
0x00,
0x00,
0x00,
0x00,
0x00,
0x00,
0x00,
0x4C,
0x75,
0x79,
0x79,
0x79,
0x79,
0x79,
0x79,
0x79,
0x79,
0x79,
0x79,
0x79,
0x79,
0x79,
0x79,
0x79,
0x50,
0x04,
0x00,
0x00,
0x00,
0x00,
0x00,
0x00,
0x00,
0x00,
0x00,
0x00,
0x00,
0x00,
0x00,
0x00,
0x00,
0x00,
0x04,
0x74,
0x79,
0x79,
0x79,
0x79,
0x79,
0x79,
0x79,
0x79,
0x79,
0x79,
0x79,
0x79,
0x79,
0x79,
0x79,
0x79,
0x79,
0x79,
0x79,
0x4C,
0x00,
0x00,
0x00,
0x00,
0x00,
0x00,
0x00,
0x00,
0x00,
0x00,
0x00,
0x00,
0x00,
0x00,
0x28,
0x79,
0x79,
0x79,
0x79,
0x79,
0x79,
0x79,
0x79,
0x79,
0x79,
0x79,
0x79,
0x79,
0x79,
0x79,
0x79,
0x79,
0x79,
0x79,
0x79,
0x79,
0x79,
0x50,
0x00,
0x00,
0x00,
0x00,
0x00,
0x00,
0x00,
0x00,
0x00,
0x00,
0x00,
0x00,
0x28,
0x79,
0x79,
0x79,
0x79,
0x79,
0x79,
0x79,
0x79,
0x79,
0x79,
0x79,
0x79,
0x79,
0x79,
0x79,
0x79,
0x79,
0x79,
0x79,
0x79,
0x79,
0x79,
0x79,
0x79,
0x70,
0x00,
0x00,
0x00,
0x00,
0x00,
0x00,
0x00,
0x00,
0x00,
0x00,
0x28,
0x79,
0x79,
0x79,
0x79,
0x79,
0x79,
0x79,
0x79,
0x79,
0x79,
0x79,
0x79,
0x79,
0x79,
0x79,
0x79,
0x79,
0x79,
0x79,
0x79,
0x79,
0x79,
0x79,
0x79,
0x79,
0x79,
0x4C,
0x00,
0x00,
0x00,
0x00,
0x00,
0x00,
0x00,
0x00,
0x04,
0x75,
0x79,
0x79,
0x79,
0x79,
0x79,
0x79,
0x79,
0x79,
0x79,
0x79,
0x79,
0x79,
0x79,
0x79,
0x79,
0x79,
0x79,
0x79,
0x79,
0x79,
0x79,
0x79,
0x79,
0x79,
0x79,
0x79,
0x79,
0x28,
0x00,
0x00,
0x00,
0x00,
0x00,
0x00,
0x00,
0x70,
0x79,
0x79,
0x79,
0x79,
0x79,
0x79,
0x79,
0x79,
0x79,
0x79,
0x79,
0x79,
0x79,
0x79,
0x79,
0x79,
0x79,
0x79,
0x79,
0x79,
0x79,
0x79,
0x79,
0x79,
0x79,
0x79,
0x79,
0x79,
0x75,
0x00,
0x00,
0x00,
0x00,
0x00,
0x00,
0x28,
0x79,
0x79,
0x79,
0x79,
0x79,
0x79,
0x79,
0x79,
0x79,
0x79,
0x79,
0x79,
0x79,
0x79,
0x79,
0x79,
0x79,
0x79,
0x79,
0x79,
0x79,
0x79,
0x79,
0x79,
0x79,
0x79,
0x79,
0x79,
0x79,
0x79,
0x4C,
0x00,
0x00,
0x00,
0x00,
0x00,
0x74,
0x79,
0x79,
0x79,
0x79,
0x79,
0x79,
0x79,
0x79,
0x79,
0x79,
0x79,
0x79,
0x79,
0x4C,
0x4C,
0x4C,
0x4C,
0x75,
0x79,
0x79,
0x79,
0x79,
0x79,
0x79,
0x79,
0x79,
0x79,
0x79,
0x79,
0x79,
0x79,
0x00,
0x00,
0x00,
0x00,
0x24,
0x79,
0x79,
0x79,
0x79,
0x79,
0x79,
0x79,
0x79,
0x79,
0x79,
0x79,
0x79,
0x50,
0x00,
0x00,
0x00,
0x00,
0x00,
0x00,
0x50,
0x79,
0x79,
0x79,
0x79,
0x79,
0x79,
0x79,
0x79,
0x79,
0x79,
0x79,
0x79,
0x4C,
0x00,
0x00,
0x00,
0x4C,
0x79,
0x79,
0x79,
0x79,
0x79,
0x79,
0x79,
0x79,
0x79,
0x79,
0x79,
0x50,
0x00,
0x00,
0x00,
0x00,
0x00,
0x00,
0x00,
0x00,
0x70,
0x79,
0x79,
0x79,
0x79,
0x79,
0x79,
0x79,
0x79,
0x79,
0x79,
0x79,
0x74,
0x00,
0x00,
0x00,
0x75,
0x79,
0x79,
0x79,
0x79,
0x79,
0x79,
0x79,
0x79,
0x79,
0x79,
0x75,
0x00,
0x00,
0x00,
0x00,
0x00,
0x00,
0x00,
0x00,
0x00,
0x00,
0x79,
0x79,
0x79,
0x79,
0x79,
0x79,
0x79,
0x79,
0x79,
0x79,
0x79,
0x79,
0x04,
0x00,
0x24,
0x79,
0x79,
0x79,
0x79,
0x79,
0x79,
0x79,
0x79,
0x79,
0x79,
0x79,
0x4C,
0x00,
0x00,
0x00,
0x00,
0x00,
0x00,
0x00,
0x00,
0x00,
0x00,
0x50,
0x79,
0x79,
0x79,
0x79,
0x79,
0x79,
0x79,
0x79,
0x79,
0x79,
0x79,
0x28,
0x00,
0x28,
0x79,
0x79,
0x79,
0x79,
0x79,
0x79,
0x79,
0x79,
0x79,
0x79,
0x79,
0x04,
0x00,
0x00,
0x00,
0x00,
0x00,
0x00,
0x00,
0x00,
0x00,
0x00,
0x28,
0x79,
0x79,
0x79,
0x79,
0x79,
0x79,
0x79,
0x79,
0x79,
0x79,
0x79,
0x50,
0x00,
0x4C,
0x79,
0x79,
0x79,
0x79,
0x79,
0x79,
0x79,
0x79,
0x79,
0x79,
0x79,
0x00,
0x00,
0x00,
0x00,
0x00,
0x00,
0x00,
0x00,
0x00,
0x00,
0x00,
0x04,
0x79,
0x79,
0x79,
0x79,
0x79,
0x79,
0x79,
0x79,
0x79,
0x79,
0x79,
0x50,
0x00,
0x50,
0x79,
0x79,
0x79,
0x79,
0x79,
0x79,
0x79,
0x79,
0x79,
0x79,
0x50,
0x00,
0x00,
0x00,
0x00,
0x00,
0x00,
0x00,
0x00,
0x00,
0x00,
0x00,
0x00,
0x79,
0x79,
0x79,
0x79,
0x79,
0x79,
0x79,
0x79,
0x79,
0x79,
0x79,
0x79,
0x00,
0x50,
0x79,
0x79,
0x79,
0x79,
0x79,
0x79,
0x79,
0x79,
0x79,
0x79,
0x50,
0x00,
0x00,
0x00,
0x00,
0x00,
0x00,
0x00,
0x00,
0x00,
0x00,
0x00,
0x00,
0x79,
0x79,
0x79,
0x79,
0x79,
0x79,
0x79,
0x79,
0x79,
0x79,
0x79,
0x79,
0x00,
0x50,
0x79,
0x79,
0x79,
0x79,
0x79,
0x79,
0x79,
0x79,
0x79,
0x79,
0x50,
0x00,
0x00,
0x00,
0x00,
0x00,
0x00,
0x00,
0x00,
0x00,
0x00,
0x00,
0x00,
0x79,
0x79,
0x79,
0x79,
0x79,
0x79,
0x79,
0x79,
0x79,
0x79,
0x79,
0x79,
0x00,
0x50,
0x79,
0x79,
0x79,
0x79,
0x79,
0x79,
0x79,
0x79,
0x79,
0x79,
0x70,
0x00,
0x00,
0x00,
0x00,
0x00,
0x00,
0x00,
0x00,
0x00,
0x00,
0x00,
0x00,
0x79,
0x79,
0x79,
0x79,
0x79,
0x79,
0x79,
0x79,
0x79,
0x79,
0x79,
0x79,
0x00,
0x4C,
0x79,
0x79,
0x79,
0x79,
0x79,
0x79,
0x79,
0x79,
0x79,
0x79,
0x79,
0x00,
0x00,
0x00,
0x00,
0x00,
0x00,
0x00,
0x00,
0x00,
0x00,
0x00,
0x24,
0x79,
0x79,
0x79,
0x79,
0x79,
0x79,
0x79,
0x79,
0x79,
0x79,
0x79,
0x79,
0x00,
0x4C,
0x79,
0x79,
0x79,
0x79,
0x79,
0x79,
0x79,
0x79,
0x79,
0x79,
0x79,
0x28,
0x00,
0x00,
0x00,
0x00,
0x00,
0x00,
0x00,
0x00,
0x00,
0x00,
0x4C,
0x79,
0x79,
0x79,
0x79,
0x79,
0x79,
0x79,
0x79,
0x79,
0x79,
0x79,
0x50,
0x00,
0x24,
0x79,
0x79,
0x79,
0x79,
0x79,
0x79,
0x79,
0x79,
0x79,
0x79,
0x79,
0x50,
0x00,
0x00,
0x00,
0x00,
0x00,
0x00,
0x00,
0x00,
0x00,
0x00,
0x75,
0x79,
0x79,
0x79,
0x79,
0x79,
0x79,
0x79,
0x79,
0x79,
0x79,
0x79,
0x50,
0x00,
0x00,
0x79,
0x79,
0x79,
0x79,
0x79,
0x79,
0x79,
0x79,
0x79,
0x79,
0x79,
0x79,
0x24,
0x00,
0x00,
0x00,
0x00,
0x00,
0x00,
0x00,
0x00,
0x4C,
0x79,
0x79,
0x79,
0x79,
0x79,
0x79,
0x79,
0x79,
0x79,
0x79,
0x79,
0x79,
0x4C,
0x00,
0x00,
0x50,
0x79,
0x79,
0x79,
0x79,
0x79,
0x79,
0x79,
0x79,
0x79,
0x79,
0x79,
0x75,
0x04,
0x00,
0x00,
0x00,
0x00,
0x00,
0x00,
0x28,
0x79,
0x79,
0x79,
0x79,
0x79,
0x79,
0x79,
0x79,
0x79,
0x79,
0x79,
0x79,
0x79,
0x24,
0x00,
0x00,
0x24,
0x79,
0x79,
0x79,
0x79,
0x79,
0x79,
0x79,
0x79,
0x79,
0x79,
0x79,
0x79,
0x79,
0x4C,
0x04,
0x00,
0x00,
0x04,
0x50,
0x79,
0x79,
0x79,
0x79,
0x79,
0x79,
0x79,
0x79,
0x79,
0x79,
0x79,
0x79,
0x79,
0x79,
0x00,
0x00,
0x00,
0x00,
0x74,
0x79,
0x79,
0x79,
0x79,
0x79,
0x79,
0x79,
0x79,
0x79,
0x79,
0x79,
0x79,
0x79,
0x79,
0x79,
0x79,
0x79,
0x79,
0x79,
0x79,
0x79,
0x79,
0x79,
0x79,
0x79,
0x79,
0x79,
0x79,
0x79,
0x79,
0x79,
0x74,
0x00,
0x00,
0x00,
0x00,
0x24,
0x79,
0x79,
0x79,
0x79,
0x79,
0x79,
0x79,
0x79,
0x79,
0x79,
0x79,
0x79,
0x79,
0x79,
0x79,
0x79,
0x79,
0x79,
0x79,
0x79,
0x79,
0x79,
0x79,
0x79,
0x79,
0x79,
0x79,
0x79,
0x79,
0x79,
0x79,
0x4C,
0x00,
0x00,
0x00,
0x00,
0x00,
0x50,
0x79,
0x79,
0x79,
0x79,
0x79,
0x79,
0x79,
0x79,
0x79,
0x79,
0x79,
0x79,
0x79,
0x79,
0x79,
0x79,
0x79,
0x79,
0x79,
0x79,
0x79,
0x79,
0x79,
0x79,
0x79,
0x79,
0x79,
0x79,
0x79,
0x79,
0x24,
0x00,
0x00,
0x00,
0x00,
0x00,
0x00,
0x75,
0x79,
0x79,
0x79,
0x79,
0x79,
0x79,
0x79,
0x79,
0x79,
0x79,
0x79,
0x79,
0x79,
0x79,
0x79,
0x79,
0x79,
0x79,
0x79,
0x79,
0x79,
0x79,
0x79,
0x79,
0x79,
0x79,
0x79,
0x79,
0x74,
0x00,
0x00,
0x00,
0x00,
0x00,
0x00,
0x00,
0x04,
0x75,
0x79,
0x79,
0x79,
0x79,
0x79,
0x79,
0x79,
0x79,
0x79,
0x79,
0x79,
0x79,
0x79,
0x79,
0x79,
0x79,
0x79,
0x79,
0x79,
0x79,
0x79,
0x79,
0x79,
0x79,
0x79,
0x79,
0x79,
0x4C,
0x00,
0x00,
0x00,
0x00,
0x00,
0x00,
0x00,
0x00,
0x04,
0x75,
0x79,
0x79,
0x79,
0x79,
0x79,
0x79,
0x79,
0x79,
0x79,
0x79,
0x79,
0x79,
0x79,
0x79,
0x79,
0x79,
0x79,
0x79,
0x79,
0x79,
0x79,
0x79,
0x79,
0x79,
0x79,
0x79,
0x00,
0x00,
0x00,
0x00,
0x00,
0x00,
0x00,
0x00,
0x00,
0x00,
0x04,
0x74,
0x79,
0x79,
0x79,
0x79,
0x79,
0x79,
0x79,
0x79,
0x79,
0x79,
0x79,
0x79,
0x79,
0x79,
0x79,
0x79,
0x79,
0x79,
0x79,
0x79,
0x79,
0x79,
0x79,
0x79,
0x50,
0x00,
0x00,
0x00,
0x00,
0x00,
0x00,
0x00,
0x00,
0x00,
0x00,
0x00,
0x00,
0x4C,
0x75,
0x79,
0x79,
0x79,
0x79,
0x79,
0x79,
0x79,
0x79,
0x79,
0x79,
0x79,
0x79,
0x79,
0x79,
0x79,
0x79,
0x79,
0x79,
0x79,
0x79,
0x79,
0x79,
0x24,
0x00,
0x00,
0x00,
0x00,
0x00,
0x00,
0x00,
0x00,
0x00,
0x00,
0x00,
0x00,
0x00,
0x00,
0x28,
0x50,
0x79,
0x79,
0x79,
0x79,
0x79,
0x79,
0x74,
0x79,
0x79,
0x79,
0x79,
0x79,
0x79,
0x79,
0x79,
0x79,
0x79,
0x79,
0x79,
0x50,
0x00,
0x00,
0x00,
0x00,
0x00,
0x00,
0x00,
0x00,
0x00,
0x00,
0x00,
0x00,
0x00,
0x00,
0x00,
0x00,
0x00,
0x00,
0x04,
0x24,
0x24,
0x04,
0x00,
0x74,
0x79,
0x79,
0x79,
0x79,
0x79,
0x79,
0x79,
0x79,
0x79,
0x79,
0x79,
0x79,
0x24,
0x00,
0x00,
0x00,
0x00,
0x00,
0x00,
0x00,
0x00,
0x00,
0x00,
0x00,
0x00,
0x00,
0x00,
0x00,
0x00,
0x00,
0x00,
0x00,
0x00,
0x00,
0x00,
0x4C,
0x79,
0x79,
0x79,
0x79,
0x79,
0x79,
0x79,
0x79,
0x79,
0x79,
0x79,
0x79,
0x50,
0x00,
0x00,
0x00,
0x00,
0x00,
0x00,
0x00,
0x00,
0x00,
0x00,
0x00,
0x00,
0x00,
0x00,
0x00,
0x00,
0x00,
0x00,
0x00,
0x00,
0x00,
0x00,
0x00,
0x75,
0x79,
0x79,
0x79,
0x79,
0x79,
0x79,
0x79,
0x79,
0x79,
0x79,
0x79,
0x79,
0x00,
0x00,
0x00,
0x00,
0x00,
0x00,
0x00,
0x00,
0x00,
0x00,
0x00,
0x00,
0x00,
0x00,
0x00,
0x00,
0x00,
0x00,
0x00,
0x00,
0x00,
0x00,
0x00,
0x50,
0x79,
0x79,
0x79,
0x79,
0x79,
0x79,
0x79,
0x79,
0x79,
0x79,
0x79,
0x79,
0x4C,
0x00,
0x00,
0x00,
0x00,
0x00,
0x00,
0x00,
0x00,
0x00,
0x00,
0x00,
0x00,
0x00,
0x00,
0x00,
0x00,
0x00,
0x00,
0x00,
0x00,
0x00,
0x00,
0x24,
0x79,
0x79,
0x79,
0x79,
0x79,
0x79,
0x79,
0x79,
0x79,
0x79,
0x79,
0x79,
0x74,
0x00,
0x00,
0x00,
0x00,
0x00,
0x00,
0x00,
0x00,
0x00,
0x00,
0x00,
0x00,
0x00,
0x00,
0x00,
0x00,
0x00,
0x00,
0x00,
0x00,
0x00,
0x00,
0x00,
0x74,
0x79,
0x79,
0x79,
0x79,
0x79,
0x79,
0x79,
0x79,
0x79,
0x79,
0x79,
0x79,
0x24,
0x00,
0x00,
0x00,
0x00,
0x00,
0x00,
0x00,
0x00,
0x00,
0x00,
0x00,
0x00,
0x00,
0x00,
0x00,
0x00,
0x00,
0x00,
0x00,
0x00,
0x00,
0x00,
0x4C,
0x79,
0x79,
0x79,
0x79,
0x79,
0x79,
0x79,
0x79,
0x79,
0x79,
0x79,
0x79,
0x50,
0x00,
0x00,
0x00,
0x00,
0x00,
0x00,
0x00,
0x00,
0x00,
0x00,
0x00,
0x00,
0x00,
0x00,
0x00,
0x00,
0x00,
0x00,
0x00,
0x00,
0x00,
0x00,
0x04,
0x79,
0x79,
0x79,
0x79,
0x79,
0x79,
0x79,
0x79,
0x79,
0x79,
0x79,
0x79,
0x75,
0x00,
0x00,
0x00,
0x00,
0x00,
0x00,
0x00,
0x00,
0x00,
0x00,
0x00,
0x00,
0x00,
0x00,
0x00,
0x00,
0x00,
0x00,
0x00,
0x00,
0x00,
0x00,
0x00,
0x50,
0x79,
0x79,
0x79,
0x79,
0x79,
0x79,
0x79,
0x79,
0x79,
0x79,
0x79,
0x79,
0x4C,
0x00,
0x00,
0x00,
0x00,
0x00,
0x00,
0x00,
0x00,
0x00,
0x00,
0x00,
0x00,
0x00,
0x00,
0x00,
0x00,
0x00,
0x00,
0x00,
0x00,
0x00,
0x00,
0x28,
0x79,
0x79,
0x79,
0x79,
0x79,
0x79,
0x79,
0x79,
0x79,
0x79,
0x79,
0x79,
0x74,
0x00,
0x00,
0x00,
0x00,
0x00,
0x00,
0x00,
0x00,
0x00,
0x00,
0x00,
0x00,
0x00,
0x00,
0x00,
0x00,
0x00,
0x00,
0x00,
0x00,
0x00,
0x00,
0x00,
0x75,
0x79,
0x79,
0x79,
0x79,
0x79,
0x79,
0x79,
0x79,
0x79,
0x79,
0x79,
0x79,
0x24,
0x00,
0x00,
0x00,
0x00,
0x00,
0x00,
0x00,
0x00,
0x00,
0x00,
0x00,
0x00,
0x00,
0x00,
0x00,
0x00,
0x00,
0x00,
0x00,
0x00,
0x00,
0x00,
0x4C,
0x79,
0x79,
0x79,
0x79,
0x79,
0x79,
0x79,
0x79,
0x79,
0x79,
0x79,
0x79,
0x4C,
0x00,
0x00,
0x00,
0x00,
0x00,
0x00,
0x00,
0x00,
0x00,
0x00,
0x00,
0x00,
0x00,
0x00,
0x00,
0x00,
0x00,
0x00,
0x00,
0x00,
0x00,
0x00,
0x24,
0x79,
0x79,
0x79,
0x79,
0x79,
0x79,
0x79,
0x79,
0x79,
0x79,
0x79,
0x79,
0x75,
0x00,
0x00,
0x00,
0x00,
0x00,
0x00,
0x00,
0x00,
0x00,
0x00,
0x00,
0x00,
0x00,
0x00,
0x00,
0x00,
0x00,
0x00,
0x00,
0x00,
0x00,
0x00,
0x00,
0x74,
0x79,
0x79,
0x79,
0x79,
0x79,
0x79,
0x79,
0x79,
0x79,
0x79,
0x79,
0x79,
0x28,
0x00,
0x00,
0x00,
0x00,
0x00,
0x00,
0x00,
0x00,
0x00,
0x00,
0x00,
0x00,
0x00,
0x00,
0x00,
0x00,
0x00,
0x00,
0x00,
0x00,
0x00,
0x00,
0x4C,
0x79,
0x79,
0x79,
0x79,
0x79,
0x79,
0x79,
0x79,
0x79,
0x79,
0x79,
0x79,
0x50,
0x00,
0x00,
0x00,
0x00,
0x00,
0x00,
0x00,
0x00,
0x00,
0x00,
0x00,
0x00,
0x00,
0x00,
0x00,
0x00,
0x00,
0x00,
0x00,
0x00,
0x00,
0x00,
0x00,
0x75,
0x79,
0x79,
0x79,
0x79,
0x79,
0x79,
0x79,
0x79,
0x79,
0x79,
0x79,
0x79,
0x04,
0x00,
0x00,
0x00,
0x00,
0x00,
0x00,
0x00,
0x00,
0x00,
0x00,
0x00,
0x00,
0x00,
0x00,
0x00,
0x00,
0x00,
0x00,
0x00,
0x00,
0x00,
0x00,
0x50,
0x79,
0x79,
0x79,
0x79,
0x79,
0x79,
0x79,
0x79,
0x79,
0x79,
0x79,
0x79,
0x4C,
0x00,
0x00,
0x00,
0x00,
0x00,
0x00,
0x00,
0x00,
0x00,
0x00,
0x00,
0x00,
0x00,
0x00,
0x00,
0x00,
0x00,
0x00,
0x00,
0x00,
0x00,
0x00,
0x24,
0x79,
0x79,
0x79,
0x79,
0x79,
0x79,
0x79,
0x79,
0x79,
0x79,
0x79,
0x79,
0x74,
0x00,
0x00,
0x00,
0x00,
0x00,
0x00,
0x00,
0x00,
0x00,
0x00,
0x00,
0x00,
0x00,
0x00,
0x00,
0x00,
0x00,
0x00,
0x00,
0x00,
0x00,
0x00,
0x00,
0x74,
0x79,
0x79,
0x79,
0x79,
0x79,
0x79,
0x79,
0x79,
0x79,
0x79,
0x79,
0x79,
0x24,
0x00,
0x00,
0x00,
0x00,
0x00,
0x00,
0x00,
0x00,
0x00,
0x00,
0x00,
0x00,
0x00,
0x00,
0x00,
0x00,
0x00,
0x00,
0x00,
0x00,
0x00,
0x00,
0x4C,
0x79,
0x79,
0x79,
0x79,
0x79,
0x79,
0x79,
0x79,
0x79,
0x79,
0x79,
0x79,
0x50,
0x00,
0x00,
0x00,
0x00,
0x00,
0x00,
0x00,
0x00,
0x00,
0x00,
0x00,
0x00,
0x00,
0x00,
0x00,
0x00,
0x00
}}
