/*Y 8 8 8 16 . moyo_mono8_8[128]={  moyo_mono8_8.sym   LCDIcon FileDescriptor: Do not edit or move */
/**
    List of GSYMBOLS to be included with a font. Copyright RAMTEX 1999
**/
/* Put Your Comments Here */
/* */
/* */
/* */
/* */
/* */
/* */
/* */
/* */
/* */
/* */
/* */
/* */
/* */
/* */
/* */
/* */
/* */
/* */
/* */

/* Element 0x0000 - Char 0x0000 */
{{8, 8},{
0xC0,  /*  %%......  */
0xB8,  /*  %.%%%...  */
0xB0,  /*  %.%%....  */
0xDE,  /*  %%.%%%%.  */
0x14,  /*  ...%.%..  */
0x1E,  /*  ...%%%%.  */
0x04,  /*  .....%..  */
0x04   /*  .....%..  */
}}
,

/* Element 0x0001 - Char 0x0001 */
{{8, 8},{
0x10,  /*  ...%....  */
0x00,  /*  ........  */
0x38,  /*  ..%%%...  */
0x04,  /*  .....%..  */
0x3C,  /*  ..%%%%..  */
0x44,  /*  .%...%..  */
0x3E,  /*  ..%%%%%.  */
0x00   /*  ........  */
}}
,

/* Element 0x0002 - Char 0x0002 */
{{8, 8},{
0xC0,  /*  %%......  */
0xB8,  /*  %.%%%...  */
0xB0,  /*  %.%%....  */
0xDE,  /*  %%.%%%%.  */
0x14,  /*  ...%.%..  */
0x1E,  /*  ...%%%%.  */
0x04,  /*  .....%..  */
0x04   /*  .....%..  */
}}
,

/* Element 0x0003 - Char 0x0003 */
{{8, 8},{
0xC0,  /*  %%......  */
0xB8,  /*  %.%%%...  */
0xB0,  /*  %.%%....  */
0xDE,  /*  %%.%%%%.  */
0x14,  /*  ...%.%..  */
0x1E,  /*  ...%%%%.  */
0x04,  /*  .....%..  */
0x04   /*  .....%..  */
}}
,

/* Element 0x0004 - Char 0x0004 */
{{8, 8},{
0xC0,  /*  %%......  */
0xB8,  /*  %.%%%...  */
0xB0,  /*  %.%%....  */
0xDE,  /*  %%.%%%%.  */
0x14,  /*  ...%.%..  */
0x1E,  /*  ...%%%%.  */
0x04,  /*  .....%..  */
0x04   /*  .....%..  */
}}
,

/* Element 0x0005 - Char 0x0005 */
{{8, 8},{
0xC0,  /*  %%......  */
0xB8,  /*  %.%%%...  */
0xB0,  /*  %.%%....  */
0xDE,  /*  %%.%%%%.  */
0x14,  /*  ...%.%..  */
0x1E,  /*  ...%%%%.  */
0x04,  /*  .....%..  */
0x04   /*  .....%..  */
}}
,

/* Element 0x0006 - Char 0x0006 */
{{8, 8},{
0xC0,  /*  %%......  */
0xB8,  /*  %.%%%...  */
0xB0,  /*  %.%%....  */
0xDE,  /*  %%.%%%%.  */
0x14,  /*  ...%.%..  */
0x1E,  /*  ...%%%%.  */
0x04,  /*  .....%..  */
0x04   /*  .....%..  */
}}
,

/* Element 0x0007 - Char 0x0007 */
{{8, 8},{
0xC0,  /*  %%......  */
0xB8,  /*  %.%%%...  */
0xB0,  /*  %.%%....  */
0xDE,  /*  %%.%%%%.  */
0x14,  /*  ...%.%..  */
0x1E,  /*  ...%%%%.  */
0x04,  /*  .....%..  */
0x04   /*  .....%..  */
}}
,

/* Element 0x0008 - Char 0x0008 */
{{8, 8},{
0xC0,  /*  %%......  */
0xB8,  /*  %.%%%...  */
0xB0,  /*  %.%%....  */
0xDE,  /*  %%.%%%%.  */
0x14,  /*  ...%.%..  */
0x1E,  /*  ...%%%%.  */
0x04,  /*  .....%..  */
0x04   /*  .....%..  */
}}
,

/* Element 0x0009 - Char 0x0009 */
{{8, 8},{
0xC0,  /*  %%......  */
0xB8,  /*  %.%%%...  */
0xB0,  /*  %.%%....  */
0xDE,  /*  %%.%%%%.  */
0x14,  /*  ...%.%..  */
0x1E,  /*  ...%%%%.  */
0x04,  /*  .....%..  */
0x04   /*  .....%..  */
}}
,

/* Element 0x000A - Char 0x000A */
{{8, 8},{
0xC0,  /*  %%......  */
0xB8,  /*  %.%%%...  */
0xB0,  /*  %.%%....  */
0xDE,  /*  %%.%%%%.  */
0x14,  /*  ...%.%..  */
0x1E,  /*  ...%%%%.  */
0x04,  /*  .....%..  */
0x04   /*  .....%..  */
}}
,

/* Element 0x000B - Char 0x000B */
{{8, 8},{
0xC0,  /*  %%......  */
0xB8,  /*  %.%%%...  */
0xB0,  /*  %.%%....  */
0xDE,  /*  %%.%%%%.  */
0x14,  /*  ...%.%..  */
0x1E,  /*  ...%%%%.  */
0x04,  /*  .....%..  */
0x04   /*  .....%..  */
}}
,

/* Element 0x000C - Char 0x000C */
{{8, 8},{
0xC0,  /*  %%......  */
0xB8,  /*  %.%%%...  */
0xB0,  /*  %.%%....  */
0xDE,  /*  %%.%%%%.  */
0x14,  /*  ...%.%..  */
0x1E,  /*  ...%%%%.  */
0x04,  /*  .....%..  */
0x04   /*  .....%..  */
}}
,

/* Element 0x000D - Char 0x000D */
{{8, 8},{
0xC0,  /*  %%......  */
0xB8,  /*  %.%%%...  */
0xB0,  /*  %.%%....  */
0xDE,  /*  %%.%%%%.  */
0x14,  /*  ...%.%..  */
0x1E,  /*  ...%%%%.  */
0x04,  /*  .....%..  */
0x04   /*  .....%..  */
}}
,

/* Element 0x000E - Char 0x000E */
{{8, 8},{
0xC0,  /*  %%......  */
0xB8,  /*  %.%%%...  */
0xB0,  /*  %.%%....  */
0xDE,  /*  %%.%%%%.  */
0x14,  /*  ...%.%..  */
0x1E,  /*  ...%%%%.  */
0x04,  /*  .....%..  */
0x04   /*  .....%..  */
}}
,

/* Element 0x000F - Char 0x000F */
{{8, 8},{
0xC0,  /*  %%......  */
0xB8,  /*  %.%%%...  */
0xB0,  /*  %.%%....  */
0xDE,  /*  %%.%%%%.  */
0x14,  /*  ...%.%..  */
0x1E,  /*  ...%%%%.  */
0x04,  /*  .....%..  */
0x04   /*  .....%..  */
}}
,

/* Element 0x0010 - Char 0x0010 */
{{8, 8},{
0xC0,  /*  %%......  */
0xB8,  /*  %.%%%...  */
0xB0,  /*  %.%%....  */
0xDE,  /*  %%.%%%%.  */
0x14,  /*  ...%.%..  */
0x1E,  /*  ...%%%%.  */
0x04,  /*  .....%..  */
0x04   /*  .....%..  */
}}
,

/* Element 0x0011 - Char 0x0011 */
{{8, 8},{
0xC0,  /*  %%......  */
0xB8,  /*  %.%%%...  */
0xB0,  /*  %.%%....  */
0xDE,  /*  %%.%%%%.  */
0x14,  /*  ...%.%..  */
0x1E,  /*  ...%%%%.  */
0x04,  /*  .....%..  */
0x04   /*  .....%..  */
}}
,

/* Element 0x0012 - Char 0x0012 */
{{8, 8},{
0xC0,  /*  %%......  */
0xB8,  /*  %.%%%...  */
0xB0,  /*  %.%%....  */
0xDE,  /*  %%.%%%%.  */
0x14,  /*  ...%.%..  */
0x1E,  /*  ...%%%%.  */
0x04,  /*  .....%..  */
0x04   /*  .....%..  */
}}
,

/* Element 0x0013 - Char 0x0013 */
{{8, 8},{
0xC0,  /*  %%......  */
0xB8,  /*  %.%%%...  */
0xB0,  /*  %.%%....  */
0xDE,  /*  %%.%%%%.  */
0x14,  /*  ...%.%..  */
0x1E,  /*  ...%%%%.  */
0x04,  /*  .....%..  */
0x04   /*  .....%..  */
}}
,

/* Element 0x0014 - Char 0x0014 */
{{8, 8},{
0xC0,  /*  %%......  */
0xB8,  /*  %.%%%...  */
0xB0,  /*  %.%%....  */
0xDE,  /*  %%.%%%%.  */
0x14,  /*  ...%.%..  */
0x1E,  /*  ...%%%%.  */
0x04,  /*  .....%..  */
0x04   /*  .....%..  */
}}
,

/* Element 0x0015 - Char 0x0015 */
{{8, 8},{
0xC0,  /*  %%......  */
0xB8,  /*  %.%%%...  */
0xB0,  /*  %.%%....  */
0xDE,  /*  %%.%%%%.  */
0x14,  /*  ...%.%..  */
0x1E,  /*  ...%%%%.  */
0x04,  /*  .....%..  */
0x04   /*  .....%..  */
}}
,

/* Element 0x0016 - Char 0x0016 */
{{8, 8},{
0xC0,  /*  %%......  */
0xB8,  /*  %.%%%...  */
0xB0,  /*  %.%%....  */
0xDE,  /*  %%.%%%%.  */
0x14,  /*  ...%.%..  */
0x1E,  /*  ...%%%%.  */
0x04,  /*  .....%..  */
0x04   /*  .....%..  */
}}
,

/* Element 0x0017 - Char 0x0017 */
{{8, 8},{
0xC0,  /*  %%......  */
0xB8,  /*  %.%%%...  */
0xB0,  /*  %.%%....  */
0xDE,  /*  %%.%%%%.  */
0x14,  /*  ...%.%..  */
0x1E,  /*  ...%%%%.  */
0x04,  /*  .....%..  */
0x04   /*  .....%..  */
}}
,

/* Element 0x0018 - Char 0x0018 */
{{8, 8},{
0xC0,  /*  %%......  */
0xB8,  /*  %.%%%...  */
0xB0,  /*  %.%%....  */
0xDE,  /*  %%.%%%%.  */
0x14,  /*  ...%.%..  */
0x1E,  /*  ...%%%%.  */
0x04,  /*  .....%..  */
0x04   /*  .....%..  */
}}
,

/* Element 0x0019 - Char 0x0019 */
{{8, 8},{
0xC0,  /*  %%......  */
0xB8,  /*  %.%%%...  */
0xB0,  /*  %.%%....  */
0xDE,  /*  %%.%%%%.  */
0x14,  /*  ...%.%..  */
0x1E,  /*  ...%%%%.  */
0x04,  /*  .....%..  */
0x04   /*  .....%..  */
}}
,

/* Element 0x001A - Char 0x001A */
{{8, 8},{
0xC0,  /*  %%......  */
0xB8,  /*  %.%%%...  */
0xB0,  /*  %.%%....  */
0xDE,  /*  %%.%%%%.  */
0x14,  /*  ...%.%..  */
0x1E,  /*  ...%%%%.  */
0x04,  /*  .....%..  */
0x04   /*  .....%..  */
}}
,

/* Element 0x001B - Char 0x001B */
{{8, 8},{
0xC0,  /*  %%......  */
0xB8,  /*  %.%%%...  */
0xB0,  /*  %.%%....  */
0xDE,  /*  %%.%%%%.  */
0x14,  /*  ...%.%..  */
0x1E,  /*  ...%%%%.  */
0x04,  /*  .....%..  */
0x04   /*  .....%..  */
}}
,

/* Element 0x001C - Char 0x001C */
{{8, 8},{
0xC0,  /*  %%......  */
0xB8,  /*  %.%%%...  */
0xB0,  /*  %.%%....  */
0xDE,  /*  %%.%%%%.  */
0x14,  /*  ...%.%..  */
0x1E,  /*  ...%%%%.  */
0x04,  /*  .....%..  */
0x04   /*  .....%..  */
}}
,

/* Element 0x001D - Char 0x001D */
{{8, 8},{
0xC0,  /*  %%......  */
0xB8,  /*  %.%%%...  */
0xB0,  /*  %.%%....  */
0xDE,  /*  %%.%%%%.  */
0x14,  /*  ...%.%..  */
0x1E,  /*  ...%%%%.  */
0x04,  /*  .....%..  */
0x04   /*  .....%..  */
}}
,

/* Element 0x001E - Char 0x001E */
{{8, 8},{
0xC0,  /*  %%......  */
0xB8,  /*  %.%%%...  */
0xB0,  /*  %.%%....  */
0xDE,  /*  %%.%%%%.  */
0x14,  /*  ...%.%..  */
0x1E,  /*  ...%%%%.  */
0x04,  /*  .....%..  */
0x04   /*  .....%..  */
}}
,

/* Element 0x001F - Char 0x001F */
{{8, 8},{
0xC0,  /*  %%......  */
0xB8,  /*  %.%%%...  */
0xB0,  /*  %.%%....  */
0xDE,  /*  %%.%%%%.  */
0x14,  /*  ...%.%..  */
0x1E,  /*  ...%%%%.  */
0x04,  /*  .....%..  */
0x04   /*  .....%..  */
}}
,

/* Element 0x0020 - Char 0x0020 */
{{8, 8},{
0x00,  /*  ........  */
0x00,  /*  ........  */
0x00,  /*  ........  */
0x00,  /*  ........  */
0x00,  /*  ........  */
0x00,  /*  ........  */
0x00,  /*  ........  */
0x00   /*  ........  */
}}
,

/* Element 0x0021 - Char 0x0021 */
{{8, 8},{
0x10,  /*  ...%....  */
0x10,  /*  ...%....  */
0x10,  /*  ...%....  */
0x10,  /*  ...%....  */
0x10,  /*  ...%....  */
0x00,  /*  ........  */
0x10,  /*  ...%....  */
0x00   /*  ........  */
}}
,

/* Element 0x0022 - Char 0x0022 */
{{8, 8},{
0x24,  /*  ..%..%..  */
0x24,  /*  ..%..%..  */
0x24,  /*  ..%..%..  */
0x00,  /*  ........  */
0x00,  /*  ........  */
0x00,  /*  ........  */
0x00,  /*  ........  */
0x00   /*  ........  */
}}
,

/* Element 0x0023 - Char 0x0023 */
{{8, 8},{
0x24,  /*  ..%..%..  */
0x24,  /*  ..%..%..  */
0x7E,  /*  .%%%%%%.  */
0x24,  /*  ..%..%..  */
0x7E,  /*  .%%%%%%.  */
0x24,  /*  ..%..%..  */
0x24,  /*  ..%..%..  */
0x00   /*  ........  */
}}
,

/* Element 0x0024 - Char 0x0024 */
{{8, 8},{
0x18,  /*  ...%%...  */
0x3E,  /*  ..%%%%%.  */
0x40,  /*  .%......  */
0x3C,  /*  ..%%%%..  */
0x02,  /*  ......%.  */
0x7C,  /*  .%%%%%..  */
0x18,  /*  ...%%...  */
0x00   /*  ........  */
}}
,

/* Element 0x0025 - Char 0x0025 */
{{8, 8},{
0x00,  /*  ........  */
0x62,  /*  .%%...%.  */
0x64,  /*  .%%..%..  */
0x08,  /*  ....%...  */
0x10,  /*  ...%....  */
0x26,  /*  ..%..%%.  */
0x46,  /*  .%...%%.  */
0x00   /*  ........  */
}}
,

/* Element 0x0026 - Char 0x0026 */
{{8, 8},{
0x30,  /*  ..%%....  */
0x48,  /*  .%..%...  */
0x30,  /*  ..%%....  */
0x56,  /*  .%.%.%%.  */
0x88,  /*  %...%...  */
0x88,  /*  %...%...  */
0x76,  /*  .%%%.%%.  */
0x00   /*  ........  */
}}
,

/* Element 0x0027 - Char 0x0027 */
{{8, 8},{
0x10,  /*  ...%....  */
0x10,  /*  ...%....  */
0x20,  /*  ..%.....  */
0x00,  /*  ........  */
0x00,  /*  ........  */
0x00,  /*  ........  */
0x00,  /*  ........  */
0x00   /*  ........  */
}}
,

/* Element 0x0028 - Char 0x0028 */
{{8, 8},{
0x10,  /*  ...%....  */
0x20,  /*  ..%.....  */
0x40,  /*  .%......  */
0x40,  /*  .%......  */
0x40,  /*  .%......  */
0x20,  /*  ..%.....  */
0x10,  /*  ...%....  */
0x00   /*  ........  */
}}
,

/* Element 0x0029 - Char 0x0029 */
{{8, 8},{
0x20,  /*  ..%.....  */
0x10,  /*  ...%....  */
0x08,  /*  ....%...  */
0x08,  /*  ....%...  */
0x08,  /*  ....%...  */
0x10,  /*  ...%....  */
0x20,  /*  ..%.....  */
0x00   /*  ........  */
}}
,

/* Element 0x002A - Char 0x002A */
{{8, 8},{
0x00,  /*  ........  */
0x44,  /*  .%...%..  */
0x38,  /*  ..%%%...  */
0xFE,  /*  %%%%%%%.  */
0x38,  /*  ..%%%...  */
0x44,  /*  .%...%..  */
0x00,  /*  ........  */
0x00   /*  ........  */
}}
,

/* Element 0x002B - Char 0x002B */
{{8, 8},{
0x00,  /*  ........  */
0x10,  /*  ...%....  */
0x10,  /*  ...%....  */
0x7C,  /*  .%%%%%..  */
0x10,  /*  ...%....  */
0x10,  /*  ...%....  */
0x00,  /*  ........  */
0x00   /*  ........  */
}}
,

/* Element 0x002C - Char 0x002C */
{{8, 8},{
0x00,  /*  ........  */
0x00,  /*  ........  */
0x00,  /*  ........  */
0x00,  /*  ........  */
0x00,  /*  ........  */
0x10,  /*  ...%....  */
0x10,  /*  ...%....  */
0x20   /*  ..%.....  */
}}
,

/* Element 0x002D - Char 0x002D */
{{8, 8},{
0x00,  /*  ........  */
0x00,  /*  ........  */
0x00,  /*  ........  */
0x7E,  /*  .%%%%%%.  */
0x00,  /*  ........  */
0x00,  /*  ........  */
0x00,  /*  ........  */
0x00   /*  ........  */
}}
,

/* Element 0x002E - Char 0x002E */
{{8, 8},{
0x00,  /*  ........  */
0x00,  /*  ........  */
0x00,  /*  ........  */
0x00,  /*  ........  */
0x00,  /*  ........  */
0x10,  /*  ...%....  */
0x10,  /*  ...%....  */
0x00   /*  ........  */
}}
,

/* Element 0x002F - Char 0x002F */
{{8, 8},{
0x00,  /*  ........  */
0x02,  /*  ......%.  */
0x04,  /*  .....%..  */
0x08,  /*  ....%...  */
0x10,  /*  ...%....  */
0x20,  /*  ..%.....  */
0x40,  /*  .%......  */
0x00   /*  ........  */
}}
,

/* Element 0x0030 - Char 0x0030 */
{{8, 8},{
0x3C,  /*  ..%%%%..  */
0x42,  /*  .%....%.  */
0x42,  /*  .%....%.  */
0x42,  /*  .%....%.  */
0x42,  /*  .%....%.  */
0x42,  /*  .%....%.  */
0x3C,  /*  ..%%%%..  */
0x00   /*  ........  */
}}
,

/* Element 0x0031 - Char 0x0031 */
{{8, 8},{
0x10,  /*  ...%....  */
0x30,  /*  ..%%....  */
0x50,  /*  .%.%....  */
0x10,  /*  ...%....  */
0x10,  /*  ...%....  */
0x10,  /*  ...%....  */
0x7C,  /*  .%%%%%..  */
0x00   /*  ........  */
}}
,

/* Element 0x0032 - Char 0x0032 */
{{8, 8},{
0x3C,  /*  ..%%%%..  */
0x42,  /*  .%....%.  */
0x02,  /*  ......%.  */
0x0C,  /*  ....%%..  */
0x30,  /*  ..%%....  */
0x42,  /*  .%....%.  */
0x7E,  /*  .%%%%%%.  */
0x00   /*  ........  */
}}
,

/* Element 0x0033 - Char 0x0033 */
{{8, 8},{
0x3C,  /*  ..%%%%..  */
0x42,  /*  .%....%.  */
0x02,  /*  ......%.  */
0x1C,  /*  ...%%%..  */
0x02,  /*  ......%.  */
0x42,  /*  .%....%.  */
0x3C,  /*  ..%%%%..  */
0x00   /*  ........  */
}}
,

/* Element 0x0034 - Char 0x0034 */
{{8, 8},{
0x08,  /*  ....%...  */
0x18,  /*  ...%%...  */
0x28,  /*  ..%.%...  */
0x48,  /*  .%..%...  */
0xFE,  /*  %%%%%%%.  */
0x08,  /*  ....%...  */
0x1C,  /*  ...%%%..  */
0x00   /*  ........  */
}}
,

/* Element 0x0035 - Char 0x0035 */
{{8, 8},{
0x7E,  /*  .%%%%%%.  */
0x40,  /*  .%......  */
0x7C,  /*  .%%%%%..  */
0x02,  /*  ......%.  */
0x02,  /*  ......%.  */
0x42,  /*  .%....%.  */
0x3C,  /*  ..%%%%..  */
0x00   /*  ........  */
}}
,

/* Element 0x0036 - Char 0x0036 */
{{8, 8},{
0x1C,  /*  ...%%%..  */
0x20,  /*  ..%.....  */
0x40,  /*  .%......  */
0x7C,  /*  .%%%%%..  */
0x42,  /*  .%....%.  */
0x42,  /*  .%....%.  */
0x3C,  /*  ..%%%%..  */
0x00   /*  ........  */
}}
,

/* Element 0x0037 - Char 0x0037 */
{{8, 8},{
0x7E,  /*  .%%%%%%.  */
0x42,  /*  .%....%.  */
0x04,  /*  .....%..  */
0x08,  /*  ....%...  */
0x10,  /*  ...%....  */
0x10,  /*  ...%....  */
0x10,  /*  ...%....  */
0x00   /*  ........  */
}}
,

/* Element 0x0038 - Char 0x0038 */
{{8, 8},{
0x3C,  /*  ..%%%%..  */
0x42,  /*  .%....%.  */
0x42,  /*  .%....%.  */
0x3C,  /*  ..%%%%..  */
0x42,  /*  .%....%.  */
0x42,  /*  .%....%.  */
0x3C,  /*  ..%%%%..  */
0x00   /*  ........  */
}}
,

/* Element 0x0039 - Char 0x0039 */
{{8, 8},{
0x3C,  /*  ..%%%%..  */
0x42,  /*  .%....%.  */
0x42,  /*  .%....%.  */
0x3E,  /*  ..%%%%%.  */
0x02,  /*  ......%.  */
0x04,  /*  .....%..  */
0x38,  /*  ..%%%...  */
0x00   /*  ........  */
}}
,

/* Element 0x003A - Char 0x003A */
{{8, 8},{
0x00,  /*  ........  */
0x10,  /*  ...%....  */
0x10,  /*  ...%....  */
0x00,  /*  ........  */
0x00,  /*  ........  */
0x10,  /*  ...%....  */
0x10,  /*  ...%....  */
0x00   /*  ........  */
}}
,

/* Element 0x003B - Char 0x003B */
{{8, 8},{
0x00,  /*  ........  */
0x10,  /*  ...%....  */
0x10,  /*  ...%....  */
0x00,  /*  ........  */
0x00,  /*  ........  */
0x10,  /*  ...%....  */
0x10,  /*  ...%....  */
0x20   /*  ..%.....  */
}}
,

/* Element 0x003C - Char 0x003C */
{{8, 8},{
0x08,  /*  ....%...  */
0x10,  /*  ...%....  */
0x20,  /*  ..%.....  */
0x40,  /*  .%......  */
0x20,  /*  ..%.....  */
0x10,  /*  ...%....  */
0x08,  /*  ....%...  */
0x00   /*  ........  */
}}
,

/* Element 0x003D - Char 0x003D */
{{8, 8},{
0x00,  /*  ........  */
0x00,  /*  ........  */
0x7E,  /*  .%%%%%%.  */
0x00,  /*  ........  */
0x00,  /*  ........  */
0x7E,  /*  .%%%%%%.  */
0x00,  /*  ........  */
0x00   /*  ........  */
}}
,

/* Element 0x003E - Char 0x003E */
{{8, 8},{
0x10,  /*  ...%....  */
0x08,  /*  ....%...  */
0x04,  /*  .....%..  */
0x02,  /*  ......%.  */
0x04,  /*  .....%..  */
0x08,  /*  ....%...  */
0x10,  /*  ...%....  */
0x00   /*  ........  */
}}
,

/* Element 0x003F - Char 0x003F */
{{8, 8},{
0x3C,  /*  ..%%%%..  */
0x42,  /*  .%....%.  */
0x02,  /*  ......%.  */
0x04,  /*  .....%..  */
0x08,  /*  ....%...  */
0x00,  /*  ........  */
0x08,  /*  ....%...  */
0x00   /*  ........  */
}}
,

/* Element 0x0040 - Char 0x0040 */
{{8, 8},{
0x3C,  /*  ..%%%%..  */
0x42,  /*  .%....%.  */
0x5E,  /*  .%.%%%%.  */
0x52,  /*  .%.%..%.  */
0x5E,  /*  .%.%%%%.  */
0x40,  /*  .%......  */
0x3C,  /*  ..%%%%..  */
0x00   /*  ........  */
}}
,

/* Element 0x0041 - Char 0x0041 */
{{8, 8},{
0x18,  /*  ...%%...  */
0x24,  /*  ..%..%..  */
0x42,  /*  .%....%.  */
0x42,  /*  .%....%.  */
0x7E,  /*  .%%%%%%.  */
0x42,  /*  .%....%.  */
0x42,  /*  .%....%.  */
0x00   /*  ........  */
}}
,

/* Element 0x0042 - Char 0x0042 */
{{8, 8},{
0x7C,  /*  .%%%%%..  */
0x22,  /*  ..%...%.  */
0x22,  /*  ..%...%.  */
0x3C,  /*  ..%%%%..  */
0x22,  /*  ..%...%.  */
0x22,  /*  ..%...%.  */
0x7C,  /*  .%%%%%..  */
0x00   /*  ........  */
}}
,

/* Element 0x0043 - Char 0x0043 */
{{8, 8},{
0x1C,  /*  ...%%%..  */
0x22,  /*  ..%...%.  */
0x40,  /*  .%......  */
0x40,  /*  .%......  */
0x40,  /*  .%......  */
0x22,  /*  ..%...%.  */
0x1C,  /*  ...%%%..  */
0x00   /*  ........  */
}}
,

/* Element 0x0044 - Char 0x0044 */
{{8, 8},{
0x78,  /*  .%%%%...  */
0x24,  /*  ..%..%..  */
0x22,  /*  ..%...%.  */
0x22,  /*  ..%...%.  */
0x22,  /*  ..%...%.  */
0x24,  /*  ..%..%..  */
0x78,  /*  .%%%%...  */
0x00   /*  ........  */
}}
,

/* Element 0x0045 - Char 0x0045 */
{{8, 8},{
0x7E,  /*  .%%%%%%.  */
0x22,  /*  ..%...%.  */
0x28,  /*  ..%.%...  */
0x38,  /*  ..%%%...  */
0x28,  /*  ..%.%...  */
0x22,  /*  ..%...%.  */
0x7E,  /*  .%%%%%%.  */
0x00   /*  ........  */
}}
,

/* Element 0x0046 - Char 0x0046 */
{{8, 8},{
0x7E,  /*  .%%%%%%.  */
0x22,  /*  ..%...%.  */
0x28,  /*  ..%.%...  */
0x38,  /*  ..%%%...  */
0x28,  /*  ..%.%...  */
0x20,  /*  ..%.....  */
0x70,  /*  .%%%....  */
0x00   /*  ........  */
}}
,

/* Element 0x0047 - Char 0x0047 */
{{8, 8},{
0x1C,  /*  ...%%%..  */
0x22,  /*  ..%...%.  */
0x40,  /*  .%......  */
0x40,  /*  .%......  */
0x4E,  /*  .%..%%%.  */
0x22,  /*  ..%...%.  */
0x1E,  /*  ...%%%%.  */
0x00   /*  ........  */
}}
,

/* Element 0x0048 - Char 0x0048 */
{{8, 8},{
0x42,  /*  .%....%.  */
0x42,  /*  .%....%.  */
0x42,  /*  .%....%.  */
0x7E,  /*  .%%%%%%.  */
0x42,  /*  .%....%.  */
0x42,  /*  .%....%.  */
0x42,  /*  .%....%.  */
0x00   /*  ........  */
}}
,

/* Element 0x0049 - Char 0x0049 */
{{8, 8},{
0x38,  /*  ..%%%...  */
0x10,  /*  ...%....  */
0x10,  /*  ...%....  */
0x10,  /*  ...%....  */
0x10,  /*  ...%....  */
0x10,  /*  ...%....  */
0x38,  /*  ..%%%...  */
0x00   /*  ........  */
}}
,

/* Element 0x004A - Char 0x004A */
{{8, 8},{
0x0E,  /*  ....%%%.  */
0x04,  /*  .....%..  */
0x04,  /*  .....%..  */
0x04,  /*  .....%..  */
0x44,  /*  .%...%..  */
0x44,  /*  .%...%..  */
0x38,  /*  ..%%%...  */
0x00   /*  ........  */
}}
,

/* Element 0x004B - Char 0x004B */
{{8, 8},{
0x62,  /*  .%%...%.  */
0x24,  /*  ..%..%..  */
0x28,  /*  ..%.%...  */
0x30,  /*  ..%%....  */
0x28,  /*  ..%.%...  */
0x24,  /*  ..%..%..  */
0x63,  /*  .%%...%%  */
0x00   /*  ........  */
}}
,

/* Element 0x004C - Char 0x004C */
{{8, 8},{
0x70,  /*  .%%%....  */
0x20,  /*  ..%.....  */
0x20,  /*  ..%.....  */
0x20,  /*  ..%.....  */
0x20,  /*  ..%.....  */
0x22,  /*  ..%...%.  */
0x7E,  /*  .%%%%%%.  */
0x00   /*  ........  */
}}
,

/* Element 0x004D - Char 0x004D */
{{8, 8},{
0x63,  /*  .%%...%%  */
0x55,  /*  .%.%.%.%  */
0x49,  /*  .%..%..%  */
0x41,  /*  .%.....%  */
0x41,  /*  .%.....%  */
0x41,  /*  .%.....%  */
0x41,  /*  .%.....%  */
0x00   /*  ........  */
}}
,

/* Element 0x004E - Char 0x004E */
{{8, 8},{
0x62,  /*  .%%...%.  */
0x52,  /*  .%.%..%.  */
0x4A,  /*  .%..%.%.  */
0x46,  /*  .%...%%.  */
0x42,  /*  .%....%.  */
0x42,  /*  .%....%.  */
0x42,  /*  .%....%.  */
0x00   /*  ........  */
}}
,

/* Element 0x004F - Char 0x004F */
{{8, 8},{
0x3C,  /*  ..%%%%..  */
0x42,  /*  .%....%.  */
0x42,  /*  .%....%.  */
0x42,  /*  .%....%.  */
0x42,  /*  .%....%.  */
0x42,  /*  .%....%.  */
0x3C,  /*  ..%%%%..  */
0x00   /*  ........  */
}}
,

/* Element 0x0050 - Char 0x0050 */
{{8, 8},{
0x7C,  /*  .%%%%%..  */
0x22,  /*  ..%...%.  */
0x22,  /*  ..%...%.  */
0x3C,  /*  ..%%%%..  */
0x20,  /*  ..%.....  */
0x20,  /*  ..%.....  */
0x70,  /*  .%%%....  */
0x00   /*  ........  */
}}
,

/* Element 0x0051 - Char 0x0051 */
{{8, 8},{
0x3C,  /*  ..%%%%..  */
0x42,  /*  .%....%.  */
0x42,  /*  .%....%.  */
0x42,  /*  .%....%.  */
0x4A,  /*  .%..%.%.  */
0x3C,  /*  ..%%%%..  */
0x03,  /*  ......%%  */
0x00   /*  ........  */
}}
,

/* Element 0x0052 - Char 0x0052 */
{{8, 8},{
0x7C,  /*  .%%%%%..  */
0x22,  /*  ..%...%.  */
0x22,  /*  ..%...%.  */
0x3C,  /*  ..%%%%..  */
0x28,  /*  ..%.%...  */
0x24,  /*  ..%..%..  */
0x72,  /*  .%%%..%.  */
0x00   /*  ........  */
}}
,

/* Element 0x0053 - Char 0x0053 */
{{8, 8},{
0x3C,  /*  ..%%%%..  */
0x42,  /*  .%....%.  */
0x40,  /*  .%......  */
0x3C,  /*  ..%%%%..  */
0x02,  /*  ......%.  */
0x42,  /*  .%....%.  */
0x3C,  /*  ..%%%%..  */
0x00   /*  ........  */
}}
,

/* Element 0x0054 - Char 0x0054 */
{{8, 8},{
0x7F,  /*  .%%%%%%%  */
0x49,  /*  .%..%..%  */
0x08,  /*  ....%...  */
0x08,  /*  ....%...  */
0x08,  /*  ....%...  */
0x08,  /*  ....%...  */
0x1C,  /*  ...%%%..  */
0x00   /*  ........  */
}}
,

/* Element 0x0055 - Char 0x0055 */
{{8, 8},{
0x42,  /*  .%....%.  */
0x42,  /*  .%....%.  */
0x42,  /*  .%....%.  */
0x42,  /*  .%....%.  */
0x42,  /*  .%....%.  */
0x42,  /*  .%....%.  */
0x3C,  /*  ..%%%%..  */
0x00   /*  ........  */
}}
,

/* Element 0x0056 - Char 0x0056 */
{{8, 8},{
0x41,  /*  .%.....%  */
0x41,  /*  .%.....%  */
0x41,  /*  .%.....%  */
0x41,  /*  .%.....%  */
0x22,  /*  ..%...%.  */
0x14,  /*  ...%.%..  */
0x08,  /*  ....%...  */
0x00   /*  ........  */
}}
,

/* Element 0x0057 - Char 0x0057 */
{{8, 8},{
0x41,  /*  .%.....%  */
0x41,  /*  .%.....%  */
0x41,  /*  .%.....%  */
0x49,  /*  .%..%..%  */
0x49,  /*  .%..%..%  */
0x49,  /*  .%..%..%  */
0x36,  /*  ..%%.%%.  */
0x00   /*  ........  */
}}
,

/* Element 0x0058 - Char 0x0058 */
{{8, 8},{
0x41,  /*  .%.....%  */
0x22,  /*  ..%...%.  */
0x14,  /*  ...%.%..  */
0x08,  /*  ....%...  */
0x14,  /*  ...%.%..  */
0x22,  /*  ..%...%.  */
0x41,  /*  .%.....%  */
0x00   /*  ........  */
}}
,

/* Element 0x0059 - Char 0x0059 */
{{8, 8},{
0x41,  /*  .%.....%  */
0x22,  /*  ..%...%.  */
0x14,  /*  ...%.%..  */
0x08,  /*  ....%...  */
0x08,  /*  ....%...  */
0x08,  /*  ....%...  */
0x1C,  /*  ...%%%..  */
0x00   /*  ........  */
}}
,

/* Element 0x005A - Char 0x005A */
{{8, 8},{
0x7F,  /*  .%%%%%%%  */
0x42,  /*  .%....%.  */
0x04,  /*  .....%..  */
0x08,  /*  ....%...  */
0x10,  /*  ...%....  */
0x21,  /*  ..%....%  */
0x7F,  /*  .%%%%%%%  */
0x00   /*  ........  */
}}
,

/* Element 0x005B - Char 0x005B */
{{8, 8},{
0x78,  /*  .%%%%...  */
0x40,  /*  .%......  */
0x40,  /*  .%......  */
0x40,  /*  .%......  */
0x40,  /*  .%......  */
0x40,  /*  .%......  */
0x78,  /*  .%%%%...  */
0x00   /*  ........  */
}}
,

/* Element 0x005C - Char 0x005C */
{{8, 8},{
0x80,  /*  %.......  */
0x40,  /*  .%......  */
0x20,  /*  ..%.....  */
0x10,  /*  ...%....  */
0x08,  /*  ....%...  */
0x04,  /*  .....%..  */
0x02,  /*  ......%.  */
0x00   /*  ........  */
}}
,

/* Element 0x005D - Char 0x005D */
{{8, 8},{
0x78,  /*  .%%%%...  */
0x08,  /*  ....%...  */
0x08,  /*  ....%...  */
0x08,  /*  ....%...  */
0x08,  /*  ....%...  */
0x08,  /*  ....%...  */
0x78,  /*  .%%%%...  */
0x00   /*  ........  */
}}
,

/* Element 0x005E - Char 0x005E */
{{8, 8},{
0x10,  /*  ...%....  */
0x28,  /*  ..%.%...  */
0x44,  /*  .%...%..  */
0x82,  /*  %.....%.  */
0x00,  /*  ........  */
0x00,  /*  ........  */
0x00,  /*  ........  */
0x00   /*  ........  */
}}
,

/* Element 0x005F - Char 0x005F */
{{8, 8},{
0x00,  /*  ........  */
0x00,  /*  ........  */
0x00,  /*  ........  */
0x00,  /*  ........  */
0x00,  /*  ........  */
0x00,  /*  ........  */
0x00,  /*  ........  */
0xFF   /*  %%%%%%%%  */
}}
,

/* Element 0x0060 - Char 0x0060 */
{{8, 8},{
0x10,  /*  ...%....  */
0x10,  /*  ...%....  */
0x08,  /*  ....%...  */
0x00,  /*  ........  */
0x00,  /*  ........  */
0x00,  /*  ........  */
0x00,  /*  ........  */
0x00   /*  ........  */
}}
,

/* Element 0x0061 - Char 0x0061 */
{{8, 8},{
0x00,  /*  ........  */
0x00,  /*  ........  */
0x3C,  /*  ..%%%%..  */
0x02,  /*  ......%.  */
0x3E,  /*  ..%%%%%.  */
0x42,  /*  .%....%.  */
0x3F,  /*  ..%%%%%%  */
0x00   /*  ........  */
}}
,

/* Element 0x0062 - Char 0x0062 */
{{8, 8},{
0x60,  /*  .%%.....  */
0x20,  /*  ..%.....  */
0x20,  /*  ..%.....  */
0x2E,  /*  ..%.%%%.  */
0x31,  /*  ..%%...%  */
0x31,  /*  ..%%...%  */
0x2E,  /*  ..%.%%%.  */
0x00   /*  ........  */
}}
,

/* Element 0x0063 - Char 0x0063 */
{{8, 8},{
0x00,  /*  ........  */
0x00,  /*  ........  */
0x3C,  /*  ..%%%%..  */
0x42,  /*  .%....%.  */
0x40,  /*  .%......  */
0x42,  /*  .%....%.  */
0x3C,  /*  ..%%%%..  */
0x00   /*  ........  */
}}
,

/* Element 0x0064 - Char 0x0064 */
{{8, 8},{
0x06,  /*  .....%%.  */
0x02,  /*  ......%.  */
0x02,  /*  ......%.  */
0x3A,  /*  ..%%%.%.  */
0x46,  /*  .%...%%.  */
0x46,  /*  .%...%%.  */
0x3B,  /*  ..%%%.%%  */
0x00   /*  ........  */
}}
,

/* Element 0x0065 - Char 0x0065 */
{{8, 8},{
0x00,  /*  ........  */
0x00,  /*  ........  */
0x3C,  /*  ..%%%%..  */
0x42,  /*  .%....%.  */
0x7E,  /*  .%%%%%%.  */
0x40,  /*  .%......  */
0x3C,  /*  ..%%%%..  */
0x00   /*  ........  */
}}
,

/* Element 0x0066 - Char 0x0066 */
{{8, 8},{
0x0C,  /*  ....%%..  */
0x12,  /*  ...%..%.  */
0x10,  /*  ...%....  */
0x38,  /*  ..%%%...  */
0x10,  /*  ...%....  */
0x10,  /*  ...%....  */
0x38,  /*  ..%%%...  */
0x00   /*  ........  */
}}
,

/* Element 0x0067 - Char 0x0067 */
{{8, 8},{
0x00,  /*  ........  */
0x00,  /*  ........  */
0x3D,  /*  ..%%%%.%  */
0x42,  /*  .%....%.  */
0x42,  /*  .%....%.  */
0x3E,  /*  ..%%%%%.  */
0x02,  /*  ......%.  */
0x7C   /*  .%%%%%..  */
}}
,

/* Element 0x0068 - Char 0x0068 */
{{8, 8},{
0x60,  /*  .%%.....  */
0x20,  /*  ..%.....  */
0x2C,  /*  ..%.%%..  */
0x32,  /*  ..%%..%.  */
0x22,  /*  ..%...%.  */
0x22,  /*  ..%...%.  */
0x62,  /*  .%%...%.  */
0x00   /*  ........  */
}}
,

/* Element 0x0069 - Char 0x0069 */
{{8, 8},{
0x10,  /*  ...%....  */
0x00,  /*  ........  */
0x30,  /*  ..%%....  */
0x10,  /*  ...%....  */
0x10,  /*  ...%....  */
0x10,  /*  ...%....  */
0x38,  /*  ..%%%...  */
0x00   /*  ........  */
}}
,

/* Element 0x006A - Char 0x006A */
{{8, 8},{
0x02,  /*  ......%.  */
0x00,  /*  ........  */
0x06,  /*  .....%%.  */
0x02,  /*  ......%.  */
0x02,  /*  ......%.  */
0x42,  /*  .%....%.  */
0x42,  /*  .%....%.  */
0x3C   /*  ..%%%%..  */
}}
,

/* Element 0x006B - Char 0x006B */
{{8, 8},{
0x60,  /*  .%%.....  */
0x20,  /*  ..%.....  */
0x24,  /*  ..%..%..  */
0x28,  /*  ..%.%...  */
0x30,  /*  ..%%....  */
0x28,  /*  ..%.%...  */
0x26,  /*  ..%..%%.  */
0x00   /*  ........  */
}}
,

/* Element 0x006C - Char 0x006C */
{{8, 8},{
0x30,  /*  ..%%....  */
0x10,  /*  ...%....  */
0x10,  /*  ...%....  */
0x10,  /*  ...%....  */
0x10,  /*  ...%....  */
0x10,  /*  ...%....  */
0x38,  /*  ..%%%...  */
0x00   /*  ........  */
}}
,

/* Element 0x006D - Char 0x006D */
{{8, 8},{
0x00,  /*  ........  */
0x00,  /*  ........  */
0x76,  /*  .%%%.%%.  */
0x49,  /*  .%..%..%  */
0x49,  /*  .%..%..%  */
0x49,  /*  .%..%..%  */
0x49,  /*  .%..%..%  */
0x00   /*  ........  */
}}
,

/* Element 0x006E - Char 0x006E */
{{8, 8},{
0x00,  /*  ........  */
0x00,  /*  ........  */
0x5C,  /*  .%.%%%..  */
0x62,  /*  .%%...%.  */
0x42,  /*  .%....%.  */
0x42,  /*  .%....%.  */
0x42,  /*  .%....%.  */
0x00   /*  ........  */
}}
,

/* Element 0x006F - Char 0x006F */
{{8, 8},{
0x00,  /*  ........  */
0x00,  /*  ........  */
0x3C,  /*  ..%%%%..  */
0x42,  /*  .%....%.  */
0x42,  /*  .%....%.  */
0x42,  /*  .%....%.  */
0x3C,  /*  ..%%%%..  */
0x00   /*  ........  */
}}
,

/* Element 0x0070 - Char 0x0070 */
{{8, 8},{
0x00,  /*  ........  */
0x00,  /*  ........  */
0x6C,  /*  .%%.%%..  */
0x32,  /*  ..%%..%.  */
0x32,  /*  ..%%..%.  */
0x2C,  /*  ..%.%%..  */
0x20,  /*  ..%.....  */
0x70   /*  .%%%....  */
}}
,

/* Element 0x0071 - Char 0x0071 */
{{8, 8},{
0x00,  /*  ........  */
0x00,  /*  ........  */
0x36,  /*  ..%%.%%.  */
0x4C,  /*  .%..%%..  */
0x4C,  /*  .%..%%..  */
0x34,  /*  ..%%.%..  */
0x04,  /*  .....%..  */
0x0E   /*  ....%%%.  */
}}
,

/* Element 0x0072 - Char 0x0072 */
{{8, 8},{
0x00,  /*  ........  */
0x00,  /*  ........  */
0x6C,  /*  .%%.%%..  */
0x32,  /*  ..%%..%.  */
0x22,  /*  ..%...%.  */
0x20,  /*  ..%.....  */
0x70,  /*  .%%%....  */
0x00   /*  ........  */
}}
,

/* Element 0x0073 - Char 0x0073 */
{{8, 8},{
0x00,  /*  ........  */
0x00,  /*  ........  */
0x3E,  /*  ..%%%%%.  */
0x40,  /*  .%......  */
0x3C,  /*  ..%%%%..  */
0x02,  /*  ......%.  */
0x7C,  /*  .%%%%%..  */
0x00   /*  ........  */
}}
,

/* Element 0x0074 - Char 0x0074 */
{{8, 8},{
0x10,  /*  ...%....  */
0x10,  /*  ...%....  */
0x7C,  /*  .%%%%%..  */
0x10,  /*  ...%....  */
0x10,  /*  ...%....  */
0x12,  /*  ...%..%.  */
0x0C,  /*  ....%%..  */
0x00   /*  ........  */
}}
,

/* Element 0x0075 - Char 0x0075 */
{{8, 8},{
0x00,  /*  ........  */
0x00,  /*  ........  */
0x42,  /*  .%....%.  */
0x42,  /*  .%....%.  */
0x42,  /*  .%....%.  */
0x46,  /*  .%...%%.  */
0x3A,  /*  ..%%%.%.  */
0x00   /*  ........  */
}}
,

/* Element 0x0076 - Char 0x0076 */
{{8, 8},{
0x00,  /*  ........  */
0x00,  /*  ........  */
0x41,  /*  .%.....%  */
0x41,  /*  .%.....%  */
0x22,  /*  ..%...%.  */
0x14,  /*  ...%.%..  */
0x08,  /*  ....%...  */
0x00   /*  ........  */
}}
,

/* Element 0x0077 - Char 0x0077 */
{{8, 8},{
0x00,  /*  ........  */
0x00,  /*  ........  */
0x41,  /*  .%.....%  */
0x49,  /*  .%..%..%  */
0x49,  /*  .%..%..%  */
0x49,  /*  .%..%..%  */
0x36,  /*  ..%%.%%.  */
0x00   /*  ........  */
}}
,

/* Element 0x0078 - Char 0x0078 */
{{8, 8},{
0x00,  /*  ........  */
0x00,  /*  ........  */
0x44,  /*  .%...%..  */
0x28,  /*  ..%.%...  */
0x10,  /*  ...%....  */
0x28,  /*  ..%.%...  */
0x44,  /*  .%...%..  */
0x00   /*  ........  */
}}
,

/* Element 0x0079 - Char 0x0079 */
{{8, 8},{
0x00,  /*  ........  */
0x00,  /*  ........  */
0x42,  /*  .%....%.  */
0x42,  /*  .%....%.  */
0x42,  /*  .%....%.  */
0x3E,  /*  ..%%%%%.  */
0x02,  /*  ......%.  */
0x7C   /*  .%%%%%..  */
}}
,

/* Element 0x007A - Char 0x007A */
{{8, 8},{
0x00,  /*  ........  */
0x00,  /*  ........  */
0x7C,  /*  .%%%%%..  */
0x08,  /*  ....%...  */
0x10,  /*  ...%....  */
0x20,  /*  ..%.....  */
0x7C,  /*  .%%%%%..  */
0x00   /*  ........  */
}}
,

/* Element 0x007B - Char 0x007B */
{{8, 8},{
0x0C,  /*  ....%%..  */
0x10,  /*  ...%....  */
0x10,  /*  ...%....  */
0x60,  /*  .%%.....  */
0x10,  /*  ...%....  */
0x10,  /*  ...%....  */
0x0C,  /*  ....%%..  */
0x00   /*  ........  */
}}
,

/* Element 0x007C - Char 0x007C */
{{8, 8},{
0x10,  /*  ...%....  */
0x10,  /*  ...%....  */
0x10,  /*  ...%....  */
0x00,  /*  ........  */
0x10,  /*  ...%....  */
0x10,  /*  ...%....  */
0x10,  /*  ...%....  */
0x00   /*  ........  */
}}
,

/* Element 0x007D - Char 0x007D */
{{8, 8},{
0x30,  /*  ..%%....  */
0x08,  /*  ....%...  */
0x08,  /*  ....%...  */
0x06,  /*  .....%%.  */
0x08,  /*  ....%...  */
0x08,  /*  ....%...  */
0x30,  /*  ..%%....  */
0x00   /*  ........  */
}}
,

/* Element 0x007E - Char 0x007E */
{{8, 8},{
0x32,  /*  ..%%..%.  */
0x4C,  /*  .%..%%..  */
0x00,  /*  ........  */
0x00,  /*  ........  */
0x00,  /*  ........  */
0x00,  /*  ........  */
0x00,  /*  ........  */
0x00   /*  ........  */
}}
,

/* Element 0x007F - Char 0x007F */
{{8, 8},{
0x00,  /*  ........  */
0x08,  /*  ....%...  */
0x14,  /*  ...%.%..  */
0x22,  /*  ..%...%.  */
0x41,  /*  .%.....%  */
0x41,  /*  .%.....%  */
0x7F,  /*  .%%%%%%%  */
0x00   /*  ........  */
}}

