/*Y 8 6 8 16 . ms58p[256]={  ms58p.SYM   LCDIcon FileDescriptor: Do not edit or move */
/* Put Your Comments Here */
{{6, 8},{
0x00,  /*  ........  */
0x00,  /*  ........  */
0x00,  /*  ........  */
0x00,  /*  ........  */
0x00,  /*  ........  */
0x00,  /*  ........  */
0x00,  /*  ........  */
0x00   /*  ........  */
}}
,
{{6, 8},{
0x00,  /*  ........  */
0x00,  /*  ........  */
0x00,  /*  ........  */
0x00,  /*  ........  */
0x00,  /*  ........  */
0x00,  /*  ........  */
0x00,  /*  ........  */
0x00   /*  ........  */
}}
,
{{6, 8},{
0x00,  /*  ........  */
0x00,  /*  ........  */
0x00,  /*  ........  */
0x00,  /*  ........  */
0x00,  /*  ........  */
0x00,  /*  ........  */
0x00,  /*  ........  */
0x00   /*  ........  */
}}
,
{{6, 8},{
0x00,  /*  ........  */
0x00,  /*  ........  */
0x00,  /*  ........  */
0x00,  /*  ........  */
0x00,  /*  ........  */
0x00,  /*  ........  */
0x00,  /*  ........  */
0x00   /*  ........  */
}}
,
{{6, 8},{
0x00,  /*  ........  */
0x00,  /*  ........  */
0x00,  /*  ........  */
0x00,  /*  ........  */
0x00,  /*  ........  */
0x00,  /*  ........  */
0x00,  /*  ........  */
0x00   /*  ........  */
}}
,
{{6, 8},{
0x00,  /*  ........  */
0x00,  /*  ........  */
0x00,  /*  ........  */
0x00,  /*  ........  */
0x00,  /*  ........  */
0x00,  /*  ........  */
0x00,  /*  ........  */
0x00   /*  ........  */
}}
,
{{6, 8},{
0x00,  /*  ........  */
0x00,  /*  ........  */
0x00,  /*  ........  */
0x00,  /*  ........  */
0x00,  /*  ........  */
0x00,  /*  ........  */
0x00,  /*  ........  */
0x00   /*  ........  */
}}
,
{{6, 8},{
0x00,  /*  ........  */
0x00,  /*  ........  */
0x00,  /*  ........  */
0x00,  /*  ........  */
0x00,  /*  ........  */
0x00,  /*  ........  */
0x00,  /*  ........  */
0x00   /*  ........  */
}}
,
{{6, 8},{
0x00,  /*  ........  */
0x00,  /*  ........  */
0x00,  /*  ........  */
0x00,  /*  ........  */
0x00,  /*  ........  */
0x00,  /*  ........  */
0x00,  /*  ........  */
0x00   /*  ........  */
}}
,
{{6, 8},{
0x00,  /*  ........  */
0x00,  /*  ........  */
0x00,  /*  ........  */
0x00,  /*  ........  */
0x00,  /*  ........  */
0x00,  /*  ........  */
0x00,  /*  ........  */
0x00   /*  ........  */
}}
,
{{6, 8},{
0x00,  /*  ........  */
0x00,  /*  ........  */
0x00,  /*  ........  */
0x00,  /*  ........  */
0x00,  /*  ........  */
0x00,  /*  ........  */
0x00,  /*  ........  */
0x00   /*  ........  */
}}
,
{{6, 8},{
0x00,  /*  ........  */
0x00,  /*  ........  */
0x00,  /*  ........  */
0x00,  /*  ........  */
0x00,  /*  ........  */
0x00,  /*  ........  */
0x00,  /*  ........  */
0x00   /*  ........  */
}}
,
{{6, 8},{
0x00,  /*  ........  */
0x00,  /*  ........  */
0x00,  /*  ........  */
0x00,  /*  ........  */
0x00,  /*  ........  */
0x00,  /*  ........  */
0x00,  /*  ........  */
0x00   /*  ........  */
}}
,
{{6, 8},{
0x00,  /*  ........  */
0x00,  /*  ........  */
0x00,  /*  ........  */
0x00,  /*  ........  */
0x00,  /*  ........  */
0x00,  /*  ........  */
0x00,  /*  ........  */
0x00   /*  ........  */
}}
,
{{6, 8},{
0x00,  /*  ........  */
0x00,  /*  ........  */
0x00,  /*  ........  */
0x00,  /*  ........  */
0x00,  /*  ........  */
0x00,  /*  ........  */
0x00,  /*  ........  */
0x00   /*  ........  */
}}
,
{{6, 8},{
0x00,  /*  ........  */
0x00,  /*  ........  */
0x00,  /*  ........  */
0x00,  /*  ........  */
0x00,  /*  ........  */
0x00,  /*  ........  */
0x00,  /*  ........  */
0x00   /*  ........  */
}}
,
{{6, 8},{
0x00,  /*  ........  */
0x00,  /*  ........  */
0x00,  /*  ........  */
0x00,  /*  ........  */
0x00,  /*  ........  */
0x00,  /*  ........  */
0x00,  /*  ........  */
0x00   /*  ........  */
}}
,
{{6, 8},{
0x00,  /*  ........  */
0x00,  /*  ........  */
0x00,  /*  ........  */
0x00,  /*  ........  */
0x00,  /*  ........  */
0x00,  /*  ........  */
0x00,  /*  ........  */
0x00   /*  ........  */
}}
,
{{6, 8},{
0x00,  /*  ........  */
0x00,  /*  ........  */
0x00,  /*  ........  */
0x00,  /*  ........  */
0x00,  /*  ........  */
0x00,  /*  ........  */
0x00,  /*  ........  */
0x00   /*  ........  */
}}
,
{{6, 8},{
0x00,  /*  ........  */
0x00,  /*  ........  */
0x00,  /*  ........  */
0x00,  /*  ........  */
0x00,  /*  ........  */
0x00,  /*  ........  */
0x00,  /*  ........  */
0x00   /*  ........  */
}}
,
{{6, 8},{
0x00,  /*  ........  */
0x00,  /*  ........  */
0x00,  /*  ........  */
0x00,  /*  ........  */
0x00,  /*  ........  */
0x00,  /*  ........  */
0x00,  /*  ........  */
0x00   /*  ........  */
}}
,
{{6, 8},{
0x00,  /*  ........  */
0x00,  /*  ........  */
0x00,  /*  ........  */
0x00,  /*  ........  */
0x00,  /*  ........  */
0x00,  /*  ........  */
0x00,  /*  ........  */
0x00   /*  ........  */
}}
,
{{6, 8},{
0x00,  /*  ........  */
0x00,  /*  ........  */
0x00,  /*  ........  */
0x00,  /*  ........  */
0x00,  /*  ........  */
0x00,  /*  ........  */
0x00,  /*  ........  */
0x00   /*  ........  */
}}
,
{{6, 8},{
0x04,  /*  .....%..  */
0x0C,  /*  ....%%..  */
0x08,  /*  ....%...  */
0x98,  /*  %..%%...  */
0xD0,  /*  %%.%....  */
0x70,  /*  .%%%....  */
0x20,  /*  ..%.....  */
0x00   /*  ........  */
}}
,
{{6, 8},{
0x20,  /*  ..%.....  */
0x70,  /*  .%%%....  */
0xF0,  /*  %%%%%...  */
0x20,  /*  ..%.....  */
0x20,  /*  ..%.....  */
0xe0,  /*  %%%.....  */
0x00,  /*  ........  */
0x00,  /*  ........  */
}}
,
{{6, 8},{
0x14,  /*  ...%.%..  */
0x34,  /*  ..%%.%..  */
0x7c,  /*  .%%%%%..  */
0xFc,  /*  %%%%%%..  */
0x7c,  /*  .%%%%%..  */
0x30,  /*  ..%%....  */
0x10,  /*  ...%....  */
0x00,  /*  ........  */
}}
,
{{6, 8},{
0x88,  /*  %...%...  */
0xC8,  /*  %%..%...  */
0xE8,  /*  %%%.%...  */
0xF8,  /*  %%%%%...  */
0xE8,  /*  %%%.%...  */
0xC8,  /*  %%..%...  */
0x88,  /*  %...%...  */
0x00,  /*  ........  */
}}
,
{{6, 8},{
0x88,  /*  %...%...  */
0x98,  /*  %..%%...  */
0xB8,  /*  %.%%%...  */
0xF8,  /*  %%%%%...  */
0xB8,  /*  %.%%%...  */
0x98,  /*  %..%%...  */
0x88,  /*  %...%...  */
0x00,  /*  ........  */
}}
,
{{6, 8},{
0x00,  /*  ........  */
0x00,  /*  ........  */
0x7C,  /*  .%%%%%..  */
0x38,  /*  ..%%%...  */
0x38,  /*  ..%%%...  */
0x10,  /*  ...%....  */
0x00,  /*  ........  */
0x00   /*  ........  */
}}
,
{{6, 8},{
0x00,  /*  ........  */
0x00,  /*  ........  */
0x10,  /*  ...%....  */
0x38,  /*  ..%%%...  */
0x38,  /*  ..%%%...  */
0x7C,  /*  .%%%%%..  */
0x00,  /*  ........  */
0x00,  /*  ........  */
}}
,
{{6, 8},{
0x10,  /*  ...%....  */
0x30,  /*  ..%%....  */
0x70,  /*  .%%%....  */
0xF0,  /*  %%%%....  */
0x70,  /*  .%%%....  */
0x30,  /*  ..%%....  */
0x10,  /*  ...%....  */
0x00,  /*  ........  */
}}
,
{{6, 8},{
0x80,  /*  %.......  */
0xC0,  /*  %%......  */
0xE0,  /*  %%%.....  */
0xF0,  /*  %%%%....  */
0xE0,  /*  %%%.....  */
0xC0,  /*  %%......  */
0x80,  /*  %.......  */
0x00,  /*  ........  */
}}
,
{{4, 8},{
0x00,  /*  ........  */
0x00,  /*  ........  */
0x00,  /*  ........  */
0x00,  /*  ........  */
0x00,  /*  ........  */
0x00,  /*  ........  */
0x00,  /*  ........  */
0x00   /*  ........  */
}}
,
{{2, 8},{
0x80,  /*  %.......  */
0x80,  /*  %.......  */
0x80,  /*  %.......  */
0x80,  /*  %.......  */
0x80,  /*  %.......  */
0x00,  /*  ........  */
0x80,  /*  %.......  */
0x00   /*  ........  */
}}
,
{{4, 8},{
0xA0,  /*  %.%.....  */
0xA0,  /*  %.%.....  */
0x00,  /*  ........  */
0x00,  /*  ........  */
0x00,  /*  ........  */
0x00,  /*  ........  */
0x00,  /*  ........  */
0x00   /*  ........  */
}}
,
{{6, 8},{
0x00,  /*  ........  */
0x00,  /*  ........  */
0x50,  /*  .%.%....  */
0xF8,  /*  %%%%%...  */
0x50,  /*  .%.%....  */
0xF8,  /*  %%%%%...  */
0x50,  /*  .%.%....  */
0x00   /*  ........  */
}}
,
{{6, 8},{
0x20,  /*  ..%.....  */
0x78,  /*  .%%%%...  */
0xA0,  /*  %.%.....  */
0x70,  /*  .%%%....  */
0x28,  /*  ..%.%...  */
0xF0,  /*  %%%%....  */
0x20,  /*  ..%.....  */
0x00   /*  ........  */
}}
,
{{6, 8},{
0xE0,  /*  %%%.....  */
0xA8,  /*  %.%.%...  */
0xF0,  /*  %%%%....  */
0x20,  /*  ..%.....  */
0x78,  /*  .%%%%...  */
0xA8,  /*  %.%.%...  */
0x38,  /*  ..%%%...  */
0x00   /*  ........  */
}}
,
{{6, 8},{
0x20,  /*  ..%.....  */
0x50,  /*  .%.%....  */
0x50,  /*  .%.%....  */
0x60,  /*  .%%.....  */
0xA8,  /*  %.%.%...  */
0x90,  /*  %..%....  */
0x68,  /*  .%%.%...  */
0x00   /*  ........  */
}}
,
{{2, 8},{
0x80,  /*  %.......  */
0x80,  /*  %.......  */
0x00,  /*  ........  */
0x00,  /*  ........  */
0x00,  /*  ........  */
0x00,  /*  ........  */
0x00,  /*  ........  */
0x00   /*  ........  */
}}
,
{{3, 8},{
0x40,  /*  .%......  */
0x80,  /*  %.......  */
0x80,  /*  %.......  */
0x80,  /*  %.......  */
0x80,  /*  %.......  */
0x80,  /*  %.......  */
0x40,  /*  .%......  */
0x00   /*  ........  */
}}
,
{{3, 8},{
0x80,  /*  %.......  */
0x40,  /*  .%......  */
0x40,  /*  .%......  */
0x40,  /*  .%......  */
0x40,  /*  .%......  */
0x40,  /*  .%......  */
0x80,  /*  %.......  */
0x00   /*  ........  */
}}
,
{{6, 8},{
0x00,  /*  ........  */
0x20,  /*  ..%.....  */
0xA8,  /*  %.%.%...  */
0x70,  /*  .%%%....  */
0x70,  /*  .%%%....  */
0xA8,  /*  %.%.%...  */
0x20,  /*  ..%.....  */
0x00   /*  ........  */
}}
,
{{6, 8},{
0x00,  /*  ........  */
0x00,  /*  ........  */
0x20,  /*  ..%.....  */
0x20,  /*  ..%.....  */
0xF8,  /*  %%%%%...  */
0x20,  /*  ..%.....  */
0x20,  /*  ..%.....  */
0x00   /*  ........  */
}}
,
{{3, 8},{
0x00,  /*  ........  */
0x00,  /*  ........  */
0x00,  /*  ........  */
0x00,  /*  ........  */
0x00,  /*  ........  */
0x40,  /*  .%......  */
0x40,  /*  .%......  */
0x80   /*  %.......  */
}}
,
{{4, 8},{
0x00,  /*  ........  */
0x00,  /*  ........  */
0x00,  /*  ........  */
0x00,  /*  ........  */
0xE0,  /*  %%%.....  */
0x00,  /*  ........  */
0x00,  /*  ........  */
0x00   /*  ........  */
}}
,
{{2, 8},{
0x00,  /*  ........  */
0x00,  /*  ........  */
0x00,  /*  ........  */
0x00,  /*  ........  */
0x00,  /*  ........  */
0x00,  /*  ........  */
0x80,  /*  %.......  */
0x00   /*  ........  */
}}
,
{{6, 8},{
0x08,  /*  ....%...  */
0x10,  /*  ...%....  */
0x10,  /*  ...%....  */
0x20,  /*  ..%.....  */
0x40,  /*  .%......  */
0x40,  /*  .%......  */
0x80,  /*  %.......  */
0x00   /*  ........  */
}}
,
{{6, 8},{
0x70,  /*  .%%%....  */
0x88,  /*  %...%...  */
0x98,  /*  %..%%...  */
0xA8,  /*  %.%.%...  */
0xC8,  /*  %%..%...  */
0x88,  /*  %...%...  */
0x70,  /*  .%%%....  */
0x00   /*  ........  */
}}
,
{{4, 8},{
0x40,  /*  .%......  */
0xC0,  /*  %%......  */
0x40,  /*  .%......  */
0x40,  /*  .%......  */
0x40,  /*  .%......  */
0x40,  /*  .%......  */
0xE0,  /*  %%%.....  */
0x00   /*  ........  */
}}
,
{{6, 8},{
0x70,  /*  .%%%....  */
0x88,  /*  %...%...  */
0x08,  /*  ....%...  */
0x10,  /*  ...%....  */
0x60,  /*  .%%.....  */
0x88,  /*  %...%...  */
0xF8,  /*  %%%%%...  */
0x00   /*  ........  */
}}
,
{{6, 8},{
0x70,  /*  .%%%....  */
0x88,  /*  %...%...  */
0x08,  /*  ....%...  */
0x70,  /*  .%%%....  */
0x08,  /*  ....%...  */
0x88,  /*  %...%...  */
0x70,  /*  .%%%....  */
0x00   /*  ........  */
}}
,
{{6, 8},{
0x10,  /*  ...%....  */
0x30,  /*  ..%%....  */
0x50,  /*  .%.%....  */
0x90,  /*  %..%....  */
0xF8,  /*  %%%%%...  */
0x10,  /*  ...%....  */
0x38,  /*  ..%%%...  */
0x00   /*  ........  */
}}
,
{{6, 8},{
0xF8,  /*  %%%%%...  */
0x80,  /*  %.......  */
0xF0,  /*  %%%%....  */
0x08,  /*  ....%...  */
0x08,  /*  ....%...  */
0x88,  /*  %...%...  */
0x70,  /*  .%%%....  */
0x00   /*  ........  */
}}
,
{{6, 8},{
0x30,  /*  ..%%....  */
0x40,  /*  .%......  */
0x80,  /*  %.......  */
0xF0,  /*  %%%%....  */
0x88,  /*  %...%...  */
0x88,  /*  %...%...  */
0x70,  /*  .%%%....  */
0x00   /*  ........  */
}}
,
{{6, 8},{
0xF8,  /*  %%%%%...  */
0x08,  /*  ....%...  */
0x10,  /*  ...%....  */
0x20,  /*  ..%.....  */
0x20,  /*  ..%.....  */
0x40,  /*  .%......  */
0x40,  /*  .%......  */
0x00   /*  ........  */
}}
,
{{6, 8},{
0x70,  /*  .%%%....  */
0x88,  /*  %...%...  */
0x88,  /*  %...%...  */
0x70,  /*  .%%%....  */
0x88,  /*  %...%...  */
0x88,  /*  %...%...  */
0x70,  /*  .%%%....  */
0x00   /*  ........  */
}}
,
{{6, 8},{
0x70,  /*  .%%%....  */
0x88,  /*  %...%...  */
0x88,  /*  %...%...  */
0x78,  /*  .%%%%...  */
0x08,  /*  ....%...  */
0x10,  /*  ...%....  */
0x60,  /*  .%%.....  */
0x00   /*  ........  */
}}
,
{{2, 8},{
0x00,  /*  ........  */
0x00,  /*  ........  */
0x00,  /*  ........  */
0x80,  /*  %.......  */
0x00,  /*  ........  */
0x00,  /*  ........  */
0x80,  /*  %.......  */
0x00   /*  ........  */
}}
,
{{3, 8},{
0x00,  /*  ........  */
0x00,  /*  ........  */
0x00,  /*  ........  */
0x40,  /*  .%......  */
0x00,  /*  ........  */
0x00,  /*  ........  */
0x40,  /*  .%......  */
0x80   /*  %.......  */
}}
,
{{4, 8},{
0x00,  /*  ........  */
0x00,  /*  ........  */
0x20,  /*  ..%.....  */
0x40,  /*  .%......  */
0x80,  /*  %.......  */
0x40,  /*  .%......  */
0x20,  /*  ..%.....  */
0x00   /*  ........  */
}}
,
{{4, 8},{
0x00,  /*  ........  */
0x00,  /*  ........  */
0x00,  /*  ........  */
0xE0,  /*  %%%.....  */
0x00,  /*  ........  */
0xE0,  /*  %%%.....  */
0x00,  /*  ........  */
0x00   /*  ........  */
}}
,
{{4, 8},{
0x00,  /*  ........  */
0x00,  /*  ........  */
0x80,  /*  %.......  */
0x40,  /*  .%......  */
0x20,  /*  ..%.....  */
0x40,  /*  .%......  */
0x80,  /*  %.......  */
0x00   /*  ........  */
}}
,
{{6, 8},{
0x70,  /*  .%%%....  */
0x88,  /*  %...%...  */
0x08,  /*  ....%...  */
0x10,  /*  ...%....  */
0x20,  /*  ..%.....  */
0x00,  /*  ........  */
0x20,  /*  ..%.....  */
0x00   /*  ........  */
}}
,
{{6, 8},{
0x70,  /*  .%%%....  */
0x88,  /*  %...%...  */
0xB8,  /*  %.%%%...  */
0xA8,  /*  %.%.%...  */
0xB8,  /*  %.%%%...  */
0x80,  /*  %.......  */
0x70,  /*  .%%%....  */
0x00   /*  ........  */
}}
,
{{6, 8},{
0x70,  /*  .%%%....  */
0x88,  /*  %...%...  */
0x88,  /*  %...%...  */
0x88,  /*  %...%...  */
0xF8,  /*  %%%%%...  */
0x88,  /*  %...%...  */
0x88,  /*  %...%...  */
0x00   /*  ........  */
}}
,
{{6, 8},{
0xF0,  /*  %%%%....  */
0x88,  /*  %...%...  */
0x88,  /*  %...%...  */
0xF0,  /*  %%%%....  */
0x88,  /*  %...%...  */
0x88,  /*  %...%...  */
0xF0,  /*  %%%%....  */
0x00   /*  ........  */
}}
,
{{6, 8},{
0x70,  /*  .%%%....  */
0xC8,  /*  %%..%...  */
0x80,  /*  %.......  */
0x80,  /*  %.......  */
0x80,  /*  %.......  */
0xC8,  /*  %%..%...  */
0x70,  /*  .%%%....  */
0x00   /*  ........  */
}}
,
{{6, 8},{
0xF0,  /*  %%%%....  */
0x98,  /*  %..%%...  */
0x88,  /*  %...%...  */
0x88,  /*  %...%...  */
0x88,  /*  %...%...  */
0x98,  /*  %..%%...  */
0xF0,  /*  %%%%....  */
0x00   /*  ........  */
}}
,
{{6, 8},{
0xF8,  /*  %%%%%...  */
0x80,  /*  %.......  */
0x80,  /*  %.......  */
0xF0,  /*  %%%%....  */
0x80,  /*  %.......  */
0x80,  /*  %.......  */
0xF8,  /*  %%%%%...  */
0x00   /*  ........  */
}}
,
{{6, 8},{
0xF8,  /*  %%%%%...  */
0x80,  /*  %.......  */
0x80,  /*  %.......  */
0xF0,  /*  %%%%....  */
0x80,  /*  %.......  */
0x80,  /*  %.......  */
0x80,  /*  %.......  */
0x00   /*  ........  */
}}
,
{{6, 8},{
0x70,  /*  .%%%....  */
0xC8,  /*  %%..%...  */
0x80,  /*  %.......  */
0xB8,  /*  %.%%%...  */
0x88,  /*  %...%...  */
0xC8,  /*  %%..%...  */
0x78,  /*  .%%%%...  */
0x00   /*  ........  */
}}
,
{{6, 8},{
0x88,  /*  %...%...  */
0x88,  /*  %...%...  */
0x88,  /*  %...%...  */
0xF8,  /*  %%%%%...  */
0x88,  /*  %...%...  */
0x88,  /*  %...%...  */
0x88,  /*  %...%...  */
0x00   /*  ........  */
}}
,
{{6, 8},{
0x70,  /*  .%%%....  */
0x20,  /*  ..%.....  */
0x20,  /*  ..%.....  */
0x20,  /*  ..%.....  */
0x20,  /*  ..%.....  */
0x20,  /*  ..%.....  */
0x70,  /*  .%%%....  */
0x00   /*  ........  */
}}
,
{{6, 8},{
0x18,  /*  ...%%...  */
0x08,  /*  ....%...  */
0x08,  /*  ....%...  */
0x08,  /*  ....%...  */
0x08,  /*  ....%...  */
0x88,  /*  %...%...  */
0x70,  /*  .%%%....  */
0x00   /*  ........  */
}}
,
{{6, 8},{
0x88,  /*  %...%...  */
0x90,  /*  %..%....  */
0xA0,  /*  %.%.....  */
0xC0,  /*  %%......  */
0xA0,  /*  %.%.....  */
0x90,  /*  %..%....  */
0x88,  /*  %...%...  */
0x00   /*  ........  */
}}
,
{{6, 8},{
0x80,  /*  %.......  */
0x80,  /*  %.......  */
0x80,  /*  %.......  */
0x80,  /*  %.......  */
0x80,  /*  %.......  */
0x88,  /*  %...%...  */
0xF8,  /*  %%%%%...  */
0x00   /*  ........  */
}}
,
{{6, 8},{
0x88,  /*  %...%...  */
0xD8,  /*  %%.%%...  */
0xA8,  /*  %.%.%...  */
0x88,  /*  %...%...  */
0x88,  /*  %...%...  */
0x88,  /*  %...%...  */
0x88,  /*  %...%...  */
0x00   /*  ........  */
}}
,
{{6, 8},{
0x88,  /*  %...%...  */
0xC8,  /*  %%..%...  */
0xA8,  /*  %.%.%...  */
0x98,  /*  %..%%...  */
0x88,  /*  %...%...  */
0x88,  /*  %...%...  */
0x88,  /*  %...%...  */
0x00   /*  ........  */
}}
,
{{6, 8},{
0x70,  /*  .%%%....  */
0x88,  /*  %...%...  */
0x88,  /*  %...%...  */
0x88,  /*  %...%...  */
0x88,  /*  %...%...  */
0x88,  /*  %...%...  */
0x70,  /*  .%%%....  */
0x00   /*  ........  */
}}
,
{{6, 8},{
0xF0,  /*  %%%%....  */
0x88,  /*  %...%...  */
0x88,  /*  %...%...  */
0xF0,  /*  %%%%....  */
0x80,  /*  %.......  */
0x80,  /*  %.......  */
0x80,  /*  %.......  */
0x00   /*  ........  */
}}
,
{{6, 8},{
0x70,  /*  .%%%....  */
0x88,  /*  %...%...  */
0x88,  /*  %...%...  */
0x88,  /*  %...%...  */
0xA8,  /*  %.%.%...  */
0x90,  /*  %..%....  */
0x68,  /*  .%%.%...  */
0x00   /*  ........  */
}}
,
{{6, 8},{
0xF0,  /*  %%%%....  */
0x88,  /*  %...%...  */
0x88,  /*  %...%...  */
0xF0,  /*  %%%%....  */
0xA0,  /*  %.%.....  */
0x90,  /*  %..%....  */
0x88,  /*  %...%...  */
0x00   /*  ........  */
}}
,
{{6, 8},{
0x70,  /*  .%%%....  */
0x88,  /*  %...%...  */
0x80,  /*  %.......  */
0x70,  /*  .%%%....  */
0x08,  /*  ....%...  */
0x88,  /*  %...%...  */
0xF0,  /*  %%%%....  */
0x00   /*  ........  */
}}
,
{{6, 8},{
0xF8,  /*  %%%%%...  */
0x20,  /*  ..%.....  */
0x20,  /*  ..%.....  */
0x20,  /*  ..%.....  */
0x20,  /*  ..%.....  */
0x20,  /*  ..%.....  */
0x20,  /*  ..%.....  */
0x00   /*  ........  */
}}
,
{{6, 8},{
0x88,  /*  %...%...  */
0x88,  /*  %...%...  */
0x88,  /*  %...%...  */
0x88,  /*  %...%...  */
0x88,  /*  %...%...  */
0x88,  /*  %...%...  */
0x70,  /*  .%%%....  */
0x00   /*  ........  */
}}
,
{{6, 8},{
0x88,  /*  %...%...  */
0x88,  /*  %...%...  */
0x88,  /*  %...%...  */
0x88,  /*  %...%...  */
0x88,  /*  %...%...  */
0x50,  /*  .%.%....  */
0x20,  /*  ..%.....  */
0x00   /*  ........  */
}}
,
{{6, 8},{
0x88,  /*  %...%...  */
0x88,  /*  %...%...  */
0xA8,  /*  %.%.%...  */
0xA8,  /*  %.%.%...  */
0xA8,  /*  %.%.%...  */
0xA8,  /*  %.%.%...  */
0x50,  /*  .%.%....  */
0x00   /*  ........  */
}}
,
{{6, 8},{
0x88,  /*  %...%...  */
0x88,  /*  %...%...  */
0x50,  /*  .%.%....  */
0x20,  /*  ..%.....  */
0x50,  /*  .%.%....  */
0x88,  /*  %...%...  */
0x88,  /*  %...%...  */
0x00   /*  ........  */
}}
,
{{6, 8},{
0x88,  /*  %...%...  */
0x88,  /*  %...%...  */
0x50,  /*  .%.%....  */
0x70,  /*  .%%%....  */
0x20,  /*  ..%.....  */
0x20,  /*  ..%.....  */
0x20,  /*  ..%.....  */
0x00   /*  ........  */
}}
,
{{6, 8},{
0xF8,  /*  %%%%%...  */
0x08,  /*  ....%...  */
0x10,  /*  ...%....  */
0x20,  /*  ..%.....  */
0x40,  /*  .%......  */
0x88,  /*  %...%...  */
0xF8,  /*  %%%%%...  */
0x00   /*  ........  */
}}
,
{{3, 8},{
0xC0,  /*  %%......  */
0x80,  /*  %.......  */
0x80,  /*  %.......  */
0x80,  /*  %.......  */
0x80,  /*  %.......  */
0x80,  /*  %.......  */
0xC0,  /*  %%......  */
0x00   /*  ........  */
}}
,
{{6, 8},{
0x80,  /*  %.......  */
0x40,  /*  .%......  */
0x40,  /*  .%......  */
0x20,  /*  ..%.....  */
0x10,  /*  ...%....  */
0x10,  /*  ...%....  */
0x08,  /*  ....%...  */
0x00   /*  ........  */
}}
,
{{3, 8},{
0xC0,  /*  %%......  */
0x40,  /*  .%......  */
0x40,  /*  .%......  */
0x40,  /*  .%......  */
0x40,  /*  .%......  */
0x40,  /*  .%......  */
0xC0,  /*  %%......  */
0x00   /*  ........  */
}}
,
{{4, 8},{
0x40,  /*  .%......  */
0xA0,  /*  %.%.....  */
0x00,  /*  ........  */
0x00,  /*  ........  */
0x00,  /*  ........  */
0x00,  /*  ........  */
0x00,  /*  ........  */
0x00   /*  ........  */
}}
,
{{6, 8},{
0x00,  /*  ........  */
0x00,  /*  ........  */
0x00,  /*  ........  */
0x00,  /*  ........  */
0x00,  /*  ........  */
0x00,  /*  ........  */
0x00,  /*  ........  */
0xFF   /*  %%%%%%%%  */
}}
,
{{3, 8},{
0x80,  /*  %.......  */
0x40,  /*  .%......  */
0x00,  /*  ........  */
0x00,  /*  ........  */
0x00,  /*  ........  */
0x00,  /*  ........  */
0x00,  /*  ........  */
0x00   /*  ........  */
}}
,
{{6, 8},{
0x00,  /*  ........  */
0x00,  /*  ........  */
0x70,  /*  .%%%....  */
0x08,  /*  ....%...  */
0x78,  /*  .%%%%...  */
0xC8,  /*  %%..%...  */
0x78,  /*  .%%%%...  */
0x00   /*  ........  */
}}
,
{{6, 8},{
0x80,  /*  %.......  */
0x80,  /*  %.......  */
0xB0,  /*  %.%%....  */
0xC8,  /*  %%..%...  */
0x88,  /*  %...%...  */
0xC8,  /*  %%..%...  */
0xB0,  /*  %.%%....  */
0x00   /*  ........  */
}}
,
{{6, 8},{
0x00,  /*  ........  */
0x00,  /*  ........  */
0x70,  /*  .%%%....  */
0xC8,  /*  %%..%...  */
0x80,  /*  %.......  */
0xC8,  /*  %%..%...  */
0x70,  /*  .%%%....  */
0x00   /*  ........  */
}}
,
{{6, 8},{
0x08,  /*  ....%...  */
0x08,  /*  ....%...  */
0x68,  /*  .%%.%...  */
0x98,  /*  %..%%...  */
0x88,  /*  %...%...  */
0x98,  /*  %..%%...  */
0x68,  /*  .%%.%...  */
0x00   /*  ........  */
}}
,
{{6, 8},{
0x00,  /*  ........  */
0x00,  /*  ........  */
0x70,  /*  .%%%....  */
0x88,  /*  %...%...  */
0xF8,  /*  %%%%%...  */
0x80,  /*  %.......  */
0x70,  /*  .%%%....  */
0x00   /*  ........  */
}}
,
{{5, 8},{
0x30,  /*  ..%%....  */
0x40,  /*  .%......  */
0xF0,  /*  %%%%....  */
0x40,  /*  .%......  */
0x40,  /*  .%......  */
0x40,  /*  .%......  */
0x40,  /*  .%......  */
0x00   /*  ........  */
}}
,
{{6, 8},{
0x00,  /*  ........  */
0x00,  /*  ........  */
0x78,  /*  .%%%%...  */
0x88,  /*  %...%...  */
0x88,  /*  %...%...  */
0x78,  /*  .%%%%...  */
0x08,  /*  ....%...  */
0x70   /*  .%%%....  */
}}
,
{{6, 8},{
0x80,  /*  %.......  */
0x80,  /*  %.......  */
0xB0,  /*  %.%%....  */
0xD8,  /*  %%.%%...  */
0x88,  /*  %...%...  */
0x88,  /*  %...%...  */
0x88,  /*  %...%...  */
0x00   /*  ........  */
}}
,
{{4, 8},{
0x40,  /*  .%......  */
0x00,  /*  ........  */
0xC0,  /*  %%......  */
0x40,  /*  .%......  */
0x40,  /*  .%......  */
0x40,  /*  .%......  */
0xE0,  /*  %%%.....  */
0x00   /*  ........  */
}}
,
{{4, 8},{
0x20,  /*  ..%.....  */
0x00,  /*  ........  */
0x60,  /*  .%%.....  */
0x20,  /*  ..%.....  */
0x20,  /*  ..%.....  */
0x20,  /*  ..%.....  */
0xA0,  /*  %.%.....  */
0x40   /*  .%......  */
}}
,
{{5, 8},{
0x80,  /*  %.......  */
0x80,  /*  %.......  */
0x90,  /*  %..%....  */
0xA0,  /*  %.%.....  */
0xC0,  /*  %%......  */
0xA0,  /*  %.%.....  */
0x90,  /*  %..%....  */
0x00   /*  ........  */
}}
,
{{4, 8},{
0xC0,  /*  %%......  */
0x40,  /*  .%......  */
0x40,  /*  .%......  */
0x40,  /*  .%......  */
0x40,  /*  .%......  */
0x40,  /*  .%......  */
0xE0,  /*  %%%.....  */
0x00   /*  ........  */
}}
,
{{6, 8},{
0x00,  /*  ........  */
0x00,  /*  ........  */
0xD0,  /*  %%.%....  */
0xA8,  /*  %.%.%...  */
0xA8,  /*  %.%.%...  */
0xA8,  /*  %.%.%...  */
0x88,  /*  %...%...  */
0x00   /*  ........  */
}}
,
{{6, 8},{
0x00,  /*  ........  */
0x00,  /*  ........  */
0xB0,  /*  %.%%....  */
0xD8,  /*  %%.%%...  */
0x88,  /*  %...%...  */
0x88,  /*  %...%...  */
0x88,  /*  %...%...  */
0x00   /*  ........  */
}}
,
{{6, 8},{
0x00,  /*  ........  */
0x00,  /*  ........  */
0x70,  /*  .%%%....  */
0x88,  /*  %...%...  */
0x88,  /*  %...%...  */
0x88,  /*  %...%...  */
0x70,  /*  .%%%....  */
0x00   /*  ........  */
}}
,
{{6, 8},{
0x00,  /*  ........  */
0x00,  /*  ........  */
0xB0,  /*  %.%%....  */
0xC8,  /*  %%..%...  */
0x88,  /*  %...%...  */
0xC8,  /*  %%..%...  */
0xB0,  /*  %.%%....  */
0x80   /*  %.......  */
}}
,
{{6, 8},{
0x00,  /*  ........  */
0x00,  /*  ........  */
0x68,  /*  .%%.%...  */
0x98,  /*  %..%%...  */
0x88,  /*  %...%...  */
0x98,  /*  %..%%...  */
0x68,  /*  .%%.%...  */
0x08   /*  ....%...  */
}}
,
{{6, 8},{
0x00,  /*  ........  */
0x00,  /*  ........  */
0xB0,  /*  %.%%....  */
0x48,  /*  .%..%...  */
0x40,  /*  .%......  */
0x40,  /*  .%......  */
0xE0,  /*  %%%.....  */
0x00   /*  ........  */
}}
,
{{6, 8},{
0x00,  /*  ........  */
0x00,  /*  ........  */
0x78,  /*  .%%%%...  */
0x80,  /*  %.......  */
0x70,  /*  .%%%....  */
0x08,  /*  ....%...  */
0xF0,  /*  %%%%....  */
0x00   /*  ........  */
}}
,
{{5, 8},{
0x00,  /*  ........  */
0x40,  /*  .%......  */
0xF0,  /*  %%%%....  */
0x40,  /*  .%......  */
0x40,  /*  .%......  */
0x50,  /*  .%.%....  */
0x20,  /*  ..%.....  */
0x00   /*  ........  */
}}
,
{{6, 8},{
0x00,  /*  ........  */
0x00,  /*  ........  */
0x88,  /*  %...%...  */
0x88,  /*  %...%...  */
0x88,  /*  %...%...  */
0xD8,  /*  %%.%%...  */
0x68,  /*  .%%.%...  */
0x00   /*  ........  */
}}
,
{{6, 8},{
0x00,  /*  ........  */
0x00,  /*  ........  */
0x88,  /*  %...%...  */
0x88,  /*  %...%...  */
0x88,  /*  %...%...  */
0x50,  /*  .%.%....  */
0x20,  /*  ..%.....  */
0x00   /*  ........  */
}}
,
{{6, 8},{
0x00,  /*  ........  */
0x00,  /*  ........  */
0x88,  /*  %...%...  */
0x88,  /*  %...%...  */
0xA8,  /*  %.%.%...  */
0xA8,  /*  %.%.%...  */
0x50,  /*  .%.%....  */
0x00   /*  ........  */
}}
,
{{6, 8},{
0x00,  /*  ........  */
0x00,  /*  ........  */
0x88,  /*  %...%...  */
0xD8,  /*  %%.%%...  */
0x70,  /*  .%%%....  */
0xD8,  /*  %%.%%...  */
0x88,  /*  %...%...  */
0x00   /*  ........  */
}}
,
{{6, 8},{
0x00,  /*  ........  */
0x00,  /*  ........  */
0x88,  /*  %...%...  */
0x88,  /*  %...%...  */
0x88,  /*  %...%...  */
0x50,  /*  .%.%....  */
0x20,  /*  ..%.....  */
0xC0   /*  %%......  */
}}
,
{{6, 8},{
0x00,  /*  ........  */
0x00,  /*  ........  */
0xF8,  /*  %%%%%...  */
0x10,  /*  ...%....  */
0x20,  /*  ..%.....  */
0x48,  /*  .%..%...  */
0xF8,  /*  %%%%%...  */
0x00   /*  ........  */
}}
,
{{4, 8},{
0x20,  /*  ..%.....  */
0x40,  /*  .%......  */
0x40,  /*  .%......  */
0x80,  /*  %.......  */
0x40,  /*  .%......  */
0x40,  /*  .%......  */
0x20,  /*  ..%.....  */
0x00   /*  ........  */
}}
,
{{2, 8},{
0x80,  /*  %.......  */
0x80,  /*  %.......  */
0x80,  /*  %.......  */
0x00,  /*  ........  */
0x80,  /*  %.......  */
0x80,  /*  %.......  */
0x80,  /*  %.......  */
0x00   /*  ........  */
}}
,
{{4, 8},{
0x80,  /*  %.......  */
0x40,  /*  .%......  */
0x40,  /*  .%......  */
0x20,  /*  ..%.....  */
0x40,  /*  .%......  */
0x40,  /*  .%......  */
0x80,  /*  %.......  */
0x00   /*  ........  */
}}
,
{{6, 8},{
0x00,  /*  ........  */
0x00,  /*  ........  */
0x68,  /*  .%%.%...  */
0xB0,  /*  %.%%....  */
0x00,  /*  ........  */
0x00,  /*  ........  */
0x00,  /*  ........  */
0x00   /*  ........  */
}}
,
{{6, 8},{
0xF8,  /*  %%%%%...  */
0x88,  /*  %...%...  */
0x88,  /*  %...%...  */
0x88,  /*  %...%...  */
0x88,  /*  %...%...  */
0x88,  /*  %...%...  */
0xF8,  /*  %%%%%...  */
0x00   /*  ........  */
}}
,
{{6, 8},{
0x70,  /*  .%%%....  */
0x88,  /*  %...%...  */
0x80,  /*  %.......  */
0x80,  /*  %.......  */
0x88,  /*  %...%...  */
0x70,  /*  .%%%....  */
0x20,  /*  ..%.....  */
0x60   /*  .%%.....  */
}}
,
{{6, 8},{
0x50,  /*  .%.%....  */
0x00,  /*  ........  */
0x88,  /*  %...%...  */
0x88,  /*  %...%...  */
0x88,  /*  %...%...  */
0xD8,  /*  %%.%%...  */
0x68,  /*  .%%.%...  */
0x00   /*  ........  */
}}
,
{{6, 8},{
0x10,  /*  ...%....  */
0x20,  /*  ..%.....  */
0x70,  /*  .%%%....  */
0x88,  /*  %...%...  */
0xF8,  /*  %%%%%...  */
0x80,  /*  %.......  */
0x70,  /*  .%%%....  */
0x00   /*  ........  */
}}
,
{{6, 8},{
0x10,  /*  ...%....  */
0x28,  /*  ..%.%...  */
0x70,  /*  .%%%....  */
0x08,  /*  ....%...  */
0x78,  /*  .%%%%...  */
0xC8,  /*  %%..%...  */
0x78,  /*  .%%%%...  */
0x00   /*  ........  */
}}
,
{{6, 8},{
0x50,  /*  .%.%....  */
0x00,  /*  ........  */
0x70,  /*  .%%%....  */
0x08,  /*  ....%...  */
0x78,  /*  .%%%%...  */
0xC8,  /*  %%..%...  */
0x78,  /*  .%%%%...  */
0x00   /*  ........  */
}}
,
{{6, 8},{
0x20,  /*  ..%.....  */
0x10,  /*  ...%....  */
0x70,  /*  .%%%....  */
0x08,  /*  ....%...  */
0x78,  /*  .%%%%...  */
0xC8,  /*  %%..%...  */
0x78,  /*  .%%%%...  */
0x00   /*  ........  */
}}
,
{{6, 8},{
0x70,  /*  .%%%....  */
0x50,  /*  .%.%....  */
0x78,  /*  .%%%%...  */
0x08,  /*  ....%...  */
0x78,  /*  .%%%%...  */
0xC8,  /*  %%..%...  */
0x78,  /*  .%%%%...  */
0x00   /*  ........  */
}}
,
{{6, 8},{
0x00,  /*  ........  */
0x00,  /*  ........  */
0x70,  /*  .%%%....  */
0x88,  /*  %...%...  */
0x80,  /*  %.......  */
0x70,  /*  .%%%....  */
0x20,  /*  ..%.....  */
0x60   /*  .%%.....  */
}}
,
{{6, 8},{
0x20,  /*  ..%.....  */
0x50,  /*  .%.%....  */
0x70,  /*  .%%%....  */
0x88,  /*  %...%...  */
0xF8,  /*  %%%%%...  */
0x80,  /*  %.......  */
0x70,  /*  .%%%....  */
0x00   /*  ........  */
}}
,
{{6, 8},{
0x50,  /*  .%.%....  */
0x00,  /*  ........  */
0x70,  /*  .%%%....  */
0x88,  /*  %...%...  */
0xF8,  /*  %%%%%...  */
0x80,  /*  %.......  */
0x70,  /*  .%%%....  */
0x00   /*  ........  */
}}
,
{{6, 8},{
0x40,  /*  .%......  */
0x20,  /*  ..%.....  */
0x70,  /*  .%%%....  */
0x88,  /*  %...%...  */
0xF8,  /*  %%%%%...  */
0x80,  /*  %.......  */
0x70,  /*  .%%%....  */
0x00   /*  ........  */
}}
,
{{4, 8},{
0xA0,  /*  %.%.....  */
0x00,  /*  ........  */
0x40,  /*  .%......  */
0x40,  /*  .%......  */
0x40,  /*  .%......  */
0x40,  /*  .%......  */
0x60,  /*  .%%.....  */
0x00   /*  ........  */
}}
,
{{4, 8},{
0x40,  /*  .%......  */
0xA0,  /*  %.%.....  */
0xC0,  /*  %%......  */
0x40,  /*  .%......  */
0x40,  /*  .%......  */
0x40,  /*  .%......  */
0xE0,  /*  %%%.....  */
0x00   /*  ........  */
}}
,
{{4, 8},{
0x40,  /*  .%......  */
0x20,  /*  ..%.....  */
0xC0,  /*  %%......  */
0x40,  /*  .%......  */
0x40,  /*  .%......  */
0x40,  /*  .%......  */
0xE0,  /*  %%%.....  */
0x00   /*  ........  */
}}
,
{{6, 8},{
0x50,  /*  .%.%....  */
0x70,  /*  .%%%....  */
0x88,  /*  %...%...  */
0x88,  /*  %...%...  */
0x88,  /*  %...%...  */
0xF8,  /*  %%%%%...  */
0x88,  /*  %...%...  */
0x00   /*  ........  */
}}
,
{{6, 8},{
0x70,  /*  .%%%....  */
0x50,  /*  .%.%....  */
0x70,  /*  .%%%....  */
0x88,  /*  %...%...  */
0x88,  /*  %...%...  */
0xF8,  /*  %%%%%...  */
0x88,  /*  %...%...  */
0x00   /*  ........  */
}}
,
{{6, 8},{
0x10,  /*  ...%....  */
0x20,  /*  ..%.....  */
0xF8,  /*  %%%%%...  */
0x80,  /*  %.......  */
0xF0,  /*  %%%%....  */
0x80,  /*  %.......  */
0xF8,  /*  %%%%%...  */
0x00   /*  ........  */
}}
,
{{6, 8},{
0x00,  /*  ........  */
0x00,  /*  ........  */
0xF0,  /*  %%%%....  */
0x28,  /*  ..%.%...  */
0xF8,  /*  %%%%%...  */
0xA0,  /*  %.%.....  */
0x78,  /*  .%%%%...  */
0x00   /*  ........  */
}}
,
{{6, 8},{
0x78,  /*  .%%%%...  */
0xA0,  /*  %.%.....  */
0xA0,  /*  %.%.....  */
0xF8,  /*  %%%%%...  */
0xA0,  /*  %.%.....  */
0xA0,  /*  %.%.....  */
0xB8,  /*  %.%%%...  */
0x00   /*  ........  */
}}
,
{{6, 8},{
0x20,  /*  ..%.....  */
0x50,  /*  .%.%....  */
0x70,  /*  .%%%....  */
0x88,  /*  %...%...  */
0x88,  /*  %...%...  */
0x88,  /*  %...%...  */
0x70,  /*  .%%%....  */
0x00   /*  ........  */
}}
,
{{6, 8},{
0x50,  /*  .%.%....  */
0x00,  /*  ........  */
0x70,  /*  .%%%....  */
0x88,  /*  %...%...  */
0x88,  /*  %...%...  */
0x88,  /*  %...%...  */
0x70,  /*  .%%%....  */
0x00   /*  ........  */
}}
,
{{6, 8},{
0x40,  /*  .%......  */
0x20,  /*  ..%.....  */
0x70,  /*  .%%%....  */
0x88,  /*  %...%...  */
0x88,  /*  %...%...  */
0x88,  /*  %...%...  */
0x70,  /*  .%%%....  */
0x00   /*  ........  */
}}
,
{{6, 8},{
0x20,  /*  ..%.....  */
0x50,  /*  .%.%....  */
0x88,  /*  %...%...  */
0x88,  /*  %...%...  */
0x88,  /*  %...%...  */
0xD8,  /*  %%.%%...  */
0x68,  /*  .%%.%...  */
0x00   /*  ........  */
}}
,
{{6, 8},{
0x40,  /*  .%......  */
0x20,  /*  ..%.....  */
0x88,  /*  %...%...  */
0x88,  /*  %...%...  */
0x88,  /*  %...%...  */
0xD8,  /*  %%.%%...  */
0x68,  /*  .%%.%...  */
0x00   /*  ........  */
}}
,
{{6, 8},{
0x50,  /*  .%.%....  */
0x00,  /*  ........  */
0x88,  /*  %...%...  */
0x88,  /*  %...%...  */
0x88,  /*  %...%...  */
0x50,  /*  .%.%....  */
0x20,  /*  ..%.....  */
0xC0   /*  %%......  */
}}
,
{{6, 8},{
0x50,  /*  .%.%....  */
0x70,  /*  .%%%....  */
0x88,  /*  %...%...  */
0x88,  /*  %...%...  */
0x88,  /*  %...%...  */
0x88,  /*  %...%...  */
0x70,  /*  .%%%....  */
0x00   /*  ........  */
}}
,
{{6, 8},{
0x50,  /*  .%.%....  */
0x88,  /*  %...%...  */
0x88,  /*  %...%...  */
0x88,  /*  %...%...  */
0x88,  /*  %...%...  */
0x88,  /*  %...%...  */
0x70,  /*  .%%%....  */
0x00   /*  ........  */
}}
,
{{6, 8},{
0x00,  /*  ........  */
0x00,  /*  ........  */
0x78,  /*  .%%%%...  */
0x90,  /*  %..%....  */
0xA8,  /*  %.%.%...  */
0x48,  /*  .%..%...  */
0xF0,  /*  %%%%....  */
0x00   /*  ........  */
}}
,
{{6, 8},{
0x20,  /*  ..%.....  */
0x50,  /*  .%.%....  */
0x40,  /*  .%......  */
0xF0,  /*  %%%%....  */
0x40,  /*  .%......  */
0x88,  /*  %...%...  */
0xF8,  /*  %%%%%...  */
0x00   /*  ........  */
}}
,
{{6, 8},{
0x88,  /*  %...%...  */
0x50,  /*  .%.%....  */
0x20,  /*  ..%.....  */
0x70,  /*  .%%%....  */
0x70,  /*  .%%%....  */
0x20,  /*  ..%.....  */
0x70,  /*  .%%%....  */
0x00   /*  ........  */
}}
,
{{6, 8},{
0xF0,  /*  %%%%....  */
0x88,  /*  %...%...  */
0xF0,  /*  %%%%....  */
0x90,  /*  %..%....  */
0xB8,  /*  %.%%%...  */
0x90,  /*  %..%....  */
0x98,  /*  %..%%...  */
0x00   /*  ........  */
}}
,
{{6, 8},{
0x10,  /*  ...%....  */
0x20,  /*  ..%.....  */
0x70,  /*  .%%%....  */
0x20,  /*  ..%.....  */
0x20,  /*  ..%.....  */
0x20,  /*  ..%.....  */
0xC0,  /*  %%......  */
0x00   /*  ........  */
}}
,
{{6, 8},{
0x10,  /*  ...%....  */
0x20,  /*  ..%.....  */
0x70,  /*  .%%%....  */
0x08,  /*  ....%...  */
0x78,  /*  .%%%%...  */
0xC8,  /*  %%..%...  */
0x78,  /*  .%%%%...  */
0x00   /*  ........  */
}}
,
{{4, 8},{
0x40,  /*  .%......  */
0x80,  /*  %.......  */
0xC0,  /*  %%......  */
0x40,  /*  .%......  */
0x40,  /*  .%......  */
0x40,  /*  .%......  */
0xE0,  /*  %%%.....  */
0x00   /*  ........  */
}}
,
{{6, 8},{
0x10,  /*  ...%....  */
0x20,  /*  ..%.....  */
0x70,  /*  .%%%....  */
0x88,  /*  %...%...  */
0x88,  /*  %...%...  */
0x88,  /*  %...%...  */
0x70,  /*  .%%%....  */
0x00   /*  ........  */
}}
,
{{6, 8},{
0x10,  /*  ...%....  */
0x20,  /*  ..%.....  */
0x88,  /*  %...%...  */
0x88,  /*  %...%...  */
0x88,  /*  %...%...  */
0xD8,  /*  %%.%%...  */
0x68,  /*  .%%.%...  */
0x00   /*  ........  */
}}
,
{{6, 8},{
0x68,  /*  .%%.%...  */
0xB0,  /*  %.%%....  */
0x00,  /*  ........  */
0xB0,  /*  %.%%....  */
0xC8,  /*  %%..%...  */
0x88,  /*  %...%...  */
0x88,  /*  %...%...  */
0x00   /*  ........  */
}}
,
{{6, 8},{
0x68,  /*  .%%.%...  */
0x30,  /*  ..%%....  */
0x88,  /*  %...%...  */
0xC8,  /*  %%..%...  */
0xA8,  /*  %.%.%...  */
0x98,  /*  %..%%...  */
0x88,  /*  %...%...  */
0x00   /*  ........  */
}}
,
{{4, 8},{
0xE0,  /*  %%%.....  */
0x20,  /*  ..%.....  */
0xE0,  /*  %%%.....  */
0x80,  /*  %.......  */
0xE0,  /*  %%%.....  */
0x00,  /*  ........  */
0x00,  /*  ........  */
0x00   /*  ........  */
}}
,
{{6, 8},{
0x70,  /*  .%%%....  */
0x50,  /*  .%.%....  */
0x70,  /*  .%%%....  */
0x00,  /*  ........  */
0x00,  /*  ........  */
0x00,  /*  ........  */
0x00,  /*  ........  */
0x00   /*  ........  */
}}
,
{{6, 8},{
0x00,  /*  ........  */
0x20,  /*  ..%.....  */
0x00,  /*  ........  */
0x20,  /*  ..%.....  */
0x40,  /*  .%......  */
0x80,  /*  %.......  */
0x88,  /*  %...%...  */
0x70   /*  .%%%....  */
}}
,
{{6, 8},{
0x00,  /*  ........  */
0x00,  /*  ........  */
0x00,  /*  ........  */
0x00,  /*  ........  */
0x00,  /*  ........  */
0xF8,  /*  %%%%%...  */
0x80,  /*  %.......  */
0x00   /*  ........  */
}}
,
{{6, 8},{
0x00,  /*  ........  */
0x00,  /*  ........  */
0x00,  /*  ........  */
0x00,  /*  ........  */
0x00,  /*  ........  */
0xFF,  /*  %%%%%%%%  */
0x08,  /*  ....%...  */
0x00   /*  ........  */
}}
,
{{6, 8},{
0x80,  /*  %.......  */
0x90,  /*  %..%....  */
0xA0,  /*  %.%.....  */
0x78,  /*  .%%%%...  */
0xA8,  /*  %.%.%...  */
0x10,  /*  ...%....  */
0x38,  /*  ..%%%...  */
0x00   /*  ........  */
}}
,
{{6, 8},{
0x80,  /*  %.......  */
0x90,  /*  %..%....  */
0xA0,  /*  %.%.....  */
0x40,  /*  .%......  */
0xA8,  /*  %.%.%...  */
0x38,  /*  ..%%%...  */
0x08,  /*  ....%...  */
0x00   /*  ........  */
}}
,
{{2, 8},{
0x00,  /*  ........  */
0x80,  /*  %.......  */
0x00,  /*  ........  */
0x80,  /*  %.......  */
0x80,  /*  %.......  */
0x80,  /*  %.......  */
0x80,  /*  %.......  */
0x80   /*  %.......  */
}}
,
{{6, 8},{
0x00,  /*  ........  */
0x00,  /*  ........  */
0x28,  /*  ..%.%...  */
0x50,  /*  .%.%....  */
0xA0,  /*  %.%.....  */
0x50,  /*  .%.%....  */
0x28,  /*  ..%.%...  */
0x00   /*  ........  */
}}
,
{{6, 8},{
0x00,  /*  ........  */
0x00,  /*  ........  */
0xA0,  /*  %.%.....  */
0x50,  /*  .%.%....  */
0x28,  /*  ..%.%...  */
0x50,  /*  .%.%....  */
0xA0,  /*  %.%.....  */
0x00   /*  ........  */
}}
,
{{6, 8},{
0x22,  /*  ..%...%.  */
0x88,  /*  %...%...  */
0x22,  /*  ..%...%.  */
0x88,  /*  %...%...  */
0x22,  /*  ..%...%.  */
0x88,  /*  %...%...  */
0x22,  /*  ..%...%.  */
0x88   /*  %...%...  */
}}
,
{{6, 8},{
0xAA,  /*  %.%.%.%.  */
0x55,  /*  .%.%.%.%  */
0xAA,  /*  %.%.%.%.  */
0x55,  /*  .%.%.%.%  */
0xAA,  /*  %.%.%.%.  */
0x55,  /*  .%.%.%.%  */
0xAA,  /*  %.%.%.%.  */
0x55   /*  .%.%.%.%  */
}}
,
{{6, 8},{
0xAA,  /*  %.%.%.%.  */
0xAA,  /*  %.%.%.%.  */
0x55,  /*  .%.%.%.%  */
0x55,  /*  .%.%.%.%  */
0xAA,  /*  %.%.%.%.  */
0xAA,  /*  %.%.%.%.  */
0x55,  /*  .%.%.%.%  */
0x55   /*  .%.%.%.%  */
}}
,
{{6, 8},{
0x20,  /*  ..%.....  */
0x20,  /*  ..%.....  */
0x20,  /*  ..%.....  */
0x20,  /*  ..%.....  */
0x20,  /*  ..%.....  */
0x20,  /*  ..%.....  */
0x20,  /*  ..%.....  */
0x20   /*  ..%.....  */
}}
,
{{6, 8},{
0x20,  /*  ..%.....  */
0x20,  /*  ..%.....  */
0x20,  /*  ..%.....  */
0x20,  /*  ..%.....  */
0xE0,  /*  %%%.....  */
0x20,  /*  ..%.....  */
0x20,  /*  ..%.....  */
0x20   /*  ..%.....  */
}}
,
{{6, 8},{
0x20,  /*  ..%.....  */
0x20,  /*  ..%.....  */
0x20,  /*  ..%.....  */
0xE0,  /*  %%%.....  */
0x20,  /*  ..%.....  */
0xE0,  /*  %%%.....  */
0x20,  /*  ..%.....  */
0x20   /*  ..%.....  */
}}
,
{{6, 8},{
0x50,  /*  .%.%....  */
0x50,  /*  .%.%....  */
0x50,  /*  .%.%....  */
0x50,  /*  .%.%....  */
0xD0,  /*  %%.%....  */
0x50,  /*  .%.%....  */
0x50,  /*  .%.%....  */
0x50   /*  .%.%....  */
}}
,
{{6, 8},{
0x00,  /*  ........  */
0x00,  /*  ........  */
0x00,  /*  ........  */
0x00,  /*  ........  */
0xF0,  /*  %%%%....  */
0x50,  /*  .%.%....  */
0x50,  /*  .%.%....  */
0x50   /*  .%.%....  */
}}
,
{{6, 8},{
0x00,  /*  ........  */
0x00,  /*  ........  */
0x00,  /*  ........  */
0xE0,  /*  %%%.....  */
0x20,  /*  ..%.....  */
0xE0,  /*  %%%.....  */
0x20,  /*  ..%.....  */
0x20   /*  ..%.....  */
}}
,
{{6, 8},{
0x50,  /*  .%.%....  */
0x50,  /*  .%.%....  */
0x50,  /*  .%.%....  */
0xD0,  /*  %%.%....  */
0x10,  /*  ...%....  */
0xD0,  /*  %%.%....  */
0x50,  /*  .%.%....  */
0x50   /*  .%.%....  */
}}
,
{{6, 8},{
0x50,  /*  .%.%....  */
0x50,  /*  .%.%....  */
0x50,  /*  .%.%....  */
0x50,  /*  .%.%....  */
0x50,  /*  .%.%....  */
0x50,  /*  .%.%....  */
0x50,  /*  .%.%....  */
0x50   /*  .%.%....  */
}}
,
{{6, 8},{
0x00,  /*  ........  */
0x00,  /*  ........  */
0x00,  /*  ........  */
0xF0,  /*  %%%%....  */
0x10,  /*  ...%....  */
0xD0,  /*  %%.%....  */
0x50,  /*  .%.%....  */
0x50   /*  .%.%....  */
}}
,
{{6, 8},{
0x50,  /*  .%.%....  */
0x50,  /*  .%.%....  */
0x50,  /*  .%.%....  */
0xD0,  /*  %%.%....  */
0x10,  /*  ...%....  */
0xF0,  /*  %%%%....  */
0x00,  /*  ........  */
0x00   /*  ........  */
}}
,
{{6, 8},{
0x50,  /*  .%.%....  */
0x50,  /*  .%.%....  */
0x50,  /*  .%.%....  */
0x50,  /*  .%.%....  */
0xF0,  /*  %%%%....  */
0x00,  /*  ........  */
0x00,  /*  ........  */
0x00   /*  ........  */
}}
,
{{6, 8},{
0x20,  /*  ..%.....  */
0x20,  /*  ..%.....  */
0x20,  /*  ..%.....  */
0xE0,  /*  %%%.....  */
0x20,  /*  ..%.....  */
0xE0,  /*  %%%.....  */
0x00,  /*  ........  */
0x00   /*  ........  */
}}
,
{{6, 8},{
0x00,  /*  ........  */
0x00,  /*  ........  */
0x00,  /*  ........  */
0x00,  /*  ........  */
0xE0,  /*  %%%.....  */
0x20,  /*  ..%.....  */
0x20,  /*  ..%.....  */
0x20   /*  ..%.....  */
}}
,
{{6, 8},{
0x20,  /*  ..%.....  */
0x20,  /*  ..%.....  */
0x20,  /*  ..%.....  */
0x20,  /*  ..%.....  */
0x3F,  /*  ..%%%%%%  */
0x00,  /*  ........  */
0x00,  /*  ........  */
0x00   /*  ........  */
}}
,
{{6, 8},{
0x20,  /*  ..%.....  */
0x20,  /*  ..%.....  */
0x20,  /*  ..%.....  */
0x20,  /*  ..%.....  */
0xFF,  /*  %%%%%%%%  */
0x00,  /*  ........  */
0x00,  /*  ........  */
0x00   /*  ........  */
}}
,
{{6, 8},{
0x00,  /*  ........  */
0x00,  /*  ........  */
0x00,  /*  ........  */
0x00,  /*  ........  */
0xFF,  /*  %%%%%%%%  */
0x20,  /*  ..%.....  */
0x20,  /*  ..%.....  */
0x20   /*  ..%.....  */
}}
,
{{6, 8},{
0x20,  /*  ..%.....  */
0x20,  /*  ..%.....  */
0x20,  /*  ..%.....  */
0x20,  /*  ..%.....  */
0x3F,  /*  ..%%%%%%  */
0x20,  /*  ..%.....  */
0x20,  /*  ..%.....  */
0x20   /*  ..%.....  */
}}
,
{{6, 8},{
0x00,  /*  ........  */
0x00,  /*  ........  */
0x00,  /*  ........  */
0x00,  /*  ........  */
0xFF,  /*  %%%%%%%%  */
0x00,  /*  ........  */
0x00,  /*  ........  */
0x00   /*  ........  */
}}
,
{{6, 8},{
0x20,  /*  ..%.....  */
0x20,  /*  ..%.....  */
0x20,  /*  ..%.....  */
0x20,  /*  ..%.....  */
0xFF,  /*  %%%%%%%%  */
0x20,  /*  ..%.....  */
0x20,  /*  ..%.....  */
0x20   /*  ..%.....  */
}}
,
{{6, 8},{
0x20,  /*  ..%.....  */
0x20,  /*  ..%.....  */
0x20,  /*  ..%.....  */
0x3F,  /*  ..%%%%%%  */
0x20,  /*  ..%.....  */
0x3F,  /*  ..%%%%%%  */
0x20,  /*  ..%.....  */
0x20   /*  ..%.....  */
}}
,
{{6, 8},{
0x50,  /*  .%.%....  */
0x50,  /*  .%.%....  */
0x50,  /*  .%.%....  */
0x50,  /*  .%.%....  */
0x5F,  /*  .%.%%%%%  */
0x50,  /*  .%.%....  */
0x50,  /*  .%.%....  */
0x50   /*  .%.%....  */
}}
,
{{6, 8},{
0x50,  /*  .%.%....  */
0x50,  /*  .%.%....  */
0x50,  /*  .%.%....  */
0x5F,  /*  .%.%%%%%  */
0x40,  /*  .%......  */
0x7F,  /*  .%%%%%%%  */
0x00,  /*  ........  */
0x00   /*  ........  */
}}
,
{{6, 8},{
0x00,  /*  ........  */
0x00,  /*  ........  */
0x00,  /*  ........  */
0x7F,  /*  .%%%%%%%  */
0x40,  /*  .%......  */
0x5F,  /*  .%.%%%%%  */
0x50,  /*  .%.%....  */
0x50   /*  .%.%....  */
}}
,
{{6, 8},{
0x50,  /*  .%.%....  */
0x50,  /*  .%.%....  */
0x50,  /*  .%.%....  */
0xDF,  /*  %%.%%%%%  */
0x00,  /*  ........  */
0xFF,  /*  %%%%%%%%  */
0x00,  /*  ........  */
0x00   /*  ........  */
}}
,
{{6, 8},{
0x00,  /*  ........  */
0x00,  /*  ........  */
0x00,  /*  ........  */
0xFF,  /*  %%%%%%%%  */
0x00,  /*  ........  */
0xDF,  /*  %%.%%%%%  */
0x50,  /*  .%.%....  */
0x50   /*  .%.%....  */
}}
,
{{6, 8},{
0x50,  /*  .%.%....  */
0x50,  /*  .%.%....  */
0x50,  /*  .%.%....  */
0x5F,  /*  .%.%%%%%  */
0x40,  /*  .%......  */
0x5F,  /*  .%.%%%%%  */
0x50,  /*  .%.%....  */
0x50   /*  .%.%....  */
}}
,
{{6, 8},{
0x00,  /*  ........  */
0x00,  /*  ........  */
0x00,  /*  ........  */
0xFF,  /*  %%%%%%%%  */
0x00,  /*  ........  */
0xFF,  /*  %%%%%%%%  */
0x00,  /*  ........  */
0x00   /*  ........  */
}}
,
{{6, 8},{
0x50,  /*  .%.%....  */
0x50,  /*  .%.%....  */
0x50,  /*  .%.%....  */
0xDF,  /*  %%.%%%%%  */
0x00,  /*  ........  */
0xDF,  /*  %%.%%%%%  */
0x50,  /*  .%.%....  */
0x50   /*  .%.%....  */
}}
,
{{6, 8},{
0x20,  /*  ..%.....  */
0x20,  /*  ..%.....  */
0x20,  /*  ..%.....  */
0xFF,  /*  %%%%%%%%  */
0x00,  /*  ........  */
0xFF,  /*  %%%%%%%%  */
0x00,  /*  ........  */
0x00   /*  ........  */
}}
,
{{6, 8},{
0x50,  /*  .%.%....  */
0x50,  /*  .%.%....  */
0x50,  /*  .%.%....  */
0x50,  /*  .%.%....  */
0xFF,  /*  %%%%%%%%  */
0x00,  /*  ........  */
0x00,  /*  ........  */
0x00   /*  ........  */
}}
,
{{6, 8},{
0x00,  /*  ........  */
0x00,  /*  ........  */
0x00,  /*  ........  */
0xFF,  /*  %%%%%%%%  */
0x00,  /*  ........  */
0xFF,  /*  %%%%%%%%  */
0x20,  /*  ..%.....  */
0x20   /*  ..%.....  */
}}
,
{{6, 8},{
0x00,  /*  ........  */
0x00,  /*  ........  */
0x00,  /*  ........  */
0x00,  /*  ........  */
0xFF,  /*  %%%%%%%%  */
0x50,  /*  .%.%....  */
0x50,  /*  .%.%....  */
0x50   /*  .%.%....  */
}}
,
{{6, 8},{
0x50,  /*  .%.%....  */
0x50,  /*  .%.%....  */
0x50,  /*  .%.%....  */
0x50,  /*  .%.%....  */
0x7F,  /*  .%%%%%%%  */
0x00,  /*  ........  */
0x00,  /*  ........  */
0x00   /*  ........  */
}}
,
{{6, 8},{
0x20,  /*  ..%.....  */
0x20,  /*  ..%.....  */
0x20,  /*  ..%.....  */
0x3F,  /*  ..%%%%%%  */
0x20,  /*  ..%.....  */
0x3F,  /*  ..%%%%%%  */
0x00,  /*  ........  */
0x00   /*  ........  */
}}
,
{{6, 8},{
0x00,  /*  ........  */
0x00,  /*  ........  */
0x00,  /*  ........  */
0x3F,  /*  ..%%%%%%  */
0x20,  /*  ..%.....  */
0x3F,  /*  ..%%%%%%  */
0x20,  /*  ..%.....  */
0x20   /*  ..%.....  */
}}
,
{{6, 8},{
0x00,  /*  ........  */
0x00,  /*  ........  */
0x00,  /*  ........  */
0x00,  /*  ........  */
0x7F,  /*  .%%%%%%%  */
0x50,  /*  .%.%....  */
0x50,  /*  .%.%....  */
0x50   /*  .%.%....  */
}}
,
{{6, 8},{
0x50,  /*  .%.%....  */
0x50,  /*  .%.%....  */
0x50,  /*  .%.%....  */
0x50,  /*  .%.%....  */
0xDF,  /*  %%.%%%%%  */
0x50,  /*  .%.%....  */
0x50,  /*  .%.%....  */
0x50   /*  .%.%....  */
}}
,
{{6, 8},{
0x20,  /*  ..%.....  */
0x20,  /*  ..%.....  */
0x20,  /*  ..%.....  */
0xFF,  /*  %%%%%%%%  */
0x00,  /*  ........  */
0xFF,  /*  %%%%%%%%  */
0x20,  /*  ..%.....  */
0x20   /*  ..%.....  */
}}
,
{{6, 8},{
0x20,  /*  ..%.....  */
0x20,  /*  ..%.....  */
0x20,  /*  ..%.....  */
0x20,  /*  ..%.....  */
0xE0,  /*  %%%.....  */
0x00,  /*  ........  */
0x00,  /*  ........  */
0x00   /*  ........  */
}}
,
{{6, 8},{
0x00,  /*  ........  */
0x00,  /*  ........  */
0x00,  /*  ........  */
0x00,  /*  ........  */
0x3F,  /*  ..%%%%%%  */
0x20,  /*  ..%.....  */
0x20,  /*  ..%.....  */
0x20   /*  ..%.....  */
}}
,
{{6, 8},{
0xFF,  /*  %%%%%%%%  */
0xFF,  /*  %%%%%%%%  */
0xFF,  /*  %%%%%%%%  */
0xFF,  /*  %%%%%%%%  */
0xFF,  /*  %%%%%%%%  */
0xFF,  /*  %%%%%%%%  */
0xFF,  /*  %%%%%%%%  */
0xFF   /*  %%%%%%%%  */
}}
,
{{6, 8},{
0x00,  /*  ........  */
0x00,  /*  ........  */
0x00,  /*  ........  */
0x00,  /*  ........  */
0xFF,  /*  %%%%%%%%  */
0xFF,  /*  %%%%%%%%  */
0xFF,  /*  %%%%%%%%  */
0xFF   /*  %%%%%%%%  */
}}
,
{{6, 8},{
0xC7,  /*  %%...%%%  */
0xC7,  /*  %%...%%%  */
0xC7,  /*  %%...%%%  */
0xC7,  /*  %%...%%%  */
0xC7,  /*  %%...%%%  */
0xC7,  /*  %%...%%%  */
0xC7,  /*  %%...%%%  */
0xC7   /*  %%...%%%  */
}}
,
{{6, 8},{
0x38,  /*  ..%%%...  */
0x38,  /*  ..%%%...  */
0x38,  /*  ..%%%...  */
0x38,  /*  ..%%%...  */
0x38,  /*  ..%%%...  */
0x38,  /*  ..%%%...  */
0x38,  /*  ..%%%...  */
0x38   /*  ..%%%...  */
}}
,
{{6, 8},{
0xFF,  /*  %%%%%%%%  */
0xFF,  /*  %%%%%%%%  */
0xFF,  /*  %%%%%%%%  */
0xFF,  /*  %%%%%%%%  */
0x00,  /*  ........  */
0x00,  /*  ........  */
0x00,  /*  ........  */
0x00   /*  ........  */
}}
,
{{6, 8},{
0x00,  /*  ........  */
0x00,  /*  ........  */
0x68,  /*  .%%.%...  */
0x98,  /*  %..%%...  */
0x90,  /*  %..%....  */
0x98,  /*  %..%%...  */
0x68,  /*  .%%.%...  */
0x00   /*  ........  */
}}
,
{{6, 8},{
0x60,  /*  .%%.....  */
0x90,  /*  %..%....  */
0xE0,  /*  %%%.....  */
0x90,  /*  %..%....  */
0x88,  /*  %...%...  */
0xA8,  /*  %.%.%...  */
0xB0,  /*  %.%%....  */
0x00   /*  ........  */
}}
,
{{6, 8},{
0xF8,  /*  %%%%%...  */
0x48,  /*  .%..%...  */
0x40,  /*  .%......  */
0x40,  /*  .%......  */
0x40,  /*  .%......  */
0x40,  /*  .%......  */
0xE0,  /*  %%%.....  */
0x00   /*  ........  */
}}
,
{{6, 8},{
0x00,  /*  ........  */
0x00,  /*  ........  */
0xF8,  /*  %%%%%...  */
0x50,  /*  .%.%....  */
0x50,  /*  .%.%....  */
0x50,  /*  .%.%....  */
0x50,  /*  .%.%....  */
0x00   /*  ........  */
}}
,
{{6, 8},{
0xF8,  /*  %%%%%...  */
0x48,  /*  .%..%...  */
0x20,  /*  ..%.....  */
0x10,  /*  ...%....  */
0x20,  /*  ..%.....  */
0x40,  /*  .%......  */
0x88,  /*  %...%...  */
0xF8   /*  %%%%%...  */
}}
,
{{6, 8},{
0x00,  /*  ........  */
0x00,  /*  ........  */
0x78,  /*  .%%%%...  */
0x90,  /*  %..%....  */
0x90,  /*  %..%....  */
0x90,  /*  %..%....  */
0x60,  /*  .%%.....  */
0x00   /*  ........  */
}}
,
{{6, 8},{
0x00,  /*  ........  */
0x00,  /*  ........  */
0x90,  /*  %..%....  */
0x90,  /*  %..%....  */
0x90,  /*  %..%....  */
0x90,  /*  %..%....  */
0xE8,  /*  %%%.%...  */
0x80   /*  %.......  */
}}
,
{{6, 8},{
0x00,  /*  ........  */
0x00,  /*  ........  */
0xF8,  /*  %%%%%...  */
0x20,  /*  ..%.....  */
0x20,  /*  ..%.....  */
0x20,  /*  ..%.....  */
0x30,  /*  ..%%....  */
0x00   /*  ........  */
}}
,
{{6, 8},{
0x70,  /*  .%%%....  */
0x20,  /*  ..%.....  */
0x70,  /*  .%%%....  */
0xA8,  /*  %.%.%...  */
0x70,  /*  .%%%....  */
0x20,  /*  ..%.....  */
0x70,  /*  .%%%....  */
0x00   /*  ........  */
}}
,
{{6, 8},{
0x70,  /*  .%%%....  */
0x88,  /*  %...%...  */
0xD8,  /*  %%.%%...  */
0xF8,  /*  %%%%%...  */
0xD8,  /*  %%.%%...  */
0x88,  /*  %...%...  */
0x70,  /*  .%%%....  */
0x00   /*  ........  */
}}
,
{{6, 8},{
0x70,  /*  .%%%....  */
0x88,  /*  %...%...  */
0x88,  /*  %...%...  */
0x88,  /*  %...%...  */
0x88,  /*  %...%...  */
0x50,  /*  .%.%....  */
0xD8,  /*  %%.%%...  */
0x00   /*  ........  */
}}
,
{{6, 8},{
0xF8,  /*  %%%%%...  */
0x40,  /*  .%......  */
0x20,  /*  ..%.....  */
0x50,  /*  .%.%....  */
0x88,  /*  %...%...  */
0x88,  /*  %...%...  */
0x70,  /*  .%%%....  */
0x00   /*  ........  */
}}
,
{{6, 8},{
0x00,  /*  ........  */
0x00,  /*  ........  */
0x50,  /*  .%.%....  */
0xA8,  /*  %.%.%...  */
0xA8,  /*  %.%.%...  */
0x50,  /*  .%.%....  */
0x00,  /*  ........  */
0x00   /*  ........  */
}}
,
{{6, 8},{
0x68,  /*  .%%.%...  */
0x98,  /*  %..%%...  */
0xA8,  /*  %.%.%...  */
0xA8,  /*  %.%.%...  */
0xA8,  /*  %.%.%...  */
0xC8,  /*  %%..%...  */
0xB0,  /*  %.%%....  */
0x00   /*  ........  */
}}
,
{{6, 8},{
0x00,  /*  ........  */
0x00,  /*  ........  */
0x70,  /*  .%%%....  */
0x80,  /*  %.......  */
0x70,  /*  .%%%....  */
0x80,  /*  %.......  */
0x70,  /*  .%%%....  */
0x00   /*  ........  */
}}
,
{{6, 8},{
0x70,  /*  .%%%....  */
0x88,  /*  %...%...  */
0x88,  /*  %...%...  */
0x88,  /*  %...%...  */
0x88,  /*  %...%...  */
0x88,  /*  %...%...  */
0x88,  /*  %...%...  */
0x00   /*  ........  */
}}
,
{{6, 8},{
0x00,  /*  ........  */
0x00,  /*  ........  */
0xF8,  /*  %%%%%...  */
0x00,  /*  ........  */
0xF8,  /*  %%%%%...  */
0x00,  /*  ........  */
0xF8,  /*  %%%%%...  */
0x00   /*  ........  */
}}
,
{{6, 8},{
0x00,  /*  ........  */
0x00,  /*  ........  */
0x20,  /*  ..%.....  */
0x20,  /*  ..%.....  */
0xF8,  /*  %%%%%...  */
0x20,  /*  ..%.....  */
0xF8,  /*  %%%%%...  */
0x00   /*  ........  */
}}
,
{{6, 8},{
0x00,  /*  ........  */
0x40,  /*  .%......  */
0x20,  /*  ..%.....  */
0x10,  /*  ...%....  */
0x20,  /*  ..%.....  */
0x40,  /*  .%......  */
0x70,  /*  .%%%....  */
0x00   /*  ........  */
}}
,
{{6, 8},{
0x00,  /*  ........  */
0x10,  /*  ...%....  */
0x20,  /*  ..%.....  */
0x40,  /*  .%......  */
0x20,  /*  ..%.....  */
0x10,  /*  ...%....  */
0x70,  /*  .%%%....  */
0x00   /*  ........  */
}}
,
{{6, 8},{
0x10,  /*  ...%....  */
0x38,  /*  ..%%%...  */
0x20,  /*  ..%.....  */
0x20,  /*  ..%.....  */
0x20,  /*  ..%.....  */
0x20,  /*  ..%.....  */
0x20,  /*  ..%.....  */
0x20   /*  ..%.....  */
}}
,
{{6, 8},{
0x20,  /*  ..%.....  */
0x20,  /*  ..%.....  */
0x20,  /*  ..%.....  */
0x20,  /*  ..%.....  */
0x20,  /*  ..%.....  */
0x20,  /*  ..%.....  */
0xE0,  /*  %%%.....  */
0x40   /*  .%......  */
}}
,
{{6, 8},{
0x00,  /*  ........  */
0x00,  /*  ........  */
0x20,  /*  ..%.....  */
0x00,  /*  ........  */
0xF8,  /*  %%%%%...  */
0x00,  /*  ........  */
0x20,  /*  ..%.....  */
0x00   /*  ........  */
}}
,
{{6, 8},{
0x00,  /*  ........  */
0x00,  /*  ........  */
0x68,  /*  .%%.%...  */
0xB0,  /*  %.%%....  */
0x00,  /*  ........  */
0x68,  /*  .%%.%...  */
0xB0,  /*  %.%%....  */
0x00   /*  ........  */
}}
,
{{6, 8},{
0x60,  /*  .%%.....  */
0x60,  /*  .%%.....  */
0x00,  /*  ........  */
0x00,  /*  ........  */
0x00,  /*  ........  */
0x00,  /*  ........  */
0x00,  /*  ........  */
0x00   /*  ........  */
}}
,
{{6, 8},{
0x00,  /*  ........  */
0x00,  /*  ........  */
0x00,  /*  ........  */
0x60,  /*  .%%.....  */
0x60,  /*  .%%.....  */
0x00,  /*  ........  */
0x00,  /*  ........  */
0x00   /*  ........  */
}}
,
{{6, 8},{
0x00,  /*  ........  */
0x00,  /*  ........  */
0x00,  /*  ........  */
0x00,  /*  ........  */
0x20,  /*  ..%.....  */
0x00,  /*  ........  */
0x00,  /*  ........  */
0x00   /*  ........  */
}}
,
{{6, 8},{
0x08,  /*  ....%...  */
0x08,  /*  ....%...  */
0x08,  /*  ....%...  */
0x10,  /*  ...%....  */
0xD0,  /*  %%.%....  */
0x50,  /*  .%.%....  */
0x20,  /*  ..%.....  */
0x00   /*  ........  */
}}
,
{{6, 8},{
0x00,  /*  ........  */
0x00,  /*  ........  */
0x40,  /*  .%......  */
0x70,  /*  .%%%....  */
0x50,  /*  .%.%....  */
0x50,  /*  .%.%....  */
0x00,  /*  ........  */
0x00   /*  ........  */
}}
,
{{6, 8},{
0x00,  /*  ........  */
0x70,  /*  .%%%....  */
0x10,  /*  ...%....  */
0x70,  /*  .%%%....  */
0x40,  /*  .%......  */
0x70,  /*  .%%%....  */
0x00,  /*  ........  */
0x00   /*  ........  */
}}
,
{{6, 8},{
0x00,  /*  ........  */
0x00,  /*  ........  */
0xF8,  /*  %%%%%...  */
0xF8,  /*  %%%%%...  */
0xF8,  /*  %%%%%...  */
0xF8,  /*  %%%%%...  */
0xF8,  /*  %%%%%...  */
0x00   /*  ........  */
}}
,
{{6, 8},{
0x00,  /*  ........  */
0x00,  /*  ........  */
0xF8,  /*  %%%%%...  */
0x88,  /*  %...%...  */
0x88,  /*  %...%...  */
0x88,  /*  %...%...  */
0xF8,  /*  %%%%%...  */
0x00   /*  ........  */
}}

