/*Y 8 8 10 16  CP<narrow10.cp> . narrow10[112]={  narrow10.sym   LCDIcon FileDescriptor: Do not edit or move */
/* Put Your Comments Here */
/* */
/* */
/* */
/* */
/* */
/* */
/* */
/* */
/* */
/* */
/* */
/* */
/* */
/* */
/* */
/* */
/* */
/* */
/* */
/* */

/* Element 0x0000 - Char 0x0010 */
{{5, 10},{
0x00,  /*  ........  */
0x00,  /*  ........  */
0x00,  /*  ........  */
0x00,  /*  ........  */
0x00,  /*  ........  */
0x00,  /*  ........  */
0x00,  /*  ........  */
0x00,  /*  ........  */
0x00,  /*  ........  */
0x00   /*  ........  */
}}
,

/* Element 0x0001 - Char 0x0011 */
{{5, 10},{
0x00,  /*  ........  */
0x00,  /*  ........  */
0x00,  /*  ........  */
0x00,  /*  ........  */
0x00,  /*  ........  */
0x00,  /*  ........  */
0x00,  /*  ........  */
0x00,  /*  ........  */
0x00,  /*  ........  */
0x00   /*  ........  */
}}
,

/* Element 0x0002 - Char 0x0012 */
{{5, 10},{
0x00,  /*  ........  */
0x00,  /*  ........  */
0x00,  /*  ........  */
0x00,  /*  ........  */
0x00,  /*  ........  */
0x00,  /*  ........  */
0x00,  /*  ........  */
0x00,  /*  ........  */
0x00,  /*  ........  */
0x00   /*  ........  */
}}
,

/* Element 0x0003 - Char 0x0013 */
{{5, 10},{
0x00,  /*  ........  */
0x00,  /*  ........  */
0x00,  /*  ........  */
0x00,  /*  ........  */
0x00,  /*  ........  */
0x00,  /*  ........  */
0x00,  /*  ........  */
0x00,  /*  ........  */
0x00,  /*  ........  */
0x00   /*  ........  */
}}
,

/* Element 0x0004 - Char 0x0014 */
{{5, 10},{
0x00,  /*  ........  */
0x00,  /*  ........  */
0x00,  /*  ........  */
0x00,  /*  ........  */
0x00,  /*  ........  */
0x00,  /*  ........  */
0x00,  /*  ........  */
0x00,  /*  ........  */
0x00,  /*  ........  */
0x00   /*  ........  */
}}
,

/* Element 0x0005 - Char 0x0015 */
{{5, 10},{
0x00,  /*  ........  */
0x00,  /*  ........  */
0x00,  /*  ........  */
0x00,  /*  ........  */
0x00,  /*  ........  */
0x00,  /*  ........  */
0x00,  /*  ........  */
0x00,  /*  ........  */
0x00,  /*  ........  */
0x00   /*  ........  */
}}
,

/* Element 0x0006 - Char 0x0016 */
{{5, 10},{
0x00,  /*  ........  */
0x00,  /*  ........  */
0x00,  /*  ........  */
0x00,  /*  ........  */
0x00,  /*  ........  */
0x00,  /*  ........  */
0x00,  /*  ........  */
0x00,  /*  ........  */
0x00,  /*  ........  */
0x00   /*  ........  */
}}
,

/* Element 0x0007 - Char 0x0017 */
{{7, 10},{
0x00,  /*  ........  */
0x04,  /*  .....%..  */
0x0C,  /*  ....%%..  */
0x08,  /*  ....%...  */
0x98,  /*  %..%%...  */
0xD0,  /*  %%.%....  */
0x70,  /*  .%%%....  */
0x20,  /*  ..%.....  */
0x00,  /*  ........  */
0x00   /*  ........  */
}}
,

/* Element 0x0008 - Char 0x0018 */
{{8, 10},{
0x04,  /*  .....%..  */
0x0E,  /*  ....%%%.  */
0x1F,  /*  ...%%%%%  */
0x04,  /*  .....%..  */
0x04,  /*  .....%..  */
0xFC,  /*  %%%%%%..  */
0x00,  /*  ........  */
0x00,  /*  ........  */
0x00,  /*  ........  */
0x00   /*  ........  */
}}
,

/* Element 0x0009 - Char 0x0019 */
{{8, 10},{
0x00,  /*  ........  */
0x12,  /*  ...%..%.  */
0x32,  /*  ..%%..%.  */
0x7E,  /*  .%%%%%%.  */
0xFE,  /*  %%%%%%%.  */
0x7E,  /*  .%%%%%%.  */
0x30,  /*  ..%%....  */
0x10,  /*  ...%....  */
0x00,  /*  ........  */
0x00   /*  ........  */
}}
,

/* Element 0x000A - Char 0x001A */
{{6, 10},{
0x00,  /*  ........  */
0x88,  /*  %...%...  */
0xC8,  /*  %%..%...  */
0xE8,  /*  %%%.%...  */
0xF8,  /*  %%%%%...  */
0xE8,  /*  %%%.%...  */
0xC8,  /*  %%..%...  */
0x88,  /*  %...%...  */
0x00,  /*  ........  */
0x00   /*  ........  */
}}
,

/* Element 0x000B - Char 0x001B */
{{6, 10},{
0x00,  /*  ........  */
0x88,  /*  %...%...  */
0x98,  /*  %..%%...  */
0xB8,  /*  %.%%%...  */
0xF8,  /*  %%%%%...  */
0xB8,  /*  %.%%%...  */
0x98,  /*  %..%%...  */
0x88,  /*  %...%...  */
0x00,  /*  ........  */
0x00   /*  ........  */
}}
,

/* Element 0x000C - Char 0x001C */
{{8, 10},{
0x00,  /*  ........  */
0x00,  /*  ........  */
0x00,  /*  ........  */
0xFE,  /*  %%%%%%%.  */
0x7C,  /*  .%%%%%..  */
0x38,  /*  ..%%%...  */
0x10,  /*  ...%....  */
0x00,  /*  ........  */
0x00,  /*  ........  */
0x00   /*  ........  */
}}
,

/* Element 0x000D - Char 0x001D */
{{8, 10},{
0x00,  /*  ........  */
0x00,  /*  ........  */
0x10,  /*  ...%....  */
0x38,  /*  ..%%%...  */
0x7C,  /*  .%%%%%..  */
0xFE,  /*  %%%%%%%.  */
0x00,  /*  ........  */
0x00,  /*  ........  */
0x00,  /*  ........  */
0x00   /*  ........  */
}}
,

/* Element 0x000E - Char 0x001E */
{{5, 10},{
0x00,  /*  ........  */
0x10,  /*  ...%....  */
0x30,  /*  ..%%....  */
0x70,  /*  .%%%....  */
0xF0,  /*  %%%%....  */
0x70,  /*  .%%%....  */
0x30,  /*  ..%%....  */
0x10,  /*  ...%....  */
0x00,  /*  ........  */
0x00   /*  ........  */
}}
,

/* Element 0x000F - Char 0x001F */
{{5, 10},{
0x00,  /*  ........  */
0x80,  /*  %.......  */
0xC0,  /*  %%......  */
0xE0,  /*  %%%.....  */
0xF0,  /*  %%%%....  */
0xE0,  /*  %%%.....  */
0xC0,  /*  %%......  */
0x80,  /*  %.......  */
0x00,  /*  ........  */
0x00   /*  ........  */
}}
,

/* Element 0x0010 - Char 0x0020 */
{{5, 10},{
0x00,  /*  ........  */
0x00,  /*  ........  */
0x00,  /*  ........  */
0x00,  /*  ........  */
0x00,  /*  ........  */
0x00,  /*  ........  */
0x00,  /*  ........  */
0x00,  /*  ........  */
0x00,  /*  ........  */
0x00   /*  ........  */
}}
,

/* Element 0x0011 - Char 0x0021 */
{{2, 10},{
0x80,  /*  %.......  */
0x80,  /*  %.......  */
0x80,  /*  %.......  */
0x80,  /*  %.......  */
0x80,  /*  %.......  */
0x00,  /*  ........  */
0x80,  /*  %.......  */
0x80,  /*  %.......  */
0x00,  /*  ........  */
0x00   /*  ........  */
}}
,

/* Element 0x0012 - Char 0x0022 */
{{4, 10},{
0xA0,  /*  %.%.....  */
0xA0,  /*  %.%.....  */
0xA0,  /*  %.%.....  */
0x00,  /*  ........  */
0x00,  /*  ........  */
0x00,  /*  ........  */
0x00,  /*  ........  */
0x00,  /*  ........  */
0x00,  /*  ........  */
0x00   /*  ........  */
}}
,

/* Element 0x0013 - Char 0x0023 */
{{6, 10},{
0x00,  /*  ........  */
0x00,  /*  ........  */
0x50,  /*  .%.%....  */
0xF8,  /*  %%%%%...  */
0x50,  /*  .%.%....  */
0x50,  /*  .%.%....  */
0xF8,  /*  %%%%%...  */
0x50,  /*  .%.%....  */
0x00,  /*  ........  */
0x00   /*  ........  */
}}
,

/* Element 0x0014 - Char 0x0024 */
{{6, 10},{
0x70,  /*  .%%%....  */
0xA8,  /*  %.%.%...  */
0xA0,  /*  %.%.....  */
0x60,  /*  .%%.....  */
0x30,  /*  ..%%....  */
0x28,  /*  ..%.%...  */
0xA8,  /*  %.%.%...  */
0x70,  /*  .%%%....  */
0x20,  /*  ..%.....  */
0x00   /*  ........  */
}}
,

/* Element 0x0015 - Char 0x0025 */
{{7, 10},{
0xC8,  /*  %%..%...  */
0xC8,  /*  %%..%...  */
0x10,  /*  ...%....  */
0x10,  /*  ...%....  */
0x20,  /*  ..%.....  */
0x20,  /*  ..%.....  */
0x4C,  /*  .%..%%..  */
0x4C,  /*  .%..%%..  */
0x00,  /*  ........  */
0x00   /*  ........  */
}}
,

/* Element 0x0016 - Char 0x0026 */
{{6, 10},{
0x40,  /*  .%......  */
0xA0,  /*  %.%.....  */
0xA0,  /*  %.%.....  */
0x40,  /*  .%......  */
0xA8,  /*  %.%.%...  */
0xB0,  /*  %.%%....  */
0x98,  /*  %..%%...  */
0x68,  /*  .%%.%...  */
0x00,  /*  ........  */
0x00   /*  ........  */
}}
,

/* Element 0x0017 - Char 0x0027 */
{{3, 10},{
0x40,  /*  .%......  */
0x80,  /*  %.......  */
0x00,  /*  ........  */
0x00,  /*  ........  */
0x00,  /*  ........  */
0x00,  /*  ........  */
0x00,  /*  ........  */
0x00,  /*  ........  */
0x00,  /*  ........  */
0x00   /*  ........  */
}}
,

/* Element 0x0018 - Char 0x0028 */
{{4, 10},{
0x20,  /*  ..%.....  */
0x40,  /*  .%......  */
0x40,  /*  .%......  */
0x80,  /*  %.......  */
0x80,  /*  %.......  */
0x80,  /*  %.......  */
0x80,  /*  %.......  */
0x40,  /*  .%......  */
0x40,  /*  .%......  */
0x20   /*  ..%.....  */
}}
,

/* Element 0x0019 - Char 0x0029 */
{{4, 10},{
0x80,  /*  %.......  */
0x40,  /*  .%......  */
0x40,  /*  .%......  */
0x20,  /*  ..%.....  */
0x20,  /*  ..%.....  */
0x20,  /*  ..%.....  */
0x20,  /*  ..%.....  */
0x40,  /*  .%......  */
0x40,  /*  .%......  */
0x80   /*  %.......  */
}}
,

/* Element 0x001A - Char 0x002A */
{{6, 10},{
0x00,  /*  ........  */
0x00,  /*  ........  */
0x50,  /*  .%.%....  */
0x20,  /*  ..%.....  */
0xF8,  /*  %%%%%...  */
0x20,  /*  ..%.....  */
0x50,  /*  .%.%....  */
0x00,  /*  ........  */
0x00,  /*  ........  */
0x00   /*  ........  */
}}
,

/* Element 0x001B - Char 0x002B */
{{6, 10},{
0x00,  /*  ........  */
0x00,  /*  ........  */
0x20,  /*  ..%.....  */
0x20,  /*  ..%.....  */
0xF8,  /*  %%%%%...  */
0x20,  /*  ..%.....  */
0x20,  /*  ..%.....  */
0x00,  /*  ........  */
0x00,  /*  ........  */
0x00   /*  ........  */
}}
,

/* Element 0x001C - Char 0x002C */
{{3, 10},{
0x00,  /*  ........  */
0x00,  /*  ........  */
0x00,  /*  ........  */
0x00,  /*  ........  */
0x00,  /*  ........  */
0x00,  /*  ........  */
0x00,  /*  ........  */
0x40,  /*  .%......  */
0x40,  /*  .%......  */
0x80   /*  %.......  */
}}
,

/* Element 0x001D - Char 0x002D */
{{6, 10},{
0x00,  /*  ........  */
0x00,  /*  ........  */
0x00,  /*  ........  */
0x00,  /*  ........  */
0xF8,  /*  %%%%%...  */
0x00,  /*  ........  */
0x00,  /*  ........  */
0x00,  /*  ........  */
0x00,  /*  ........  */
0x00   /*  ........  */
}}
,

/* Element 0x001E - Char 0x002E */
{{2, 10},{
0x00,  /*  ........  */
0x00,  /*  ........  */
0x00,  /*  ........  */
0x00,  /*  ........  */
0x00,  /*  ........  */
0x00,  /*  ........  */
0x80,  /*  %.......  */
0x80,  /*  %.......  */
0x00,  /*  ........  */
0x00   /*  ........  */
}}
,

/* Element 0x001F - Char 0x002F */
{{5, 10},{
0x10,  /*  ...%....  */
0x10,  /*  ...%....  */
0x20,  /*  ..%.....  */
0x20,  /*  ..%.....  */
0x40,  /*  .%......  */
0x40,  /*  .%......  */
0x80,  /*  %.......  */
0x80,  /*  %.......  */
0x00,  /*  ........  */
0x00   /*  ........  */
}}
,

/* Element 0x0020 - Char 0x0030 */
{{5, 10},{
0x60,  /*  .%%.....  */
0x90,  /*  %..%....  */
0x90,  /*  %..%....  */
0x90,  /*  %..%....  */
0x90,  /*  %..%....  */
0x90,  /*  %..%....  */
0x90,  /*  %..%....  */
0x60,  /*  .%%.....  */
0x00,  /*  ........  */
0x00   /*  ........  */
}}
,

/* Element 0x0021 - Char 0x0031 */
{{4, 10},{
0x20,  /*  ..%.....  */
0xE0,  /*  %%%.....  */
0x20,  /*  ..%.....  */
0x20,  /*  ..%.....  */
0x20,  /*  ..%.....  */
0x20,  /*  ..%.....  */
0x20,  /*  ..%.....  */
0x20,  /*  ..%.....  */
0x00,  /*  ........  */
0x00   /*  ........  */
}}
,

/* Element 0x0022 - Char 0x0032 */
{{5, 10},{
0x60,  /*  .%%.....  */
0x90,  /*  %..%....  */
0x10,  /*  ...%....  */
0x10,  /*  ...%....  */
0x20,  /*  ..%.....  */
0x40,  /*  .%......  */
0x80,  /*  %.......  */
0xF0,  /*  %%%%....  */
0x00,  /*  ........  */
0x00   /*  ........  */
}}
,

/* Element 0x0023 - Char 0x0033 */
{{5, 10},{
0x60,  /*  .%%.....  */
0x90,  /*  %..%....  */
0x10,  /*  ...%....  */
0x60,  /*  .%%.....  */
0x10,  /*  ...%....  */
0x10,  /*  ...%....  */
0x90,  /*  %..%....  */
0x60,  /*  .%%.....  */
0x00,  /*  ........  */
0x00   /*  ........  */
}}
,

/* Element 0x0024 - Char 0x0034 */
{{5, 10},{
0x10,  /*  ...%....  */
0x30,  /*  ..%%....  */
0x50,  /*  .%.%....  */
0x50,  /*  .%.%....  */
0x90,  /*  %..%....  */
0xF0,  /*  %%%%....  */
0x10,  /*  ...%....  */
0x10,  /*  ...%....  */
0x00,  /*  ........  */
0x00   /*  ........  */
}}
,

/* Element 0x0025 - Char 0x0035 */
{{5, 10},{
0xF0,  /*  %%%%....  */
0x80,  /*  %.......  */
0x80,  /*  %.......  */
0xE0,  /*  %%%.....  */
0x10,  /*  ...%....  */
0x10,  /*  ...%....  */
0x90,  /*  %..%....  */
0x60,  /*  .%%.....  */
0x00,  /*  ........  */
0x00   /*  ........  */
}}
,

/* Element 0x0026 - Char 0x0036 */
{{5, 10},{
0x60,  /*  .%%.....  */
0x90,  /*  %..%....  */
0x80,  /*  %.......  */
0xE0,  /*  %%%.....  */
0x90,  /*  %..%....  */
0x90,  /*  %..%....  */
0x90,  /*  %..%....  */
0x60,  /*  .%%.....  */
0x00,  /*  ........  */
0x00   /*  ........  */
}}
,

/* Element 0x0027 - Char 0x0037 */
{{5, 10},{
0xF0,  /*  %%%%....  */
0x10,  /*  ...%....  */
0x20,  /*  ..%.....  */
0x20,  /*  ..%.....  */
0x40,  /*  .%......  */
0x40,  /*  .%......  */
0x40,  /*  .%......  */
0x00,  /*  ........  */
0x00,  /*  ........  */
0x00   /*  ........  */
}}
,

/* Element 0x0028 - Char 0x0038 */
{{5, 10},{
0x60,  /*  .%%.....  */
0x90,  /*  %..%....  */
0x90,  /*  %..%....  */
0x60,  /*  .%%.....  */
0x90,  /*  %..%....  */
0x90,  /*  %..%....  */
0x90,  /*  %..%....  */
0x60,  /*  .%%.....  */
0x00,  /*  ........  */
0x00   /*  ........  */
}}
,

/* Element 0x0029 - Char 0x0039 */
{{5, 10},{
0x60,  /*  .%%.....  */
0x90,  /*  %..%....  */
0x90,  /*  %..%....  */
0x70,  /*  .%%%....  */
0x10,  /*  ...%....  */
0x10,  /*  ...%....  */
0x90,  /*  %..%....  */
0x60,  /*  .%%.....  */
0x00,  /*  ........  */
0x00   /*  ........  */
}}
,

/* Element 0x002A - Char 0x003A */
{{2, 10},{
0x00,  /*  ........  */
0x00,  /*  ........  */
0x80,  /*  %.......  */
0x80,  /*  %.......  */
0x00,  /*  ........  */
0x00,  /*  ........  */
0x80,  /*  %.......  */
0x80,  /*  %.......  */
0x00,  /*  ........  */
0x00   /*  ........  */
}}
,

/* Element 0x002B - Char 0x003B */
{{3, 10},{
0x00,  /*  ........  */
0x00,  /*  ........  */
0x40,  /*  .%......  */
0x40,  /*  .%......  */
0x00,  /*  ........  */
0x00,  /*  ........  */
0x40,  /*  .%......  */
0x80,  /*  %.......  */
0x00,  /*  ........  */
0x00   /*  ........  */
}}
,

/* Element 0x002C - Char 0x003C */
{{6, 10},{
0x08,  /*  ....%...  */
0x10,  /*  ...%....  */
0x20,  /*  ..%.....  */
0x40,  /*  .%......  */
0x80,  /*  %.......  */
0x40,  /*  .%......  */
0x20,  /*  ..%.....  */
0x10,  /*  ...%....  */
0x08,  /*  ....%...  */
0x00   /*  ........  */
}}
,

/* Element 0x002D - Char 0x003D */
{{6, 10},{
0x00,  /*  ........  */
0x00,  /*  ........  */
0x00,  /*  ........  */
0xF8,  /*  %%%%%...  */
0x00,  /*  ........  */
0xF8,  /*  %%%%%...  */
0x00,  /*  ........  */
0x00,  /*  ........  */
0x00,  /*  ........  */
0x00   /*  ........  */
}}
,

/* Element 0x002E - Char 0x003E */
{{6, 10},{
0x80,  /*  %.......  */
0x40,  /*  .%......  */
0x20,  /*  ..%.....  */
0x10,  /*  ...%....  */
0x08,  /*  ....%...  */
0x10,  /*  ...%....  */
0x20,  /*  ..%.....  */
0x40,  /*  .%......  */
0x80,  /*  %.......  */
0x00   /*  ........  */
}}
,

/* Element 0x002F - Char 0x003F */
{{5, 10},{
0x60,  /*  .%%.....  */
0x90,  /*  %..%....  */
0x10,  /*  ...%....  */
0x20,  /*  ..%.....  */
0x40,  /*  .%......  */
0x00,  /*  ........  */
0x40,  /*  .%......  */
0x40,  /*  .%......  */
0x00,  /*  ........  */
0x00   /*  ........  */
}}
,

/* Element 0x0030 - Char 0x0040 */
{{7, 10},{
0x78,  /*  .%%%%...  */
0x84,  /*  %....%..  */
0xB4,  /*  %.%%.%..  */
0xCC,  /*  %%..%%..  */
0xCC,  /*  %%..%%..  */
0xB0,  /*  %.%%....  */
0x80,  /*  %.......  */
0x78,  /*  .%%%%...  */
0x00,  /*  ........  */
0x00   /*  ........  */
}}
,

/* Element 0x0031 - Char 0x0041 */
{{6, 10},{
0x20,  /*  ..%.....  */
0x20,  /*  ..%.....  */
0x50,  /*  .%.%....  */
0x50,  /*  .%.%....  */
0x50,  /*  .%.%....  */
0xF8,  /*  %%%%%...  */
0x88,  /*  %...%...  */
0x88,  /*  %...%...  */
0x00,  /*  ........  */
0x00   /*  ........  */
}}
,

/* Element 0x0032 - Char 0x0042 */
{{5, 10},{
0xE0,  /*  %%%.....  */
0x90,  /*  %..%....  */
0x90,  /*  %..%....  */
0xE0,  /*  %%%.....  */
0x90,  /*  %..%....  */
0x90,  /*  %..%....  */
0x90,  /*  %..%....  */
0xE0,  /*  %%%.....  */
0x00,  /*  ........  */
0x00   /*  ........  */
}}
,

/* Element 0x0033 - Char 0x0043 */
{{6, 10},{
0x70,  /*  .%%%....  */
0x88,  /*  %...%...  */
0x80,  /*  %.......  */
0x80,  /*  %.......  */
0x80,  /*  %.......  */
0x80,  /*  %.......  */
0x88,  /*  %...%...  */
0x70,  /*  .%%%....  */
0x00,  /*  ........  */
0x00   /*  ........  */
}}
,

/* Element 0x0034 - Char 0x0044 */
{{6, 10},{
0xF0,  /*  %%%%....  */
0x88,  /*  %...%...  */
0x88,  /*  %...%...  */
0x88,  /*  %...%...  */
0x88,  /*  %...%...  */
0x88,  /*  %...%...  */
0x88,  /*  %...%...  */
0xF0,  /*  %%%%....  */
0x00,  /*  ........  */
0x00   /*  ........  */
}}
,

/* Element 0x0035 - Char 0x0045 */
{{5, 10},{
0xF0,  /*  %%%%....  */
0x80,  /*  %.......  */
0x80,  /*  %.......  */
0xE0,  /*  %%%.....  */
0x80,  /*  %.......  */
0x80,  /*  %.......  */
0x80,  /*  %.......  */
0xF0,  /*  %%%%....  */
0x00,  /*  ........  */
0x00   /*  ........  */
}}
,

/* Element 0x0036 - Char 0x0046 */
{{5, 10},{
0xF0,  /*  %%%%....  */
0x80,  /*  %.......  */
0x80,  /*  %.......  */
0xE0,  /*  %%%.....  */
0x80,  /*  %.......  */
0x80,  /*  %.......  */
0x80,  /*  %.......  */
0x80,  /*  %.......  */
0x00,  /*  ........  */
0x00   /*  ........  */
}}
,

/* Element 0x0037 - Char 0x0047 */
{{6, 10},{
0x70,  /*  .%%%....  */
0x88,  /*  %...%...  */
0x88,  /*  %...%...  */
0x80,  /*  %.......  */
0x98,  /*  %..%%...  */
0x88,  /*  %...%...  */
0x98,  /*  %..%%...  */
0x68,  /*  .%%.%...  */
0x00,  /*  ........  */
0x00   /*  ........  */
}}
,

/* Element 0x0038 - Char 0x0048 */
{{6, 10},{
0x88,  /*  %...%...  */
0x88,  /*  %...%...  */
0x88,  /*  %...%...  */
0xF8,  /*  %%%%%...  */
0x88,  /*  %...%...  */
0x88,  /*  %...%...  */
0x88,  /*  %...%...  */
0x88,  /*  %...%...  */
0x00,  /*  ........  */
0x00   /*  ........  */
}}
,

/* Element 0x0039 - Char 0x0049 */
{{2, 10},{
0x80,  /*  %.......  */
0x80,  /*  %.......  */
0x80,  /*  %.......  */
0x80,  /*  %.......  */
0x80,  /*  %.......  */
0x80,  /*  %.......  */
0x80,  /*  %.......  */
0x80,  /*  %.......  */
0x00,  /*  ........  */
0x00   /*  ........  */
}}
,

/* Element 0x003A - Char 0x004A */
{{5, 10},{
0xF0,  /*  %%%%....  */
0x10,  /*  ...%....  */
0x10,  /*  ...%....  */
0x10,  /*  ...%....  */
0x10,  /*  ...%....  */
0x10,  /*  ...%....  */
0x90,  /*  %..%....  */
0x60,  /*  .%%.....  */
0x00,  /*  ........  */
0x00   /*  ........  */
}}
,

/* Element 0x003B - Char 0x004B */
{{6, 10},{
0x88,  /*  %...%...  */
0x90,  /*  %..%....  */
0xA0,  /*  %.%.....  */
0xC0,  /*  %%......  */
0xC0,  /*  %%......  */
0xA0,  /*  %.%.....  */
0x90,  /*  %..%....  */
0x88,  /*  %...%...  */
0x00,  /*  ........  */
0x00   /*  ........  */
}}
,

/* Element 0x003C - Char 0x004C */
{{5, 10},{
0x80,  /*  %.......  */
0x80,  /*  %.......  */
0x80,  /*  %.......  */
0x80,  /*  %.......  */
0x80,  /*  %.......  */
0x80,  /*  %.......  */
0x80,  /*  %.......  */
0xF0,  /*  %%%%....  */
0x00,  /*  ........  */
0x00   /*  ........  */
}}
,

/* Element 0x003D - Char 0x004D */
{{8, 10},{
0x82,  /*  %.....%.  */
0xC6,  /*  %%...%%.  */
0xC6,  /*  %%...%%.  */
0xAA,  /*  %.%.%.%.  */
0xAA,  /*  %.%.%.%.  */
0x92,  /*  %..%..%.  */
0x92,  /*  %..%..%.  */
0x82,  /*  %.....%.  */
0x00,  /*  ........  */
0x00   /*  ........  */
}}
,

/* Element 0x003E - Char 0x004E */
{{6, 10},{
0x88,  /*  %...%...  */
0xC8,  /*  %%..%...  */
0xC8,  /*  %%..%...  */
0xA8,  /*  %.%.%...  */
0xA8,  /*  %.%.%...  */
0x98,  /*  %..%%...  */
0x98,  /*  %..%%...  */
0x88,  /*  %...%...  */
0x00,  /*  ........  */
0x00   /*  ........  */
}}
,

/* Element 0x003F - Char 0x004F */
{{6, 10},{
0x70,  /*  .%%%....  */
0x88,  /*  %...%...  */
0x88,  /*  %...%...  */
0x88,  /*  %...%...  */
0x88,  /*  %...%...  */
0x88,  /*  %...%...  */
0x88,  /*  %...%...  */
0x70,  /*  .%%%....  */
0x00,  /*  ........  */
0x00   /*  ........  */
}}
,

/* Element 0x0040 - Char 0x0050 */
{{5, 10},{
0xE0,  /*  %%%.....  */
0x90,  /*  %..%....  */
0x90,  /*  %..%....  */
0x90,  /*  %..%....  */
0xE0,  /*  %%%.....  */
0x80,  /*  %.......  */
0x80,  /*  %.......  */
0x80,  /*  %.......  */
0x00,  /*  ........  */
0x00   /*  ........  */
}}
,

/* Element 0x0041 - Char 0x0051 */
{{6, 10},{
0x70,  /*  .%%%....  */
0x88,  /*  %...%...  */
0x88,  /*  %...%...  */
0x88,  /*  %...%...  */
0x88,  /*  %...%...  */
0x88,  /*  %...%...  */
0x98,  /*  %..%%...  */
0x70,  /*  .%%%....  */
0x08,  /*  ....%...  */
0x00   /*  ........  */
}}
,

/* Element 0x0042 - Char 0x0052 */
{{6, 10},{
0xF0,  /*  %%%%....  */
0x88,  /*  %...%...  */
0x88,  /*  %...%...  */
0x88,  /*  %...%...  */
0xF0,  /*  %%%%....  */
0x88,  /*  %...%...  */
0x88,  /*  %...%...  */
0x88,  /*  %...%...  */
0x00,  /*  ........  */
0x00   /*  ........  */
}}
,

/* Element 0x0043 - Char 0x0053 */
{{5, 10},{
0x60,  /*  .%%.....  */
0x90,  /*  %..%....  */
0x80,  /*  %.......  */
0x40,  /*  .%......  */
0x20,  /*  ..%.....  */
0x10,  /*  ...%....  */
0x90,  /*  %..%....  */
0x60,  /*  .%%.....  */
0x00,  /*  ........  */
0x00   /*  ........  */
}}
,

/* Element 0x0044 - Char 0x0054 */
{{6, 10},{
0xF8,  /*  %%%%%...  */
0x20,  /*  ..%.....  */
0x20,  /*  ..%.....  */
0x20,  /*  ..%.....  */
0x20,  /*  ..%.....  */
0x20,  /*  ..%.....  */
0x20,  /*  ..%.....  */
0x20,  /*  ..%.....  */
0x00,  /*  ........  */
0x00   /*  ........  */
}}
,

/* Element 0x0045 - Char 0x0055 */
{{6, 10},{
0x88,  /*  %...%...  */
0x88,  /*  %...%...  */
0x88,  /*  %...%...  */
0x88,  /*  %...%...  */
0x88,  /*  %...%...  */
0x88,  /*  %...%...  */
0x88,  /*  %...%...  */
0x70,  /*  .%%%....  */
0x00,  /*  ........  */
0x00   /*  ........  */
}}
,

/* Element 0x0046 - Char 0x0056 */
{{6, 10},{
0x88,  /*  %...%...  */
0x88,  /*  %...%...  */
0x88,  /*  %...%...  */
0x50,  /*  .%.%....  */
0x50,  /*  .%.%....  */
0x50,  /*  .%.%....  */
0x20,  /*  ..%.....  */
0x20,  /*  ..%.....  */
0x00,  /*  ........  */
0x00   /*  ........  */
}}
,

/* Element 0x0047 - Char 0x0057 */
{{8, 10},{
0x82,  /*  %.....%.  */
0x92,  /*  %..%..%.  */
0x92,  /*  %..%..%.  */
0xAA,  /*  %.%.%.%.  */
0x6C,  /*  .%%.%%..  */
0x44,  /*  .%...%..  */
0x44,  /*  .%...%..  */
0x44,  /*  .%...%..  */
0x00,  /*  ........  */
0x00   /*  ........  */
}}
,

/* Element 0x0048 - Char 0x0058 */
{{5, 10},{
0x90,  /*  %..%....  */
0x90,  /*  %..%....  */
0x60,  /*  .%%.....  */
0x60,  /*  .%%.....  */
0x60,  /*  .%%.....  */
0x90,  /*  %..%....  */
0x90,  /*  %..%....  */
0x90,  /*  %..%....  */
0x00,  /*  ........  */
0x00   /*  ........  */
}}
,

/* Element 0x0049 - Char 0x0059 */
{{6, 10},{
0x88,  /*  %...%...  */
0x88,  /*  %...%...  */
0x88,  /*  %...%...  */
0x50,  /*  .%.%....  */
0x70,  /*  .%%%....  */
0x20,  /*  ..%.....  */
0x20,  /*  ..%.....  */
0x20,  /*  ..%.....  */
0x00,  /*  ........  */
0x00   /*  ........  */
}}
,

/* Element 0x004A - Char 0x005A */
{{5, 10},{
0xF0,  /*  %%%%....  */
0x10,  /*  ...%....  */
0x20,  /*  ..%.....  */
0x20,  /*  ..%.....  */
0x40,  /*  .%......  */
0x40,  /*  .%......  */
0x80,  /*  %.......  */
0xF0,  /*  %%%%....  */
0x00,  /*  ........  */
0x00   /*  ........  */
}}
,

/* Element 0x004B - Char 0x005B */
{{3, 10},{
0xC0,  /*  %%......  */
0x80,  /*  %.......  */
0x80,  /*  %.......  */
0x80,  /*  %.......  */
0x80,  /*  %.......  */
0x80,  /*  %.......  */
0x80,  /*  %.......  */
0x80,  /*  %.......  */
0xC0,  /*  %%......  */
0x00   /*  ........  */
}}
,

/* Element 0x004C - Char 0x005C */
{{2, 10},{
0x80,  /*  %.......  */
0x80,  /*  %.......  */
0x80,  /*  %.......  */
0x00,  /*  ........  */
0x00,  /*  ........  */
0x80,  /*  %.......  */
0x80,  /*  %.......  */
0x80,  /*  %.......  */
0x00,  /*  ........  */
0x00   /*  ........  */
}}
,

/* Element 0x004D - Char 0x005D */
{{3, 10},{
0xC0,  /*  %%......  */
0x40,  /*  .%......  */
0x40,  /*  .%......  */
0x40,  /*  .%......  */
0x40,  /*  .%......  */
0x40,  /*  .%......  */
0x40,  /*  .%......  */
0x40,  /*  .%......  */
0xC0,  /*  %%......  */
0x00   /*  ........  */
}}
,

/* Element 0x004E - Char 0x005E */
{{4, 10},{
0x40,  /*  .%......  */
0xA0,  /*  %.%.....  */
0x00,  /*  ........  */
0x00,  /*  ........  */
0x00,  /*  ........  */
0x00,  /*  ........  */
0x00,  /*  ........  */
0x00,  /*  ........  */
0x00,  /*  ........  */
0x00   /*  ........  */
}}
,

/* Element 0x004F - Char 0x005F */
{{5, 10},{
0x00,  /*  ........  */
0x00,  /*  ........  */
0x00,  /*  ........  */
0x00,  /*  ........  */
0x00,  /*  ........  */
0x00,  /*  ........  */
0x00,  /*  ........  */
0x00,  /*  ........  */
0xF8,  /*  %%%%%...  */
0x00   /*  ........  */
}}
,

/* Element 0x0050 - Char 0x0060 */
{{3, 10},{
0x80,  /*  %.......  */
0x40,  /*  .%......  */
0x00,  /*  ........  */
0x00,  /*  ........  */
0x00,  /*  ........  */
0x00,  /*  ........  */
0x00,  /*  ........  */
0x00,  /*  ........  */
0x00,  /*  ........  */
0x00   /*  ........  */
}}
,

/* Element 0x0051 - Char 0x0061 */
{{5, 10},{
0x00,  /*  ........  */
0x00,  /*  ........  */
0x60,  /*  .%%.....  */
0x10,  /*  ...%....  */
0x70,  /*  .%%%....  */
0x90,  /*  %..%....  */
0x90,  /*  %..%....  */
0x70,  /*  .%%%....  */
0x00,  /*  ........  */
0x00   /*  ........  */
}}
,

/* Element 0x0052 - Char 0x0062 */
{{6, 10},{
0x40,  /*  .%......  */
0x40,  /*  .%......  */
0x70,  /*  .%%%....  */
0x48,  /*  .%..%...  */
0x48,  /*  .%..%...  */
0x48,  /*  .%..%...  */
0x48,  /*  .%..%...  */
0x70,  /*  .%%%....  */
0x00,  /*  ........  */
0x00   /*  ........  */
}}
,

/* Element 0x0053 - Char 0x0063 */
{{5, 10},{
0x00,  /*  ........  */
0x00,  /*  ........  */
0x60,  /*  .%%.....  */
0x90,  /*  %..%....  */
0x80,  /*  %.......  */
0x80,  /*  %.......  */
0x90,  /*  %..%....  */
0x60,  /*  .%%.....  */
0x00,  /*  ........  */
0x00   /*  ........  */
}}
,

/* Element 0x0054 - Char 0x0064 */
{{5, 10},{
0x10,  /*  ...%....  */
0x10,  /*  ...%....  */
0x70,  /*  .%%%....  */
0x90,  /*  %..%....  */
0x90,  /*  %..%....  */
0x90,  /*  %..%....  */
0x90,  /*  %..%....  */
0x70,  /*  .%%%....  */
0x00,  /*  ........  */
0x00   /*  ........  */
}}
,

/* Element 0x0055 - Char 0x0065 */
{{5, 10},{
0x00,  /*  ........  */
0x00,  /*  ........  */
0x60,  /*  .%%.....  */
0x90,  /*  %..%....  */
0xF0,  /*  %%%%....  */
0x80,  /*  %.......  */
0x90,  /*  %..%....  */
0x60,  /*  .%%.....  */
0x00,  /*  ........  */
0x00   /*  ........  */
}}
,

/* Element 0x0056 - Char 0x0066 */
{{4, 10},{
0x20,  /*  ..%.....  */
0x40,  /*  .%......  */
0xE0,  /*  %%%.....  */
0x40,  /*  .%......  */
0x40,  /*  .%......  */
0x40,  /*  .%......  */
0x40,  /*  .%......  */
0x40,  /*  .%......  */
0x00,  /*  ........  */
0x00   /*  ........  */
}}
,

/* Element 0x0057 - Char 0x0067 */
{{5, 10},{
0x00,  /*  ........  */
0x00,  /*  ........  */
0x70,  /*  .%%%....  */
0x90,  /*  %..%....  */
0x90,  /*  %..%....  */
0x90,  /*  %..%....  */
0x90,  /*  %..%....  */
0x70,  /*  .%%%....  */
0x10,  /*  ...%....  */
0x60   /*  .%%.....  */
}}
,

/* Element 0x0058 - Char 0x0068 */
{{5, 10},{
0x80,  /*  %.......  */
0x80,  /*  %.......  */
0xE0,  /*  %%%.....  */
0x90,  /*  %..%....  */
0x90,  /*  %..%....  */
0x90,  /*  %..%....  */
0x90,  /*  %..%....  */
0x90,  /*  %..%....  */
0x00,  /*  ........  */
0x00   /*  ........  */
}}
,

/* Element 0x0059 - Char 0x0069 */
{{2, 10},{
0x80,  /*  %.......  */
0x00,  /*  ........  */
0x80,  /*  %.......  */
0x80,  /*  %.......  */
0x80,  /*  %.......  */
0x80,  /*  %.......  */
0x80,  /*  %.......  */
0x80,  /*  %.......  */
0x00,  /*  ........  */
0x00   /*  ........  */
}}
,

/* Element 0x005A - Char 0x006A */
{{3, 10},{
0x40,  /*  .%......  */
0x00,  /*  ........  */
0x40,  /*  .%......  */
0x40,  /*  .%......  */
0x40,  /*  .%......  */
0x40,  /*  .%......  */
0x40,  /*  .%......  */
0x40,  /*  .%......  */
0x40,  /*  .%......  */
0x80   /*  %.......  */
}}
,

/* Element 0x005B - Char 0x006B */
{{4, 10},{
0x80,  /*  %.......  */
0x80,  /*  %.......  */
0xA0,  /*  %.%.....  */
0xA0,  /*  %.%.....  */
0xC0,  /*  %%......  */
0xC0,  /*  %%......  */
0xA0,  /*  %.%.....  */
0xA0,  /*  %.%.....  */
0x00,  /*  ........  */
0x00   /*  ........  */
}}
,

/* Element 0x005C - Char 0x006C */
{{2, 10},{
0x80,  /*  %.......  */
0x80,  /*  %.......  */
0x80,  /*  %.......  */
0x80,  /*  %.......  */
0x80,  /*  %.......  */
0x80,  /*  %.......  */
0x80,  /*  %.......  */
0x80,  /*  %.......  */
0x00,  /*  ........  */
0x00   /*  ........  */
}}
,

/* Element 0x005D - Char 0x006D */
{{8, 10},{
0x00,  /*  ........  */
0x00,  /*  ........  */
0xEC,  /*  %%%.%%..  */
0x92,  /*  %..%..%.  */
0x92,  /*  %..%..%.  */
0x92,  /*  %..%..%.  */
0x92,  /*  %..%..%.  */
0x92,  /*  %..%..%.  */
0x00,  /*  ........  */
0x00   /*  ........  */
}}
,

/* Element 0x005E - Char 0x006E */
{{5, 10},{
0x00,  /*  ........  */
0x00,  /*  ........  */
0xE0,  /*  %%%.....  */
0x90,  /*  %..%....  */
0x90,  /*  %..%....  */
0x90,  /*  %..%....  */
0x90,  /*  %..%....  */
0x90,  /*  %..%....  */
0x00,  /*  ........  */
0x00   /*  ........  */
}}
,

/* Element 0x005F - Char 0x006F */
{{5, 10},{
0x00,  /*  ........  */
0x00,  /*  ........  */
0x60,  /*  .%%.....  */
0x90,  /*  %..%....  */
0x90,  /*  %..%....  */
0x90,  /*  %..%....  */
0x90,  /*  %..%....  */
0x60,  /*  .%%.....  */
0x00,  /*  ........  */
0x00   /*  ........  */
}}
,

/* Element 0x0060 - Char 0x0070 */
{{5, 10},{
0x00,  /*  ........  */
0x00,  /*  ........  */
0xE0,  /*  %%%.....  */
0x90,  /*  %..%....  */
0x90,  /*  %..%....  */
0x90,  /*  %..%....  */
0x90,  /*  %..%....  */
0xE0,  /*  %%%.....  */
0x80,  /*  %.......  */
0x80   /*  %.......  */
}}
,

/* Element 0x0061 - Char 0x0071 */
{{5, 10},{
0x00,  /*  ........  */
0x00,  /*  ........  */
0x70,  /*  .%%%....  */
0x90,  /*  %..%....  */
0x90,  /*  %..%....  */
0x90,  /*  %..%....  */
0x90,  /*  %..%....  */
0x70,  /*  .%%%....  */
0x10,  /*  ...%....  */
0x10   /*  ...%....  */
}}
,

/* Element 0x0062 - Char 0x0072 */
{{3, 10},{
0x00,  /*  ........  */
0x00,  /*  ........  */
0xC0,  /*  %%......  */
0x80,  /*  %.......  */
0x80,  /*  %.......  */
0x80,  /*  %.......  */
0x80,  /*  %.......  */
0x80,  /*  %.......  */
0x00,  /*  ........  */
0x00   /*  ........  */
}}
,

/* Element 0x0063 - Char 0x0073 */
{{4, 10},{
0x00,  /*  ........  */
0x00,  /*  ........  */
0x60,  /*  .%%.....  */
0x80,  /*  %.......  */
0xC0,  /*  %%......  */
0x60,  /*  .%%.....  */
0x20,  /*  ..%.....  */
0xC0,  /*  %%......  */
0x00,  /*  ........  */
0x00   /*  ........  */
}}
,

/* Element 0x0064 - Char 0x0074 */
{{4, 10},{
0x00,  /*  ........  */
0x40,  /*  .%......  */
0xE0,  /*  %%%.....  */
0x40,  /*  .%......  */
0x40,  /*  .%......  */
0x40,  /*  .%......  */
0x40,  /*  .%......  */
0x20,  /*  ..%.....  */
0x00,  /*  ........  */
0x00   /*  ........  */
}}
,

/* Element 0x0065 - Char 0x0075 */
{{5, 10},{
0x00,  /*  ........  */
0x00,  /*  ........  */
0x90,  /*  %..%....  */
0x90,  /*  %..%....  */
0x90,  /*  %..%....  */
0x90,  /*  %..%....  */
0x90,  /*  %..%....  */
0x70,  /*  .%%%....  */
0x00,  /*  ........  */
0x00   /*  ........  */
}}
,

/* Element 0x0066 - Char 0x0076 */
{{6, 10},{
0x00,  /*  ........  */
0x00,  /*  ........  */
0x88,  /*  %...%...  */
0x88,  /*  %...%...  */
0x50,  /*  .%.%....  */
0x50,  /*  .%.%....  */
0x20,  /*  ..%.....  */
0x20,  /*  ..%.....  */
0x00,  /*  ........  */
0x00   /*  ........  */
}}
,

/* Element 0x0067 - Char 0x0077 */
{{6, 10},{
0x00,  /*  ........  */
0x00,  /*  ........  */
0x88,  /*  %...%...  */
0xA8,  /*  %.%.%...  */
0xA8,  /*  %.%.%...  */
0xA8,  /*  %.%.%...  */
0x50,  /*  .%.%....  */
0x50,  /*  .%.%....  */
0x00,  /*  ........  */
0x00   /*  ........  */
}}
,

/* Element 0x0068 - Char 0x0078 */
{{5, 10},{
0x00,  /*  ........  */
0x00,  /*  ........  */
0x90,  /*  %..%....  */
0x90,  /*  %..%....  */
0x60,  /*  .%%.....  */
0x60,  /*  .%%.....  */
0x90,  /*  %..%....  */
0x90,  /*  %..%....  */
0x00,  /*  ........  */
0x00   /*  ........  */
}}
,

/* Element 0x0069 - Char 0x0079 */
{{6, 10},{
0x00,  /*  ........  */
0x00,  /*  ........  */
0x88,  /*  %...%...  */
0x88,  /*  %...%...  */
0x50,  /*  .%.%....  */
0x50,  /*  .%.%....  */
0x20,  /*  ..%.....  */
0x20,  /*  ..%.....  */
0x20,  /*  ..%.....  */
0x40   /*  .%......  */
}}
,

/* Element 0x006A - Char 0x007A */
{{4, 10},{
0x00,  /*  ........  */
0x00,  /*  ........  */
0xE0,  /*  %%%.....  */
0x20,  /*  ..%.....  */
0x40,  /*  .%......  */
0x40,  /*  .%......  */
0x80,  /*  %.......  */
0xE0,  /*  %%%.....  */
0x00,  /*  ........  */
0x00   /*  ........  */
}}
,

/* Element 0x006B - Char 0x007B */
{{4, 10},{
0x20,  /*  ..%.....  */
0x40,  /*  .%......  */
0x40,  /*  .%......  */
0x40,  /*  .%......  */
0x80,  /*  %.......  */
0x40,  /*  .%......  */
0x40,  /*  .%......  */
0x40,  /*  .%......  */
0x20,  /*  ..%.....  */
0x00   /*  ........  */
}}
,

/* Element 0x006C - Char 0x007C */
{{5, 10},{
0x40,  /*  .%......  */
0x40,  /*  .%......  */
0x20,  /*  ..%.....  */
0x20,  /*  ..%.....  */
0x10,  /*  ...%....  */
0x10,  /*  ...%....  */
0x08,  /*  ....%...  */
0x08,  /*  ....%...  */
0x00,  /*  ........  */
0x00   /*  ........  */
}}
,

/* Element 0x006D - Char 0x007D */
{{4, 10},{
0x80,  /*  %.......  */
0x40,  /*  .%......  */
0x40,  /*  .%......  */
0x40,  /*  .%......  */
0x20,  /*  ..%.....  */
0x40,  /*  .%......  */
0x40,  /*  .%......  */
0x40,  /*  .%......  */
0x80,  /*  %.......  */
0x00   /*  ........  */
}}
,

/* Element 0x006E - Char 0x007E */
{{5, 10},{
0x50,  /*  .%.%....  */
0xA0,  /*  %.%.....  */
0x00,  /*  ........  */
0x00,  /*  ........  */
0x00,  /*  ........  */
0x00,  /*  ........  */
0x00,  /*  ........  */
0x00,  /*  ........  */
0x00,  /*  ........  */
0x00   /*  ........  */
}}
,

/* Element 0x006F - Char 0x007F */
{{8, 10},{
0x00,  /*  ........  */
0x00,  /*  ........  */
0x00,  /*  ........  */
0x00,  /*  ........  */
0x00,  /*  ........  */
0x00,  /*  ........  */
0x00,  /*  ........  */
0x00,  /*  ........  */
0x00,  /*  ........  */
0x00   /*  ........  */
}}

