/*Y 8 8 10 32  CP<narrow10_w.cp> . narrow10_w[240]={  narrow10_w.sym   LCDIcon FileDescriptor: Do not edit or move */
/* Sym 0x0000 - Char 0x0010 */
/* Sym 0x0001 - Char 0x0011 */
/* Sym 0x0002 - Char 0x0012 */
/* Sym 0x0003 - Char 0x0013 */
/* Sym 0x0004 - Char 0x0014 */
/* Sym 0x0005 - Char 0x0015 */
/* Sym 0x0006 - Char 0x0016 */
/* Sym 0x0007 - Char 0x0017 */
/* Sym 0x0008 - Char 0x0018 */
/* Sym 0x0009 - Char 0x0019 */
/* Sym 0x000A - Char 0x001A */
/* Sym 0x000B - Char 0x001B */
/* Sym 0x000C - Char 0x001C */
/* Sym 0x000D - Char 0x001D */
/* Sym 0x000E - Char 0x001E */
/* Sym 0x000F - Char 0x001F */
/* Sym 0x0010 - Char 0x0020 */
/* Sym 0x0011 - Char 0x0021 */
/* Sym 0x0012 - Char 0x0022 */
/* Sym 0x0013 - Char 0x0023 */
/* Sym 0x0014 - Char 0x0024 */

/* Element 0x0000 - Char 0x0010 */
{{5, 10},{
0x00,  /*  ........  */
0x00,  /*  ........  */
0x00,  /*  ........  */
0x00,  /*  ........  */
0x00,  /*  ........  */
0x00,  /*  ........  */
0x00,  /*  ........  */
0x00,  /*  ........  */
0x00,  /*  ........  */
0x00   /*  ........  */
}}
,

/* Element 0x0001 - Char 0x0011 */
{{5, 10},{
0x00,  /*  ........  */
0x00,  /*  ........  */
0x00,  /*  ........  */
0x00,  /*  ........  */
0x00,  /*  ........  */
0x00,  /*  ........  */
0x00,  /*  ........  */
0x00,  /*  ........  */
0x00,  /*  ........  */
0x00   /*  ........  */
}}
,

/* Element 0x0002 - Char 0x0012 */
{{5, 10},{
0x00,  /*  ........  */
0x00,  /*  ........  */
0x00,  /*  ........  */
0x00,  /*  ........  */
0x00,  /*  ........  */
0x00,  /*  ........  */
0x00,  /*  ........  */
0x00,  /*  ........  */
0x00,  /*  ........  */
0x00   /*  ........  */
}}
,

/* Element 0x0003 - Char 0x0013 */
{{5, 10},{
0x00,  /*  ........  */
0x00,  /*  ........  */
0x00,  /*  ........  */
0x00,  /*  ........  */
0x00,  /*  ........  */
0x00,  /*  ........  */
0x00,  /*  ........  */
0x00,  /*  ........  */
0x00,  /*  ........  */
0x00   /*  ........  */
}}
,

/* Element 0x0004 - Char 0x0014 */
{{5, 10},{
0x00,  /*  ........  */
0x00,  /*  ........  */
0x00,  /*  ........  */
0x00,  /*  ........  */
0x00,  /*  ........  */
0x00,  /*  ........  */
0x00,  /*  ........  */
0x00,  /*  ........  */
0x00,  /*  ........  */
0x00   /*  ........  */
}}
,

/* Element 0x0005 - Char 0x0015 */
{{5, 10},{
0x00,  /*  ........  */
0x00,  /*  ........  */
0x00,  /*  ........  */
0x00,  /*  ........  */
0x00,  /*  ........  */
0x00,  /*  ........  */
0x00,  /*  ........  */
0x00,  /*  ........  */
0x00,  /*  ........  */
0x00   /*  ........  */
}}
,

/* Element 0x0006 - Char 0x0016 */
{{5, 10},{
0x00,  /*  ........  */
0x00,  /*  ........  */
0x00,  /*  ........  */
0x00,  /*  ........  */
0x00,  /*  ........  */
0x00,  /*  ........  */
0x00,  /*  ........  */
0x00,  /*  ........  */
0x00,  /*  ........  */
0x00   /*  ........  */
}}
,

/* Element 0x0007 - Char 0x0017 */
{{7, 10},{
0x00,  /*  ........  */
0x04,  /*  .....%..  */
0x0C,  /*  ....%%..  */
0x08,  /*  ....%...  */
0x98,  /*  %..%%...  */
0xD0,  /*  %%.%....  */
0x70,  /*  .%%%....  */
0x20,  /*  ..%.....  */
0x00,  /*  ........  */
0x00   /*  ........  */
}}
,

/* Element 0x0008 - Char 0x0018 */
{{8, 10},{
0x04,  /*  .....%..  */
0x0E,  /*  ....%%%.  */
0x1F,  /*  ...%%%%%  */
0x04,  /*  .....%..  */
0x04,  /*  .....%..  */
0xFC,  /*  %%%%%%..  */
0x00,  /*  ........  */
0x00,  /*  ........  */
0x00,  /*  ........  */
0x00   /*  ........  */
}}
,

/* Element 0x0009 - Char 0x0019 */
{{8, 10},{
0x00,  /*  ........  */
0x12,  /*  ...%..%.  */
0x32,  /*  ..%%..%.  */
0x7E,  /*  .%%%%%%.  */
0xFE,  /*  %%%%%%%.  */
0x7E,  /*  .%%%%%%.  */
0x30,  /*  ..%%....  */
0x10,  /*  ...%....  */
0x00,  /*  ........  */
0x00   /*  ........  */
}}
,

/* Element 0x000A - Char 0x001A */
{{6, 10},{
0x00,  /*  ........  */
0x88,  /*  %...%...  */
0xC8,  /*  %%..%...  */
0xE8,  /*  %%%.%...  */
0xF8,  /*  %%%%%...  */
0xE8,  /*  %%%.%...  */
0xC8,  /*  %%..%...  */
0x88,  /*  %...%...  */
0x00,  /*  ........  */
0x00   /*  ........  */
}}
,

/* Element 0x000B - Char 0x001B */
{{6, 10},{
0x00,  /*  ........  */
0x88,  /*  %...%...  */
0x98,  /*  %..%%...  */
0xB8,  /*  %.%%%...  */
0xF8,  /*  %%%%%...  */
0xB8,  /*  %.%%%...  */
0x98,  /*  %..%%...  */
0x88,  /*  %...%...  */
0x00,  /*  ........  */
0x00   /*  ........  */
}}
,

/* Element 0x000C - Char 0x001C */
{{8, 10},{
0x00,  /*  ........  */
0x00,  /*  ........  */
0x00,  /*  ........  */
0xFE,  /*  %%%%%%%.  */
0x7C,  /*  .%%%%%..  */
0x38,  /*  ..%%%...  */
0x10,  /*  ...%....  */
0x00,  /*  ........  */
0x00,  /*  ........  */
0x00   /*  ........  */
}}
,

/* Element 0x000D - Char 0x001D */
{{8, 10},{
0x00,  /*  ........  */
0x00,  /*  ........  */
0x10,  /*  ...%....  */
0x38,  /*  ..%%%...  */
0x7C,  /*  .%%%%%..  */
0xFE,  /*  %%%%%%%.  */
0x00,  /*  ........  */
0x00,  /*  ........  */
0x00,  /*  ........  */
0x00   /*  ........  */
}}
,

/* Element 0x000E - Char 0x001E */
{{5, 10},{
0x00,  /*  ........  */
0x10,  /*  ...%....  */
0x30,  /*  ..%%....  */
0x70,  /*  .%%%....  */
0xF0,  /*  %%%%....  */
0x70,  /*  .%%%....  */
0x30,  /*  ..%%....  */
0x10,  /*  ...%....  */
0x00,  /*  ........  */
0x00   /*  ........  */
}}
,

/* Element 0x000F - Char 0x001F */
{{5, 10},{
0x00,  /*  ........  */
0x80,  /*  %.......  */
0xC0,  /*  %%......  */
0xE0,  /*  %%%.....  */
0xF0,  /*  %%%%....  */
0xE0,  /*  %%%.....  */
0xC0,  /*  %%......  */
0x80,  /*  %.......  */
0x00,  /*  ........  */
0x00   /*  ........  */
}}
,

/* Element 0x0010 - Char 0x0020 */
{{3, 10},{
0x00,  /*  ........  */
0x00,  /*  ........  */
0x00,  /*  ........  */
0x00,  /*  ........  */
0x00,  /*  ........  */
0x00,  /*  ........  */
0x00,  /*  ........  */
0x00,  /*  ........  */
0x00,  /*  ........  */
0x00   /*  ........  */
}}
,

/* Element 0x0011 - Char 0x0021 */
{{2, 10},{
0x80,  /*  %.......  */
0x80,  /*  %.......  */
0x80,  /*  %.......  */
0x80,  /*  %.......  */
0x80,  /*  %.......  */
0x00,  /*  ........  */
0x80,  /*  %.......  */
0x80,  /*  %.......  */
0x00,  /*  ........  */
0x00   /*  ........  */
}}
,

/* Element 0x0012 - Char 0x0022 */
{{4, 10},{
0xA0,  /*  %.%.....  */
0xA0,  /*  %.%.....  */
0xA0,  /*  %.%.....  */
0x00,  /*  ........  */
0x00,  /*  ........  */
0x00,  /*  ........  */
0x00,  /*  ........  */
0x00,  /*  ........  */
0x00,  /*  ........  */
0x00   /*  ........  */
}}
,

/* Element 0x0013 - Char 0x0023 */
{{6, 10},{
0x00,  /*  ........  */
0x00,  /*  ........  */
0x50,  /*  .%.%....  */
0xF8,  /*  %%%%%...  */
0x50,  /*  .%.%....  */
0x50,  /*  .%.%....  */
0xF8,  /*  %%%%%...  */
0x50,  /*  .%.%....  */
0x00,  /*  ........  */
0x00   /*  ........  */
}}
,

/* Element 0x0014 - Char 0x0024 */
{{6, 10},{
0x70,  /*  .%%%....  */
0xA8,  /*  %.%.%...  */
0xA0,  /*  %.%.....  */
0x60,  /*  .%%.....  */
0x30,  /*  ..%%....  */
0x28,  /*  ..%.%...  */
0xA8,  /*  %.%.%...  */
0x70,  /*  .%%%....  */
0x20,  /*  ..%.....  */
0x00   /*  ........  */
}}
,

/* Element 0x0015 - Char 0x0025 */
{{7, 10},{
0x48,  /*  .%..%...  */
0xA8,  /*  %.%.%...  */
0x50,  /*  .%.%....  */
0x10,  /*  ...%....  */
0x20,  /*  ..%.....  */
0x28,  /*  ..%.%...  */
0x54,  /*  .%.%.%..  */
0x48,  /*  .%..%...  */
0x00,  /*  ........  */
0x00   /*  ........  */
}}
,

/* Element 0x0016 - Char 0x0026 */
{{6, 10},{
0x40,  /*  .%......  */
0xA0,  /*  %.%.....  */
0xA0,  /*  %.%.....  */
0x40,  /*  .%......  */
0xA8,  /*  %.%.%...  */
0xB0,  /*  %.%%....  */
0x98,  /*  %..%%...  */
0x68,  /*  .%%.%...  */
0x00,  /*  ........  */
0x00   /*  ........  */
}}
,

/* Element 0x0017 - Char 0x0027 */
{{3, 10},{
0x40,  /*  .%......  */
0x80,  /*  %.......  */
0x00,  /*  ........  */
0x00,  /*  ........  */
0x00,  /*  ........  */
0x00,  /*  ........  */
0x00,  /*  ........  */
0x00,  /*  ........  */
0x00,  /*  ........  */
0x00   /*  ........  */
}}
,

/* Element 0x0018 - Char 0x0028 */
{{4, 10},{
0x20,  /*  ..%.....  */
0x40,  /*  .%......  */
0x40,  /*  .%......  */
0x80,  /*  %.......  */
0x80,  /*  %.......  */
0x80,  /*  %.......  */
0x80,  /*  %.......  */
0x40,  /*  .%......  */
0x40,  /*  .%......  */
0x20   /*  ..%.....  */
}}
,

/* Element 0x0019 - Char 0x0029 */
{{4, 10},{
0x80,  /*  %.......  */
0x40,  /*  .%......  */
0x40,  /*  .%......  */
0x20,  /*  ..%.....  */
0x20,  /*  ..%.....  */
0x20,  /*  ..%.....  */
0x20,  /*  ..%.....  */
0x40,  /*  .%......  */
0x40,  /*  .%......  */
0x80   /*  %.......  */
}}
,

/* Element 0x001A - Char 0x002A */
{{6, 10},{
0x00,  /*  ........  */
0x00,  /*  ........  */
0x50,  /*  .%.%....  */
0x20,  /*  ..%.....  */
0xF8,  /*  %%%%%...  */
0x20,  /*  ..%.....  */
0x50,  /*  .%.%....  */
0x00,  /*  ........  */
0x00,  /*  ........  */
0x00   /*  ........  */
}}
,

/* Element 0x001B - Char 0x002B */
{{6, 10},{
0x00,  /*  ........  */
0x00,  /*  ........  */
0x20,  /*  ..%.....  */
0x20,  /*  ..%.....  */
0xF8,  /*  %%%%%...  */
0x20,  /*  ..%.....  */
0x20,  /*  ..%.....  */
0x00,  /*  ........  */
0x00,  /*  ........  */
0x00   /*  ........  */
}}
,

/* Element 0x001C - Char 0x002C */
{{3, 10},{
0x00,  /*  ........  */
0x00,  /*  ........  */
0x00,  /*  ........  */
0x00,  /*  ........  */
0x00,  /*  ........  */
0x00,  /*  ........  */
0x00,  /*  ........  */
0x40,  /*  .%......  */
0x40,  /*  .%......  */
0x80   /*  %.......  */
}}
,

/* Element 0x001D - Char 0x002D */
{{6, 10},{
0x00,  /*  ........  */
0x00,  /*  ........  */
0x00,  /*  ........  */
0x00,  /*  ........  */
0xF8,  /*  %%%%%...  */
0x00,  /*  ........  */
0x00,  /*  ........  */
0x00,  /*  ........  */
0x00,  /*  ........  */
0x00   /*  ........  */
}}
,

/* Element 0x001E - Char 0x002E */
{{2, 10},{
0x00,  /*  ........  */
0x00,  /*  ........  */
0x00,  /*  ........  */
0x00,  /*  ........  */
0x00,  /*  ........  */
0x00,  /*  ........  */
0x80,  /*  %.......  */
0x80,  /*  %.......  */
0x00,  /*  ........  */
0x00   /*  ........  */
}}
,

/* Element 0x001F - Char 0x002F */
{{5, 10},{
0x10,  /*  ...%....  */
0x10,  /*  ...%....  */
0x20,  /*  ..%.....  */
0x20,  /*  ..%.....  */
0x40,  /*  .%......  */
0x40,  /*  .%......  */
0x80,  /*  %.......  */
0x80,  /*  %.......  */
0x00,  /*  ........  */
0x00   /*  ........  */
}}
,

/* Element 0x0020 - Char 0x0030 */
{{5, 10},{
0x60,  /*  .%%.....  */
0x90,  /*  %..%....  */
0x90,  /*  %..%....  */
0x90,  /*  %..%....  */
0x90,  /*  %..%....  */
0x90,  /*  %..%....  */
0x90,  /*  %..%....  */
0x60,  /*  .%%.....  */
0x00,  /*  ........  */
0x00   /*  ........  */
}}
,

/* Element 0x0021 - Char 0x0031 */
{{4, 10},{
0x20,  /*  ..%.....  */
0xE0,  /*  %%%.....  */
0x20,  /*  ..%.....  */
0x20,  /*  ..%.....  */
0x20,  /*  ..%.....  */
0x20,  /*  ..%.....  */
0x20,  /*  ..%.....  */
0x20,  /*  ..%.....  */
0x00,  /*  ........  */
0x00   /*  ........  */
}}
,

/* Element 0x0022 - Char 0x0032 */
{{5, 10},{
0x60,  /*  .%%.....  */
0x90,  /*  %..%....  */
0x10,  /*  ...%....  */
0x10,  /*  ...%....  */
0x20,  /*  ..%.....  */
0x40,  /*  .%......  */
0x80,  /*  %.......  */
0xF0,  /*  %%%%....  */
0x00,  /*  ........  */
0x00   /*  ........  */
}}
,

/* Element 0x0023 - Char 0x0033 */
{{5, 10},{
0x60,  /*  .%%.....  */
0x90,  /*  %..%....  */
0x10,  /*  ...%....  */
0x60,  /*  .%%.....  */
0x10,  /*  ...%....  */
0x10,  /*  ...%....  */
0x90,  /*  %..%....  */
0x60,  /*  .%%.....  */
0x00,  /*  ........  */
0x00   /*  ........  */
}}
,

/* Element 0x0024 - Char 0x0034 */
{{5, 10},{
0x10,  /*  ...%....  */
0x30,  /*  ..%%....  */
0x50,  /*  .%.%....  */
0x50,  /*  .%.%....  */
0x90,  /*  %..%....  */
0xF0,  /*  %%%%....  */
0x10,  /*  ...%....  */
0x10,  /*  ...%....  */
0x00,  /*  ........  */
0x00   /*  ........  */
}}
,

/* Element 0x0025 - Char 0x0035 */
{{5, 10},{
0xF0,  /*  %%%%....  */
0x80,  /*  %.......  */
0x80,  /*  %.......  */
0xE0,  /*  %%%.....  */
0x10,  /*  ...%....  */
0x10,  /*  ...%....  */
0x90,  /*  %..%....  */
0x60,  /*  .%%.....  */
0x00,  /*  ........  */
0x00   /*  ........  */
}}
,

/* Element 0x0026 - Char 0x0036 */
{{5, 10},{
0x60,  /*  .%%.....  */
0x90,  /*  %..%....  */
0x80,  /*  %.......  */
0xE0,  /*  %%%.....  */
0x90,  /*  %..%....  */
0x90,  /*  %..%....  */
0x90,  /*  %..%....  */
0x60,  /*  .%%.....  */
0x00,  /*  ........  */
0x00   /*  ........  */
}}
,

/* Element 0x0027 - Char 0x0037 */
{{5, 10},{
0xF0,  /*  %%%%....  */
0x10,  /*  ...%....  */
0x20,  /*  ..%.....  */
0x20,  /*  ..%.....  */
0x40,  /*  .%......  */
0x40,  /*  .%......  */
0x40,  /*  .%......  */
0x00,  /*  ........  */
0x00,  /*  ........  */
0x00   /*  ........  */
}}
,

/* Element 0x0028 - Char 0x0038 */
{{5, 10},{
0x60,  /*  .%%.....  */
0x90,  /*  %..%....  */
0x90,  /*  %..%....  */
0x60,  /*  .%%.....  */
0x90,  /*  %..%....  */
0x90,  /*  %..%....  */
0x90,  /*  %..%....  */
0x60,  /*  .%%.....  */
0x00,  /*  ........  */
0x00   /*  ........  */
}}
,

/* Element 0x0029 - Char 0x0039 */
{{5, 10},{
0x60,  /*  .%%.....  */
0x90,  /*  %..%....  */
0x90,  /*  %..%....  */
0x70,  /*  .%%%....  */
0x10,  /*  ...%....  */
0x10,  /*  ...%....  */
0x90,  /*  %..%....  */
0x60,  /*  .%%.....  */
0x00,  /*  ........  */
0x00   /*  ........  */
}}
,

/* Element 0x002A - Char 0x003A */
{{2, 10},{
0x00,  /*  ........  */
0x00,  /*  ........  */
0x80,  /*  %.......  */
0x80,  /*  %.......  */
0x00,  /*  ........  */
0x00,  /*  ........  */
0x80,  /*  %.......  */
0x80,  /*  %.......  */
0x00,  /*  ........  */
0x00   /*  ........  */
}}
,

/* Element 0x002B - Char 0x003B */
{{3, 10},{
0x00,  /*  ........  */
0x00,  /*  ........  */
0x40,  /*  .%......  */
0x40,  /*  .%......  */
0x00,  /*  ........  */
0x00,  /*  ........  */
0x40,  /*  .%......  */
0x80,  /*  %.......  */
0x00,  /*  ........  */
0x00   /*  ........  */
}}
,

/* Element 0x002C - Char 0x003C */
{{6, 10},{
0x08,  /*  ....%...  */
0x10,  /*  ...%....  */
0x20,  /*  ..%.....  */
0x40,  /*  .%......  */
0x80,  /*  %.......  */
0x40,  /*  .%......  */
0x20,  /*  ..%.....  */
0x10,  /*  ...%....  */
0x08,  /*  ....%...  */
0x00   /*  ........  */
}}
,

/* Element 0x002D - Char 0x003D */
{{6, 10},{
0x00,  /*  ........  */
0x00,  /*  ........  */
0x00,  /*  ........  */
0xF8,  /*  %%%%%...  */
0x00,  /*  ........  */
0xF8,  /*  %%%%%...  */
0x00,  /*  ........  */
0x00,  /*  ........  */
0x00,  /*  ........  */
0x00   /*  ........  */
}}
,

/* Element 0x002E - Char 0x003E */
{{6, 10},{
0x80,  /*  %.......  */
0x40,  /*  .%......  */
0x20,  /*  ..%.....  */
0x10,  /*  ...%....  */
0x08,  /*  ....%...  */
0x10,  /*  ...%....  */
0x20,  /*  ..%.....  */
0x40,  /*  .%......  */
0x80,  /*  %.......  */
0x00   /*  ........  */
}}
,

/* Element 0x002F - Char 0x003F */
{{5, 10},{
0x60,  /*  .%%.....  */
0x90,  /*  %..%....  */
0x10,  /*  ...%....  */
0x20,  /*  ..%.....  */
0x40,  /*  .%......  */
0x00,  /*  ........  */
0x40,  /*  .%......  */
0x40,  /*  .%......  */
0x00,  /*  ........  */
0x00   /*  ........  */
}}
,

/* Element 0x0030 - Char 0x0040 */
{{7, 10},{
0x78,  /*  .%%%%...  */
0x84,  /*  %....%..  */
0xB4,  /*  %.%%.%..  */
0xCC,  /*  %%..%%..  */
0xCC,  /*  %%..%%..  */
0xB4,  /*  %.%%.%..  */
0x80,  /*  %.......  */
0x78,  /*  .%%%%...  */
0x00,  /*  ........  */
0x00   /*  ........  */
}}
,

/* Element 0x0031 - Char 0x0041 */
{{6, 10},{
0x20,  /*  ..%.....  */
0x20,  /*  ..%.....  */
0x50,  /*  .%.%....  */
0x50,  /*  .%.%....  */
0x50,  /*  .%.%....  */
0xF8,  /*  %%%%%...  */
0x88,  /*  %...%...  */
0x88,  /*  %...%...  */
0x00,  /*  ........  */
0x00   /*  ........  */
}}
,

/* Element 0x0032 - Char 0x0042 */
{{5, 10},{
0xE0,  /*  %%%.....  */
0x90,  /*  %..%....  */
0x90,  /*  %..%....  */
0xE0,  /*  %%%.....  */
0x90,  /*  %..%....  */
0x90,  /*  %..%....  */
0x90,  /*  %..%....  */
0xE0,  /*  %%%.....  */
0x00,  /*  ........  */
0x00   /*  ........  */
}}
,

/* Element 0x0033 - Char 0x0043 */
{{6, 10},{
0x70,  /*  .%%%....  */
0x88,  /*  %...%...  */
0x80,  /*  %.......  */
0x80,  /*  %.......  */
0x80,  /*  %.......  */
0x80,  /*  %.......  */
0x88,  /*  %...%...  */
0x70,  /*  .%%%....  */
0x00,  /*  ........  */
0x00   /*  ........  */
}}
,

/* Element 0x0034 - Char 0x0044 */
{{6, 10},{
0xF0,  /*  %%%%....  */
0x88,  /*  %...%...  */
0x88,  /*  %...%...  */
0x88,  /*  %...%...  */
0x88,  /*  %...%...  */
0x88,  /*  %...%...  */
0x88,  /*  %...%...  */
0xF0,  /*  %%%%....  */
0x00,  /*  ........  */
0x00   /*  ........  */
}}
,

/* Element 0x0035 - Char 0x0045 */
{{5, 10},{
0xF0,  /*  %%%%....  */
0x80,  /*  %.......  */
0x80,  /*  %.......  */
0xE0,  /*  %%%.....  */
0x80,  /*  %.......  */
0x80,  /*  %.......  */
0x80,  /*  %.......  */
0xF0,  /*  %%%%....  */
0x00,  /*  ........  */
0x00   /*  ........  */
}}
,

/* Element 0x0036 - Char 0x0046 */
{{5, 10},{
0xF0,  /*  %%%%....  */
0x80,  /*  %.......  */
0x80,  /*  %.......  */
0xE0,  /*  %%%.....  */
0x80,  /*  %.......  */
0x80,  /*  %.......  */
0x80,  /*  %.......  */
0x80,  /*  %.......  */
0x00,  /*  ........  */
0x00   /*  ........  */
}}
,

/* Element 0x0037 - Char 0x0047 */
{{6, 10},{
0x70,  /*  .%%%....  */
0x88,  /*  %...%...  */
0x88,  /*  %...%...  */
0x80,  /*  %.......  */
0x98,  /*  %..%%...  */
0x88,  /*  %...%...  */
0x98,  /*  %..%%...  */
0x68,  /*  .%%.%...  */
0x00,  /*  ........  */
0x00   /*  ........  */
}}
,

/* Element 0x0038 - Char 0x0048 */
{{6, 10},{
0x88,  /*  %...%...  */
0x88,  /*  %...%...  */
0x88,  /*  %...%...  */
0xF8,  /*  %%%%%...  */
0x88,  /*  %...%...  */
0x88,  /*  %...%...  */
0x88,  /*  %...%...  */
0x88,  /*  %...%...  */
0x00,  /*  ........  */
0x00   /*  ........  */
}}
,

/* Element 0x0039 - Char 0x0049 */
{{2, 10},{
0x80,  /*  %.......  */
0x80,  /*  %.......  */
0x80,  /*  %.......  */
0x80,  /*  %.......  */
0x80,  /*  %.......  */
0x80,  /*  %.......  */
0x80,  /*  %.......  */
0x80,  /*  %.......  */
0x00,  /*  ........  */
0x00   /*  ........  */
}}
,

/* Element 0x003A - Char 0x004A */
{{5, 10},{
0xF0,  /*  %%%%....  */
0x10,  /*  ...%....  */
0x10,  /*  ...%....  */
0x10,  /*  ...%....  */
0x10,  /*  ...%....  */
0x10,  /*  ...%....  */
0x90,  /*  %..%....  */
0x60,  /*  .%%.....  */
0x00,  /*  ........  */
0x00   /*  ........  */
}}
,

/* Element 0x003B - Char 0x004B */
{{6, 10},{
0x88,  /*  %...%...  */
0x90,  /*  %..%....  */
0xA0,  /*  %.%.....  */
0xC0,  /*  %%......  */
0xC0,  /*  %%......  */
0xA0,  /*  %.%.....  */
0x90,  /*  %..%....  */
0x88,  /*  %...%...  */
0x00,  /*  ........  */
0x00   /*  ........  */
}}
,

/* Element 0x003C - Char 0x004C */
{{5, 10},{
0x80,  /*  %.......  */
0x80,  /*  %.......  */
0x80,  /*  %.......  */
0x80,  /*  %.......  */
0x80,  /*  %.......  */
0x80,  /*  %.......  */
0x80,  /*  %.......  */
0xF0,  /*  %%%%....  */
0x00,  /*  ........  */
0x00   /*  ........  */
}}
,

/* Element 0x003D - Char 0x004D */
{{8, 10},{
0x82,  /*  %.....%.  */
0xC6,  /*  %%...%%.  */
0xC6,  /*  %%...%%.  */
0xAA,  /*  %.%.%.%.  */
0xAA,  /*  %.%.%.%.  */
0x92,  /*  %..%..%.  */
0x92,  /*  %..%..%.  */
0x82,  /*  %.....%.  */
0x00,  /*  ........  */
0x00   /*  ........  */
}}
,

/* Element 0x003E - Char 0x004E */
{{6, 10},{
0x88,  /*  %...%...  */
0xC8,  /*  %%..%...  */
0xC8,  /*  %%..%...  */
0xA8,  /*  %.%.%...  */
0xA8,  /*  %.%.%...  */
0x98,  /*  %..%%...  */
0x98,  /*  %..%%...  */
0x88,  /*  %...%...  */
0x00,  /*  ........  */
0x00   /*  ........  */
}}
,

/* Element 0x003F - Char 0x004F */
{{6, 10},{
0x70,  /*  .%%%....  */
0x88,  /*  %...%...  */
0x88,  /*  %...%...  */
0x88,  /*  %...%...  */
0x88,  /*  %...%...  */
0x88,  /*  %...%...  */
0x88,  /*  %...%...  */
0x70,  /*  .%%%....  */
0x00,  /*  ........  */
0x00   /*  ........  */
}}
,

/* Element 0x0040 - Char 0x0050 */
{{5, 10},{
0xE0,  /*  %%%.....  */
0x90,  /*  %..%....  */
0x90,  /*  %..%....  */
0x90,  /*  %..%....  */
0xE0,  /*  %%%.....  */
0x80,  /*  %.......  */
0x80,  /*  %.......  */
0x80,  /*  %.......  */
0x00,  /*  ........  */
0x00   /*  ........  */
}}
,

/* Element 0x0041 - Char 0x0051 */
{{6, 10},{
0x70,  /*  .%%%....  */
0x88,  /*  %...%...  */
0x88,  /*  %...%...  */
0x88,  /*  %...%...  */
0x88,  /*  %...%...  */
0x88,  /*  %...%...  */
0x98,  /*  %..%%...  */
0x70,  /*  .%%%....  */
0x08,  /*  ....%...  */
0x00   /*  ........  */
}}
,

/* Element 0x0042 - Char 0x0052 */
{{6, 10},{
0xF0,  /*  %%%%....  */
0x88,  /*  %...%...  */
0x88,  /*  %...%...  */
0x88,  /*  %...%...  */
0xF0,  /*  %%%%....  */
0x88,  /*  %...%...  */
0x88,  /*  %...%...  */
0x88,  /*  %...%...  */
0x00,  /*  ........  */
0x00   /*  ........  */
}}
,

/* Element 0x0043 - Char 0x0053 */
{{5, 10},{
0x60,  /*  .%%.....  */
0x90,  /*  %..%....  */
0x80,  /*  %.......  */
0x40,  /*  .%......  */
0x20,  /*  ..%.....  */
0x10,  /*  ...%....  */
0x90,  /*  %..%....  */
0x60,  /*  .%%.....  */
0x00,  /*  ........  */
0x00   /*  ........  */
}}
,

/* Element 0x0044 - Char 0x0054 */
{{6, 10},{
0xF8,  /*  %%%%%...  */
0x20,  /*  ..%.....  */
0x20,  /*  ..%.....  */
0x20,  /*  ..%.....  */
0x20,  /*  ..%.....  */
0x20,  /*  ..%.....  */
0x20,  /*  ..%.....  */
0x20,  /*  ..%.....  */
0x00,  /*  ........  */
0x00   /*  ........  */
}}
,

/* Element 0x0045 - Char 0x0055 */
{{6, 10},{
0x88,  /*  %...%...  */
0x88,  /*  %...%...  */
0x88,  /*  %...%...  */
0x88,  /*  %...%...  */
0x88,  /*  %...%...  */
0x88,  /*  %...%...  */
0x88,  /*  %...%...  */
0x70,  /*  .%%%....  */
0x00,  /*  ........  */
0x00   /*  ........  */
}}
,

/* Element 0x0046 - Char 0x0056 */
{{6, 10},{
0x88,  /*  %...%...  */
0x88,  /*  %...%...  */
0x88,  /*  %...%...  */
0x50,  /*  .%.%....  */
0x50,  /*  .%.%....  */
0x50,  /*  .%.%....  */
0x20,  /*  ..%.....  */
0x20,  /*  ..%.....  */
0x00,  /*  ........  */
0x00   /*  ........  */
}}
,

/* Element 0x0047 - Char 0x0057 */
{{8, 10},{
0x82,  /*  %.....%.  */
0x92,  /*  %..%..%.  */
0x92,  /*  %..%..%.  */
0xAA,  /*  %.%.%.%.  */
0x6C,  /*  .%%.%%..  */
0x44,  /*  .%...%..  */
0x44,  /*  .%...%..  */
0x44,  /*  .%...%..  */
0x00,  /*  ........  */
0x00   /*  ........  */
}}
,

/* Element 0x0048 - Char 0x0058 */
{{5, 10},{
0x90,  /*  %..%....  */
0x90,  /*  %..%....  */
0x60,  /*  .%%.....  */
0x60,  /*  .%%.....  */
0x60,  /*  .%%.....  */
0x90,  /*  %..%....  */
0x90,  /*  %..%....  */
0x90,  /*  %..%....  */
0x00,  /*  ........  */
0x00   /*  ........  */
}}
,

/* Element 0x0049 - Char 0x0059 */
{{6, 10},{
0x88,  /*  %...%...  */
0x88,  /*  %...%...  */
0x88,  /*  %...%...  */
0x50,  /*  .%.%....  */
0x70,  /*  .%%%....  */
0x20,  /*  ..%.....  */
0x20,  /*  ..%.....  */
0x20,  /*  ..%.....  */
0x00,  /*  ........  */
0x00   /*  ........  */
}}
,

/* Element 0x004A - Char 0x005A */
{{5, 10},{
0xF0,  /*  %%%%....  */
0x10,  /*  ...%....  */
0x20,  /*  ..%.....  */
0x20,  /*  ..%.....  */
0x40,  /*  .%......  */
0x40,  /*  .%......  */
0x80,  /*  %.......  */
0xF0,  /*  %%%%....  */
0x00,  /*  ........  */
0x00   /*  ........  */
}}
,

/* Element 0x004B - Char 0x005B */
{{3, 10},{
0xC0,  /*  %%......  */
0x80,  /*  %.......  */
0x80,  /*  %.......  */
0x80,  /*  %.......  */
0x80,  /*  %.......  */
0x80,  /*  %.......  */
0x80,  /*  %.......  */
0x80,  /*  %.......  */
0xC0,  /*  %%......  */
0x00   /*  ........  */
}}
,

/* Element 0x004C - Char 0x005C */
{{5, 10},{
0x40,  /*  .%......  */
0x40,  /*  .%......  */
0x20,  /*  ..%.....  */
0x20,  /*  ..%.....  */
0x10,  /*  ...%....  */
0x10,  /*  ...%....  */
0x08,  /*  ....%...  */
0x08,  /*  ....%...  */
0x00,  /*  ........  */
0x00   /*  ........  */
}}
,

/* Element 0x004D - Char 0x005D */
{{3, 10},{
0xC0,  /*  %%......  */
0x40,  /*  .%......  */
0x40,  /*  .%......  */
0x40,  /*  .%......  */
0x40,  /*  .%......  */
0x40,  /*  .%......  */
0x40,  /*  .%......  */
0x40,  /*  .%......  */
0xC0,  /*  %%......  */
0x00   /*  ........  */
}}
,

/* Element 0x004E - Char 0x005E */
{{4, 10},{
0x40,  /*  .%......  */
0xA0,  /*  %.%.....  */
0x00,  /*  ........  */
0x00,  /*  ........  */
0x00,  /*  ........  */
0x00,  /*  ........  */
0x00,  /*  ........  */
0x00,  /*  ........  */
0x00,  /*  ........  */
0x00   /*  ........  */
}}
,

/* Element 0x004F - Char 0x005F */
{{6, 10},{
0x00,  /*  ........  */
0x00,  /*  ........  */
0x00,  /*  ........  */
0x00,  /*  ........  */
0x00,  /*  ........  */
0x00,  /*  ........  */
0x00,  /*  ........  */
0x00,  /*  ........  */
0xF8,  /*  %%%%%...  */
0x00   /*  ........  */
}}
,

/* Element 0x0050 - Char 0x0060 */
{{3, 10},{
0x80,  /*  %.......  */
0x40,  /*  .%......  */
0x00,  /*  ........  */
0x00,  /*  ........  */
0x00,  /*  ........  */
0x00,  /*  ........  */
0x00,  /*  ........  */
0x00,  /*  ........  */
0x00,  /*  ........  */
0x00   /*  ........  */
}}
,

/* Element 0x0051 - Char 0x0061 */
{{5, 10},{
0x00,  /*  ........  */
0x00,  /*  ........  */
0x60,  /*  .%%.....  */
0x10,  /*  ...%....  */
0x70,  /*  .%%%....  */
0x90,  /*  %..%....  */
0x90,  /*  %..%....  */
0x70,  /*  .%%%....  */
0x00,  /*  ........  */
0x00   /*  ........  */
}}
,

/* Element 0x0052 - Char 0x0062 */
{{5, 10},{
0x80,  /*  %.......  */
0x80,  /*  %.......  */
0xE0,  /*  %%%.....  */
0x90,  /*  %..%....  */
0x90,  /*  %..%....  */
0x90,  /*  %..%....  */
0x90,  /*  %..%....  */
0xE0,  /*  %%%.....  */
0x00,  /*  ........  */
0x00   /*  ........  */
}}
,

/* Element 0x0053 - Char 0x0063 */
{{5, 10},{
0x00,  /*  ........  */
0x00,  /*  ........  */
0x60,  /*  .%%.....  */
0x90,  /*  %..%....  */
0x80,  /*  %.......  */
0x80,  /*  %.......  */
0x90,  /*  %..%....  */
0x60,  /*  .%%.....  */
0x00,  /*  ........  */
0x00   /*  ........  */
}}
,

/* Element 0x0054 - Char 0x0064 */
{{5, 10},{
0x10,  /*  ...%....  */
0x10,  /*  ...%....  */
0x70,  /*  .%%%....  */
0x90,  /*  %..%....  */
0x90,  /*  %..%....  */
0x90,  /*  %..%....  */
0x90,  /*  %..%....  */
0x70,  /*  .%%%....  */
0x00,  /*  ........  */
0x00   /*  ........  */
}}
,

/* Element 0x0055 - Char 0x0065 */
{{5, 10},{
0x00,  /*  ........  */
0x00,  /*  ........  */
0x60,  /*  .%%.....  */
0x90,  /*  %..%....  */
0xF0,  /*  %%%%....  */
0x80,  /*  %.......  */
0x90,  /*  %..%....  */
0x60,  /*  .%%.....  */
0x00,  /*  ........  */
0x00   /*  ........  */
}}
,

/* Element 0x0056 - Char 0x0066 */
{{4, 10},{
0x20,  /*  ..%.....  */
0x40,  /*  .%......  */
0xE0,  /*  %%%.....  */
0x40,  /*  .%......  */
0x40,  /*  .%......  */
0x40,  /*  .%......  */
0x40,  /*  .%......  */
0x40,  /*  .%......  */
0x00,  /*  ........  */
0x00   /*  ........  */
}}
,

/* Element 0x0057 - Char 0x0067 */
{{5, 10},{
0x00,  /*  ........  */
0x00,  /*  ........  */
0x70,  /*  .%%%....  */
0x90,  /*  %..%....  */
0x90,  /*  %..%....  */
0x90,  /*  %..%....  */
0x90,  /*  %..%....  */
0x70,  /*  .%%%....  */
0x10,  /*  ...%....  */
0x60   /*  .%%.....  */
}}
,

/* Element 0x0058 - Char 0x0068 */
{{5, 10},{
0x80,  /*  %.......  */
0x80,  /*  %.......  */
0xE0,  /*  %%%.....  */
0x90,  /*  %..%....  */
0x90,  /*  %..%....  */
0x90,  /*  %..%....  */
0x90,  /*  %..%....  */
0x90,  /*  %..%....  */
0x00,  /*  ........  */
0x00   /*  ........  */
}}
,

/* Element 0x0059 - Char 0x0069 */
{{2, 10},{
0x80,  /*  %.......  */
0x00,  /*  ........  */
0x80,  /*  %.......  */
0x80,  /*  %.......  */
0x80,  /*  %.......  */
0x80,  /*  %.......  */
0x80,  /*  %.......  */
0x80,  /*  %.......  */
0x00,  /*  ........  */
0x00   /*  ........  */
}}
,

/* Element 0x005A - Char 0x006A */
{{3, 10},{
0x40,  /*  .%......  */
0x00,  /*  ........  */
0x40,  /*  .%......  */
0x40,  /*  .%......  */
0x40,  /*  .%......  */
0x40,  /*  .%......  */
0x40,  /*  .%......  */
0x40,  /*  .%......  */
0x40,  /*  .%......  */
0x80   /*  %.......  */
}}
,

/* Element 0x005B - Char 0x006B */
{{4, 10},{
0x80,  /*  %.......  */
0x80,  /*  %.......  */
0xA0,  /*  %.%.....  */
0xA0,  /*  %.%.....  */
0xC0,  /*  %%......  */
0xC0,  /*  %%......  */
0xA0,  /*  %.%.....  */
0xA0,  /*  %.%.....  */
0x00,  /*  ........  */
0x00   /*  ........  */
}}
,

/* Element 0x005C - Char 0x006C */
{{2, 10},{
0x80,  /*  %.......  */
0x80,  /*  %.......  */
0x80,  /*  %.......  */
0x80,  /*  %.......  */
0x80,  /*  %.......  */
0x80,  /*  %.......  */
0x80,  /*  %.......  */
0x80,  /*  %.......  */
0x00,  /*  ........  */
0x00   /*  ........  */
}}
,

/* Element 0x005D - Char 0x006D */
{{8, 10},{
0x00,  /*  ........  */
0x00,  /*  ........  */
0xEC,  /*  %%%.%%..  */
0x92,  /*  %..%..%.  */
0x92,  /*  %..%..%.  */
0x92,  /*  %..%..%.  */
0x92,  /*  %..%..%.  */
0x92,  /*  %..%..%.  */
0x00,  /*  ........  */
0x00   /*  ........  */
}}
,

/* Element 0x005E - Char 0x006E */
{{5, 10},{
0x00,  /*  ........  */
0x00,  /*  ........  */
0xE0,  /*  %%%.....  */
0x90,  /*  %..%....  */
0x90,  /*  %..%....  */
0x90,  /*  %..%....  */
0x90,  /*  %..%....  */
0x90,  /*  %..%....  */
0x00,  /*  ........  */
0x00   /*  ........  */
}}
,

/* Element 0x005F - Char 0x006F */
{{5, 10},{
0x00,  /*  ........  */
0x00,  /*  ........  */
0x60,  /*  .%%.....  */
0x90,  /*  %..%....  */
0x90,  /*  %..%....  */
0x90,  /*  %..%....  */
0x90,  /*  %..%....  */
0x60,  /*  .%%.....  */
0x00,  /*  ........  */
0x00   /*  ........  */
}}
,

/* Element 0x0060 - Char 0x0070 */
{{5, 10},{
0x00,  /*  ........  */
0x00,  /*  ........  */
0xE0,  /*  %%%.....  */
0x90,  /*  %..%....  */
0x90,  /*  %..%....  */
0x90,  /*  %..%....  */
0x90,  /*  %..%....  */
0xE0,  /*  %%%.....  */
0x80,  /*  %.......  */
0x80   /*  %.......  */
}}
,

/* Element 0x0061 - Char 0x0071 */
{{5, 10},{
0x00,  /*  ........  */
0x00,  /*  ........  */
0x70,  /*  .%%%....  */
0x90,  /*  %..%....  */
0x90,  /*  %..%....  */
0x90,  /*  %..%....  */
0x90,  /*  %..%....  */
0x70,  /*  .%%%....  */
0x10,  /*  ...%....  */
0x10   /*  ...%....  */
}}
,

/* Element 0x0062 - Char 0x0072 */
{{3, 10},{
0x00,  /*  ........  */
0x00,  /*  ........  */
0xC0,  /*  %%......  */
0x80,  /*  %.......  */
0x80,  /*  %.......  */
0x80,  /*  %.......  */
0x80,  /*  %.......  */
0x80,  /*  %.......  */
0x00,  /*  ........  */
0x00   /*  ........  */
}}
,

/* Element 0x0063 - Char 0x0073 */
{{4, 10},{
0x00,  /*  ........  */
0x00,  /*  ........  */
0x60,  /*  .%%.....  */
0x80,  /*  %.......  */
0xC0,  /*  %%......  */
0x60,  /*  .%%.....  */
0x20,  /*  ..%.....  */
0xC0,  /*  %%......  */
0x00,  /*  ........  */
0x00   /*  ........  */
}}
,

/* Element 0x0064 - Char 0x0074 */
{{4, 10},{
0x00,  /*  ........  */
0x40,  /*  .%......  */
0xE0,  /*  %%%.....  */
0x40,  /*  .%......  */
0x40,  /*  .%......  */
0x40,  /*  .%......  */
0x40,  /*  .%......  */
0x20,  /*  ..%.....  */
0x00,  /*  ........  */
0x00   /*  ........  */
}}
,

/* Element 0x0065 - Char 0x0075 */
{{5, 10},{
0x00,  /*  ........  */
0x00,  /*  ........  */
0x90,  /*  %..%....  */
0x90,  /*  %..%....  */
0x90,  /*  %..%....  */
0x90,  /*  %..%....  */
0x90,  /*  %..%....  */
0x70,  /*  .%%%....  */
0x00,  /*  ........  */
0x00   /*  ........  */
}}
,

/* Element 0x0066 - Char 0x0076 */
{{6, 10},{
0x00,  /*  ........  */
0x00,  /*  ........  */
0x88,  /*  %...%...  */
0x88,  /*  %...%...  */
0x50,  /*  .%.%....  */
0x50,  /*  .%.%....  */
0x20,  /*  ..%.....  */
0x20,  /*  ..%.....  */
0x00,  /*  ........  */
0x00   /*  ........  */
}}
,

/* Element 0x0067 - Char 0x0077 */
{{6, 10},{
0x00,  /*  ........  */
0x00,  /*  ........  */
0x88,  /*  %...%...  */
0xA8,  /*  %.%.%...  */
0xA8,  /*  %.%.%...  */
0xA8,  /*  %.%.%...  */
0x50,  /*  .%.%....  */
0x50,  /*  .%.%....  */
0x00,  /*  ........  */
0x00   /*  ........  */
}}
,

/* Element 0x0068 - Char 0x0078 */
{{5, 10},{
0x00,  /*  ........  */
0x00,  /*  ........  */
0x90,  /*  %..%....  */
0x90,  /*  %..%....  */
0x60,  /*  .%%.....  */
0x60,  /*  .%%.....  */
0x90,  /*  %..%....  */
0x90,  /*  %..%....  */
0x00,  /*  ........  */
0x00   /*  ........  */
}}
,

/* Element 0x0069 - Char 0x0079 */
{{6, 10},{
0x00,  /*  ........  */
0x00,  /*  ........  */
0x88,  /*  %...%...  */
0x88,  /*  %...%...  */
0x50,  /*  .%.%....  */
0x50,  /*  .%.%....  */
0x20,  /*  ..%.....  */
0x20,  /*  ..%.....  */
0x20,  /*  ..%.....  */
0x40   /*  .%......  */
}}
,

/* Element 0x006A - Char 0x007A */
{{4, 10},{
0x00,  /*  ........  */
0x00,  /*  ........  */
0xE0,  /*  %%%.....  */
0x20,  /*  ..%.....  */
0x40,  /*  .%......  */
0x40,  /*  .%......  */
0x80,  /*  %.......  */
0xE0,  /*  %%%.....  */
0x00,  /*  ........  */
0x00   /*  ........  */
}}
,

/* Element 0x006B - Char 0x007B */
{{4, 10},{
0x20,  /*  ..%.....  */
0x40,  /*  .%......  */
0x40,  /*  .%......  */
0x40,  /*  .%......  */
0x80,  /*  %.......  */
0x40,  /*  .%......  */
0x40,  /*  .%......  */
0x40,  /*  .%......  */
0x20,  /*  ..%.....  */
0x00   /*  ........  */
}}
,

/* Element 0x006C - Char 0x007C */
{{2, 10},{
0x80,  /*  %.......  */
0x80,  /*  %.......  */
0x80,  /*  %.......  */
0x00,  /*  ........  */
0x00,  /*  ........  */
0x80,  /*  %.......  */
0x80,  /*  %.......  */
0x80,  /*  %.......  */
0x00,  /*  ........  */
0x00   /*  ........  */
}}
,

/* Element 0x006D - Char 0x007D */
{{4, 10},{
0x80,  /*  %.......  */
0x40,  /*  .%......  */
0x40,  /*  .%......  */
0x40,  /*  .%......  */
0x20,  /*  ..%.....  */
0x40,  /*  .%......  */
0x40,  /*  .%......  */
0x40,  /*  .%......  */
0x80,  /*  %.......  */
0x00   /*  ........  */
}}
,

/* Element 0x006E - Char 0x007E */
{{5, 10},{
0x50,  /*  .%.%....  */
0xA0,  /*  %.%.....  */
0x00,  /*  ........  */
0x00,  /*  ........  */
0x00,  /*  ........  */
0x00,  /*  ........  */
0x00,  /*  ........  */
0x00,  /*  ........  */
0x00,  /*  ........  */
0x00   /*  ........  */
}}
,

/* Element 0x006F - Char 0x007F */
{{3, 10},{
0x00,  /*  ........  */
0x00,  /*  ........  */
0x00,  /*  ........  */
0x00,  /*  ........  */
0x00,  /*  ........  */
0x00,  /*  ........  */
0x00,  /*  ........  */
0x00,  /*  ........  */
0x00,  /*  ........  */
0x00   /*  ........  */
}}
,

/* Element 0x0070 - Char 0x0080 */
{{6, 10},{
0x30,  /*  ..%%....  */
0x48,  /*  .%..%...  */
0xE0,  /*  %%%.....  */
0x40,  /*  .%......  */
0xE0,  /*  %%%.....  */
0x40,  /*  .%......  */
0x48,  /*  .%..%...  */
0x30,  /*  ..%%....  */
0x00,  /*  ........  */
0x00   /*  ........  */
}}
,

/* Element 0x0071 - Char 0x0081 */
{{3, 10},{
0x00,  /*  ........  */
0x00,  /*  ........  */
0x00,  /*  ........  */
0x00,  /*  ........  */
0x00,  /*  ........  */
0x00,  /*  ........  */
0x00,  /*  ........  */
0x00,  /*  ........  */
0x00,  /*  ........  */
0x00   /*  ........  */
}}
,

/* Element 0x0072 - Char 0x0082 */
{{2, 10},{
0x00,  /*  ........  */
0x00,  /*  ........  */
0x00,  /*  ........  */
0x00,  /*  ........  */
0x00,  /*  ........  */
0x00,  /*  ........  */
0x00,  /*  ........  */
0x80,  /*  %.......  */
0x80,  /*  %.......  */
0x80   /*  %.......  */
}}
,

/* Element 0x0073 - Char 0x0083 */
{{5, 10},{
0x00,  /*  ........  */
0x30,  /*  ..%%....  */
0x20,  /*  ..%.....  */
0x60,  /*  .%%.....  */
0x20,  /*  ..%.....  */
0x20,  /*  ..%.....  */
0x40,  /*  .%......  */
0x40,  /*  .%......  */
0x40,  /*  .%......  */
0xC0   /*  %%......  */
}}
,

/* Element 0x0074 - Char 0x0084 */
{{4, 10},{
0x00,  /*  ........  */
0x00,  /*  ........  */
0x00,  /*  ........  */
0x00,  /*  ........  */
0x00,  /*  ........  */
0x00,  /*  ........  */
0x00,  /*  ........  */
0xA0,  /*  %.%.....  */
0xA0,  /*  %.%.....  */
0xA0   /*  %.%.....  */
}}
,

/* Element 0x0075 - Char 0x0085 */
{{8, 10},{
0x00,  /*  ........  */
0x00,  /*  ........  */
0x00,  /*  ........  */
0x00,  /*  ........  */
0x00,  /*  ........  */
0x00,  /*  ........  */
0x00,  /*  ........  */
0x92,  /*  %..%..%.  */
0x00,  /*  ........  */
0x00   /*  ........  */
}}
,

/* Element 0x0076 - Char 0x0086 */
{{6, 10},{
0x00,  /*  ........  */
0x20,  /*  ..%.....  */
0x20,  /*  ..%.....  */
0xF8,  /*  %%%%%...  */
0x20,  /*  ..%.....  */
0x20,  /*  ..%.....  */
0x20,  /*  ..%.....  */
0x20,  /*  ..%.....  */
0x20,  /*  ..%.....  */
0x20   /*  ..%.....  */
}}
,

/* Element 0x0077 - Char 0x0087 */
{{6, 10},{
0x00,  /*  ........  */
0x20,  /*  ..%.....  */
0x20,  /*  ..%.....  */
0xF8,  /*  %%%%%...  */
0x20,  /*  ..%.....  */
0x20,  /*  ..%.....  */
0x20,  /*  ..%.....  */
0xF8,  /*  %%%%%...  */
0x20,  /*  ..%.....  */
0x20   /*  ..%.....  */
}}
,

/* Element 0x0078 - Char 0x0088 */
{{4, 10},{
0x40,  /*  .%......  */
0xA0,  /*  %.%.....  */
0x00,  /*  ........  */
0x00,  /*  ........  */
0x00,  /*  ........  */
0x00,  /*  ........  */
0x00,  /*  ........  */
0x00,  /*  ........  */
0x00,  /*  ........  */
0x00   /*  ........  */
}}
,

/* Element 0x0079 - Char 0x0089 */
{{8, 10},{
0x48,  /*  .%..%...  */
0xA8,  /*  %.%.%...  */
0x50,  /*  .%.%....  */
0x10,  /*  ...%....  */
0x20,  /*  ..%.....  */
0x2A,  /*  ..%.%.%.  */
0x55,  /*  .%.%.%.%  */
0x4A,  /*  .%..%.%.  */
0x00,  /*  ........  */
0x00   /*  ........  */
}}
,

/* Element 0x007A - Char 0x008A */
{{5, 10},{
0x50,  /*  .%.%....  */
0x20,  /*  ..%.....  */
0x70,  /*  .%%%....  */
0x80,  /*  %.......  */
0x60,  /*  .%%.....  */
0x10,  /*  ...%....  */
0x90,  /*  %..%....  */
0x60,  /*  .%%.....  */
0x00,  /*  ........  */
0x00   /*  ........  */
}}
,

/* Element 0x007B - Char 0x008B */
{{4, 10},{
0x00,  /*  ........  */
0x00,  /*  ........  */
0x00,  /*  ........  */
0x20,  /*  ..%.....  */
0x40,  /*  .%......  */
0x80,  /*  %.......  */
0x40,  /*  .%......  */
0x20,  /*  ..%.....  */
0x00,  /*  ........  */
0x00   /*  ........  */
}}
,

/* Element 0x007C - Char 0x008C */
{{8, 10},{
0x6F,  /*  .%%.%%%%  */
0x98,  /*  %..%%...  */
0x88,  /*  %...%...  */
0x8E,  /*  %...%%%.  */
0x88,  /*  %...%...  */
0x88,  /*  %...%...  */
0x98,  /*  %..%%...  */
0x6F,  /*  .%%.%%%%  */
0x00,  /*  ........  */
0x00   /*  ........  */
}}
,

/* Element 0x007D - Char 0x008D */
{{3, 10},{
0x00,  /*  ........  */
0x00,  /*  ........  */
0x00,  /*  ........  */
0x00,  /*  ........  */
0x00,  /*  ........  */
0x00,  /*  ........  */
0x00,  /*  ........  */
0x00,  /*  ........  */
0x00,  /*  ........  */
0x00   /*  ........  */
}}
,

/* Element 0x007E - Char 0x008E */
{{5, 10},{
0xA0,  /*  %.%.....  */
0x40,  /*  .%......  */
0xF0,  /*  %%%%....  */
0x10,  /*  ...%....  */
0x20,  /*  ..%.....  */
0x40,  /*  .%......  */
0x80,  /*  %.......  */
0xF0,  /*  %%%%....  */
0x00,  /*  ........  */
0x00   /*  ........  */
}}
,

/* Element 0x007F - Char 0x008F */
{{3, 10},{
0x00,  /*  ........  */
0x00,  /*  ........  */
0x00,  /*  ........  */
0x00,  /*  ........  */
0x00,  /*  ........  */
0x00,  /*  ........  */
0x00,  /*  ........  */
0x00,  /*  ........  */
0x00,  /*  ........  */
0x00   /*  ........  */
}}
,

/* Element 0x0080 - Char 0x0090 */
{{3, 10},{
0x00,  /*  ........  */
0x00,  /*  ........  */
0x00,  /*  ........  */
0x00,  /*  ........  */
0x00,  /*  ........  */
0x00,  /*  ........  */
0x00,  /*  ........  */
0x00,  /*  ........  */
0x00,  /*  ........  */
0x00   /*  ........  */
}}
,

/* Element 0x0081 - Char 0x0091 */
{{3, 10},{
0x80,  /*  %.......  */
0x80,  /*  %.......  */
0x40,  /*  .%......  */
0x40,  /*  .%......  */
0x00,  /*  ........  */
0x00,  /*  ........  */
0x00,  /*  ........  */
0x00,  /*  ........  */
0x00,  /*  ........  */
0x00   /*  ........  */
}}
,

/* Element 0x0082 - Char 0x0092 */
{{3, 10},{
0x40,  /*  .%......  */
0x40,  /*  .%......  */
0x80,  /*  %.......  */
0x80,  /*  %.......  */
0x00,  /*  ........  */
0x00,  /*  ........  */
0x00,  /*  ........  */
0x00,  /*  ........  */
0x00,  /*  ........  */
0x00   /*  ........  */
}}
,

/* Element 0x0083 - Char 0x0093 */
{{5, 10},{
0xA0,  /*  %.%.....  */
0xA0,  /*  %.%.....  */
0x50,  /*  .%.%....  */
0x50,  /*  .%.%....  */
0x00,  /*  ........  */
0x00,  /*  ........  */
0x00,  /*  ........  */
0x00,  /*  ........  */
0x00,  /*  ........  */
0x00   /*  ........  */
}}
,

/* Element 0x0084 - Char 0x0094 */
{{5, 10},{
0x50,  /*  .%.%....  */
0x50,  /*  .%.%....  */
0xA0,  /*  %.%.....  */
0xA0,  /*  %.%.....  */
0x00,  /*  ........  */
0x00,  /*  ........  */
0x00,  /*  ........  */
0x00,  /*  ........  */
0x00,  /*  ........  */
0x00   /*  ........  */
}}
,

/* Element 0x0085 - Char 0x0095 */
{{3, 10},{
0x00,  /*  ........  */
0x00,  /*  ........  */
0x00,  /*  ........  */
0x00,  /*  ........  */
0xC0,  /*  %%......  */
0xC0,  /*  %%......  */
0x00,  /*  ........  */
0x00,  /*  ........  */
0x00,  /*  ........  */
0x00   /*  ........  */
}}
,

/* Element 0x0086 - Char 0x0096 */
{{6, 10},{
0x00,  /*  ........  */
0x00,  /*  ........  */
0x00,  /*  ........  */
0x00,  /*  ........  */
0x00,  /*  ........  */
0xF8,  /*  %%%%%...  */
0x00,  /*  ........  */
0x00,  /*  ........  */
0x00,  /*  ........  */
0x00   /*  ........  */
}}
,

/* Element 0x0087 - Char 0x0097 */
{{8, 10},{
0x00,  /*  ........  */
0x00,  /*  ........  */
0x00,  /*  ........  */
0x00,  /*  ........  */
0x00,  /*  ........  */
0xFF,  /*  %%%%%%%%  */
0x00,  /*  ........  */
0x00,  /*  ........  */
0x00,  /*  ........  */
0x00   /*  ........  */
}}
,

/* Element 0x0088 - Char 0x0098 */
{{5, 10},{
0x50,  /*  .%.%....  */
0xA0,  /*  %.%.....  */
0x00,  /*  ........  */
0x00,  /*  ........  */
0x00,  /*  ........  */
0x00,  /*  ........  */
0x00,  /*  ........  */
0x00,  /*  ........  */
0x00,  /*  ........  */
0x00   /*  ........  */
}}
,

/* Element 0x0089 - Char 0x0099 */
{{7, 10},{
0x00,  /*  ........  */
0xF4,  /*  %%%%.%..  */
0x5C,  /*  .%.%%%..  */
0x54,  /*  .%.%.%..  */
0x54,  /*  .%.%.%..  */
0x00,  /*  ........  */
0x00,  /*  ........  */
0x00,  /*  ........  */
0x00,  /*  ........  */
0x00   /*  ........  */
}}
,

/* Element 0x008A - Char 0x009A */
{{4, 10},{
0xA0,  /*  %.%.....  */
0x40,  /*  .%......  */
0x60,  /*  .%%.....  */
0x80,  /*  %.......  */
0xC0,  /*  %%......  */
0x60,  /*  .%%.....  */
0x20,  /*  ..%.....  */
0xC0,  /*  %%......  */
0x00,  /*  ........  */
0x00   /*  ........  */
}}
,

/* Element 0x008B - Char 0x009B */
{{4, 10},{
0x00,  /*  ........  */
0x00,  /*  ........  */
0x00,  /*  ........  */
0x80,  /*  %.......  */
0x40,  /*  .%......  */
0x20,  /*  ..%.....  */
0x40,  /*  .%......  */
0x80,  /*  %.......  */
0x00,  /*  ........  */
0x00   /*  ........  */
}}
,

/* Element 0x008C - Char 0x009C */
{{8, 10},{
0x00,  /*  ........  */
0x00,  /*  ........  */
0x6C,  /*  .%%.%%..  */
0x92,  /*  %..%..%.  */
0x9E,  /*  %..%%%%.  */
0x90,  /*  %..%....  */
0x92,  /*  %..%..%.  */
0x6C,  /*  .%%.%%..  */
0x00,  /*  ........  */
0x00   /*  ........  */
}}
,

/* Element 0x008D - Char 0x009D */
{{3, 10},{
0x00,  /*  ........  */
0x00,  /*  ........  */
0x00,  /*  ........  */
0x00,  /*  ........  */
0x00,  /*  ........  */
0x00,  /*  ........  */
0x00,  /*  ........  */
0x00,  /*  ........  */
0x00,  /*  ........  */
0x00   /*  ........  */
}}
,

/* Element 0x008E - Char 0x009E */
{{4, 10},{
0x00,  /*  ........  */
0xA0,  /*  %.%.....  */
0x40,  /*  .%......  */
0xE0,  /*  %%%.....  */
0x20,  /*  ..%.....  */
0x40,  /*  .%......  */
0x80,  /*  %.......  */
0xE0,  /*  %%%.....  */
0x00,  /*  ........  */
0x00   /*  ........  */
}}
,

/* Element 0x008F - Char 0x009F */
{{6, 10},{
0x50,  /*  .%.%....  */
0x00,  /*  ........  */
0x88,  /*  %...%...  */
0x88,  /*  %...%...  */
0x50,  /*  .%.%....  */
0x70,  /*  .%%%....  */
0x20,  /*  ..%.....  */
0x20,  /*  ..%.....  */
0x00,  /*  ........  */
0x00   /*  ........  */
}}
,

/* Element 0x0090 - Char 0x00A0 */
{{3, 10},{
0x00,  /*  ........  */
0x00,  /*  ........  */
0x00,  /*  ........  */
0x00,  /*  ........  */
0x00,  /*  ........  */
0x00,  /*  ........  */
0x00,  /*  ........  */
0x00,  /*  ........  */
0x00,  /*  ........  */
0x00   /*  ........  */
}}
,

/* Element 0x0091 - Char 0x00A1 */
{{2, 10},{
0x80,  /*  %.......  */
0x80,  /*  %.......  */
0x00,  /*  ........  */
0x80,  /*  %.......  */
0x80,  /*  %.......  */
0x80,  /*  %.......  */
0x80,  /*  %.......  */
0x80,  /*  %.......  */
0x00,  /*  ........  */
0x00   /*  ........  */
}}
,

/* Element 0x0092 - Char 0x00A2 */
{{5, 10},{
0x00,  /*  ........  */
0x20,  /*  ..%.....  */
0x60,  /*  .%%.....  */
0x90,  /*  %..%....  */
0x80,  /*  %.......  */
0x90,  /*  %..%....  */
0x60,  /*  .%%.....  */
0x20,  /*  ..%.....  */
0x00,  /*  ........  */
0x00   /*  ........  */
}}
,

/* Element 0x0093 - Char 0x00A3 */
{{5, 10},{
0x60,  /*  .%%.....  */
0x90,  /*  %..%....  */
0x40,  /*  .%......  */
0xE0,  /*  %%%.....  */
0x40,  /*  .%......  */
0x80,  /*  %.......  */
0x90,  /*  %..%....  */
0xF0,  /*  %%%%....  */
0x00,  /*  ........  */
0x00   /*  ........  */
}}
,

/* Element 0x0094 - Char 0x00A4 */
{{7, 10},{
0x00,  /*  ........  */
0x84,  /*  %....%..  */
0x78,  /*  .%%%%...  */
0x48,  /*  .%..%...  */
0x48,  /*  .%..%...  */
0x78,  /*  .%%%%...  */
0x84,  /*  %....%..  */
0x00,  /*  ........  */
0x00,  /*  ........  */
0x00   /*  ........  */
}}
,

/* Element 0x0095 - Char 0x00A5 */
{{6, 10},{
0x88,  /*  %...%...  */
0x50,  /*  .%.%....  */
0x20,  /*  ..%.....  */
0x70,  /*  .%%%....  */
0x20,  /*  ..%.....  */
0x70,  /*  .%%%....  */
0x20,  /*  ..%.....  */
0x20,  /*  ..%.....  */
0x00,  /*  ........  */
0x00   /*  ........  */
}}
,

/* Element 0x0096 - Char 0x00A6 */
{{2, 10},{
0x80,  /*  %.......  */
0x80,  /*  %.......  */
0x80,  /*  %.......  */
0x80,  /*  %.......  */
0x00,  /*  ........  */
0x00,  /*  ........  */
0x80,  /*  %.......  */
0x80,  /*  %.......  */
0x80,  /*  %.......  */
0x80   /*  %.......  */
}}
,

/* Element 0x0097 - Char 0x00A7 */
{{5, 10},{
0x60,  /*  .%%.....  */
0x90,  /*  %..%....  */
0x80,  /*  %.......  */
0x40,  /*  .%......  */
0xA0,  /*  %.%.....  */
0x50,  /*  .%.%....  */
0x20,  /*  ..%.....  */
0x10,  /*  ...%....  */
0x90,  /*  %..%....  */
0x60   /*  .%%.....  */
}}
,

/* Element 0x0098 - Char 0x00A8 */
{{4, 10},{
0xA0,  /*  %.%.....  */
0x00,  /*  ........  */
0x00,  /*  ........  */
0x00,  /*  ........  */
0x00,  /*  ........  */
0x00,  /*  ........  */
0x00,  /*  ........  */
0x00,  /*  ........  */
0x00,  /*  ........  */
0x00   /*  ........  */
}}
,

/* Element 0x0099 - Char 0x00A9 */
{{7, 10},{
0x00,  /*  ........  */
0x78,  /*  .%%%%...  */
0x84,  /*  %....%..  */
0xB4,  /*  %.%%.%..  */
0xA4,  /*  %.%..%..  */
0xB4,  /*  %.%%.%..  */
0x84,  /*  %....%..  */
0x78,  /*  .%%%%...  */
0x00,  /*  ........  */
0x00   /*  ........  */
}}
,

/* Element 0x009A - Char 0x00AA */
{{4, 10},{
0xC0,  /*  %%......  */
0x20,  /*  ..%.....  */
0x60,  /*  .%%.....  */
0xA0,  /*  %.%.....  */
0xE0,  /*  %%%.....  */
0x00,  /*  ........  */
0x00,  /*  ........  */
0x00,  /*  ........  */
0x00,  /*  ........  */
0x00   /*  ........  */
}}
,

/* Element 0x009B - Char 0x00AB */
{{7, 10},{
0x00,  /*  ........  */
0x00,  /*  ........  */
0x00,  /*  ........  */
0x24,  /*  ..%..%..  */
0x48,  /*  .%..%...  */
0x90,  /*  %..%....  */
0x48,  /*  .%..%...  */
0x24,  /*  ..%..%..  */
0x00,  /*  ........  */
0x00   /*  ........  */
}}
,

/* Element 0x009C - Char 0x00AC */
{{5, 10},{
0x00,  /*  ........  */
0x00,  /*  ........  */
0x00,  /*  ........  */
0xF0,  /*  %%%%....  */
0x10,  /*  ...%....  */
0x10,  /*  ...%....  */
0x00,  /*  ........  */
0x00,  /*  ........  */
0x00,  /*  ........  */
0x00   /*  ........  */
}}
,

/* Element 0x009D - Char 0x00AD */
{{4, 10},{
0x00,  /*  ........  */
0x00,  /*  ........  */
0x00,  /*  ........  */
0x00,  /*  ........  */
0x00,  /*  ........  */
0xE0,  /*  %%%.....  */
0x00,  /*  ........  */
0x00,  /*  ........  */
0x00,  /*  ........  */
0x00   /*  ........  */
}}
,

/* Element 0x009E - Char 0x00AE */
{{8, 10},{
0x7C,  /*  .%%%%%..  */
0x82,  /*  %.....%.  */
0xBA,  /*  %.%%%.%.  */
0xAA,  /*  %.%.%.%.  */
0xB2,  /*  %.%%..%.  */
0xAA,  /*  %.%.%.%.  */
0x82,  /*  %.....%.  */
0x7C,  /*  .%%%%%..  */
0x00,  /*  ........  */
0x00   /*  ........  */
}}
,

/* Element 0x009F - Char 0x00AF */
{{7, 10},{
0xFC,  /*  %%%%%%..  */
0x00,  /*  ........  */
0x00,  /*  ........  */
0x00,  /*  ........  */
0x00,  /*  ........  */
0x00,  /*  ........  */
0x00,  /*  ........  */
0x00,  /*  ........  */
0x00,  /*  ........  */
0x00   /*  ........  */
}}
,

/* Element 0x00A0 - Char 0x00B0 */
{{4, 10},{
0x00,  /*  ........  */
0x40,  /*  .%......  */
0xA0,  /*  %.%.....  */
0x40,  /*  .%......  */
0x00,  /*  ........  */
0x00,  /*  ........  */
0x00,  /*  ........  */
0x00,  /*  ........  */
0x00,  /*  ........  */
0x00   /*  ........  */
}}
,

/* Element 0x00A1 - Char 0x00B1 */
{{6, 10},{
0x00,  /*  ........  */
0x00,  /*  ........  */
0x20,  /*  ..%.....  */
0x20,  /*  ..%.....  */
0xF8,  /*  %%%%%...  */
0x20,  /*  ..%.....  */
0x20,  /*  ..%.....  */
0xF8,  /*  %%%%%...  */
0x00,  /*  ........  */
0x00   /*  ........  */
}}
,

/* Element 0x00A2 - Char 0x00B2 */
{{4, 10},{
0xC0,  /*  %%......  */
0x20,  /*  ..%.....  */
0x40,  /*  .%......  */
0x80,  /*  %.......  */
0xE0,  /*  %%%.....  */
0x00,  /*  ........  */
0x00,  /*  ........  */
0x00,  /*  ........  */
0x00,  /*  ........  */
0x00   /*  ........  */
}}
,

/* Element 0x00A3 - Char 0x00B3 */
{{4, 10},{
0xE0,  /*  %%%.....  */
0x20,  /*  ..%.....  */
0x40,  /*  .%......  */
0x20,  /*  ..%.....  */
0xC0,  /*  %%......  */
0x00,  /*  ........  */
0x00,  /*  ........  */
0x00,  /*  ........  */
0x00,  /*  ........  */
0x00   /*  ........  */
}}
,

/* Element 0x00A4 - Char 0x00B4 */
{{3, 10},{
0x40,  /*  .%......  */
0x80,  /*  %.......  */
0x00,  /*  ........  */
0x00,  /*  ........  */
0x00,  /*  ........  */
0x00,  /*  ........  */
0x00,  /*  ........  */
0x00,  /*  ........  */
0x00,  /*  ........  */
0x00   /*  ........  */
}}
,

/* Element 0x00A5 - Char 0x00B5 */
{{5, 10},{
0x00,  /*  ........  */
0x00,  /*  ........  */
0x90,  /*  %..%....  */
0x90,  /*  %..%....  */
0x90,  /*  %..%....  */
0x90,  /*  %..%....  */
0x90,  /*  %..%....  */
0xF0,  /*  %%%%....  */
0x80,  /*  %.......  */
0x80   /*  %.......  */
}}
,

/* Element 0x00A6 - Char 0x00B6 */
{{7, 10},{
0x7C,  /*  .%%%%%..  */
0xA8,  /*  %.%.%...  */
0xA8,  /*  %.%.%...  */
0x68,  /*  .%%.%...  */
0x28,  /*  ..%.%...  */
0x28,  /*  ..%.%...  */
0x28,  /*  ..%.%...  */
0x28,  /*  ..%.%...  */
0x6C,  /*  .%%.%%..  */
0x00   /*  ........  */
}}
,

/* Element 0x00A7 - Char 0x00B7 */
{{3, 10},{
0x00,  /*  ........  */
0x00,  /*  ........  */
0x00,  /*  ........  */
0x00,  /*  ........  */
0xC0,  /*  %%......  */
0xC0,  /*  %%......  */
0x00,  /*  ........  */
0x00,  /*  ........  */
0x00,  /*  ........  */
0x00   /*  ........  */
}}
,

/* Element 0x00A8 - Char 0x00B8 */
{{2, 10},{
0x00,  /*  ........  */
0x00,  /*  ........  */
0x00,  /*  ........  */
0x00,  /*  ........  */
0x00,  /*  ........  */
0x00,  /*  ........  */
0x00,  /*  ........  */
0x00,  /*  ........  */
0x80,  /*  %.......  */
0x80   /*  %.......  */
}}
,

/* Element 0x00A9 - Char 0x00B9 */
{{3, 10},{
0x40,  /*  .%......  */
0xC0,  /*  %%......  */
0x40,  /*  .%......  */
0x40,  /*  .%......  */
0x40,  /*  .%......  */
0x00,  /*  ........  */
0x00,  /*  ........  */
0x00,  /*  ........  */
0x00,  /*  ........  */
0x00   /*  ........  */
}}
,

/* Element 0x00AA - Char 0x00BA */
{{5, 10},{
0x60,  /*  .%%.....  */
0x90,  /*  %..%....  */
0x90,  /*  %..%....  */
0x90,  /*  %..%....  */
0x60,  /*  .%%.....  */
0x00,  /*  ........  */
0x00,  /*  ........  */
0x00,  /*  ........  */
0x00,  /*  ........  */
0x00   /*  ........  */
}}
,

/* Element 0x00AB - Char 0x00BB */
{{7, 10},{
0x00,  /*  ........  */
0x00,  /*  ........  */
0x00,  /*  ........  */
0x90,  /*  %..%....  */
0x48,  /*  .%..%...  */
0x24,  /*  ..%..%..  */
0x48,  /*  .%..%...  */
0x90,  /*  %..%....  */
0x00,  /*  ........  */
0x00   /*  ........  */
}}
,

/* Element 0x00AC - Char 0x00BC */
{{8, 10},{
0x00,  /*  ........  */
0x44,  /*  .%...%..  */
0xC8,  /*  %%..%...  */
0x50,  /*  .%.%....  */
0x54,  /*  .%.%.%..  */
0x2C,  /*  ..%.%%..  */
0x4E,  /*  .%..%%%.  */
0x84,  /*  %....%..  */
0x00,  /*  ........  */
0x00   /*  ........  */
}}
,

/* Element 0x00AD - Char 0x00BD */
{{8, 10},{
0x00,  /*  ........  */
0x44,  /*  .%...%..  */
0xC8,  /*  %%..%...  */
0x50,  /*  .%.%....  */
0x5C,  /*  .%.%%%..  */
0x22,  /*  ..%...%.  */
0x44,  /*  .%...%..  */
0x8E,  /*  %...%%%.  */
0x00,  /*  ........  */
0x00   /*  ........  */
}}
,

/* Element 0x00AE - Char 0x00BE */
{{8, 10},{
0x00,  /*  ........  */
0x44,  /*  .%...%..  */
0xC8,  /*  %%..%...  */
0x50,  /*  .%.%....  */
0x54,  /*  .%.%.%..  */
0x2C,  /*  ..%.%%..  */
0x4E,  /*  .%..%%%.  */
0x84,  /*  %....%..  */
0x00,  /*  ........  */
0x00   /*  ........  */
}}
,

/* Element 0x00AF - Char 0x00BF */
{{5, 10},{
0x40,  /*  .%......  */
0x40,  /*  .%......  */
0x00,  /*  ........  */
0x40,  /*  .%......  */
0x20,  /*  ..%.....  */
0x10,  /*  ...%....  */
0x90,  /*  %..%....  */
0x60,  /*  .%%.....  */
0x00,  /*  ........  */
0x00   /*  ........  */
}}
,

/* Element 0x00B0 - Char 0x00C0 */
{{6, 10},{
0x40,  /*  .%......  */
0x20,  /*  ..%.....  */
0x00,  /*  ........  */
0x20,  /*  ..%.....  */
0x50,  /*  .%.%....  */
0x50,  /*  .%.%....  */
0xF8,  /*  %%%%%...  */
0x88,  /*  %...%...  */
0x00,  /*  ........  */
0x00   /*  ........  */
}}
,

/* Element 0x00B1 - Char 0x00C1 */
{{6, 10},{
0x10,  /*  ...%....  */
0x20,  /*  ..%.....  */
0x00,  /*  ........  */
0x20,  /*  ..%.....  */
0x50,  /*  .%.%....  */
0x50,  /*  .%.%....  */
0xF8,  /*  %%%%%...  */
0x88,  /*  %...%...  */
0x00,  /*  ........  */
0x00   /*  ........  */
}}
,

/* Element 0x00B2 - Char 0x00C2 */
{{6, 10},{
0x20,  /*  ..%.....  */
0x50,  /*  .%.%....  */
0x00,  /*  ........  */
0x20,  /*  ..%.....  */
0x50,  /*  .%.%....  */
0x50,  /*  .%.%....  */
0xF8,  /*  %%%%%...  */
0x88,  /*  %...%...  */
0x00,  /*  ........  */
0x00   /*  ........  */
}}
,

/* Element 0x00B3 - Char 0x00C3 */
{{6, 10},{
0x28,  /*  ..%.%...  */
0x50,  /*  .%.%....  */
0x00,  /*  ........  */
0x20,  /*  ..%.....  */
0x50,  /*  .%.%....  */
0x50,  /*  .%.%....  */
0xF8,  /*  %%%%%...  */
0x88,  /*  %...%...  */
0x00,  /*  ........  */
0x00   /*  ........  */
}}
,

/* Element 0x00B4 - Char 0x00C4 */
{{6, 10},{
0x50,  /*  .%.%....  */
0x00,  /*  ........  */
0x20,  /*  ..%.....  */
0x50,  /*  .%.%....  */
0x50,  /*  .%.%....  */
0xF8,  /*  %%%%%...  */
0x88,  /*  %...%...  */
0x88,  /*  %...%...  */
0x00,  /*  ........  */
0x00   /*  ........  */
}}
,

/* Element 0x00B5 - Char 0x00C5 */
{{6, 10},{
0x20,  /*  ..%.....  */
0x50,  /*  .%.%....  */
0x20,  /*  ..%.....  */
0x20,  /*  ..%.....  */
0x50,  /*  .%.%....  */
0x50,  /*  .%.%....  */
0xF8,  /*  %%%%%...  */
0x88,  /*  %...%...  */
0x00,  /*  ........  */
0x00   /*  ........  */
}}
,

/* Element 0x00B6 - Char 0x00C6 */
{{8, 10},{
0x3E,  /*  ..%%%%%.  */
0x30,  /*  ..%%....  */
0x70,  /*  .%%%....  */
0x5C,  /*  .%.%%%..  */
0x70,  /*  .%%%....  */
0x90,  /*  %..%....  */
0x90,  /*  %..%....  */
0x9E,  /*  %..%%%%.  */
0x00,  /*  ........  */
0x00   /*  ........  */
}}
,

/* Element 0x00B7 - Char 0x00C7 */
{{6, 10},{
0x70,  /*  .%%%....  */
0x88,  /*  %...%...  */
0x80,  /*  %.......  */
0x80,  /*  %.......  */
0x80,  /*  %.......  */
0x80,  /*  %.......  */
0x88,  /*  %...%...  */
0x70,  /*  .%%%....  */
0x10,  /*  ...%....  */
0x20   /*  ..%.....  */
}}
,

/* Element 0x00B8 - Char 0x00C8 */
{{6, 10},{
0x40,  /*  .%......  */
0x20,  /*  ..%.....  */
0xF8,  /*  %%%%%...  */
0x80,  /*  %.......  */
0xF0,  /*  %%%%....  */
0x80,  /*  %.......  */
0x80,  /*  %.......  */
0xF8,  /*  %%%%%...  */
0x00,  /*  ........  */
0x00   /*  ........  */
}}
,

/* Element 0x00B9 - Char 0x00C9 */
{{6, 10},{
0x10,  /*  ...%....  */
0x20,  /*  ..%.....  */
0xF8,  /*  %%%%%...  */
0x80,  /*  %.......  */
0xF0,  /*  %%%%....  */
0x80,  /*  %.......  */
0x80,  /*  %.......  */
0xF8,  /*  %%%%%...  */
0x00,  /*  ........  */
0x00   /*  ........  */
}}
,

/* Element 0x00BA - Char 0x00CA */
{{6, 10},{
0x20,  /*  ..%.....  */
0x50,  /*  .%.%....  */
0xF8,  /*  %%%%%...  */
0x80,  /*  %.......  */
0xF0,  /*  %%%%....  */
0x80,  /*  %.......  */
0x80,  /*  %.......  */
0xF8,  /*  %%%%%...  */
0x00,  /*  ........  */
0x00   /*  ........  */
}}
,

/* Element 0x00BB - Char 0x00CB */
{{6, 10},{
0x50,  /*  .%.%....  */
0x00,  /*  ........  */
0xF8,  /*  %%%%%...  */
0x80,  /*  %.......  */
0xF0,  /*  %%%%....  */
0x80,  /*  %.......  */
0x80,  /*  %.......  */
0xF8,  /*  %%%%%...  */
0x00,  /*  ........  */
0x00   /*  ........  */
}}
,

/* Element 0x00BC - Char 0x00CC */
{{3, 10},{
0x80,  /*  %.......  */
0x40,  /*  .%......  */
0x80,  /*  %.......  */
0x80,  /*  %.......  */
0x80,  /*  %.......  */
0x80,  /*  %.......  */
0x80,  /*  %.......  */
0x80,  /*  %.......  */
0x00,  /*  ........  */
0x00   /*  ........  */
}}
,

/* Element 0x00BD - Char 0x00CD */
{{3, 10},{
0x40,  /*  .%......  */
0x80,  /*  %.......  */
0x40,  /*  .%......  */
0x40,  /*  .%......  */
0x40,  /*  .%......  */
0x40,  /*  .%......  */
0x40,  /*  .%......  */
0x40,  /*  .%......  */
0x00,  /*  ........  */
0x00   /*  ........  */
}}
,

/* Element 0x00BE - Char 0x00CE */
{{4, 10},{
0x40,  /*  .%......  */
0xA0,  /*  %.%.....  */
0x40,  /*  .%......  */
0x40,  /*  .%......  */
0x40,  /*  .%......  */
0x40,  /*  .%......  */
0x40,  /*  .%......  */
0x40,  /*  .%......  */
0x00,  /*  ........  */
0x00   /*  ........  */
}}
,

/* Element 0x00BF - Char 0x00CF */
{{4, 10},{
0xA0,  /*  %.%.....  */
0x00,  /*  ........  */
0x40,  /*  .%......  */
0x40,  /*  .%......  */
0x40,  /*  .%......  */
0x40,  /*  .%......  */
0x40,  /*  .%......  */
0x40,  /*  .%......  */
0x00,  /*  ........  */
0x00   /*  ........  */
}}
,

/* Element 0x00C0 - Char 0x00D0 */
{{7, 10},{
0x78,  /*  .%%%%...  */
0x44,  /*  .%...%..  */
0x44,  /*  .%...%..  */
0xE4,  /*  %%%..%..  */
0x44,  /*  .%...%..  */
0x44,  /*  .%...%..  */
0x44,  /*  .%...%..  */
0x78,  /*  .%%%%...  */
0x00,  /*  ........  */
0x00   /*  ........  */
}}
,

/* Element 0x00C1 - Char 0x00D1 */
{{6, 10},{
0x28,  /*  ..%.%...  */
0x50,  /*  .%.%....  */
0x00,  /*  ........  */
0x88,  /*  %...%...  */
0xC8,  /*  %%..%...  */
0xA8,  /*  %.%.%...  */
0x98,  /*  %..%%...  */
0x88,  /*  %...%...  */
0x00,  /*  ........  */
0x00   /*  ........  */
}}
,

/* Element 0x00C2 - Char 0x00D2 */
{{6, 10},{
0x40,  /*  .%......  */
0x20,  /*  ..%.....  */
0x70,  /*  .%%%....  */
0x88,  /*  %...%...  */
0x88,  /*  %...%...  */
0x88,  /*  %...%...  */
0x88,  /*  %...%...  */
0x70,  /*  .%%%....  */
0x00,  /*  ........  */
0x00   /*  ........  */
}}
,

/* Element 0x00C3 - Char 0x00D3 */
{{6, 10},{
0x10,  /*  ...%....  */
0x20,  /*  ..%.....  */
0x70,  /*  .%%%....  */
0x88,  /*  %...%...  */
0x88,  /*  %...%...  */
0x88,  /*  %...%...  */
0x88,  /*  %...%...  */
0x70,  /*  .%%%....  */
0x00,  /*  ........  */
0x00   /*  ........  */
}}
,

/* Element 0x00C4 - Char 0x00D4 */
{{6, 10},{
0x20,  /*  ..%.....  */
0x50,  /*  .%.%....  */
0x70,  /*  .%%%....  */
0x88,  /*  %...%...  */
0x88,  /*  %...%...  */
0x88,  /*  %...%...  */
0x88,  /*  %...%...  */
0x70,  /*  .%%%....  */
0x00,  /*  ........  */
0x00   /*  ........  */
}}
,

/* Element 0x00C5 - Char 0x00D5 */
{{6, 10},{
0x28,  /*  ..%.%...  */
0x50,  /*  .%.%....  */
0x70,  /*  .%%%....  */
0x88,  /*  %...%...  */
0x88,  /*  %...%...  */
0x88,  /*  %...%...  */
0x88,  /*  %...%...  */
0x70,  /*  .%%%....  */
0x00,  /*  ........  */
0x00   /*  ........  */
}}
,

/* Element 0x00C6 - Char 0x00D6 */
{{6, 10},{
0x50,  /*  .%.%....  */
0x00,  /*  ........  */
0x70,  /*  .%%%....  */
0x88,  /*  %...%...  */
0x88,  /*  %...%...  */
0x88,  /*  %...%...  */
0x88,  /*  %...%...  */
0x70,  /*  .%%%....  */
0x00,  /*  ........  */
0x00   /*  ........  */
}}
,

/* Element 0x00C7 - Char 0x00D7 */
{{5, 10},{
0x00,  /*  ........  */
0x00,  /*  ........  */
0x00,  /*  ........  */
0x90,  /*  %..%....  */
0x60,  /*  .%%.....  */
0x60,  /*  .%%.....  */
0x90,  /*  %..%....  */
0x00,  /*  ........  */
0x00,  /*  ........  */
0x00   /*  ........  */
}}
,

/* Element 0x00C8 - Char 0x00D8 */
{{8, 10},{
0x3A,  /*  ..%%%.%.  */
0x44,  /*  .%...%..  */
0x4C,  /*  .%..%%..  */
0x54,  /*  .%.%.%..  */
0x54,  /*  .%.%.%..  */
0x64,  /*  .%%..%..  */
0x44,  /*  .%...%..  */
0xB8,  /*  %.%%%...  */
0x00,  /*  ........  */
0x00   /*  ........  */
}}
,

/* Element 0x00C9 - Char 0x00D9 */
{{6, 10},{
0x40,  /*  .%......  */
0x20,  /*  ..%.....  */
0x88,  /*  %...%...  */
0x88,  /*  %...%...  */
0x88,  /*  %...%...  */
0x88,  /*  %...%...  */
0x88,  /*  %...%...  */
0x70,  /*  .%%%....  */
0x00,  /*  ........  */
0x00   /*  ........  */
}}
,

/* Element 0x00CA - Char 0x00DA */
{{6, 10},{
0x10,  /*  ...%....  */
0x20,  /*  ..%.....  */
0x88,  /*  %...%...  */
0x88,  /*  %...%...  */
0x88,  /*  %...%...  */
0x88,  /*  %...%...  */
0x88,  /*  %...%...  */
0x70,  /*  .%%%....  */
0x00,  /*  ........  */
0x00   /*  ........  */
}}
,

/* Element 0x00CB - Char 0x00DB */
{{6, 10},{
0x20,  /*  ..%.....  */
0x50,  /*  .%.%....  */
0x88,  /*  %...%...  */
0x88,  /*  %...%...  */
0x88,  /*  %...%...  */
0x88,  /*  %...%...  */
0x88,  /*  %...%...  */
0x70,  /*  .%%%....  */
0x00,  /*  ........  */
0x00   /*  ........  */
}}
,

/* Element 0x00CC - Char 0x00DC */
{{6, 10},{
0x50,  /*  .%.%....  */
0x00,  /*  ........  */
0x88,  /*  %...%...  */
0x88,  /*  %...%...  */
0x88,  /*  %...%...  */
0x88,  /*  %...%...  */
0x88,  /*  %...%...  */
0x70,  /*  .%%%....  */
0x00,  /*  ........  */
0x00   /*  ........  */
}}
,

/* Element 0x00CD - Char 0x00DD */
{{6, 10},{
0x10,  /*  ...%....  */
0x20,  /*  ..%.....  */
0x88,  /*  %...%...  */
0x88,  /*  %...%...  */
0x50,  /*  .%.%....  */
0x70,  /*  .%%%....  */
0x20,  /*  ..%.....  */
0x20,  /*  ..%.....  */
0x00,  /*  ........  */
0x00   /*  ........  */
}}
,

/* Element 0x00CE - Char 0x00DE */
{{5, 10},{
0x80,  /*  %.......  */
0x80,  /*  %.......  */
0xE0,  /*  %%%.....  */
0x90,  /*  %..%....  */
0x90,  /*  %..%....  */
0xE0,  /*  %%%.....  */
0x80,  /*  %.......  */
0x80,  /*  %.......  */
0x00,  /*  ........  */
0x00   /*  ........  */
}}
,

/* Element 0x00CF - Char 0x00DF */
{{6, 10},{
0x60,  /*  .%%.....  */
0x90,  /*  %..%....  */
0xA0,  /*  %.%.....  */
0xA0,  /*  %.%.....  */
0x90,  /*  %..%....  */
0x88,  /*  %...%...  */
0x88,  /*  %...%...  */
0xB0,  /*  %.%%....  */
0x00,  /*  ........  */
0x00   /*  ........  */
}}
,

/* Element 0x00D0 - Char 0x00E0 */
{{5, 10},{
0x40,  /*  .%......  */
0x20,  /*  ..%.....  */
0x00,  /*  ........  */
0x60,  /*  .%%.....  */
0x10,  /*  ...%....  */
0x70,  /*  .%%%....  */
0x90,  /*  %..%....  */
0x70,  /*  .%%%....  */
0x00,  /*  ........  */
0x00   /*  ........  */
}}
,

/* Element 0x00D1 - Char 0x00E1 */
{{5, 10},{
0x10,  /*  ...%....  */
0x20,  /*  ..%.....  */
0x00,  /*  ........  */
0x60,  /*  .%%.....  */
0x10,  /*  ...%....  */
0x70,  /*  .%%%....  */
0x90,  /*  %..%....  */
0x70,  /*  .%%%....  */
0x00,  /*  ........  */
0x00   /*  ........  */
}}
,

/* Element 0x00D2 - Char 0x00E2 */
{{5, 10},{
0x20,  /*  ..%.....  */
0x50,  /*  .%.%....  */
0x00,  /*  ........  */
0x60,  /*  .%%.....  */
0x10,  /*  ...%....  */
0x70,  /*  .%%%....  */
0x90,  /*  %..%....  */
0x70,  /*  .%%%....  */
0x00,  /*  ........  */
0x00   /*  ........  */
}}
,

/* Element 0x00D3 - Char 0x00E3 */
{{5, 10},{
0x50,  /*  .%.%....  */
0xA0,  /*  %.%.....  */
0x00,  /*  ........  */
0x60,  /*  .%%.....  */
0x10,  /*  ...%....  */
0x70,  /*  .%%%....  */
0x90,  /*  %..%....  */
0x70,  /*  .%%%....  */
0x00,  /*  ........  */
0x00   /*  ........  */
}}
,

/* Element 0x00D4 - Char 0x00E4 */
{{5, 10},{
0x00,  /*  ........  */
0x50,  /*  .%.%....  */
0x00,  /*  ........  */
0x60,  /*  .%%.....  */
0x10,  /*  ...%....  */
0x70,  /*  .%%%....  */
0x90,  /*  %..%....  */
0x70,  /*  .%%%....  */
0x00,  /*  ........  */
0x00   /*  ........  */
}}
,

/* Element 0x00D5 - Char 0x00E5 */
{{5, 10},{
0x20,  /*  ..%.....  */
0x50,  /*  .%.%....  */
0x20,  /*  ..%.....  */
0x60,  /*  .%%.....  */
0x10,  /*  ...%....  */
0x70,  /*  .%%%....  */
0x90,  /*  %..%....  */
0x70,  /*  .%%%....  */
0x00,  /*  ........  */
0x00   /*  ........  */
}}
,

/* Element 0x00D6 - Char 0x00E6 */
{{8, 10},{
0x00,  /*  ........  */
0x00,  /*  ........  */
0x6C,  /*  .%%.%%..  */
0x12,  /*  ...%..%.  */
0x6E,  /*  .%%.%%%.  */
0x90,  /*  %..%....  */
0x92,  /*  %..%..%.  */
0x6C,  /*  .%%.%%..  */
0x00,  /*  ........  */
0x00   /*  ........  */
}}
,

/* Element 0x00D7 - Char 0x00E7 */
{{5, 10},{
0x00,  /*  ........  */
0x00,  /*  ........  */
0x60,  /*  .%%.....  */
0x90,  /*  %..%....  */
0x80,  /*  %.......  */
0x80,  /*  %.......  */
0x90,  /*  %..%....  */
0x60,  /*  .%%.....  */
0x20,  /*  ..%.....  */
0x40   /*  .%......  */
}}
,

/* Element 0x00D8 - Char 0x00E8 */
{{5, 10},{
0x40,  /*  .%......  */
0x20,  /*  ..%.....  */
0x00,  /*  ........  */
0x60,  /*  .%%.....  */
0x90,  /*  %..%....  */
0xF0,  /*  %%%%....  */
0x80,  /*  %.......  */
0x70,  /*  .%%%....  */
0x00,  /*  ........  */
0x00   /*  ........  */
}}
,

/* Element 0x00D9 - Char 0x00E9 */
{{5, 10},{
0x10,  /*  ...%....  */
0x20,  /*  ..%.....  */
0x00,  /*  ........  */
0x60,  /*  .%%.....  */
0x90,  /*  %..%....  */
0xF0,  /*  %%%%....  */
0x80,  /*  %.......  */
0x70,  /*  .%%%....  */
0x00,  /*  ........  */
0x00   /*  ........  */
}}
,

/* Element 0x00DA - Char 0x00EA */
{{5, 10},{
0x20,  /*  ..%.....  */
0x50,  /*  .%.%....  */
0x00,  /*  ........  */
0x60,  /*  .%%.....  */
0x90,  /*  %..%....  */
0xF0,  /*  %%%%....  */
0x80,  /*  %.......  */
0x70,  /*  .%%%....  */
0x00,  /*  ........  */
0x00   /*  ........  */
}}
,

/* Element 0x00DB - Char 0x00EB */
{{5, 10},{
0x00,  /*  ........  */
0x50,  /*  .%.%....  */
0x00,  /*  ........  */
0x60,  /*  .%%.....  */
0x90,  /*  %..%....  */
0xF0,  /*  %%%%....  */
0x80,  /*  %.......  */
0x70,  /*  .%%%....  */
0x00,  /*  ........  */
0x00   /*  ........  */
}}
,

/* Element 0x00DC - Char 0x00EC */
{{3, 10},{
0x80,  /*  %.......  */
0x40,  /*  .%......  */
0x00,  /*  ........  */
0x80,  /*  %.......  */
0x80,  /*  %.......  */
0x80,  /*  %.......  */
0x80,  /*  %.......  */
0x80,  /*  %.......  */
0x00,  /*  ........  */
0x00   /*  ........  */
}}
,

/* Element 0x00DD - Char 0x00ED */
{{3, 10},{
0x40,  /*  .%......  */
0x80,  /*  %.......  */
0x00,  /*  ........  */
0x40,  /*  .%......  */
0x40,  /*  .%......  */
0x40,  /*  .%......  */
0x40,  /*  .%......  */
0x40,  /*  .%......  */
0x00,  /*  ........  */
0x00   /*  ........  */
}}
,

/* Element 0x00DE - Char 0x00EE */
{{4, 10},{
0x40,  /*  .%......  */
0xA0,  /*  %.%.....  */
0x00,  /*  ........  */
0x40,  /*  .%......  */
0x40,  /*  .%......  */
0x40,  /*  .%......  */
0x40,  /*  .%......  */
0x40,  /*  .%......  */
0x00,  /*  ........  */
0x00   /*  ........  */
}}
,

/* Element 0x00DF - Char 0x00EF */
{{4, 10},{
0x00,  /*  ........  */
0xA0,  /*  %.%.....  */
0x00,  /*  ........  */
0x40,  /*  .%......  */
0x40,  /*  .%......  */
0x40,  /*  .%......  */
0x40,  /*  .%......  */
0x40,  /*  .%......  */
0x00,  /*  ........  */
0x00   /*  ........  */
}}
,

/* Element 0x00E0 - Char 0x00F0 */
{{5, 10},{
0x40,  /*  .%......  */
0x70,  /*  .%%%....  */
0x20,  /*  ..%.....  */
0x70,  /*  .%%%....  */
0x90,  /*  %..%....  */
0x90,  /*  %..%....  */
0x90,  /*  %..%....  */
0x70,  /*  .%%%....  */
0x00,  /*  ........  */
0x00   /*  ........  */
}}
,

/* Element 0x00E1 - Char 0x00F1 */
{{5, 10},{
0x50,  /*  .%.%....  */
0xA0,  /*  %.%.....  */
0x00,  /*  ........  */
0xE0,  /*  %%%.....  */
0x90,  /*  %..%....  */
0x90,  /*  %..%....  */
0x90,  /*  %..%....  */
0x90,  /*  %..%....  */
0x00,  /*  ........  */
0x00   /*  ........  */
}}
,

/* Element 0x00E2 - Char 0x00F2 */
{{5, 10},{
0x40,  /*  .%......  */
0x20,  /*  ..%.....  */
0x60,  /*  .%%.....  */
0x90,  /*  %..%....  */
0x90,  /*  %..%....  */
0x90,  /*  %..%....  */
0x90,  /*  %..%....  */
0x60,  /*  .%%.....  */
0x00,  /*  ........  */
0x00   /*  ........  */
}}
,

/* Element 0x00E3 - Char 0x00F3 */
{{5, 10},{
0x20,  /*  ..%.....  */
0x40,  /*  .%......  */
0x60,  /*  .%%.....  */
0x90,  /*  %..%....  */
0x90,  /*  %..%....  */
0x90,  /*  %..%....  */
0x90,  /*  %..%....  */
0x60,  /*  .%%.....  */
0x00,  /*  ........  */
0x00   /*  ........  */
}}
,

/* Element 0x00E4 - Char 0x00F4 */
{{5, 10},{
0x20,  /*  ..%.....  */
0x50,  /*  .%.%....  */
0x60,  /*  .%%.....  */
0x90,  /*  %..%....  */
0x90,  /*  %..%....  */
0x90,  /*  %..%....  */
0x90,  /*  %..%....  */
0x60,  /*  .%%.....  */
0x00,  /*  ........  */
0x00   /*  ........  */
}}
,

/* Element 0x00E5 - Char 0x00F5 */
{{5, 10},{
0x50,  /*  .%.%....  */
0xA0,  /*  %.%.....  */
0x60,  /*  .%%.....  */
0x90,  /*  %..%....  */
0x90,  /*  %..%....  */
0x90,  /*  %..%....  */
0x90,  /*  %..%....  */
0x60,  /*  .%%.....  */
0x00,  /*  ........  */
0x00   /*  ........  */
}}
,

/* Element 0x00E6 - Char 0x00F6 */
{{5, 10},{
0x50,  /*  .%.%....  */
0x00,  /*  ........  */
0x60,  /*  .%%.....  */
0x90,  /*  %..%....  */
0x90,  /*  %..%....  */
0x90,  /*  %..%....  */
0x90,  /*  %..%....  */
0x60,  /*  .%%.....  */
0x00,  /*  ........  */
0x00   /*  ........  */
}}
,

/* Element 0x00E7 - Char 0x00F7 */
{{6, 10},{
0x00,  /*  ........  */
0x00,  /*  ........  */
0x20,  /*  ..%.....  */
0x00,  /*  ........  */
0xF8,  /*  %%%%%...  */
0x00,  /*  ........  */
0x20,  /*  ..%.....  */
0x00,  /*  ........  */
0x00,  /*  ........  */
0x00   /*  ........  */
}}
,

/* Element 0x00E8 - Char 0x00F8 */
{{7, 10},{
0x00,  /*  ........  */
0x00,  /*  ........  */
0x34,  /*  ..%%.%..  */
0x48,  /*  .%..%...  */
0x58,  /*  .%.%%...  */
0x68,  /*  .%%.%...  */
0x48,  /*  .%..%...  */
0xB0,  /*  %.%%....  */
0x00,  /*  ........  */
0x00   /*  ........  */
}}
,

/* Element 0x00E9 - Char 0x00F9 */
{{5, 10},{
0x40,  /*  .%......  */
0x20,  /*  ..%.....  */
0x00,  /*  ........  */
0x90,  /*  %..%....  */
0x90,  /*  %..%....  */
0x90,  /*  %..%....  */
0x90,  /*  %..%....  */
0x70,  /*  .%%%....  */
0x00,  /*  ........  */
0x00   /*  ........  */
}}
,

/* Element 0x00EA - Char 0x00FA */
{{5, 10},{
0x20,  /*  ..%.....  */
0x40,  /*  .%......  */
0x00,  /*  ........  */
0x90,  /*  %..%....  */
0x90,  /*  %..%....  */
0x90,  /*  %..%....  */
0x90,  /*  %..%....  */
0x70,  /*  .%%%....  */
0x00,  /*  ........  */
0x00   /*  ........  */
}}
,

/* Element 0x00EB - Char 0x00FB */
{{5, 10},{
0x20,  /*  ..%.....  */
0x50,  /*  .%.%....  */
0x00,  /*  ........  */
0x90,  /*  %..%....  */
0x90,  /*  %..%....  */
0x90,  /*  %..%....  */
0x90,  /*  %..%....  */
0x70,  /*  .%%%....  */
0x00,  /*  ........  */
0x00   /*  ........  */
}}
,

/* Element 0x00EC - Char 0x00FC */
{{5, 10},{
0x00,  /*  ........  */
0x50,  /*  .%.%....  */
0x00,  /*  ........  */
0x90,  /*  %..%....  */
0x90,  /*  %..%....  */
0x90,  /*  %..%....  */
0x90,  /*  %..%....  */
0x70,  /*  .%%%....  */
0x00,  /*  ........  */
0x00   /*  ........  */
}}
,

/* Element 0x00ED - Char 0x00FD */
{{6, 10},{
0x10,  /*  ...%....  */
0x20,  /*  ..%.....  */
0x88,  /*  %...%...  */
0x88,  /*  %...%...  */
0x50,  /*  .%.%....  */
0x50,  /*  .%.%....  */
0x20,  /*  ..%.....  */
0x20,  /*  ..%.....  */
0x20,  /*  ..%.....  */
0x40   /*  .%......  */
}}
,

/* Element 0x00EE - Char 0x00FE */
{{5, 10},{
0x00,  /*  ........  */
0x80,  /*  %.......  */
0x80,  /*  %.......  */
0xE0,  /*  %%%.....  */
0x90,  /*  %..%....  */
0x90,  /*  %..%....  */
0x90,  /*  %..%....  */
0xE0,  /*  %%%.....  */
0x80,  /*  %.......  */
0x80   /*  %.......  */
}}
,

/* Element 0x00EF - Char 0x00FF */
{{6, 10},{
0x50,  /*  .%.%....  */
0x00,  /*  ........  */
0x88,  /*  %...%...  */
0x88,  /*  %...%...  */
0x50,  /*  .%.%....  */
0x50,  /*  .%.%....  */
0x20,  /*  ..%.....  */
0x20,  /*  ..%.....  */
0x20,  /*  ..%.....  */
0x40   /*  .%......  */
}}

