/*Y 8 16 20 16  CP<narrow20.cp> . narrow20[112]={  narrow20.sym   LCDIcon FileDescriptor: Do not edit or move */
/* Put Your Comments Here */
/* */
/* */
/* */
/* */
/* */
/* */
/* */
/* */
/* */
/* */
/* */
/* */
/* */
/* */
/* */
/* */
/* */
/* */
/* */
/* */

/* Element 0x0000 - Char 0x0010 */
{{7, 20},{
0x00,0x00,  /*  ................  */
0x00,0x00,  /*  ................  */
0x00,0x00,  /*  ................  */
0x00,0x00,  /*  ................  */
0x00,0x00,  /*  ................  */
0x00,0x00,  /*  ................  */
0x00,0x00,  /*  ................  */
0x00,0x00,  /*  ................  */
0x00,0x00,  /*  ................  */
0x00,0x00,  /*  ................  */
0x00,0x00,  /*  ................  */
0x00,0x00,  /*  ................  */
0x00,0x00,  /*  ................  */
0x00,0x00,  /*  ................  */
0x00,0x00,  /*  ................  */
0x00,0x00,  /*  ................  */
0x00,0x00,  /*  ................  */
0x00,0x00,  /*  ................  */
0x00,0x00,  /*  ................  */
0x00,0x00   /*  ................  */
}}
,

/* Element 0x0001 - Char 0x0011 */
{{7, 20},{
0x00,0x00,  /*  ................  */
0x00,0x00,  /*  ................  */
0x00,0x00,  /*  ................  */
0x00,0x00,  /*  ................  */
0x00,0x00,  /*  ................  */
0x00,0x00,  /*  ................  */
0x00,0x00,  /*  ................  */
0x00,0x00,  /*  ................  */
0x00,0x00,  /*  ................  */
0x00,0x00,  /*  ................  */
0x00,0x00,  /*  ................  */
0x00,0x00,  /*  ................  */
0x00,0x00,  /*  ................  */
0x00,0x00,  /*  ................  */
0x00,0x00,  /*  ................  */
0x00,0x00,  /*  ................  */
0x00,0x00,  /*  ................  */
0x00,0x00,  /*  ................  */
0x00,0x00,  /*  ................  */
0x00,0x00   /*  ................  */
}}
,

/* Element 0x0002 - Char 0x0012 */
{{7, 20},{
0x00,0x00,  /*  ................  */
0x00,0x00,  /*  ................  */
0x00,0x00,  /*  ................  */
0x00,0x00,  /*  ................  */
0x00,0x00,  /*  ................  */
0x00,0x00,  /*  ................  */
0x00,0x00,  /*  ................  */
0x00,0x00,  /*  ................  */
0x00,0x00,  /*  ................  */
0x00,0x00,  /*  ................  */
0x00,0x00,  /*  ................  */
0x00,0x00,  /*  ................  */
0x00,0x00,  /*  ................  */
0x00,0x00,  /*  ................  */
0x00,0x00,  /*  ................  */
0x00,0x00,  /*  ................  */
0x00,0x00,  /*  ................  */
0x00,0x00,  /*  ................  */
0x00,0x00,  /*  ................  */
0x00,0x00   /*  ................  */
}}
,

/* Element 0x0003 - Char 0x0013 */
{{7, 20},{
0x00,0x00,  /*  ................  */
0x00,0x00,  /*  ................  */
0x00,0x00,  /*  ................  */
0x00,0x00,  /*  ................  */
0x00,0x00,  /*  ................  */
0x00,0x00,  /*  ................  */
0x00,0x00,  /*  ................  */
0x00,0x00,  /*  ................  */
0x00,0x00,  /*  ................  */
0x00,0x00,  /*  ................  */
0x00,0x00,  /*  ................  */
0x00,0x00,  /*  ................  */
0x00,0x00,  /*  ................  */
0x00,0x00,  /*  ................  */
0x00,0x00,  /*  ................  */
0x00,0x00,  /*  ................  */
0x00,0x00,  /*  ................  */
0x00,0x00,  /*  ................  */
0x00,0x00,  /*  ................  */
0x00,0x00   /*  ................  */
}}
,

/* Element 0x0004 - Char 0x0014 */
{{7, 20},{
0x00,0x00,  /*  ................  */
0x00,0x00,  /*  ................  */
0x00,0x00,  /*  ................  */
0x00,0x00,  /*  ................  */
0x00,0x00,  /*  ................  */
0x00,0x00,  /*  ................  */
0x00,0x00,  /*  ................  */
0x00,0x00,  /*  ................  */
0x00,0x00,  /*  ................  */
0x00,0x00,  /*  ................  */
0x00,0x00,  /*  ................  */
0x00,0x00,  /*  ................  */
0x00,0x00,  /*  ................  */
0x00,0x00,  /*  ................  */
0x00,0x00,  /*  ................  */
0x00,0x00,  /*  ................  */
0x00,0x00,  /*  ................  */
0x00,0x00,  /*  ................  */
0x00,0x00,  /*  ................  */
0x00,0x00   /*  ................  */
}}
,

/* Element 0x0005 - Char 0x0015 */
{{7, 20},{
0x00,0x00,  /*  ................  */
0x00,0x00,  /*  ................  */
0x00,0x00,  /*  ................  */
0x00,0x00,  /*  ................  */
0x00,0x00,  /*  ................  */
0x00,0x00,  /*  ................  */
0x00,0x00,  /*  ................  */
0x00,0x00,  /*  ................  */
0x00,0x00,  /*  ................  */
0x00,0x00,  /*  ................  */
0x00,0x00,  /*  ................  */
0x00,0x00,  /*  ................  */
0x00,0x00,  /*  ................  */
0x00,0x00,  /*  ................  */
0x00,0x00,  /*  ................  */
0x00,0x00,  /*  ................  */
0x00,0x00,  /*  ................  */
0x00,0x00,  /*  ................  */
0x00,0x00,  /*  ................  */
0x00,0x00   /*  ................  */
}}
,

/* Element 0x0006 - Char 0x0016 */
{{7, 20},{
0x00,0x00,  /*  ................  */
0x00,0x00,  /*  ................  */
0x00,0x00,  /*  ................  */
0x00,0x00,  /*  ................  */
0x00,0x00,  /*  ................  */
0x00,0x00,  /*  ................  */
0x00,0x00,  /*  ................  */
0x00,0x00,  /*  ................  */
0x00,0x00,  /*  ................  */
0x00,0x00,  /*  ................  */
0x00,0x00,  /*  ................  */
0x00,0x00,  /*  ................  */
0x00,0x00,  /*  ................  */
0x00,0x00,  /*  ................  */
0x00,0x00,  /*  ................  */
0x00,0x00,  /*  ................  */
0x00,0x00,  /*  ................  */
0x00,0x00,  /*  ................  */
0x00,0x00,  /*  ................  */
0x00,0x00   /*  ................  */
}}
,

/* Element 0x0007 - Char 0x0017 */
{{14, 20},{
0x00,0x00,  /*  ................  */
0x00,0x00,  /*  ................  */
0x00,0x08,  /*  ............%...  */
0x00,0x18,  /*  ...........%%...  */
0x00,0x18,  /*  ...........%%...  */
0x00,0x30,  /*  ..........%%....  */
0x00,0x30,  /*  ..........%%....  */
0x00,0x60,  /*  .........%%.....  */
0x40,0x60,  /*  .%.......%%.....  */
0x60,0xC0,  /*  .%%.....%%......  */
0x70,0xC0,  /*  .%%%....%%......  */
0x79,0x80,  /*  .%%%%..%%.......  */
0x3D,0x80,  /*  ..%%%%.%%.......  */
0x1F,0x00,  /*  ...%%%%%........  */
0x0F,0x00,  /*  ....%%%%........  */
0x06,0x00,  /*  .....%%.........  */
0x00,0x00,  /*  ................  */
0x00,0x00,  /*  ................  */
0x00,0x00,  /*  ................  */
0x00,0x00   /*  ................  */
}}
,

/* Element 0x0008 - Char 0x0018 */
{{16, 20},{
0x00,0x00,  /*  ................  */
0x00,0x00,  /*  ................  */
0x00,0x60,  /*  .........%%.....  */
0x00,0xF0,  /*  ........%%%%....  */
0x01,0xF8,  /*  .......%%%%%%...  */
0x03,0xFC,  /*  ......%%%%%%%%..  */
0x07,0xFE,  /*  .....%%%%%%%%%%.  */
0x00,0x60,  /*  .........%%.....  */
0x00,0x60,  /*  .........%%.....  */
0x00,0x60,  /*  .........%%.....  */
0x00,0x60,  /*  .........%%.....  */
0x7F,0xE0,  /*  .%%%%%%%%%%.....  */
0x7F,0xE0,  /*  .%%%%%%%%%%.....  */
0x00,0x00,  /*  ................  */
0x00,0x00,  /*  ................  */
0x00,0x00,  /*  ................  */
0x00,0x00,  /*  ................  */
0x00,0x00,  /*  ................  */
0x00,0x00,  /*  ................  */
0x00,0x00   /*  ................  */
}}
,

/* Element 0x0009 - Char 0x0019 */
{{16, 20},{
0x00,0x00,  /*  ................  */
0x00,0x00,  /*  ................  */
0x01,0x86,  /*  .......%%....%%.  */
0x03,0x86,  /*  ......%%%....%%.  */
0x07,0x86,  /*  .....%%%%....%%.  */
0x0F,0x86,  /*  ....%%%%%....%%.  */
0x1F,0xFE,  /*  ...%%%%%%%%%%%%.  */
0x3F,0xFE,  /*  ..%%%%%%%%%%%%%.  */
0x7F,0xFE,  /*  .%%%%%%%%%%%%%%.  */
0x7F,0xFE,  /*  .%%%%%%%%%%%%%%.  */
0x3F,0xFE,  /*  ..%%%%%%%%%%%%%.  */
0x1F,0xFE,  /*  ...%%%%%%%%%%%%.  */
0x0F,0x80,  /*  ....%%%%%.......  */
0x07,0x80,  /*  .....%%%%.......  */
0x03,0x80,  /*  ......%%%.......  */
0x01,0x80,  /*  .......%%.......  */
0x00,0x00,  /*  ................  */
0x00,0x00,  /*  ................  */
0x00,0x00,  /*  ................  */
0x00,0x00   /*  ................  */
}}
,

/* Element 0x000A - Char 0x001A */
{{12, 20},{
0x00,0x00,  /*  ................  */
0x00,0x00,  /*  ................  */
0x60,0x60,  /*  .%%......%%.....  */
0x70,0x60,  /*  .%%%.....%%.....  */
0x78,0x60,  /*  .%%%%....%%.....  */
0x7C,0x60,  /*  .%%%%%...%%.....  */
0x7E,0x60,  /*  .%%%%%%..%%.....  */
0x7F,0x60,  /*  .%%%%%%%.%%.....  */
0x7F,0xE0,  /*  .%%%%%%%%%%.....  */
0x7F,0xE0,  /*  .%%%%%%%%%%.....  */
0x7F,0x60,  /*  .%%%%%%%.%%.....  */
0x7E,0x60,  /*  .%%%%%%..%%.....  */
0x7C,0x60,  /*  .%%%%%...%%.....  */
0x78,0x60,  /*  .%%%%....%%.....  */
0x70,0x60,  /*  .%%%.....%%.....  */
0x60,0x60,  /*  .%%......%%.....  */
0x00,0x00,  /*  ................  */
0x00,0x00,  /*  ................  */
0x00,0x00,  /*  ................  */
0x00,0x00   /*  ................  */
}}
,

/* Element 0x000B - Char 0x001B */
{{12, 20},{
0x00,0x00,  /*  ................  */
0x00,0x00,  /*  ................  */
0x60,0x60,  /*  .%%......%%.....  */
0x60,0xE0,  /*  .%%.....%%%.....  */
0x61,0xE0,  /*  .%%....%%%%.....  */
0x63,0xE0,  /*  .%%...%%%%%.....  */
0x67,0xE0,  /*  .%%..%%%%%%.....  */
0x6F,0xE0,  /*  .%%.%%%%%%%.....  */
0x7F,0xE0,  /*  .%%%%%%%%%%.....  */
0x7F,0xE0,  /*  .%%%%%%%%%%.....  */
0x6F,0xE0,  /*  .%%.%%%%%%%.....  */
0x67,0xE0,  /*  .%%..%%%%%%.....  */
0x63,0xE0,  /*  .%%...%%%%%.....  */
0x61,0xE0,  /*  .%%....%%%%.....  */
0x60,0xE0,  /*  .%%.....%%%.....  */
0x60,0x60,  /*  .%%......%%.....  */
0x00,0x00,  /*  ................  */
0x00,0x00,  /*  ................  */
0x00,0x00,  /*  ................  */
0x00,0x00   /*  ................  */
}}
,

/* Element 0x000C - Char 0x001C */
{{16, 20},{
0x00,0x00,  /*  ................  */
0x00,0x00,  /*  ................  */
0x00,0x00,  /*  ................  */
0x00,0x00,  /*  ................  */
0x00,0x00,  /*  ................  */
0x00,0x00,  /*  ................  */
0x7F,0xFE,  /*  .%%%%%%%%%%%%%%.  */
0x7F,0xFE,  /*  .%%%%%%%%%%%%%%.  */
0x3F,0xFC,  /*  ..%%%%%%%%%%%%..  */
0x1F,0xF8,  /*  ...%%%%%%%%%%...  */
0x0F,0xF0,  /*  ....%%%%%%%%....  */
0x07,0xE0,  /*  .....%%%%%%.....  */
0x03,0xC0,  /*  ......%%%%......  */
0x01,0x80,  /*  .......%%.......  */
0x00,0x00,  /*  ................  */
0x00,0x00,  /*  ................  */
0x00,0x00,  /*  ................  */
0x00,0x00,  /*  ................  */
0x00,0x00,  /*  ................  */
0x00,0x00   /*  ................  */
}}
,

/* Element 0x000D - Char 0x001D */
{{16, 20},{
0x00,0x00,  /*  ................  */
0x00,0x00,  /*  ................  */
0x00,0x00,  /*  ................  */
0x00,0x00,  /*  ................  */
0x01,0x80,  /*  .......%%.......  */
0x03,0xC0,  /*  ......%%%%......  */
0x07,0xE0,  /*  .....%%%%%%.....  */
0x0F,0xF0,  /*  ....%%%%%%%%....  */
0x1F,0xF8,  /*  ...%%%%%%%%%%...  */
0x3F,0xFC,  /*  ..%%%%%%%%%%%%..  */
0x7F,0xFE,  /*  .%%%%%%%%%%%%%%.  */
0x7F,0xFE,  /*  .%%%%%%%%%%%%%%.  */
0x00,0x00,  /*  ................  */
0x00,0x00,  /*  ................  */
0x00,0x00,  /*  ................  */
0x00,0x00,  /*  ................  */
0x00,0x00,  /*  ................  */
0x00,0x00,  /*  ................  */
0x00,0x00,  /*  ................  */
0x00,0x00   /*  ................  */
}}
,

/* Element 0x000E - Char 0x001E */
{{10, 20},{
0x00,0x00,  /*  ................  */
0x00,0x00,  /*  ................  */
0x01,0x80,  /*  .......%%.......  */
0x03,0x80,  /*  ......%%%.......  */
0x07,0x80,  /*  .....%%%%.......  */
0x0F,0x80,  /*  ....%%%%%.......  */
0x1F,0x80,  /*  ...%%%%%%.......  */
0x3F,0x80,  /*  ..%%%%%%%.......  */
0x7F,0x80,  /*  .%%%%%%%%.......  */
0x7F,0x80,  /*  .%%%%%%%%.......  */
0x3F,0x80,  /*  ..%%%%%%%.......  */
0x1F,0x80,  /*  ...%%%%%%.......  */
0x0F,0x80,  /*  ....%%%%%.......  */
0x07,0x80,  /*  .....%%%%.......  */
0x03,0x80,  /*  ......%%%.......  */
0x01,0x80,  /*  .......%%.......  */
0x00,0x00,  /*  ................  */
0x00,0x00,  /*  ................  */
0x00,0x00,  /*  ................  */
0x00,0x00   /*  ................  */
}}
,

/* Element 0x000F - Char 0x001F */
{{10, 20},{
0x00,0x00,  /*  ................  */
0x00,0x00,  /*  ................  */
0x60,0x00,  /*  .%%.............  */
0x70,0x00,  /*  .%%%............  */
0x78,0x00,  /*  .%%%%...........  */
0x7C,0x00,  /*  .%%%%%..........  */
0x7E,0x00,  /*  .%%%%%%.........  */
0x7F,0x00,  /*  .%%%%%%%........  */
0x7F,0x80,  /*  .%%%%%%%%.......  */
0x7F,0x80,  /*  .%%%%%%%%.......  */
0x7F,0x00,  /*  .%%%%%%%........  */
0x7E,0x00,  /*  .%%%%%%.........  */
0x7C,0x00,  /*  .%%%%%..........  */
0x78,0x00,  /*  .%%%%...........  */
0x70,0x00,  /*  .%%%............  */
0x60,0x00,  /*  .%%.............  */
0x00,0x00,  /*  ................  */
0x00,0x00,  /*  ................  */
0x00,0x00,  /*  ................  */
0x00,0x00   /*  ................  */
}}
,

/* Element 0x0010 - Char 0x0020 */
{{7, 20},{
0x00,0x00,  /*  ................  */
0x00,0x00,  /*  ................  */
0x00,0x00,  /*  ................  */
0x00,0x00,  /*  ................  */
0x00,0x00,  /*  ................  */
0x00,0x00,  /*  ................  */
0x00,0x00,  /*  ................  */
0x00,0x00,  /*  ................  */
0x00,0x00,  /*  ................  */
0x00,0x00,  /*  ................  */
0x00,0x00,  /*  ................  */
0x00,0x00,  /*  ................  */
0x00,0x00,  /*  ................  */
0x00,0x00,  /*  ................  */
0x00,0x00,  /*  ................  */
0x00,0x00,  /*  ................  */
0x00,0x00,  /*  ................  */
0x00,0x00,  /*  ................  */
0x00,0x00,  /*  ................  */
0x00,0x00   /*  ................  */
}}
,

/* Element 0x0011 - Char 0x0021 */
{{4, 20},{
0x60,0x00,  /*  .%%.............  */
0x60,0x00,  /*  .%%.............  */
0x60,0x00,  /*  .%%.............  */
0x60,0x00,  /*  .%%.............  */
0x60,0x00,  /*  .%%.............  */
0x60,0x00,  /*  .%%.............  */
0x60,0x00,  /*  .%%.............  */
0x60,0x00,  /*  .%%.............  */
0x60,0x00,  /*  .%%.............  */
0x60,0x00,  /*  .%%.............  */
0x00,0x00,  /*  ................  */
0x00,0x00,  /*  ................  */
0x60,0x00,  /*  .%%.............  */
0x60,0x00,  /*  .%%.............  */
0x60,0x00,  /*  .%%.............  */
0x60,0x00,  /*  .%%.............  */
0x00,0x00,  /*  ................  */
0x00,0x00,  /*  ................  */
0x00,0x00,  /*  ................  */
0x00,0x00   /*  ................  */
}}
,

/* Element 0x0012 - Char 0x0022 */
{{8, 20},{
0x66,0x00,  /*  .%%..%%.........  */
0x66,0x00,  /*  .%%..%%.........  */
0x66,0x00,  /*  .%%..%%.........  */
0x66,0x00,  /*  .%%..%%.........  */
0x66,0x00,  /*  .%%..%%.........  */
0x66,0x00,  /*  .%%..%%.........  */
0x00,0x00,  /*  ................  */
0x00,0x00,  /*  ................  */
0x00,0x00,  /*  ................  */
0x00,0x00,  /*  ................  */
0x00,0x00,  /*  ................  */
0x00,0x00,  /*  ................  */
0x00,0x00,  /*  ................  */
0x00,0x00,  /*  ................  */
0x00,0x00,  /*  ................  */
0x00,0x00,  /*  ................  */
0x00,0x00,  /*  ................  */
0x00,0x00,  /*  ................  */
0x00,0x00,  /*  ................  */
0x00,0x00   /*  ................  */
}}
,

/* Element 0x0013 - Char 0x0023 */
{{12, 20},{
0x00,0x00,  /*  ................  */
0x00,0x00,  /*  ................  */
0x00,0x00,  /*  ................  */
0x00,0x00,  /*  ................  */
0x19,0x80,  /*  ...%%..%%.......  */
0x19,0x80,  /*  ...%%..%%.......  */
0x7F,0xE0,  /*  .%%%%%%%%%%.....  */
0x7F,0xE0,  /*  .%%%%%%%%%%.....  */
0x19,0x80,  /*  ...%%..%%.......  */
0x19,0x80,  /*  ...%%..%%.......  */
0x19,0x80,  /*  ...%%..%%.......  */
0x19,0x80,  /*  ...%%..%%.......  */
0x7F,0xE0,  /*  .%%%%%%%%%%.....  */
0x7F,0xE0,  /*  .%%%%%%%%%%.....  */
0x19,0x80,  /*  ...%%..%%.......  */
0x19,0x80,  /*  ...%%..%%.......  */
0x00,0x00,  /*  ................  */
0x00,0x00,  /*  ................  */
0x00,0x00,  /*  ................  */
0x00,0x00   /*  ................  */
}}
,

/* Element 0x0014 - Char 0x0024 */
{{12, 20},{
0x1F,0x80,  /*  ...%%%%%%.......  */
0x3F,0xC0,  /*  ..%%%%%%%%......  */
0x76,0xE0,  /*  .%%%.%%.%%%.....  */
0x66,0x60,  /*  .%%..%%..%%.....  */
0x66,0x00,  /*  .%%..%%.........  */
0x76,0x00,  /*  .%%%.%%.........  */
0x3E,0x00,  /*  ..%%%%%.........  */
0x1E,0x00,  /*  ...%%%%.........  */
0x07,0x80,  /*  .....%%%%.......  */
0x07,0xC0,  /*  .....%%%%%......  */
0x06,0xE0,  /*  .....%%.%%%.....  */
0x06,0x60,  /*  .....%%..%%.....  */
0x66,0x60,  /*  .%%..%%..%%.....  */
0x76,0xE0,  /*  .%%%.%%.%%%.....  */
0x3F,0xC0,  /*  ..%%%%%%%%......  */
0x1F,0x80,  /*  ...%%%%%%.......  */
0x06,0x00,  /*  .....%%.........  */
0x06,0x00,  /*  .....%%.........  */
0x00,0x00,  /*  ................  */
0x00,0x00   /*  ................  */
}}
,

/* Element 0x0015 - Char 0x0025 */
{{14, 20},{
0x38,0x30,  /*  ..%%%.....%%....  */
0x7C,0x70,  /*  .%%%%%...%%%....  */
0x6C,0x60,  /*  .%%.%%...%%.....  */
0x7C,0xC0,  /*  .%%%%%..%%......  */
0x38,0xC0,  /*  ..%%%...%%......  */
0x01,0x80,  /*  .......%%.......  */
0x01,0x80,  /*  .......%%.......  */
0x03,0x00,  /*  ......%%........  */
0x03,0x00,  /*  ......%%........  */
0x06,0x00,  /*  .....%%.........  */
0x06,0x00,  /*  .....%%.........  */
0x0C,0x70,  /*  ....%%...%%%....  */
0x0C,0xF8,  /*  ....%%..%%%%%...  */
0x18,0xD8,  /*  ...%%...%%.%%...  */
0x38,0xF8,  /*  ..%%%...%%%%%...  */
0x30,0x70,  /*  ..%%.....%%%....  */
0x00,0x00,  /*  ................  */
0x00,0x00,  /*  ................  */
0x00,0x00,  /*  ................  */
0x00,0x00   /*  ................  */
}}
,

/* Element 0x0016 - Char 0x0026 */
{{12, 20},{
0x18,0x00,  /*  ...%%...........  */
0x3C,0x00,  /*  ..%%%%..........  */
0x7E,0x00,  /*  .%%%%%%.........  */
0x66,0x00,  /*  .%%..%%.........  */
0x66,0x00,  /*  .%%..%%.........  */
0x66,0x00,  /*  .%%..%%.........  */
0x3C,0x00,  /*  ..%%%%..........  */
0x3C,0x00,  /*  ..%%%%..........  */
0x3E,0x20,  /*  ..%%%%%...%.....  */
0x77,0x60,  /*  .%%%.%%%.%%.....  */
0x63,0x60,  /*  .%%...%%.%%.....  */
0x63,0xC0,  /*  .%%...%%%%......  */
0x61,0xC0,  /*  .%%....%%%......  */
0x73,0xE0,  /*  .%%%..%%%%%.....  */
0x3F,0x60,  /*  ..%%%%%%.%%.....  */
0x1E,0x20,  /*  ...%%%%...%.....  */
0x00,0x00,  /*  ................  */
0x00,0x00,  /*  ................  */
0x00,0x00,  /*  ................  */
0x00,0x00   /*  ................  */
}}
,

/* Element 0x0017 - Char 0x0027 */
{{6, 20},{
0x18,0x00,  /*  ...%%...........  */
0x38,0x00,  /*  ..%%%...........  */
0x70,0x00,  /*  .%%%............  */
0x60,0x00,  /*  .%%.............  */
0x00,0x00,  /*  ................  */
0x00,0x00,  /*  ................  */
0x00,0x00,  /*  ................  */
0x00,0x00,  /*  ................  */
0x00,0x00,  /*  ................  */
0x00,0x00,  /*  ................  */
0x00,0x00,  /*  ................  */
0x00,0x00,  /*  ................  */
0x00,0x00,  /*  ................  */
0x00,0x00,  /*  ................  */
0x00,0x00,  /*  ................  */
0x00,0x00,  /*  ................  */
0x00,0x00,  /*  ................  */
0x00,0x00,  /*  ................  */
0x00,0x00,  /*  ................  */
0x00,0x00   /*  ................  */
}}
,

/* Element 0x0018 - Char 0x0028 */
{{8, 20},{
0x06,0x00,  /*  .....%%.........  */
0x0E,0x00,  /*  ....%%%.........  */
0x1C,0x00,  /*  ...%%%..........  */
0x18,0x00,  /*  ...%%...........  */
0x38,0x00,  /*  ..%%%...........  */
0x30,0x00,  /*  ..%%............  */
0x70,0x00,  /*  .%%%............  */
0x60,0x00,  /*  .%%.............  */
0x60,0x00,  /*  .%%.............  */
0x60,0x00,  /*  .%%.............  */
0x60,0x00,  /*  .%%.............  */
0x60,0x00,  /*  .%%.............  */
0x60,0x00,  /*  .%%.............  */
0x70,0x00,  /*  .%%%............  */
0x30,0x00,  /*  ..%%............  */
0x38,0x00,  /*  ..%%%...........  */
0x18,0x00,  /*  ...%%...........  */
0x1C,0x00,  /*  ...%%%..........  */
0x0E,0x00,  /*  ....%%%.........  */
0x06,0x00   /*  .....%%.........  */
}}
,

/* Element 0x0019 - Char 0x0029 */
{{8, 20},{
0x60,0x00,  /*  .%%.............  */
0x70,0x00,  /*  .%%%............  */
0x38,0x00,  /*  ..%%%...........  */
0x18,0x00,  /*  ...%%...........  */
0x1C,0x00,  /*  ...%%%..........  */
0x0C,0x00,  /*  ....%%..........  */
0x0E,0x00,  /*  ....%%%.........  */
0x06,0x00,  /*  .....%%.........  */
0x06,0x00,  /*  .....%%.........  */
0x06,0x00,  /*  .....%%.........  */
0x06,0x00,  /*  .....%%.........  */
0x06,0x00,  /*  .....%%.........  */
0x06,0x00,  /*  .....%%.........  */
0x0E,0x00,  /*  ....%%%.........  */
0x0C,0x00,  /*  ....%%..........  */
0x1C,0x00,  /*  ...%%%..........  */
0x18,0x00,  /*  ...%%...........  */
0x38,0x00,  /*  ..%%%...........  */
0x70,0x00,  /*  .%%%............  */
0x60,0x00   /*  .%%.............  */
}}
,

/* Element 0x001A - Char 0x002A */
{{12, 20},{
0x00,0x00,  /*  ................  */
0x00,0x00,  /*  ................  */
0x00,0x00,  /*  ................  */
0x00,0x00,  /*  ................  */
0x30,0xC0,  /*  ..%%....%%......  */
0x19,0x80,  /*  ...%%..%%.......  */
0x0F,0x00,  /*  ....%%%%........  */
0x06,0x00,  /*  .....%%.........  */
0x7F,0xE0,  /*  .%%%%%%%%%%.....  */
0x7F,0xE0,  /*  .%%%%%%%%%%.....  */
0x06,0x00,  /*  .....%%.........  */
0x0F,0x00,  /*  ....%%%%........  */
0x19,0x80,  /*  ...%%..%%.......  */
0x30,0xC0,  /*  ..%%....%%......  */
0x00,0x00,  /*  ................  */
0x00,0x00,  /*  ................  */
0x00,0x00,  /*  ................  */
0x00,0x00,  /*  ................  */
0x00,0x00,  /*  ................  */
0x00,0x00   /*  ................  */
}}
,

/* Element 0x001B - Char 0x002B */
{{12, 20},{
0x00,0x00,  /*  ................  */
0x00,0x00,  /*  ................  */
0x00,0x00,  /*  ................  */
0x00,0x00,  /*  ................  */
0x06,0x00,  /*  .....%%.........  */
0x06,0x00,  /*  .....%%.........  */
0x06,0x00,  /*  .....%%.........  */
0x06,0x00,  /*  .....%%.........  */
0x7F,0xE0,  /*  .%%%%%%%%%%.....  */
0x7F,0xE0,  /*  .%%%%%%%%%%.....  */
0x06,0x00,  /*  .....%%.........  */
0x06,0x00,  /*  .....%%.........  */
0x06,0x00,  /*  .....%%.........  */
0x06,0x00,  /*  .....%%.........  */
0x00,0x00,  /*  ................  */
0x00,0x00,  /*  ................  */
0x00,0x00,  /*  ................  */
0x00,0x00,  /*  ................  */
0x00,0x00,  /*  ................  */
0x00,0x00   /*  ................  */
}}
,

/* Element 0x001C - Char 0x002C */
{{6, 20},{
0x00,0x00,  /*  ................  */
0x00,0x00,  /*  ................  */
0x00,0x00,  /*  ................  */
0x00,0x00,  /*  ................  */
0x00,0x00,  /*  ................  */
0x00,0x00,  /*  ................  */
0x00,0x00,  /*  ................  */
0x00,0x00,  /*  ................  */
0x00,0x00,  /*  ................  */
0x00,0x00,  /*  ................  */
0x00,0x00,  /*  ................  */
0x00,0x00,  /*  ................  */
0x00,0x00,  /*  ................  */
0x00,0x00,  /*  ................  */
0x18,0x00,  /*  ...%%...........  */
0x18,0x00,  /*  ...%%...........  */
0x18,0x00,  /*  ...%%...........  */
0x38,0x00,  /*  ..%%%...........  */
0x70,0x00,  /*  .%%%............  */
0x60,0x00   /*  .%%.............  */
}}
,

/* Element 0x001D - Char 0x002D */
{{12, 20},{
0x00,0x00,  /*  ................  */
0x00,0x00,  /*  ................  */
0x00,0x00,  /*  ................  */
0x00,0x00,  /*  ................  */
0x00,0x00,  /*  ................  */
0x00,0x00,  /*  ................  */
0x00,0x00,  /*  ................  */
0x00,0x00,  /*  ................  */
0x7F,0xE0,  /*  .%%%%%%%%%%.....  */
0x7F,0xE0,  /*  .%%%%%%%%%%.....  */
0x00,0x00,  /*  ................  */
0x00,0x00,  /*  ................  */
0x00,0x00,  /*  ................  */
0x00,0x00,  /*  ................  */
0x00,0x00,  /*  ................  */
0x00,0x00,  /*  ................  */
0x00,0x00,  /*  ................  */
0x00,0x00,  /*  ................  */
0x00,0x00,  /*  ................  */
0x00,0x00   /*  ................  */
}}
,

/* Element 0x001E - Char 0x002E */
{{4, 20},{
0x00,0x00,  /*  ................  */
0x00,0x00,  /*  ................  */
0x00,0x00,  /*  ................  */
0x00,0x00,  /*  ................  */
0x00,0x00,  /*  ................  */
0x00,0x00,  /*  ................  */
0x00,0x00,  /*  ................  */
0x00,0x00,  /*  ................  */
0x00,0x00,  /*  ................  */
0x00,0x00,  /*  ................  */
0x00,0x00,  /*  ................  */
0x00,0x00,  /*  ................  */
0x60,0x00,  /*  .%%.............  */
0x60,0x00,  /*  .%%.............  */
0x60,0x00,  /*  .%%.............  */
0x60,0x00,  /*  .%%.............  */
0x00,0x00,  /*  ................  */
0x00,0x00,  /*  ................  */
0x00,0x00,  /*  ................  */
0x00,0x00   /*  ................  */
}}
,

/* Element 0x001F - Char 0x002F */
{{10, 20},{
0x01,0x80,  /*  .......%%.......  */
0x01,0x80,  /*  .......%%.......  */
0x03,0x80,  /*  ......%%%.......  */
0x03,0x00,  /*  ......%%........  */
0x07,0x00,  /*  .....%%%........  */
0x06,0x00,  /*  .....%%.........  */
0x0E,0x00,  /*  ....%%%.........  */
0x0C,0x00,  /*  ....%%..........  */
0x0C,0x00,  /*  ....%%..........  */
0x1C,0x00,  /*  ...%%%..........  */
0x18,0x00,  /*  ...%%...........  */
0x38,0x00,  /*  ..%%%...........  */
0x30,0x00,  /*  ..%%............  */
0x70,0x00,  /*  .%%%............  */
0x60,0x00,  /*  .%%.............  */
0x60,0x00,  /*  .%%.............  */
0x00,0x00,  /*  ................  */
0x00,0x00,  /*  ................  */
0x00,0x00,  /*  ................  */
0x00,0x00   /*  ................  */
}}
,

/* Element 0x0020 - Char 0x0030 */
{{10, 20},{
0x1E,0x00,  /*  ...%%%%.........  */
0x3F,0x00,  /*  ..%%%%%%........  */
0x73,0x80,  /*  .%%%..%%%.......  */
0x61,0x80,  /*  .%%....%%.......  */
0x61,0x80,  /*  .%%....%%.......  */
0x61,0x80,  /*  .%%....%%.......  */
0x61,0x80,  /*  .%%....%%.......  */
0x61,0x80,  /*  .%%....%%.......  */
0x61,0x80,  /*  .%%....%%.......  */
0x61,0x80,  /*  .%%....%%.......  */
0x61,0x80,  /*  .%%....%%.......  */
0x61,0x80,  /*  .%%....%%.......  */
0x61,0x80,  /*  .%%....%%.......  */
0x73,0x80,  /*  .%%%..%%%.......  */
0x3F,0x00,  /*  ..%%%%%%........  */
0x1E,0x00,  /*  ...%%%%.........  */
0x00,0x00,  /*  ................  */
0x00,0x00,  /*  ................  */
0x00,0x00,  /*  ................  */
0x00,0x00   /*  ................  */
}}
,

/* Element 0x0021 - Char 0x0031 */
{{8, 20},{
0x06,0x00,  /*  .....%%.........  */
0x0E,0x00,  /*  ....%%%.........  */
0x7E,0x00,  /*  .%%%%%%.........  */
0x7E,0x00,  /*  .%%%%%%.........  */
0x06,0x00,  /*  .....%%.........  */
0x06,0x00,  /*  .....%%.........  */
0x06,0x00,  /*  .....%%.........  */
0x06,0x00,  /*  .....%%.........  */
0x06,0x00,  /*  .....%%.........  */
0x06,0x00,  /*  .....%%.........  */
0x06,0x00,  /*  .....%%.........  */
0x06,0x00,  /*  .....%%.........  */
0x06,0x00,  /*  .....%%.........  */
0x06,0x00,  /*  .....%%.........  */
0x06,0x00,  /*  .....%%.........  */
0x06,0x00,  /*  .....%%.........  */
0x00,0x00,  /*  ................  */
0x00,0x00,  /*  ................  */
0x00,0x00,  /*  ................  */
0x00,0x00   /*  ................  */
}}
,

/* Element 0x0022 - Char 0x0032 */
{{10, 20},{
0x1E,0x00,  /*  ...%%%%.........  */
0x3F,0x00,  /*  ..%%%%%%........  */
0x73,0x80,  /*  .%%%..%%%.......  */
0x61,0x80,  /*  .%%....%%.......  */
0x01,0x80,  /*  .......%%.......  */
0x01,0x80,  /*  .......%%.......  */
0x01,0x80,  /*  .......%%.......  */
0x03,0x80,  /*  ......%%%.......  */
0x07,0x00,  /*  .....%%%........  */
0x0E,0x00,  /*  ....%%%.........  */
0x1C,0x00,  /*  ...%%%..........  */
0x38,0x00,  /*  ..%%%...........  */
0x70,0x00,  /*  .%%%............  */
0x60,0x00,  /*  .%%.............  */
0x7F,0x80,  /*  .%%%%%%%%.......  */
0x7F,0x80,  /*  .%%%%%%%%.......  */
0x00,0x00,  /*  ................  */
0x00,0x00,  /*  ................  */
0x00,0x00,  /*  ................  */
0x00,0x00   /*  ................  */
}}
,

/* Element 0x0023 - Char 0x0033 */
{{10, 20},{
0x1E,0x00,  /*  ...%%%%.........  */
0x3F,0x00,  /*  ..%%%%%%........  */
0x73,0x80,  /*  .%%%..%%%.......  */
0x61,0x80,  /*  .%%....%%.......  */
0x01,0x80,  /*  .......%%.......  */
0x03,0x80,  /*  ......%%%.......  */
0x1F,0x00,  /*  ...%%%%%........  */
0x1F,0x00,  /*  ...%%%%%........  */
0x03,0x80,  /*  ......%%%.......  */
0x01,0x80,  /*  .......%%.......  */
0x01,0x80,  /*  .......%%.......  */
0x01,0x80,  /*  .......%%.......  */
0x61,0x80,  /*  .%%....%%.......  */
0x73,0x80,  /*  .%%%..%%%.......  */
0x3F,0x00,  /*  ..%%%%%%........  */
0x1E,0x00,  /*  ...%%%%.........  */
0x00,0x00,  /*  ................  */
0x00,0x00,  /*  ................  */
0x00,0x00,  /*  ................  */
0x00,0x00   /*  ................  */
}}
,

/* Element 0x0024 - Char 0x0034 */
{{10, 20},{
0x01,0x80,  /*  .......%%.......  */
0x03,0x80,  /*  ......%%%.......  */
0x07,0x80,  /*  .....%%%%.......  */
0x07,0x80,  /*  .....%%%%.......  */
0x0D,0x80,  /*  ....%%.%%.......  */
0x1D,0x80,  /*  ...%%%.%%.......  */
0x19,0x80,  /*  ...%%..%%.......  */
0x39,0x80,  /*  ..%%%..%%.......  */
0x71,0x80,  /*  .%%%...%%.......  */
0x61,0x80,  /*  .%%....%%.......  */
0x7F,0x80,  /*  .%%%%%%%%.......  */
0x7F,0x80,  /*  .%%%%%%%%.......  */
0x01,0x80,  /*  .......%%.......  */
0x01,0x80,  /*  .......%%.......  */
0x01,0x80,  /*  .......%%.......  */
0x01,0x80,  /*  .......%%.......  */
0x00,0x00,  /*  ................  */
0x00,0x00,  /*  ................  */
0x00,0x00,  /*  ................  */
0x00,0x00   /*  ................  */
}}
,

/* Element 0x0025 - Char 0x0035 */
{{10, 20},{
0x7F,0x80,  /*  .%%%%%%%%.......  */
0x7F,0x80,  /*  .%%%%%%%%.......  */
0x60,0x00,  /*  .%%.............  */
0x60,0x00,  /*  .%%.............  */
0x60,0x00,  /*  .%%.............  */
0x60,0x00,  /*  .%%.............  */
0x7E,0x00,  /*  .%%%%%%.........  */
0x7F,0x00,  /*  .%%%%%%%........  */
0x03,0x80,  /*  ......%%%.......  */
0x01,0x80,  /*  .......%%.......  */
0x01,0x80,  /*  .......%%.......  */
0x01,0x80,  /*  .......%%.......  */
0x61,0x80,  /*  .%%....%%.......  */
0x73,0x80,  /*  .%%%..%%%.......  */
0x3F,0x00,  /*  ..%%%%%%........  */
0x1E,0x00,  /*  ...%%%%.........  */
0x00,0x00,  /*  ................  */
0x00,0x00,  /*  ................  */
0x00,0x00,  /*  ................  */
0x00,0x00   /*  ................  */
}}
,

/* Element 0x0026 - Char 0x0036 */
{{10, 20},{
0x1E,0x00,  /*  ...%%%%.........  */
0x3F,0x00,  /*  ..%%%%%%........  */
0x73,0x80,  /*  .%%%..%%%.......  */
0x61,0x80,  /*  .%%....%%.......  */
0x60,0x00,  /*  .%%.............  */
0x60,0x00,  /*  .%%.............  */
0x6E,0x00,  /*  .%%.%%%.........  */
0x7F,0x00,  /*  .%%%%%%%........  */
0x73,0x80,  /*  .%%%..%%%.......  */
0x61,0x80,  /*  .%%....%%.......  */
0x61,0x80,  /*  .%%....%%.......  */
0x61,0x80,  /*  .%%....%%.......  */
0x61,0x80,  /*  .%%....%%.......  */
0x73,0x80,  /*  .%%%..%%%.......  */
0x3F,0x00,  /*  ..%%%%%%........  */
0x1E,0x00,  /*  ...%%%%.........  */
0x00,0x00,  /*  ................  */
0x00,0x00,  /*  ................  */
0x00,0x00,  /*  ................  */
0x00,0x00   /*  ................  */
}}
,

/* Element 0x0027 - Char 0x0037 */
{{10, 20},{
0x7F,0x80,  /*  .%%%%%%%%.......  */
0x7F,0x80,  /*  .%%%%%%%%.......  */
0x01,0x80,  /*  .......%%.......  */
0x03,0x80,  /*  ......%%%.......  */
0x07,0x00,  /*  .....%%%........  */
0x06,0x00,  /*  .....%%.........  */
0x06,0x00,  /*  .....%%.........  */
0x0E,0x00,  /*  ....%%%.........  */
0x0C,0x00,  /*  ....%%..........  */
0x0C,0x00,  /*  ....%%..........  */
0x1C,0x00,  /*  ...%%%..........  */
0x18,0x00,  /*  ...%%...........  */
0x18,0x00,  /*  ...%%...........  */
0x18,0x00,  /*  ...%%...........  */
0x18,0x00,  /*  ...%%...........  */
0x18,0x00,  /*  ...%%...........  */
0x00,0x00,  /*  ................  */
0x00,0x00,  /*  ................  */
0x00,0x00,  /*  ................  */
0x00,0x00   /*  ................  */
}}
,

/* Element 0x0028 - Char 0x0038 */
{{10, 20},{
0x1E,0x00,  /*  ...%%%%.........  */
0x3F,0x00,  /*  ..%%%%%%........  */
0x73,0x80,  /*  .%%%..%%%.......  */
0x61,0x80,  /*  .%%....%%.......  */
0x61,0x80,  /*  .%%....%%.......  */
0x73,0x80,  /*  .%%%..%%%.......  */
0x3F,0x00,  /*  ..%%%%%%........  */
0x3F,0x00,  /*  ..%%%%%%........  */
0x73,0x80,  /*  .%%%..%%%.......  */
0x61,0x80,  /*  .%%....%%.......  */
0x61,0x80,  /*  .%%....%%.......  */
0x61,0x80,  /*  .%%....%%.......  */
0x61,0x80,  /*  .%%....%%.......  */
0x73,0x80,  /*  .%%%..%%%.......  */
0x3F,0x00,  /*  ..%%%%%%........  */
0x1E,0x00,  /*  ...%%%%.........  */
0x00,0x00,  /*  ................  */
0x00,0x00,  /*  ................  */
0x00,0x00,  /*  ................  */
0x00,0x00   /*  ................  */
}}
,

/* Element 0x0029 - Char 0x0039 */
{{10, 20},{
0x1E,0x00,  /*  ...%%%%.........  */
0x3F,0x00,  /*  ..%%%%%%........  */
0x73,0x80,  /*  .%%%..%%%.......  */
0x61,0x80,  /*  .%%....%%.......  */
0x61,0x80,  /*  .%%....%%.......  */
0x71,0x80,  /*  .%%%...%%.......  */
0x3F,0x80,  /*  ..%%%%%%%.......  */
0x1F,0x80,  /*  ...%%%%%%.......  */
0x01,0x80,  /*  .......%%.......  */
0x01,0x80,  /*  .......%%.......  */
0x01,0x80,  /*  .......%%.......  */
0x01,0x80,  /*  .......%%.......  */
0x61,0x80,  /*  .%%....%%.......  */
0x73,0x80,  /*  .%%%..%%%.......  */
0x3F,0x00,  /*  ..%%%%%%........  */
0x1E,0x00,  /*  ...%%%%.........  */
0x00,0x00,  /*  ................  */
0x00,0x00,  /*  ................  */
0x00,0x00,  /*  ................  */
0x00,0x00   /*  ................  */
}}
,

/* Element 0x002A - Char 0x003A */
{{4, 20},{
0x00,0x00,  /*  ................  */
0x00,0x00,  /*  ................  */
0x00,0x00,  /*  ................  */
0x00,0x00,  /*  ................  */
0x60,0x00,  /*  .%%.............  */
0x60,0x00,  /*  .%%.............  */
0x60,0x00,  /*  .%%.............  */
0x60,0x00,  /*  .%%.............  */
0x00,0x00,  /*  ................  */
0x00,0x00,  /*  ................  */
0x00,0x00,  /*  ................  */
0x00,0x00,  /*  ................  */
0x60,0x00,  /*  .%%.............  */
0x60,0x00,  /*  .%%.............  */
0x60,0x00,  /*  .%%.............  */
0x60,0x00,  /*  .%%.............  */
0x00,0x00,  /*  ................  */
0x00,0x00,  /*  ................  */
0x00,0x00,  /*  ................  */
0x00,0x00   /*  ................  */
}}
,

/* Element 0x002B - Char 0x003B */
{{6, 20},{
0x00,0x00,  /*  ................  */
0x00,0x00,  /*  ................  */
0x00,0x00,  /*  ................  */
0x00,0x00,  /*  ................  */
0x18,0x00,  /*  ...%%...........  */
0x18,0x00,  /*  ...%%...........  */
0x18,0x00,  /*  ...%%...........  */
0x18,0x00,  /*  ...%%...........  */
0x00,0x00,  /*  ................  */
0x00,0x00,  /*  ................  */
0x00,0x00,  /*  ................  */
0x00,0x00,  /*  ................  */
0x18,0x00,  /*  ...%%...........  */
0x38,0x00,  /*  ..%%%...........  */
0x30,0x00,  /*  ..%%............  */
0x60,0x00,  /*  .%%.............  */
0x00,0x00,  /*  ................  */
0x00,0x00,  /*  ................  */
0x00,0x00,  /*  ................  */
0x00,0x00   /*  ................  */
}}
,

/* Element 0x002C - Char 0x003C */
{{12, 20},{
0x00,0x60,  /*  .........%%.....  */
0x00,0xE0,  /*  ........%%%.....  */
0x01,0xC0,  /*  .......%%%......  */
0x03,0x80,  /*  ......%%%.......  */
0x07,0x00,  /*  .....%%%........  */
0x0E,0x00,  /*  ....%%%.........  */
0x1C,0x00,  /*  ...%%%..........  */
0x38,0x00,  /*  ..%%%...........  */
0x70,0x00,  /*  .%%%............  */
0x70,0x00,  /*  .%%%............  */
0x38,0x00,  /*  ..%%%...........  */
0x1C,0x00,  /*  ...%%%..........  */
0x0E,0x00,  /*  ....%%%.........  */
0x07,0x00,  /*  .....%%%........  */
0x03,0x80,  /*  ......%%%.......  */
0x01,0xC0,  /*  .......%%%......  */
0x00,0xE0,  /*  ........%%%.....  */
0x00,0x60,  /*  .........%%.....  */
0x00,0x00,  /*  ................  */
0x00,0x00   /*  ................  */
}}
,

/* Element 0x002D - Char 0x003D */
{{12, 20},{
0x00,0x00,  /*  ................  */
0x00,0x00,  /*  ................  */
0x00,0x00,  /*  ................  */
0x00,0x00,  /*  ................  */
0x00,0x00,  /*  ................  */
0x00,0x00,  /*  ................  */
0x7F,0xE0,  /*  .%%%%%%%%%%.....  */
0x7F,0xE0,  /*  .%%%%%%%%%%.....  */
0x00,0x00,  /*  ................  */
0x00,0x00,  /*  ................  */
0x7F,0xE0,  /*  .%%%%%%%%%%.....  */
0x7F,0xE0,  /*  .%%%%%%%%%%.....  */
0x00,0x00,  /*  ................  */
0x00,0x00,  /*  ................  */
0x00,0x00,  /*  ................  */
0x00,0x00,  /*  ................  */
0x00,0x00,  /*  ................  */
0x00,0x00,  /*  ................  */
0x00,0x00,  /*  ................  */
0x00,0x00   /*  ................  */
}}
,

/* Element 0x002E - Char 0x003E */
{{12, 20},{
0x60,0x00,  /*  .%%.............  */
0x70,0x00,  /*  .%%%............  */
0x38,0x00,  /*  ..%%%...........  */
0x1C,0x00,  /*  ...%%%..........  */
0x0E,0x00,  /*  ....%%%.........  */
0x07,0x00,  /*  .....%%%........  */
0x03,0x80,  /*  ......%%%.......  */
0x01,0xC0,  /*  .......%%%......  */
0x00,0xE0,  /*  ........%%%.....  */
0x00,0xE0,  /*  ........%%%.....  */
0x01,0xC0,  /*  .......%%%......  */
0x03,0x80,  /*  ......%%%.......  */
0x07,0x00,  /*  .....%%%........  */
0x0E,0x00,  /*  ....%%%.........  */
0x1C,0x00,  /*  ...%%%..........  */
0x38,0x00,  /*  ..%%%...........  */
0x70,0x00,  /*  .%%%............  */
0x60,0x00,  /*  .%%.............  */
0x00,0x00,  /*  ................  */
0x00,0x00   /*  ................  */
}}
,

/* Element 0x002F - Char 0x003F */
{{10, 20},{
0x1E,0x00,  /*  ...%%%%.........  */
0x3F,0x00,  /*  ..%%%%%%........  */
0x73,0x80,  /*  .%%%..%%%.......  */
0x61,0x80,  /*  .%%....%%.......  */
0x01,0x80,  /*  .......%%.......  */
0x03,0x80,  /*  ......%%%.......  */
0x07,0x00,  /*  .....%%%........  */
0x0E,0x00,  /*  ....%%%.........  */
0x1C,0x00,  /*  ...%%%..........  */
0x18,0x00,  /*  ...%%...........  */
0x18,0x00,  /*  ...%%...........  */
0x00,0x00,  /*  ................  */
0x00,0x00,  /*  ................  */
0x18,0x00,  /*  ...%%...........  */
0x18,0x00,  /*  ...%%...........  */
0x18,0x00,  /*  ...%%...........  */
0x00,0x00,  /*  ................  */
0x00,0x00,  /*  ................  */
0x00,0x00,  /*  ................  */
0x00,0x00   /*  ................  */
}}
,

/* Element 0x0030 - Char 0x0040 */
{{14, 20},{
0x0F,0xC0,  /*  ....%%%%%%......  */
0x1F,0xE0,  /*  ...%%%%%%%%.....  */
0x38,0x70,  /*  ..%%%....%%%....  */
0x70,0x38,  /*  .%%%......%%%...  */
0x67,0x98,  /*  .%%..%%%%..%%...  */
0x6F,0xD8,  /*  .%%.%%%%%%.%%...  */
0x7C,0xF8,  /*  .%%%%%..%%%%%...  */
0x78,0x78,  /*  .%%%%....%%%%...  */
0x78,0x70,  /*  .%%%%....%%%....  */
0x7C,0xE0,  /*  .%%%%%..%%%.....  */
0x6F,0xC0,  /*  .%%.%%%%%%......  */
0x67,0x80,  /*  .%%..%%%%.......  */
0x70,0x18,  /*  .%%%.......%%...  */
0x38,0x38,  /*  ..%%%.....%%%...  */
0x1F,0xF0,  /*  ...%%%%%%%%%....  */
0x0F,0xE0,  /*  ....%%%%%%%.....  */
0x00,0x00,  /*  ................  */
0x00,0x00,  /*  ................  */
0x00,0x00,  /*  ................  */
0x00,0x00   /*  ................  */
}}
,

/* Element 0x0031 - Char 0x0041 */
{{12, 20},{
0x06,0x00,  /*  .....%%.........  */
0x06,0x00,  /*  .....%%.........  */
0x0F,0x00,  /*  ....%%%%........  */
0x0F,0x00,  /*  ....%%%%........  */
0x19,0x80,  /*  ...%%..%%.......  */
0x19,0x80,  /*  ...%%..%%.......  */
0x19,0x80,  /*  ...%%..%%.......  */
0x39,0xC0,  /*  ..%%%..%%%......  */
0x30,0xC0,  /*  ..%%....%%......  */
0x30,0xC0,  /*  ..%%....%%......  */
0x3F,0xC0,  /*  ..%%%%%%%%......  */
0x7F,0xE0,  /*  .%%%%%%%%%%.....  */
0x60,0x60,  /*  .%%......%%.....  */
0x60,0x60,  /*  .%%......%%.....  */
0x60,0x60,  /*  .%%......%%.....  */
0x60,0x60,  /*  .%%......%%.....  */
0x00,0x00,  /*  ................  */
0x00,0x00,  /*  ................  */
0x00,0x00,  /*  ................  */
0x00,0x00   /*  ................  */
}}
,

/* Element 0x0032 - Char 0x0042 */
{{10, 20},{
0x7E,0x00,  /*  .%%%%%%.........  */
0x7F,0x00,  /*  .%%%%%%%........  */
0x63,0x80,  /*  .%%...%%%.......  */
0x61,0x80,  /*  .%%....%%.......  */
0x61,0x80,  /*  .%%....%%.......  */
0x63,0x80,  /*  .%%...%%%.......  */
0x7F,0x00,  /*  .%%%%%%%........  */
0x7F,0x00,  /*  .%%%%%%%........  */
0x63,0x80,  /*  .%%...%%%.......  */
0x61,0x80,  /*  .%%....%%.......  */
0x61,0x80,  /*  .%%....%%.......  */
0x61,0x80,  /*  .%%....%%.......  */
0x61,0x80,  /*  .%%....%%.......  */
0x63,0x80,  /*  .%%...%%%.......  */
0x7F,0x00,  /*  .%%%%%%%........  */
0x7E,0x00,  /*  .%%%%%%.........  */
0x00,0x00,  /*  ................  */
0x00,0x00,  /*  ................  */
0x00,0x00,  /*  ................  */
0x00,0x00   /*  ................  */
}}
,

/* Element 0x0033 - Char 0x0043 */
{{12, 20},{
0x1F,0x80,  /*  ...%%%%%%.......  */
0x3F,0xC0,  /*  ..%%%%%%%%......  */
0x70,0xE0,  /*  .%%%....%%%.....  */
0x60,0x60,  /*  .%%......%%.....  */
0x60,0x00,  /*  .%%.............  */
0x60,0x00,  /*  .%%.............  */
0x60,0x00,  /*  .%%.............  */
0x60,0x00,  /*  .%%.............  */
0x60,0x00,  /*  .%%.............  */
0x60,0x00,  /*  .%%.............  */
0x60,0x00,  /*  .%%.............  */
0x60,0x00,  /*  .%%.............  */
0x60,0x60,  /*  .%%......%%.....  */
0x70,0xE0,  /*  .%%%....%%%.....  */
0x3F,0xC0,  /*  ..%%%%%%%%......  */
0x1F,0x80,  /*  ...%%%%%%.......  */
0x00,0x00,  /*  ................  */
0x00,0x00,  /*  ................  */
0x00,0x00,  /*  ................  */
0x00,0x00   /*  ................  */
}}
,

/* Element 0x0034 - Char 0x0044 */
{{12, 20},{
0x7F,0x80,  /*  .%%%%%%%%.......  */
0x7F,0xC0,  /*  .%%%%%%%%%......  */
0x60,0xE0,  /*  .%%.....%%%.....  */
0x60,0x60,  /*  .%%......%%.....  */
0x60,0x60,  /*  .%%......%%.....  */
0x60,0x60,  /*  .%%......%%.....  */
0x60,0x60,  /*  .%%......%%.....  */
0x60,0x60,  /*  .%%......%%.....  */
0x60,0x60,  /*  .%%......%%.....  */
0x60,0x60,  /*  .%%......%%.....  */
0x60,0x60,  /*  .%%......%%.....  */
0x60,0x60,  /*  .%%......%%.....  */
0x60,0x60,  /*  .%%......%%.....  */
0x60,0xE0,  /*  .%%.....%%%.....  */
0x7F,0xC0,  /*  .%%%%%%%%%......  */
0x7F,0x80,  /*  .%%%%%%%%.......  */
0x00,0x00,  /*  ................  */
0x00,0x00,  /*  ................  */
0x00,0x00,  /*  ................  */
0x00,0x00   /*  ................  */
}}
,

/* Element 0x0035 - Char 0x0045 */
{{10, 20},{
0x7F,0x80,  /*  .%%%%%%%%.......  */
0x7F,0x80,  /*  .%%%%%%%%.......  */
0x60,0x00,  /*  .%%.............  */
0x60,0x00,  /*  .%%.............  */
0x60,0x00,  /*  .%%.............  */
0x60,0x00,  /*  .%%.............  */
0x7E,0x00,  /*  .%%%%%%.........  */
0x7E,0x00,  /*  .%%%%%%.........  */
0x60,0x00,  /*  .%%.............  */
0x60,0x00,  /*  .%%.............  */
0x60,0x00,  /*  .%%.............  */
0x60,0x00,  /*  .%%.............  */
0x60,0x00,  /*  .%%.............  */
0x60,0x00,  /*  .%%.............  */
0x7F,0x80,  /*  .%%%%%%%%.......  */
0x7F,0x80,  /*  .%%%%%%%%.......  */
0x00,0x00,  /*  ................  */
0x00,0x00,  /*  ................  */
0x00,0x00,  /*  ................  */
0x00,0x00   /*  ................  */
}}
,

/* Element 0x0036 - Char 0x0046 */
{{10, 20},{
0x7F,0x80,  /*  .%%%%%%%%.......  */
0x7F,0x80,  /*  .%%%%%%%%.......  */
0x60,0x00,  /*  .%%.............  */
0x60,0x00,  /*  .%%.............  */
0x60,0x00,  /*  .%%.............  */
0x60,0x00,  /*  .%%.............  */
0x7E,0x00,  /*  .%%%%%%.........  */
0x7E,0x00,  /*  .%%%%%%.........  */
0x60,0x00,  /*  .%%.............  */
0x60,0x00,  /*  .%%.............  */
0x60,0x00,  /*  .%%.............  */
0x60,0x00,  /*  .%%.............  */
0x60,0x00,  /*  .%%.............  */
0x60,0x00,  /*  .%%.............  */
0x60,0x00,  /*  .%%.............  */
0x60,0x00,  /*  .%%.............  */
0x00,0x00,  /*  ................  */
0x00,0x00,  /*  ................  */
0x00,0x00,  /*  ................  */
0x00,0x00   /*  ................  */
}}
,

/* Element 0x0037 - Char 0x0047 */
{{12, 20},{
0x1F,0x80,  /*  ...%%%%%%.......  */
0x3F,0xC0,  /*  ..%%%%%%%%......  */
0x70,0xE0,  /*  .%%%....%%%.....  */
0x60,0x60,  /*  .%%......%%.....  */
0x60,0x60,  /*  .%%......%%.....  */
0x60,0x60,  /*  .%%......%%.....  */
0x60,0x00,  /*  .%%.............  */
0x60,0x00,  /*  .%%.............  */
0x61,0xE0,  /*  .%%....%%%%.....  */
0x61,0xE0,  /*  .%%....%%%%.....  */
0x60,0x60,  /*  .%%......%%.....  */
0x60,0x60,  /*  .%%......%%.....  */
0x60,0xE0,  /*  .%%.....%%%.....  */
0x71,0xE0,  /*  .%%%...%%%%.....  */
0x3F,0xE0,  /*  ..%%%%%%%%%.....  */
0x1F,0x60,  /*  ...%%%%%.%%.....  */
0x00,0x00,  /*  ................  */
0x00,0x00,  /*  ................  */
0x00,0x00,  /*  ................  */
0x00,0x00   /*  ................  */
}}
,

/* Element 0x0038 - Char 0x0048 */
{{12, 20},{
0x60,0x60,  /*  .%%......%%.....  */
0x60,0x60,  /*  .%%......%%.....  */
0x60,0x60,  /*  .%%......%%.....  */
0x60,0x60,  /*  .%%......%%.....  */
0x60,0x60,  /*  .%%......%%.....  */
0x60,0x60,  /*  .%%......%%.....  */
0x7F,0xE0,  /*  .%%%%%%%%%%.....  */
0x7F,0xE0,  /*  .%%%%%%%%%%.....  */
0x60,0x60,  /*  .%%......%%.....  */
0x60,0x60,  /*  .%%......%%.....  */
0x60,0x60,  /*  .%%......%%.....  */
0x60,0x60,  /*  .%%......%%.....  */
0x60,0x60,  /*  .%%......%%.....  */
0x60,0x60,  /*  .%%......%%.....  */
0x60,0x60,  /*  .%%......%%.....  */
0x60,0x60,  /*  .%%......%%.....  */
0x00,0x00,  /*  ................  */
0x00,0x00,  /*  ................  */
0x00,0x00,  /*  ................  */
0x00,0x00   /*  ................  */
}}
,

/* Element 0x0039 - Char 0x0049 */
{{4, 20},{
0x60,0x00,  /*  .%%.............  */
0x60,0x00,  /*  .%%.............  */
0x60,0x00,  /*  .%%.............  */
0x60,0x00,  /*  .%%.............  */
0x60,0x00,  /*  .%%.............  */
0x60,0x00,  /*  .%%.............  */
0x60,0x00,  /*  .%%.............  */
0x60,0x00,  /*  .%%.............  */
0x60,0x00,  /*  .%%.............  */
0x60,0x00,  /*  .%%.............  */
0x60,0x00,  /*  .%%.............  */
0x60,0x00,  /*  .%%.............  */
0x60,0x00,  /*  .%%.............  */
0x60,0x00,  /*  .%%.............  */
0x60,0x00,  /*  .%%.............  */
0x60,0x00,  /*  .%%.............  */
0x00,0x00,  /*  ................  */
0x00,0x00,  /*  ................  */
0x00,0x00,  /*  ................  */
0x00,0x00   /*  ................  */
}}
,

/* Element 0x003A - Char 0x004A */
{{10, 20},{
0x7F,0x80,  /*  .%%%%%%%%.......  */
0x7F,0x80,  /*  .%%%%%%%%.......  */
0x01,0x80,  /*  .......%%.......  */
0x01,0x80,  /*  .......%%.......  */
0x01,0x80,  /*  .......%%.......  */
0x01,0x80,  /*  .......%%.......  */
0x01,0x80,  /*  .......%%.......  */
0x01,0x80,  /*  .......%%.......  */
0x01,0x80,  /*  .......%%.......  */
0x01,0x80,  /*  .......%%.......  */
0x01,0x80,  /*  .......%%.......  */
0x01,0x80,  /*  .......%%.......  */
0x61,0x80,  /*  .%%....%%.......  */
0x73,0x80,  /*  .%%%..%%%.......  */
0x3F,0x00,  /*  ..%%%%%%........  */
0x1E,0x00,  /*  ...%%%%.........  */
0x00,0x00,  /*  ................  */
0x00,0x00,  /*  ................  */
0x00,0x00,  /*  ................  */
0x00,0x00   /*  ................  */
}}
,

/* Element 0x003B - Char 0x004B */
{{13, 20},{
0x60,0x70,  /*  .%%......%%%....  */
0x60,0xE0,  /*  .%%.....%%%.....  */
0x61,0xC0,  /*  .%%....%%%......  */
0x63,0x80,  /*  .%%...%%%.......  */
0x67,0x00,  /*  .%%..%%%........  */
0x6E,0x00,  /*  .%%.%%%.........  */
0x7C,0x00,  /*  .%%%%%..........  */
0x78,0x00,  /*  .%%%%...........  */
0x78,0x00,  /*  .%%%%...........  */
0x7C,0x00,  /*  .%%%%%..........  */
0x6E,0x00,  /*  .%%.%%%.........  */
0x67,0x00,  /*  .%%..%%%........  */
0x63,0x80,  /*  .%%...%%%.......  */
0x61,0xC0,  /*  .%%....%%%......  */
0x60,0xE0,  /*  .%%.....%%%.....  */
0x60,0x70,  /*  .%%......%%%....  */
0x00,0x00,  /*  ................  */
0x00,0x00,  /*  ................  */
0x00,0x00,  /*  ................  */
0x00,0x00   /*  ................  */
}}
,

/* Element 0x003C - Char 0x004C */
{{10, 20},{
0x60,0x00,  /*  .%%.............  */
0x60,0x00,  /*  .%%.............  */
0x60,0x00,  /*  .%%.............  */
0x60,0x00,  /*  .%%.............  */
0x60,0x00,  /*  .%%.............  */
0x60,0x00,  /*  .%%.............  */
0x60,0x00,  /*  .%%.............  */
0x60,0x00,  /*  .%%.............  */
0x60,0x00,  /*  .%%.............  */
0x60,0x00,  /*  .%%.............  */
0x60,0x00,  /*  .%%.............  */
0x60,0x00,  /*  .%%.............  */
0x60,0x00,  /*  .%%.............  */
0x60,0x00,  /*  .%%.............  */
0x7F,0x80,  /*  .%%%%%%%%.......  */
0x7F,0x80,  /*  .%%%%%%%%.......  */
0x00,0x00,  /*  ................  */
0x00,0x00,  /*  ................  */
0x00,0x00,  /*  ................  */
0x00,0x00   /*  ................  */
}}
,

/* Element 0x003D - Char 0x004D */
{{16, 20},{
0x60,0x06,  /*  .%%..........%%.  */
0x60,0x06,  /*  .%%..........%%.  */
0x70,0x0E,  /*  .%%%........%%%.  */
0x70,0x0E,  /*  .%%%........%%%.  */
0x78,0x1E,  /*  .%%%%......%%%%.  */
0x7C,0x3E,  /*  .%%%%%....%%%%%.  */
0x6C,0x36,  /*  .%%.%%....%%.%%.  */
0x6E,0x76,  /*  .%%.%%%..%%%.%%.  */
0x66,0x66,  /*  .%%..%%..%%..%%.  */
0x67,0xE6,  /*  .%%..%%%%%%..%%.  */
0x63,0xC6,  /*  .%%...%%%%...%%.  */
0x61,0x86,  /*  .%%....%%....%%.  */
0x61,0x86,  /*  .%%....%%....%%.  */
0x60,0x06,  /*  .%%..........%%.  */
0x60,0x06,  /*  .%%..........%%.  */
0x60,0x06,  /*  .%%..........%%.  */
0x00,0x00,  /*  ................  */
0x00,0x00,  /*  ................  */
0x00,0x00,  /*  ................  */
0x00,0x00   /*  ................  */
}}
,

/* Element 0x003E - Char 0x004E */
{{12, 20},{
0x60,0x60,  /*  .%%......%%.....  */
0x60,0x60,  /*  .%%......%%.....  */
0x70,0x60,  /*  .%%%.....%%.....  */
0x70,0x60,  /*  .%%%.....%%.....  */
0x78,0x60,  /*  .%%%%....%%.....  */
0x7C,0x60,  /*  .%%%%%...%%.....  */
0x6C,0x60,  /*  .%%.%%...%%.....  */
0x66,0x60,  /*  .%%..%%..%%.....  */
0x67,0x60,  /*  .%%..%%%.%%.....  */
0x63,0x60,  /*  .%%...%%.%%.....  */
0x61,0xE0,  /*  .%%....%%%%.....  */
0x61,0xE0,  /*  .%%....%%%%.....  */
0x60,0xE0,  /*  .%%.....%%%.....  */
0x60,0xE0,  /*  .%%.....%%%.....  */
0x60,0x60,  /*  .%%......%%.....  */
0x60,0x60,  /*  .%%......%%.....  */
0x00,0x00,  /*  ................  */
0x00,0x00,  /*  ................  */
0x00,0x00,  /*  ................  */
0x00,0x00   /*  ................  */
}}
,

/* Element 0x003F - Char 0x004F */
{{12, 20},{
0x1F,0x80,  /*  ...%%%%%%.......  */
0x3F,0xC0,  /*  ..%%%%%%%%......  */
0x70,0xE0,  /*  .%%%....%%%.....  */
0x60,0x60,  /*  .%%......%%.....  */
0x60,0x60,  /*  .%%......%%.....  */
0x60,0x60,  /*  .%%......%%.....  */
0x60,0x60,  /*  .%%......%%.....  */
0x60,0x60,  /*  .%%......%%.....  */
0x60,0x60,  /*  .%%......%%.....  */
0x60,0x60,  /*  .%%......%%.....  */
0x60,0x60,  /*  .%%......%%.....  */
0x60,0x60,  /*  .%%......%%.....  */
0x60,0x60,  /*  .%%......%%.....  */
0x70,0xE0,  /*  .%%%....%%%.....  */
0x3F,0xC0,  /*  ..%%%%%%%%......  */
0x1F,0x80,  /*  ...%%%%%%.......  */
0x00,0x00,  /*  ................  */
0x00,0x00,  /*  ................  */
0x00,0x00,  /*  ................  */
0x00,0x00   /*  ................  */
}}
,

/* Element 0x0040 - Char 0x0050 */
{{10, 20},{
0x7E,0x00,  /*  .%%%%%%.........  */
0x7F,0x00,  /*  .%%%%%%%........  */
0x63,0x80,  /*  .%%...%%%.......  */
0x61,0x80,  /*  .%%....%%.......  */
0x61,0x80,  /*  .%%....%%.......  */
0x61,0x80,  /*  .%%....%%.......  */
0x61,0x80,  /*  .%%....%%.......  */
0x63,0x80,  /*  .%%...%%%.......  */
0x7F,0x00,  /*  .%%%%%%%........  */
0x7E,0x00,  /*  .%%%%%%.........  */
0x60,0x00,  /*  .%%.............  */
0x60,0x00,  /*  .%%.............  */
0x60,0x00,  /*  .%%.............  */
0x60,0x00,  /*  .%%.............  */
0x60,0x00,  /*  .%%.............  */
0x60,0x00,  /*  .%%.............  */
0x00,0x00,  /*  ................  */
0x00,0x00,  /*  ................  */
0x00,0x00,  /*  ................  */
0x00,0x00   /*  ................  */
}}
,

/* Element 0x0041 - Char 0x0051 */
{{12, 20},{
0x1F,0x80,  /*  ...%%%%%%.......  */
0x3F,0xC0,  /*  ..%%%%%%%%......  */
0x70,0xE0,  /*  .%%%....%%%.....  */
0x60,0x60,  /*  .%%......%%.....  */
0x60,0x60,  /*  .%%......%%.....  */
0x60,0x60,  /*  .%%......%%.....  */
0x60,0x60,  /*  .%%......%%.....  */
0x60,0x60,  /*  .%%......%%.....  */
0x60,0x60,  /*  .%%......%%.....  */
0x60,0x60,  /*  .%%......%%.....  */
0x60,0x60,  /*  .%%......%%.....  */
0x60,0x60,  /*  .%%......%%.....  */
0x63,0x60,  /*  .%%...%%.%%.....  */
0x73,0xE0,  /*  .%%%..%%%%%.....  */
0x3F,0xE0,  /*  ..%%%%%%%%%.....  */
0x1F,0xC0,  /*  ...%%%%%%%......  */
0x00,0xE0,  /*  ........%%%.....  */
0x00,0x60,  /*  .........%%.....  */
0x00,0x00,  /*  ................  */
0x00,0x00   /*  ................  */
}}
,

/* Element 0x0042 - Char 0x0052 */
{{12, 20},{
0x7F,0x80,  /*  .%%%%%%%%.......  */
0x7F,0xC0,  /*  .%%%%%%%%%......  */
0x60,0xE0,  /*  .%%.....%%%.....  */
0x60,0x60,  /*  .%%......%%.....  */
0x60,0x60,  /*  .%%......%%.....  */
0x60,0x60,  /*  .%%......%%.....  */
0x60,0x60,  /*  .%%......%%.....  */
0x60,0xE0,  /*  .%%.....%%%.....  */
0x7F,0xC0,  /*  .%%%%%%%%%......  */
0x7F,0xC0,  /*  .%%%%%%%%%......  */
0x60,0xE0,  /*  .%%.....%%%.....  */
0x60,0x60,  /*  .%%......%%.....  */
0x60,0x60,  /*  .%%......%%.....  */
0x60,0x60,  /*  .%%......%%.....  */
0x60,0x60,  /*  .%%......%%.....  */
0x60,0x60,  /*  .%%......%%.....  */
0x00,0x00,  /*  ................  */
0x00,0x00,  /*  ................  */
0x00,0x00,  /*  ................  */
0x00,0x00   /*  ................  */
}}
,

/* Element 0x0043 - Char 0x0053 */
{{10, 20},{
0x1E,0x00,  /*  ...%%%%.........  */
0x3F,0x00,  /*  ..%%%%%%........  */
0x73,0x80,  /*  .%%%..%%%.......  */
0x61,0x80,  /*  .%%....%%.......  */
0x60,0x00,  /*  .%%.............  */
0x70,0x00,  /*  .%%%............  */
0x38,0x00,  /*  ..%%%...........  */
0x1C,0x00,  /*  ...%%%..........  */
0x0E,0x00,  /*  ....%%%.........  */
0x07,0x00,  /*  .....%%%........  */
0x03,0x80,  /*  ......%%%.......  */
0x01,0x80,  /*  .......%%.......  */
0x61,0x80,  /*  .%%....%%.......  */
0x73,0x80,  /*  .%%%..%%%.......  */
0x3F,0x00,  /*  ..%%%%%%........  */
0x1E,0x00,  /*  ...%%%%.........  */
0x00,0x00,  /*  ................  */
0x00,0x00,  /*  ................  */
0x00,0x00,  /*  ................  */
0x00,0x00   /*  ................  */
}}
,

/* Element 0x0044 - Char 0x0054 */
{{12, 20},{
0x7F,0xE0,  /*  .%%%%%%%%%%.....  */
0x7F,0xE0,  /*  .%%%%%%%%%%.....  */
0x06,0x00,  /*  .....%%.........  */
0x06,0x00,  /*  .....%%.........  */
0x06,0x00,  /*  .....%%.........  */
0x06,0x00,  /*  .....%%.........  */
0x06,0x00,  /*  .....%%.........  */
0x06,0x00,  /*  .....%%.........  */
0x06,0x00,  /*  .....%%.........  */
0x06,0x00,  /*  .....%%.........  */
0x06,0x00,  /*  .....%%.........  */
0x06,0x00,  /*  .....%%.........  */
0x06,0x00,  /*  .....%%.........  */
0x06,0x00,  /*  .....%%.........  */
0x06,0x00,  /*  .....%%.........  */
0x06,0x00,  /*  .....%%.........  */
0x00,0x00,  /*  ................  */
0x00,0x00,  /*  ................  */
0x00,0x00,  /*  ................  */
0x00,0x00   /*  ................  */
}}
,

/* Element 0x0045 - Char 0x0055 */
{{12, 20},{
0x60,0x60,  /*  .%%......%%.....  */
0x60,0x60,  /*  .%%......%%.....  */
0x60,0x60,  /*  .%%......%%.....  */
0x60,0x60,  /*  .%%......%%.....  */
0x60,0x60,  /*  .%%......%%.....  */
0x60,0x60,  /*  .%%......%%.....  */
0x60,0x60,  /*  .%%......%%.....  */
0x60,0x60,  /*  .%%......%%.....  */
0x60,0x60,  /*  .%%......%%.....  */
0x60,0x60,  /*  .%%......%%.....  */
0x60,0x60,  /*  .%%......%%.....  */
0x60,0x60,  /*  .%%......%%.....  */
0x60,0x60,  /*  .%%......%%.....  */
0x70,0xE0,  /*  .%%%....%%%.....  */
0x3F,0xC0,  /*  ..%%%%%%%%......  */
0x1F,0x80,  /*  ...%%%%%%.......  */
0x00,0x00,  /*  ................  */
0x00,0x00,  /*  ................  */
0x00,0x00,  /*  ................  */
0x00,0x00   /*  ................  */
}}
,

/* Element 0x0046 - Char 0x0056 */
{{12, 20},{
0x60,0x60,  /*  .%%......%%.....  */
0x60,0x60,  /*  .%%......%%.....  */
0x60,0x60,  /*  .%%......%%.....  */
0x60,0x60,  /*  .%%......%%.....  */
0x70,0xE0,  /*  .%%%....%%%.....  */
0x30,0xC0,  /*  ..%%....%%......  */
0x30,0xC0,  /*  ..%%....%%......  */
0x39,0xC0,  /*  ..%%%..%%%......  */
0x19,0x80,  /*  ...%%..%%.......  */
0x19,0x80,  /*  ...%%..%%.......  */
0x19,0x80,  /*  ...%%..%%.......  */
0x19,0x80,  /*  ...%%..%%.......  */
0x0F,0x00,  /*  ....%%%%........  */
0x0F,0x00,  /*  ....%%%%........  */
0x06,0x00,  /*  .....%%.........  */
0x06,0x00,  /*  .....%%.........  */
0x00,0x00,  /*  ................  */
0x00,0x00,  /*  ................  */
0x00,0x00,  /*  ................  */
0x00,0x00   /*  ................  */
}}
,

/* Element 0x0047 - Char 0x0057 */
{{16, 20},{
0x60,0x06,  /*  .%%..........%%.  */
0x60,0x06,  /*  .%%..........%%.  */
0x60,0x06,  /*  .%%..........%%.  */
0x61,0x86,  /*  .%%....%%....%%.  */
0x71,0x8E,  /*  .%%%...%%...%%%.  */
0x31,0x8C,  /*  ..%%...%%...%%..  */
0x33,0xCC,  /*  ..%%..%%%%..%%..  */
0x37,0xEC,  /*  ..%%.%%%%%%.%%..  */
0x36,0x6C,  /*  ..%%.%%..%%.%%..  */
0x3E,0x7C,  /*  ..%%%%%..%%%%%..  */
0x1C,0x38,  /*  ...%%%....%%%...  */
0x1C,0x38,  /*  ...%%%....%%%...  */
0x1C,0x38,  /*  ...%%%....%%%...  */
0x18,0x18,  /*  ...%%......%%...  */
0x18,0x18,  /*  ...%%......%%...  */
0x18,0x18,  /*  ...%%......%%...  */
0x00,0x00,  /*  ................  */
0x00,0x00,  /*  ................  */
0x00,0x00,  /*  ................  */
0x00,0x00   /*  ................  */
}}
,

/* Element 0x0048 - Char 0x0058 */
{{10, 20},{
0x61,0x80,  /*  .%%....%%.......  */
0x61,0x80,  /*  .%%....%%.......  */
0x73,0x80,  /*  .%%%..%%%.......  */
0x33,0x00,  /*  ..%%..%%........  */
0x3F,0x00,  /*  ..%%%%%%........  */
0x1E,0x00,  /*  ...%%%%.........  */
0x0C,0x00,  /*  ....%%..........  */
0x0C,0x00,  /*  ....%%..........  */
0x1E,0x00,  /*  ...%%%%.........  */
0x1F,0x00,  /*  ...%%%%%........  */
0x33,0x00,  /*  ..%%..%%........  */
0x33,0x00,  /*  ..%%..%%........  */
0x73,0x80,  /*  .%%%..%%%.......  */
0x61,0x80,  /*  .%%....%%.......  */
0x61,0x80,  /*  .%%....%%.......  */
0x61,0x80,  /*  .%%....%%.......  */
0x00,0x00,  /*  ................  */
0x00,0x00,  /*  ................  */
0x00,0x00,  /*  ................  */
0x00,0x00   /*  ................  */
}}
,

/* Element 0x0049 - Char 0x0059 */
{{12, 20},{
0x60,0x60,  /*  .%%......%%.....  */
0x60,0x60,  /*  .%%......%%.....  */
0x60,0x60,  /*  .%%......%%.....  */
0x60,0x60,  /*  .%%......%%.....  */
0x60,0x60,  /*  .%%......%%.....  */
0x70,0xE0,  /*  .%%%....%%%.....  */
0x30,0xC0,  /*  ..%%....%%......  */
0x19,0x80,  /*  ...%%..%%.......  */
0x1F,0x80,  /*  ...%%%%%%.......  */
0x0F,0x00,  /*  ....%%%%........  */
0x0F,0x00,  /*  ....%%%%........  */
0x06,0x00,  /*  .....%%.........  */
0x06,0x00,  /*  .....%%.........  */
0x06,0x00,  /*  .....%%.........  */
0x06,0x00,  /*  .....%%.........  */
0x06,0x00,  /*  .....%%.........  */
0x00,0x00,  /*  ................  */
0x00,0x00,  /*  ................  */
0x00,0x00,  /*  ................  */
0x00,0x00   /*  ................  */
}}
,

/* Element 0x004A - Char 0x005A */
{{10, 20},{
0x7F,0x80,  /*  .%%%%%%%%.......  */
0x7F,0x80,  /*  .%%%%%%%%.......  */
0x01,0x80,  /*  .......%%.......  */
0x03,0x80,  /*  ......%%%.......  */
0x03,0x00,  /*  ......%%........  */
0x07,0x00,  /*  .....%%%........  */
0x06,0x00,  /*  .....%%.........  */
0x0E,0x00,  /*  ....%%%.........  */
0x0C,0x00,  /*  ....%%..........  */
0x1C,0x00,  /*  ...%%%..........  */
0x18,0x00,  /*  ...%%...........  */
0x38,0x00,  /*  ..%%%...........  */
0x70,0x00,  /*  .%%%............  */
0x60,0x00,  /*  .%%.............  */
0x7F,0x80,  /*  .%%%%%%%%.......  */
0x7F,0x80,  /*  .%%%%%%%%.......  */
0x00,0x00,  /*  ................  */
0x00,0x00,  /*  ................  */
0x00,0x00,  /*  ................  */
0x00,0x00   /*  ................  */
}}
,

/* Element 0x004B - Char 0x005B */
{{6, 20},{
0x78,0x00,  /*  .%%%%...........  */
0x78,0x00,  /*  .%%%%...........  */
0x60,0x00,  /*  .%%.............  */
0x60,0x00,  /*  .%%.............  */
0x60,0x00,  /*  .%%.............  */
0x60,0x00,  /*  .%%.............  */
0x60,0x00,  /*  .%%.............  */
0x60,0x00,  /*  .%%.............  */
0x60,0x00,  /*  .%%.............  */
0x60,0x00,  /*  .%%.............  */
0x60,0x00,  /*  .%%.............  */
0x60,0x00,  /*  .%%.............  */
0x60,0x00,  /*  .%%.............  */
0x60,0x00,  /*  .%%.............  */
0x60,0x00,  /*  .%%.............  */
0x60,0x00,  /*  .%%.............  */
0x78,0x00,  /*  .%%%%...........  */
0x78,0x00,  /*  .%%%%...........  */
0x00,0x00,  /*  ................  */
0x00,0x00   /*  ................  */
}}
,

/* Element 0x004C - Char 0x005C */
{{4, 20},{
0x60,0x00,  /*  .%%.............  */
0x60,0x00,  /*  .%%.............  */
0x60,0x00,  /*  .%%.............  */
0x60,0x00,  /*  .%%.............  */
0x60,0x00,  /*  .%%.............  */
0x60,0x00,  /*  .%%.............  */
0x00,0x00,  /*  ................  */
0x00,0x00,  /*  ................  */
0x00,0x00,  /*  ................  */
0x00,0x00,  /*  ................  */
0x60,0x00,  /*  .%%.............  */
0x60,0x00,  /*  .%%.............  */
0x60,0x00,  /*  .%%.............  */
0x60,0x00,  /*  .%%.............  */
0x60,0x00,  /*  .%%.............  */
0x60,0x00,  /*  .%%.............  */
0x00,0x00,  /*  ................  */
0x00,0x00,  /*  ................  */
0x00,0x00,  /*  ................  */
0x00,0x00   /*  ................  */
}}
,

/* Element 0x004D - Char 0x005D */
{{6, 20},{
0x78,0x00,  /*  .%%%%...........  */
0x78,0x00,  /*  .%%%%...........  */
0x18,0x00,  /*  ...%%...........  */
0x18,0x00,  /*  ...%%...........  */
0x18,0x00,  /*  ...%%...........  */
0x18,0x00,  /*  ...%%...........  */
0x18,0x00,  /*  ...%%...........  */
0x18,0x00,  /*  ...%%...........  */
0x18,0x00,  /*  ...%%...........  */
0x18,0x00,  /*  ...%%...........  */
0x18,0x00,  /*  ...%%...........  */
0x18,0x00,  /*  ...%%...........  */
0x18,0x00,  /*  ...%%...........  */
0x18,0x00,  /*  ...%%...........  */
0x18,0x00,  /*  ...%%...........  */
0x18,0x00,  /*  ...%%...........  */
0x78,0x00,  /*  .%%%%...........  */
0x78,0x00,  /*  .%%%%...........  */
0x00,0x00,  /*  ................  */
0x00,0x00   /*  ................  */
}}
,

/* Element 0x004E - Char 0x005E */
{{8, 20},{
0x18,0x00,  /*  ...%%...........  */
0x3C,0x00,  /*  ..%%%%..........  */
0x66,0x00,  /*  .%%..%%.........  */
0x42,0x00,  /*  .%....%.........  */
0x00,0x00,  /*  ................  */
0x00,0x00,  /*  ................  */
0x00,0x00,  /*  ................  */
0x00,0x00,  /*  ................  */
0x00,0x00,  /*  ................  */
0x00,0x00,  /*  ................  */
0x00,0x00,  /*  ................  */
0x00,0x00,  /*  ................  */
0x00,0x00,  /*  ................  */
0x00,0x00,  /*  ................  */
0x00,0x00,  /*  ................  */
0x00,0x00,  /*  ................  */
0x00,0x00,  /*  ................  */
0x00,0x00,  /*  ................  */
0x00,0x00,  /*  ................  */
0x00,0x00   /*  ................  */
}}
,

/* Element 0x004F - Char 0x005F */
{{12, 20},{
0x00,0x00,  /*  ................  */
0x00,0x00,  /*  ................  */
0x00,0x00,  /*  ................  */
0x00,0x00,  /*  ................  */
0x00,0x00,  /*  ................  */
0x00,0x00,  /*  ................  */
0x00,0x00,  /*  ................  */
0x00,0x00,  /*  ................  */
0x00,0x00,  /*  ................  */
0x00,0x00,  /*  ................  */
0x00,0x00,  /*  ................  */
0x00,0x00,  /*  ................  */
0x00,0x00,  /*  ................  */
0x00,0x00,  /*  ................  */
0x00,0x00,  /*  ................  */
0x00,0x00,  /*  ................  */
0x7F,0xE0,  /*  .%%%%%%%%%%.....  */
0x7F,0xE0,  /*  .%%%%%%%%%%.....  */
0x00,0x00,  /*  ................  */
0x00,0x00   /*  ................  */
}}
,

/* Element 0x0050 - Char 0x0060 */
{{6, 20},{
0x60,0x00,  /*  .%%.............  */
0x70,0x00,  /*  .%%%............  */
0x38,0x00,  /*  ..%%%...........  */
0x18,0x00,  /*  ...%%...........  */
0x00,0x00,  /*  ................  */
0x00,0x00,  /*  ................  */
0x00,0x00,  /*  ................  */
0x00,0x00,  /*  ................  */
0x00,0x00,  /*  ................  */
0x00,0x00,  /*  ................  */
0x00,0x00,  /*  ................  */
0x00,0x00,  /*  ................  */
0x00,0x00,  /*  ................  */
0x00,0x00,  /*  ................  */
0x00,0x00,  /*  ................  */
0x00,0x00,  /*  ................  */
0x00,0x00,  /*  ................  */
0x00,0x00,  /*  ................  */
0x00,0x00,  /*  ................  */
0x00,0x00   /*  ................  */
}}
,

/* Element 0x0051 - Char 0x0061 */
{{10, 20},{
0x00,0x00,  /*  ................  */
0x00,0x00,  /*  ................  */
0x00,0x00,  /*  ................  */
0x00,0x00,  /*  ................  */
0x1E,0x00,  /*  ...%%%%.........  */
0x1F,0x00,  /*  ...%%%%%........  */
0x03,0x80,  /*  ......%%%.......  */
0x01,0x80,  /*  .......%%.......  */
0x1F,0x80,  /*  ...%%%%%%.......  */
0x3F,0x80,  /*  ..%%%%%%%.......  */
0x71,0x80,  /*  .%%%...%%.......  */
0x61,0x80,  /*  .%%....%%.......  */
0x61,0x80,  /*  .%%....%%.......  */
0x71,0x80,  /*  .%%%...%%.......  */
0x3F,0x80,  /*  ..%%%%%%%.......  */
0x1F,0x80,  /*  ...%%%%%%.......  */
0x00,0x00,  /*  ................  */
0x00,0x00,  /*  ................  */
0x00,0x00,  /*  ................  */
0x00,0x00   /*  ................  */
}}
,

/* Element 0x0052 - Char 0x0062 */
{{10, 20},{
0x60,0x00,  /*  .%%.............  */
0x60,0x00,  /*  .%%.............  */
0x60,0x00,  /*  .%%.............  */
0x60,0x00,  /*  .%%.............  */
0x7E,0x00,  /*  .%%%%%%.........  */
0x7F,0x00,  /*  .%%%%%%%........  */
0x63,0x80,  /*  .%%...%%%.......  */
0x61,0x80,  /*  .%%....%%.......  */
0x61,0x80,  /*  .%%....%%.......  */
0x61,0x80,  /*  .%%....%%.......  */
0x61,0x80,  /*  .%%....%%.......  */
0x61,0x80,  /*  .%%....%%.......  */
0x61,0x80,  /*  .%%....%%.......  */
0x63,0x80,  /*  .%%...%%%.......  */
0x7F,0x00,  /*  .%%%%%%%........  */
0x7E,0x00,  /*  .%%%%%%.........  */
0x00,0x00,  /*  ................  */
0x00,0x00,  /*  ................  */
0x00,0x00,  /*  ................  */
0x00,0x00   /*  ................  */
}}
,

/* Element 0x0053 - Char 0x0063 */
{{10, 20},{
0x00,0x00,  /*  ................  */
0x00,0x00,  /*  ................  */
0x00,0x00,  /*  ................  */
0x00,0x00,  /*  ................  */
0x1E,0x00,  /*  ...%%%%.........  */
0x3F,0x00,  /*  ..%%%%%%........  */
0x73,0x80,  /*  .%%%..%%%.......  */
0x61,0x80,  /*  .%%....%%.......  */
0x60,0x00,  /*  .%%.............  */
0x60,0x00,  /*  .%%.............  */
0x60,0x00,  /*  .%%.............  */
0x60,0x00,  /*  .%%.............  */
0x61,0x80,  /*  .%%....%%.......  */
0x73,0x80,  /*  .%%%..%%%.......  */
0x3F,0x00,  /*  ..%%%%%%........  */
0x1E,0x00,  /*  ...%%%%.........  */
0x00,0x00,  /*  ................  */
0x00,0x00,  /*  ................  */
0x00,0x00,  /*  ................  */
0x00,0x00   /*  ................  */
}}
,

/* Element 0x0054 - Char 0x0064 */
{{10, 20},{
0x01,0x80,  /*  .......%%.......  */
0x01,0x80,  /*  .......%%.......  */
0x01,0x80,  /*  .......%%.......  */
0x01,0x80,  /*  .......%%.......  */
0x1F,0x80,  /*  ...%%%%%%.......  */
0x3F,0x80,  /*  ..%%%%%%%.......  */
0x71,0x80,  /*  .%%%...%%.......  */
0x61,0x80,  /*  .%%....%%.......  */
0x61,0x80,  /*  .%%....%%.......  */
0x61,0x80,  /*  .%%....%%.......  */
0x61,0x80,  /*  .%%....%%.......  */
0x61,0x80,  /*  .%%....%%.......  */
0x61,0x80,  /*  .%%....%%.......  */
0x71,0x80,  /*  .%%%...%%.......  */
0x3F,0x80,  /*  ..%%%%%%%.......  */
0x1F,0x80,  /*  ...%%%%%%.......  */
0x00,0x00,  /*  ................  */
0x00,0x00,  /*  ................  */
0x00,0x00,  /*  ................  */
0x00,0x00   /*  ................  */
}}
,

/* Element 0x0055 - Char 0x0065 */
{{10, 20},{
0x00,0x00,  /*  ................  */
0x00,0x00,  /*  ................  */
0x00,0x00,  /*  ................  */
0x00,0x00,  /*  ................  */
0x1E,0x00,  /*  ...%%%%.........  */
0x3F,0x00,  /*  ..%%%%%%........  */
0x73,0x80,  /*  .%%%..%%%.......  */
0x61,0x80,  /*  .%%....%%.......  */
0x7F,0x80,  /*  .%%%%%%%%.......  */
0x7F,0x80,  /*  .%%%%%%%%.......  */
0x60,0x00,  /*  .%%.............  */
0x60,0x00,  /*  .%%.............  */
0x61,0x80,  /*  .%%....%%.......  */
0x73,0x80,  /*  .%%%..%%%.......  */
0x3F,0x00,  /*  ..%%%%%%........  */
0x1E,0x00,  /*  ...%%%%.........  */
0x00,0x00,  /*  ................  */
0x00,0x00,  /*  ................  */
0x00,0x00,  /*  ................  */
0x00,0x00   /*  ................  */
}}
,

/* Element 0x0056 - Char 0x0066 */
{{8, 20},{
0x06,0x00,  /*  .....%%.........  */
0x0E,0x00,  /*  ....%%%.........  */
0x1C,0x00,  /*  ...%%%..........  */
0x18,0x00,  /*  ...%%...........  */
0x7E,0x00,  /*  .%%%%%%.........  */
0x7E,0x00,  /*  .%%%%%%.........  */
0x18,0x00,  /*  ...%%...........  */
0x18,0x00,  /*  ...%%...........  */
0x18,0x00,  /*  ...%%...........  */
0x18,0x00,  /*  ...%%...........  */
0x18,0x00,  /*  ...%%...........  */
0x18,0x00,  /*  ...%%...........  */
0x18,0x00,  /*  ...%%...........  */
0x18,0x00,  /*  ...%%...........  */
0x18,0x00,  /*  ...%%...........  */
0x18,0x00,  /*  ...%%...........  */
0x00,0x00,  /*  ................  */
0x00,0x00,  /*  ................  */
0x00,0x00,  /*  ................  */
0x00,0x00   /*  ................  */
}}
,

/* Element 0x0057 - Char 0x0067 */
{{10, 20},{
0x00,0x00,  /*  ................  */
0x00,0x00,  /*  ................  */
0x00,0x00,  /*  ................  */
0x00,0x00,  /*  ................  */
0x1F,0x80,  /*  ...%%%%%%.......  */
0x3F,0x80,  /*  ..%%%%%%%.......  */
0x71,0x80,  /*  .%%%...%%.......  */
0x61,0x80,  /*  .%%....%%.......  */
0x61,0x80,  /*  .%%....%%.......  */
0x61,0x80,  /*  .%%....%%.......  */
0x61,0x80,  /*  .%%....%%.......  */
0x61,0x80,  /*  .%%....%%.......  */
0x61,0x80,  /*  .%%....%%.......  */
0x71,0x80,  /*  .%%%...%%.......  */
0x3F,0x80,  /*  ..%%%%%%%.......  */
0x1F,0x80,  /*  ...%%%%%%.......  */
0x01,0x80,  /*  .......%%.......  */
0x03,0x80,  /*  ......%%%.......  */
0x1F,0x00,  /*  ...%%%%%........  */
0x1E,0x00   /*  ...%%%%.........  */
}}
,

/* Element 0x0058 - Char 0x0068 */
{{10, 20},{
0x60,0x00,  /*  .%%.............  */
0x60,0x00,  /*  .%%.............  */
0x60,0x00,  /*  .%%.............  */
0x60,0x00,  /*  .%%.............  */
0x7E,0x00,  /*  .%%%%%%.........  */
0x7F,0x00,  /*  .%%%%%%%........  */
0x63,0x80,  /*  .%%...%%%.......  */
0x61,0x80,  /*  .%%....%%.......  */
0x61,0x80,  /*  .%%....%%.......  */
0x61,0x80,  /*  .%%....%%.......  */
0x61,0x80,  /*  .%%....%%.......  */
0x61,0x80,  /*  .%%....%%.......  */
0x61,0x80,  /*  .%%....%%.......  */
0x61,0x80,  /*  .%%....%%.......  */
0x61,0x80,  /*  .%%....%%.......  */
0x61,0x80,  /*  .%%....%%.......  */
0x00,0x00,  /*  ................  */
0x00,0x00,  /*  ................  */
0x00,0x00,  /*  ................  */
0x00,0x00   /*  ................  */
}}
,

/* Element 0x0059 - Char 0x0069 */
{{4, 20},{
0x60,0x00,  /*  .%%.............  */
0x60,0x00,  /*  .%%.............  */
0x00,0x00,  /*  ................  */
0x00,0x00,  /*  ................  */
0x60,0x00,  /*  .%%.............  */
0x60,0x00,  /*  .%%.............  */
0x60,0x00,  /*  .%%.............  */
0x60,0x00,  /*  .%%.............  */
0x60,0x00,  /*  .%%.............  */
0x60,0x00,  /*  .%%.............  */
0x60,0x00,  /*  .%%.............  */
0x60,0x00,  /*  .%%.............  */
0x60,0x00,  /*  .%%.............  */
0x60,0x00,  /*  .%%.............  */
0x60,0x00,  /*  .%%.............  */
0x60,0x00,  /*  .%%.............  */
0x00,0x00,  /*  ................  */
0x00,0x00,  /*  ................  */
0x00,0x00,  /*  ................  */
0x00,0x00   /*  ................  */
}}
,

/* Element 0x005A - Char 0x006A */
{{6, 20},{
0x18,0x00,  /*  ...%%...........  */
0x18,0x00,  /*  ...%%...........  */
0x00,0x00,  /*  ................  */
0x00,0x00,  /*  ................  */
0x18,0x00,  /*  ...%%...........  */
0x18,0x00,  /*  ...%%...........  */
0x18,0x00,  /*  ...%%...........  */
0x18,0x00,  /*  ...%%...........  */
0x18,0x00,  /*  ...%%...........  */
0x18,0x00,  /*  ...%%...........  */
0x18,0x00,  /*  ...%%...........  */
0x18,0x00,  /*  ...%%...........  */
0x18,0x00,  /*  ...%%...........  */
0x18,0x00,  /*  ...%%...........  */
0x18,0x00,  /*  ...%%...........  */
0x18,0x00,  /*  ...%%...........  */
0x18,0x00,  /*  ...%%...........  */
0x38,0x00,  /*  ..%%%...........  */
0x70,0x00,  /*  .%%%............  */
0x60,0x00   /*  .%%.............  */
}}
,

/* Element 0x005B - Char 0x006B */
{{8, 20},{
0x60,0x00,  /*  .%%.............  */
0x60,0x00,  /*  .%%.............  */
0x60,0x00,  /*  .%%.............  */
0x60,0x00,  /*  .%%.............  */
0x66,0x00,  /*  .%%..%%.........  */
0x66,0x00,  /*  .%%..%%.........  */
0x66,0x00,  /*  .%%..%%.........  */
0x6E,0x00,  /*  .%%.%%%.........  */
0x7C,0x00,  /*  .%%%%%..........  */
0x78,0x00,  /*  .%%%%...........  */
0x78,0x00,  /*  .%%%%...........  */
0x7C,0x00,  /*  .%%%%%..........  */
0x6E,0x00,  /*  .%%.%%%.........  */
0x66,0x00,  /*  .%%..%%.........  */
0x66,0x00,  /*  .%%..%%.........  */
0x66,0x00,  /*  .%%..%%.........  */
0x00,0x00,  /*  ................  */
0x00,0x00,  /*  ................  */
0x00,0x00,  /*  ................  */
0x00,0x00   /*  ................  */
}}
,

/* Element 0x005C - Char 0x006C */
{{4, 20},{
0x60,0x00,  /*  .%%.............  */
0x60,0x00,  /*  .%%.............  */
0x60,0x00,  /*  .%%.............  */
0x60,0x00,  /*  .%%.............  */
0x60,0x00,  /*  .%%.............  */
0x60,0x00,  /*  .%%.............  */
0x60,0x00,  /*  .%%.............  */
0x60,0x00,  /*  .%%.............  */
0x60,0x00,  /*  .%%.............  */
0x60,0x00,  /*  .%%.............  */
0x60,0x00,  /*  .%%.............  */
0x60,0x00,  /*  .%%.............  */
0x60,0x00,  /*  .%%.............  */
0x60,0x00,  /*  .%%.............  */
0x60,0x00,  /*  .%%.............  */
0x60,0x00,  /*  .%%.............  */
0x00,0x00,  /*  ................  */
0x00,0x00,  /*  ................  */
0x00,0x00,  /*  ................  */
0x00,0x00   /*  ................  */
}}
,

/* Element 0x005D - Char 0x006D */
{{16, 20},{
0x00,0x00,  /*  ................  */
0x00,0x00,  /*  ................  */
0x00,0x00,  /*  ................  */
0x00,0x00,  /*  ................  */
0x5E,0x78,  /*  .%.%%%%..%%%%...  */
0x7F,0xFC,  /*  .%%%%%%%%%%%%%..  */
0x73,0xCE,  /*  .%%%..%%%%..%%%.  */
0x61,0x86,  /*  .%%....%%....%%.  */
0x61,0x86,  /*  .%%....%%....%%.  */
0x61,0x86,  /*  .%%....%%....%%.  */
0x61,0x86,  /*  .%%....%%....%%.  */
0x61,0x86,  /*  .%%....%%....%%.  */
0x61,0x86,  /*  .%%....%%....%%.  */
0x61,0x86,  /*  .%%....%%....%%.  */
0x61,0x86,  /*  .%%....%%....%%.  */
0x61,0x86,  /*  .%%....%%....%%.  */
0x00,0x00,  /*  ................  */
0x00,0x00,  /*  ................  */
0x00,0x00,  /*  ................  */
0x00,0x00   /*  ................  */
}}
,

/* Element 0x005E - Char 0x006E */
{{10, 20},{
0x00,0x00,  /*  ................  */
0x00,0x00,  /*  ................  */
0x00,0x00,  /*  ................  */
0x00,0x00,  /*  ................  */
0x5E,0x00,  /*  .%.%%%%.........  */
0x7F,0x00,  /*  .%%%%%%%........  */
0x73,0x80,  /*  .%%%..%%%.......  */
0x61,0x80,  /*  .%%....%%.......  */
0x61,0x80,  /*  .%%....%%.......  */
0x61,0x80,  /*  .%%....%%.......  */
0x61,0x80,  /*  .%%....%%.......  */
0x61,0x80,  /*  .%%....%%.......  */
0x61,0x80,  /*  .%%....%%.......  */
0x61,0x80,  /*  .%%....%%.......  */
0x61,0x80,  /*  .%%....%%.......  */
0x61,0x80,  /*  .%%....%%.......  */
0x00,0x00,  /*  ................  */
0x00,0x00,  /*  ................  */
0x00,0x00,  /*  ................  */
0x00,0x00   /*  ................  */
}}
,

/* Element 0x005F - Char 0x006F */
{{10, 20},{
0x00,0x00,  /*  ................  */
0x00,0x00,  /*  ................  */
0x00,0x00,  /*  ................  */
0x00,0x00,  /*  ................  */
0x1E,0x00,  /*  ...%%%%.........  */
0x3F,0x00,  /*  ..%%%%%%........  */
0x73,0x80,  /*  .%%%..%%%.......  */
0x61,0x80,  /*  .%%....%%.......  */
0x61,0x80,  /*  .%%....%%.......  */
0x61,0x80,  /*  .%%....%%.......  */
0x61,0x80,  /*  .%%....%%.......  */
0x61,0x80,  /*  .%%....%%.......  */
0x61,0x80,  /*  .%%....%%.......  */
0x73,0x80,  /*  .%%%..%%%.......  */
0x3F,0x00,  /*  ..%%%%%%........  */
0x1E,0x00,  /*  ...%%%%.........  */
0x00,0x00,  /*  ................  */
0x00,0x00,  /*  ................  */
0x00,0x00,  /*  ................  */
0x00,0x00   /*  ................  */
}}
,

/* Element 0x0060 - Char 0x0070 */
{{10, 20},{
0x00,0x00,  /*  ................  */
0x00,0x00,  /*  ................  */
0x00,0x00,  /*  ................  */
0x00,0x00,  /*  ................  */
0x7E,0x00,  /*  .%%%%%%.........  */
0x7F,0x00,  /*  .%%%%%%%........  */
0x63,0x80,  /*  .%%...%%%.......  */
0x61,0x80,  /*  .%%....%%.......  */
0x61,0x80,  /*  .%%....%%.......  */
0x61,0x80,  /*  .%%....%%.......  */
0x61,0x80,  /*  .%%....%%.......  */
0x61,0x80,  /*  .%%....%%.......  */
0x61,0x80,  /*  .%%....%%.......  */
0x63,0x80,  /*  .%%...%%%.......  */
0x7F,0x00,  /*  .%%%%%%%........  */
0x7E,0x00,  /*  .%%%%%%.........  */
0x60,0x00,  /*  .%%.............  */
0x60,0x00,  /*  .%%.............  */
0x60,0x00,  /*  .%%.............  */
0x60,0x00   /*  .%%.............  */
}}
,

/* Element 0x0061 - Char 0x0071 */
{{10, 20},{
0x00,0x00,  /*  ................  */
0x00,0x00,  /*  ................  */
0x00,0x00,  /*  ................  */
0x00,0x00,  /*  ................  */
0x1F,0x80,  /*  ...%%%%%%.......  */
0x3F,0x80,  /*  ..%%%%%%%.......  */
0x71,0x80,  /*  .%%%...%%.......  */
0x61,0x80,  /*  .%%....%%.......  */
0x61,0x80,  /*  .%%....%%.......  */
0x61,0x80,  /*  .%%....%%.......  */
0x61,0x80,  /*  .%%....%%.......  */
0x61,0x80,  /*  .%%....%%.......  */
0x61,0x80,  /*  .%%....%%.......  */
0x71,0x80,  /*  .%%%...%%.......  */
0x3F,0x80,  /*  ..%%%%%%%.......  */
0x1F,0x80,  /*  ...%%%%%%.......  */
0x01,0x80,  /*  .......%%.......  */
0x01,0x80,  /*  .......%%.......  */
0x01,0x80,  /*  .......%%.......  */
0x01,0x80   /*  .......%%.......  */
}}
,

/* Element 0x0062 - Char 0x0072 */
{{6, 20},{
0x00,0x00,  /*  ................  */
0x00,0x00,  /*  ................  */
0x00,0x00,  /*  ................  */
0x00,0x00,  /*  ................  */
0x58,0x00,  /*  .%.%%...........  */
0x78,0x00,  /*  .%%%%...........  */
0x70,0x00,  /*  .%%%............  */
0x60,0x00,  /*  .%%.............  */
0x60,0x00,  /*  .%%.............  */
0x60,0x00,  /*  .%%.............  */
0x60,0x00,  /*  .%%.............  */
0x60,0x00,  /*  .%%.............  */
0x60,0x00,  /*  .%%.............  */
0x60,0x00,  /*  .%%.............  */
0x60,0x00,  /*  .%%.............  */
0x60,0x00,  /*  .%%.............  */
0x00,0x00,  /*  ................  */
0x00,0x00,  /*  ................  */
0x00,0x00,  /*  ................  */
0x00,0x00   /*  ................  */
}}
,

/* Element 0x0063 - Char 0x0073 */
{{9, 20},{
0x00,0x00,  /*  ................  */
0x00,0x00,  /*  ................  */
0x00,0x00,  /*  ................  */
0x00,0x00,  /*  ................  */
0x1E,0x00,  /*  ...%%%%.........  */
0x3E,0x00,  /*  ..%%%%%.........  */
0x70,0x00,  /*  .%%%............  */
0x60,0x00,  /*  .%%.............  */
0x70,0x00,  /*  .%%%............  */
0x3C,0x00,  /*  ..%%%%..........  */
0x1E,0x00,  /*  ...%%%%.........  */
0x07,0x00,  /*  .....%%%........  */
0x03,0x00,  /*  ......%%........  */
0x07,0x00,  /*  .....%%%........  */
0x7E,0x00,  /*  .%%%%%%.........  */
0x7C,0x00,  /*  .%%%%%..........  */
0x00,0x00,  /*  ................  */
0x00,0x00,  /*  ................  */
0x00,0x00,  /*  ................  */
0x00,0x00   /*  ................  */
}}
,

/* Element 0x0064 - Char 0x0074 */
{{8, 20},{
0x00,0x00,  /*  ................  */
0x00,0x00,  /*  ................  */
0x18,0x00,  /*  ...%%...........  */
0x18,0x00,  /*  ...%%...........  */
0x7E,0x00,  /*  .%%%%%%.........  */
0x7E,0x00,  /*  .%%%%%%.........  */
0x18,0x00,  /*  ...%%...........  */
0x18,0x00,  /*  ...%%...........  */
0x18,0x00,  /*  ...%%...........  */
0x18,0x00,  /*  ...%%...........  */
0x18,0x00,  /*  ...%%...........  */
0x18,0x00,  /*  ...%%...........  */
0x18,0x00,  /*  ...%%...........  */
0x1C,0x00,  /*  ...%%%..........  */
0x0E,0x00,  /*  ....%%%.........  */
0x06,0x00,  /*  .....%%.........  */
0x00,0x00,  /*  ................  */
0x00,0x00,  /*  ................  */
0x00,0x00,  /*  ................  */
0x00,0x00   /*  ................  */
}}
,

/* Element 0x0065 - Char 0x0075 */
{{10, 20},{
0x00,0x00,  /*  ................  */
0x00,0x00,  /*  ................  */
0x00,0x00,  /*  ................  */
0x00,0x00,  /*  ................  */
0x61,0x80,  /*  .%%....%%.......  */
0x61,0x80,  /*  .%%....%%.......  */
0x61,0x80,  /*  .%%....%%.......  */
0x61,0x80,  /*  .%%....%%.......  */
0x61,0x80,  /*  .%%....%%.......  */
0x61,0x80,  /*  .%%....%%.......  */
0x61,0x80,  /*  .%%....%%.......  */
0x61,0x80,  /*  .%%....%%.......  */
0x61,0x80,  /*  .%%....%%.......  */
0x73,0x80,  /*  .%%%..%%%.......  */
0x3F,0x80,  /*  ..%%%%%%%.......  */
0x1D,0x80,  /*  ...%%%.%%.......  */
0x00,0x00,  /*  ................  */
0x00,0x00,  /*  ................  */
0x00,0x00,  /*  ................  */
0x00,0x00   /*  ................  */
}}
,

/* Element 0x0066 - Char 0x0076 */
{{12, 20},{
0x00,0x00,  /*  ................  */
0x00,0x00,  /*  ................  */
0x00,0x00,  /*  ................  */
0x00,0x00,  /*  ................  */
0x60,0x60,  /*  .%%......%%.....  */
0x60,0x60,  /*  .%%......%%.....  */
0x60,0x60,  /*  .%%......%%.....  */
0x70,0xE0,  /*  .%%%....%%%.....  */
0x30,0xC0,  /*  ..%%....%%......  */
0x39,0xC0,  /*  ..%%%..%%%......  */
0x19,0x80,  /*  ...%%..%%.......  */
0x1F,0x80,  /*  ...%%%%%%.......  */
0x0F,0x00,  /*  ....%%%%........  */
0x0F,0x00,  /*  ....%%%%........  */
0x06,0x00,  /*  .....%%.........  */
0x06,0x00,  /*  .....%%.........  */
0x00,0x00,  /*  ................  */
0x00,0x00,  /*  ................  */
0x00,0x00,  /*  ................  */
0x00,0x00   /*  ................  */
}}
,

/* Element 0x0067 - Char 0x0077 */
{{12, 20},{
0x00,0x00,  /*  ................  */
0x00,0x00,  /*  ................  */
0x00,0x00,  /*  ................  */
0x00,0x00,  /*  ................  */
0x60,0x60,  /*  .%%......%%.....  */
0x60,0x60,  /*  .%%......%%.....  */
0x66,0x60,  /*  .%%..%%..%%.....  */
0x66,0x60,  /*  .%%..%%..%%.....  */
0x66,0x60,  /*  .%%..%%..%%.....  */
0x66,0x60,  /*  .%%..%%..%%.....  */
0x76,0xE0,  /*  .%%%.%%.%%%.....  */
0x3F,0xC0,  /*  ..%%%%%%%%......  */
0x3F,0xC0,  /*  ..%%%%%%%%......  */
0x19,0x80,  /*  ...%%..%%.......  */
0x19,0x80,  /*  ...%%..%%.......  */
0x19,0x80,  /*  ...%%..%%.......  */
0x00,0x00,  /*  ................  */
0x00,0x00,  /*  ................  */
0x00,0x00,  /*  ................  */
0x00,0x00   /*  ................  */
}}
,

/* Element 0x0068 - Char 0x0078 */
{{10, 20},{
0x00,0x00,  /*  ................  */
0x00,0x00,  /*  ................  */
0x00,0x00,  /*  ................  */
0x00,0x00,  /*  ................  */
0x61,0x80,  /*  .%%....%%.......  */
0x61,0x80,  /*  .%%....%%.......  */
0x61,0x80,  /*  .%%....%%.......  */
0x73,0x80,  /*  .%%%..%%%.......  */
0x3F,0x00,  /*  ..%%%%%%........  */
0x1E,0x00,  /*  ...%%%%.........  */
0x1E,0x00,  /*  ...%%%%.........  */
0x3F,0x00,  /*  ..%%%%%%........  */
0x73,0x80,  /*  .%%%..%%%.......  */
0x61,0x80,  /*  .%%....%%.......  */
0x61,0x80,  /*  .%%....%%.......  */
0x61,0x80,  /*  .%%....%%.......  */
0x00,0x00,  /*  ................  */
0x00,0x00,  /*  ................  */
0x00,0x00,  /*  ................  */
0x00,0x00   /*  ................  */
}}
,

/* Element 0x0069 - Char 0x0079 */
{{12, 20},{
0x00,0x00,  /*  ................  */
0x00,0x00,  /*  ................  */
0x00,0x00,  /*  ................  */
0x00,0x00,  /*  ................  */
0x60,0x60,  /*  .%%......%%.....  */
0x60,0x60,  /*  .%%......%%.....  */
0x60,0x60,  /*  .%%......%%.....  */
0x30,0xC0,  /*  ..%%....%%......  */
0x30,0xC0,  /*  ..%%....%%......  */
0x39,0xC0,  /*  ..%%%..%%%......  */
0x19,0x80,  /*  ...%%..%%.......  */
0x19,0x80,  /*  ...%%..%%.......  */
0x0F,0x00,  /*  ....%%%%........  */
0x0F,0x00,  /*  ....%%%%........  */
0x06,0x00,  /*  .....%%.........  */
0x06,0x00,  /*  .....%%.........  */
0x06,0x00,  /*  .....%%.........  */
0x0E,0x00,  /*  ....%%%.........  */
0x1C,0x00,  /*  ...%%%..........  */
0x18,0x00   /*  ...%%...........  */
}}
,

/* Element 0x006A - Char 0x007A */
{{8, 20},{
0x00,0x00,  /*  ................  */
0x00,0x00,  /*  ................  */
0x00,0x00,  /*  ................  */
0x00,0x00,  /*  ................  */
0x7E,0x00,  /*  .%%%%%%.........  */
0x7E,0x00,  /*  .%%%%%%.........  */
0x06,0x00,  /*  .....%%.........  */
0x0E,0x00,  /*  ....%%%.........  */
0x0C,0x00,  /*  ....%%..........  */
0x18,0x00,  /*  ...%%...........  */
0x18,0x00,  /*  ...%%...........  */
0x30,0x00,  /*  ..%%............  */
0x70,0x00,  /*  .%%%............  */
0x60,0x00,  /*  .%%.............  */
0x7E,0x00,  /*  .%%%%%%.........  */
0x7E,0x00,  /*  .%%%%%%.........  */
0x00,0x00,  /*  ................  */
0x00,0x00,  /*  ................  */
0x00,0x00,  /*  ................  */
0x00,0x00   /*  ................  */
}}
,

/* Element 0x006B - Char 0x007B */
{{8, 20},{
0x06,0x00,  /*  .....%%.........  */
0x0E,0x00,  /*  ....%%%.........  */
0x1C,0x00,  /*  ...%%%..........  */
0x18,0x00,  /*  ...%%...........  */
0x18,0x00,  /*  ...%%...........  */
0x18,0x00,  /*  ...%%...........  */
0x18,0x00,  /*  ...%%...........  */
0x38,0x00,  /*  ..%%%...........  */
0x70,0x00,  /*  .%%%............  */
0x70,0x00,  /*  .%%%............  */
0x38,0x00,  /*  ..%%%...........  */
0x18,0x00,  /*  ...%%...........  */
0x18,0x00,  /*  ...%%...........  */
0x18,0x00,  /*  ...%%...........  */
0x18,0x00,  /*  ...%%...........  */
0x1C,0x00,  /*  ...%%%..........  */
0x0E,0x00,  /*  ....%%%.........  */
0x06,0x00,  /*  .....%%.........  */
0x00,0x00,  /*  ................  */
0x00,0x00   /*  ................  */
}}
,

/* Element 0x006C - Char 0x007C */
{{10, 20},{
0x60,0x00,  /*  .%%.............  */
0x60,0x00,  /*  .%%.............  */
0x70,0x00,  /*  .%%%............  */
0x30,0x00,  /*  ..%%............  */
0x38,0x00,  /*  ..%%%...........  */
0x18,0x00,  /*  ...%%...........  */
0x1C,0x00,  /*  ...%%%..........  */
0x0C,0x00,  /*  ....%%..........  */
0x0C,0x00,  /*  ....%%..........  */
0x0E,0x00,  /*  ....%%%.........  */
0x06,0x00,  /*  .....%%.........  */
0x07,0x00,  /*  .....%%%........  */
0x03,0x00,  /*  ......%%........  */
0x03,0x80,  /*  ......%%%.......  */
0x01,0x80,  /*  .......%%.......  */
0x01,0x80,  /*  .......%%.......  */
0x00,0x00,  /*  ................  */
0x00,0x00,  /*  ................  */
0x00,0x00,  /*  ................  */
0x00,0x00   /*  ................  */
}}
,

/* Element 0x006D - Char 0x007D */
{{8, 20},{
0x60,0x00,  /*  .%%.............  */
0x70,0x00,  /*  .%%%............  */
0x38,0x00,  /*  ..%%%...........  */
0x18,0x00,  /*  ...%%...........  */
0x18,0x00,  /*  ...%%...........  */
0x18,0x00,  /*  ...%%...........  */
0x18,0x00,  /*  ...%%...........  */
0x1C,0x00,  /*  ...%%%..........  */
0x0E,0x00,  /*  ....%%%.........  */
0x0E,0x00,  /*  ....%%%.........  */
0x1C,0x00,  /*  ...%%%..........  */
0x18,0x00,  /*  ...%%...........  */
0x18,0x00,  /*  ...%%...........  */
0x18,0x00,  /*  ...%%...........  */
0x18,0x00,  /*  ...%%...........  */
0x38,0x00,  /*  ..%%%...........  */
0x70,0x00,  /*  .%%%............  */
0x60,0x00,  /*  .%%.............  */
0x00,0x00,  /*  ................  */
0x00,0x00   /*  ................  */
}}
,

/* Element 0x006E - Char 0x007E */
{{10, 20},{
0x18,0x80,  /*  ...%%...%.......  */
0x3D,0x80,  /*  ..%%%%.%%.......  */
0x6F,0x00,  /*  .%%.%%%%........  */
0x46,0x00,  /*  .%...%%.........  */
0x00,0x00,  /*  ................  */
0x00,0x00,  /*  ................  */
0x00,0x00,  /*  ................  */
0x00,0x00,  /*  ................  */
0x00,0x00,  /*  ................  */
0x00,0x00,  /*  ................  */
0x00,0x00,  /*  ................  */
0x00,0x00,  /*  ................  */
0x00,0x00,  /*  ................  */
0x00,0x00,  /*  ................  */
0x00,0x00,  /*  ................  */
0x00,0x00,  /*  ................  */
0x00,0x00,  /*  ................  */
0x00,0x00,  /*  ................  */
0x00,0x00,  /*  ................  */
0x00,0x00   /*  ................  */
}}
,

/* Element 0x006F - Char 0x007F */
{{7, 20},{
0x00,0x00,  /*  ................  */
0x00,0x00,  /*  ................  */
0x00,0x00,  /*  ................  */
0x00,0x00,  /*  ................  */
0x00,0x00,  /*  ................  */
0x00,0x00,  /*  ................  */
0x00,0x00,  /*  ................  */
0x00,0x00,  /*  ................  */
0x00,0x00,  /*  ................  */
0x00,0x00,  /*  ................  */
0x00,0x00,  /*  ................  */
0x00,0x00,  /*  ................  */
0x00,0x00,  /*  ................  */
0x00,0x00,  /*  ................  */
0x00,0x00,  /*  ................  */
0x00,0x00,  /*  ................  */
0x00,0x00,  /*  ................  */
0x00,0x00,  /*  ................  */
0x00,0x00,  /*  ................  */
0x00,0x00   /*  ................  */
}}

