/*Y 8 8 9 16  CP<times9.cp> . times9[96]={  times9.sym   LCDIcon FileDescriptor: Do not edit or move */
/**
    List of GSYMBOLS to be included with a font. Copyright RAMTEX 1999
**/
/* Put Your Comments Here */
{{3, 9},{
0x00,  /*  ........  */
0x00,  /*  ........  */
0x00,  /*  ........  */
0x00,  /*  ........  */
0x00,  /*  ........  */
0x00,  /*  ........  */
0x00,  /*  ........  */
0x00,  /*  ........  */
0x00   /*  ........  */
}}
,
{{2, 9},{
0x00,  /*  ........  */
0x80,  /*  %.......  */
0x80,  /*  %.......  */
0x80,  /*  %.......  */
0x80,  /*  %.......  */
0x00,  /*  ........  */
0x80,  /*  %.......  */
0x00,  /*  ........  */
0x00   /*  ........  */
}}
,
{{4, 9},{
0x00,  /*  ........  */
0xA0,  /*  %.%.....  */
0xA0,  /*  %.%.....  */
0x00,  /*  ........  */
0x00,  /*  ........  */
0x00,  /*  ........  */
0x00,  /*  ........  */
0x00,  /*  ........  */
0x00   /*  ........  */
}}
,
{{6, 9},{
0x00,  /*  ........  */
0x00,  /*  ........  */
0x50,  /*  .%.%....  */
0xF8,  /*  %%%%%...  */
0x50,  /*  .%.%....  */
0xF8,  /*  %%%%%...  */
0x50,  /*  .%.%....  */
0x00,  /*  ........  */
0x00   /*  ........  */
}}
,
{{4, 9},{
0x00,  /*  ........  */
0x40,  /*  .%......  */
0xE0,  /*  %%%.....  */
0xC0,  /*  %%......  */
0x60,  /*  .%%.....  */
0xE0,  /*  %%%.....  */
0x40,  /*  .%......  */
0x00,  /*  ........  */
0x00   /*  ........  */
}}
,
{{8, 9},{
0x42,  /*  .%....%.  */
0xA4,  /*  %.%..%..  */
0x48,  /*  .%..%...  */
0x10,  /*  ...%....  */
0x24,  /*  ..%..%..  */
0x4A,  /*  .%..%.%.  */
0x84,  /*  %....%..  */
0x00,  /*  ........  */
0x00   /*  ........  */
}}
,
{{7, 9},{
0x00,  /*  ........  */
0x20,  /*  ..%.....  */
0x50,  /*  .%.%....  */
0x64,  /*  .%%..%..  */
0x98,  /*  %..%%...  */
0x98,  /*  %..%%...  */
0x64,  /*  .%%..%..  */
0x00,  /*  ........  */
0x00   /*  ........  */
}}
,
{{2, 9},{
0x00,  /*  ........  */
0x80,  /*  %.......  */
0x80,  /*  %.......  */
0x00,  /*  ........  */
0x00,  /*  ........  */
0x00,  /*  ........  */
0x00,  /*  ........  */
0x00,  /*  ........  */
0x00   /*  ........  */
}}
,
{{3, 9},{
0x40,  /*  .%......  */
0x40,  /*  .%......  */
0x80,  /*  %.......  */
0x80,  /*  %.......  */
0x80,  /*  %.......  */
0x80,  /*  %.......  */
0x40,  /*  .%......  */
0x40,  /*  .%......  */
0x00   /*  ........  */
}}
,
{{3, 9},{
0x80,  /*  %.......  */
0x80,  /*  %.......  */
0x40,  /*  .%......  */
0x40,  /*  .%......  */
0x40,  /*  .%......  */
0x40,  /*  .%......  */
0x80,  /*  %.......  */
0x80,  /*  %.......  */
0x00   /*  ........  */
}}
,
{{4, 9},{
0x00,  /*  ........  */
0x40,  /*  .%......  */
0xE0,  /*  %%%.....  */
0xE0,  /*  %%%.....  */
0x40,  /*  .%......  */
0x00,  /*  ........  */
0x00,  /*  ........  */
0x00,  /*  ........  */
0x00   /*  ........  */
}}
,
{{5, 9},{
0x00,  /*  ........  */
0x20,  /*  ..%.....  */
0x20,  /*  ..%.....  */
0xF8,  /*  %%%%%...  */
0x20,  /*  ..%.....  */
0x20,  /*  ..%.....  */
0x00,  /*  ........  */
0x00,  /*  ........  */
0x00   /*  ........  */
}}
,
{{2, 9},{
0x00,  /*  ........  */
0x00,  /*  ........  */
0x00,  /*  ........  */
0x00,  /*  ........  */
0x00,  /*  ........  */
0x00,  /*  ........  */
0x80,  /*  %.......  */
0x80,  /*  %.......  */
0x00   /*  ........  */
}}
,
{{4, 9},{
0x00,  /*  ........  */
0x00,  /*  ........  */
0x00,  /*  ........  */
0x00,  /*  ........  */
0xF0,  /*  %%%%....  */
0x00,  /*  ........  */
0x00,  /*  ........  */
0x00,  /*  ........  */
0x00   /*  ........  */
}}
,
{{2, 9},{
0x00,  /*  ........  */
0x00,  /*  ........  */
0x00,  /*  ........  */
0x00,  /*  ........  */
0x00,  /*  ........  */
0x00,  /*  ........  */
0x80,  /*  %.......  */
0x00,  /*  ........  */
0x00   /*  ........  */
}}
,
{{4, 9},{
0x00,  /*  ........  */
0x20,  /*  ..%.....  */
0x20,  /*  ..%.....  */
0x40,  /*  .%......  */
0x40,  /*  .%......  */
0x80,  /*  %.......  */
0x80,  /*  %.......  */
0x00,  /*  ........  */
0x00   /*  ........  */
}}
,
{{5, 9},{
0x00,  /*  ........  */
0x60,  /*  .%%.....  */
0x90,  /*  %..%....  */
0x90,  /*  %..%....  */
0x90,  /*  %..%....  */
0x90,  /*  %..%....  */
0x60,  /*  .%%.....  */
0x00,  /*  ........  */
0x00   /*  ........  */
}}
,
{{4, 9},{
0x00,  /*  ........  */
0xC0,  /*  %%......  */
0x40,  /*  .%......  */
0x40,  /*  .%......  */
0x40,  /*  .%......  */
0x40,  /*  .%......  */
0xE0,  /*  %%%.....  */
0x00,  /*  ........  */
0x00   /*  ........  */
}}
,
{{5, 9},{
0x00,  /*  ........  */
0x60,  /*  .%%.....  */
0x90,  /*  %..%....  */
0x10,  /*  ...%....  */
0x60,  /*  .%%.....  */
0x80,  /*  %.......  */
0xF0,  /*  %%%%....  */
0x00,  /*  ........  */
0x00   /*  ........  */
}}
,
{{5, 9},{
0x00,  /*  ........  */
0x60,  /*  .%%.....  */
0x90,  /*  %..%....  */
0x20,  /*  ..%.....  */
0x10,  /*  ...%....  */
0x90,  /*  %..%....  */
0x60,  /*  .%%.....  */
0x00,  /*  ........  */
0x00   /*  ........  */
}}
,
{{5, 9},{
0x00,  /*  ........  */
0x20,  /*  ..%.....  */
0x60,  /*  .%%.....  */
0xA0,  /*  %.%.....  */
0xF0,  /*  %%%%....  */
0x20,  /*  ..%.....  */
0x20,  /*  ..%.....  */
0x00,  /*  ........  */
0x00   /*  ........  */
}}
,
{{5, 9},{
0x00,  /*  ........  */
0xF0,  /*  %%%%....  */
0x80,  /*  %.......  */
0x60,  /*  .%%.....  */
0x10,  /*  ...%....  */
0x90,  /*  %..%....  */
0x60,  /*  .%%.....  */
0x00,  /*  ........  */
0x00   /*  ........  */
}}
,
{{5, 9},{
0x00,  /*  ........  */
0x60,  /*  .%%.....  */
0x80,  /*  %.......  */
0xE0,  /*  %%%.....  */
0x90,  /*  %..%....  */
0x90,  /*  %..%....  */
0x60,  /*  .%%.....  */
0x00,  /*  ........  */
0x00   /*  ........  */
}}
,
{{5, 9},{
0x00,  /*  ........  */
0xF0,  /*  %%%%....  */
0x10,  /*  ...%....  */
0x20,  /*  ..%.....  */
0x20,  /*  ..%.....  */
0x40,  /*  .%......  */
0x40,  /*  .%......  */
0x00,  /*  ........  */
0x00   /*  ........  */
}}
,
{{5, 9},{
0x00,  /*  ........  */
0x60,  /*  .%%.....  */
0x90,  /*  %..%....  */
0x60,  /*  .%%.....  */
0x90,  /*  %..%....  */
0x90,  /*  %..%....  */
0x60,  /*  .%%.....  */
0x00,  /*  ........  */
0x00   /*  ........  */
}}
,
{{5, 9},{
0x00,  /*  ........  */
0x60,  /*  .%%.....  */
0x90,  /*  %..%....  */
0x90,  /*  %..%....  */
0x70,  /*  .%%%....  */
0x10,  /*  ...%....  */
0x60,  /*  .%%.....  */
0x00,  /*  ........  */
0x00   /*  ........  */
}}
,
{{2, 9},{
0x00,  /*  ........  */
0x00,  /*  ........  */
0x00,  /*  ........  */
0x80,  /*  %.......  */
0x00,  /*  ........  */
0x00,  /*  ........  */
0x80,  /*  %.......  */
0x00,  /*  ........  */
0x00   /*  ........  */
}}
,
{{2, 9},{
0x00,  /*  ........  */
0x00,  /*  ........  */
0x00,  /*  ........  */
0x80,  /*  %.......  */
0x00,  /*  ........  */
0x00,  /*  ........  */
0x80,  /*  %.......  */
0x80,  /*  %.......  */
0x00   /*  ........  */
}}
,
{{4, 9},{
0x00,  /*  ........  */
0x00,  /*  ........  */
0x20,  /*  ..%.....  */
0x40,  /*  .%......  */
0x80,  /*  %.......  */
0x40,  /*  .%......  */
0x20,  /*  ..%.....  */
0x00,  /*  ........  */
0x00   /*  ........  */
}}
,
{{5, 9},{
0x00,  /*  ........  */
0x00,  /*  ........  */
0x00,  /*  ........  */
0xF0,  /*  %%%%....  */
0x00,  /*  ........  */
0xF0,  /*  %%%%....  */
0x00,  /*  ........  */
0x00,  /*  ........  */
0x00   /*  ........  */
}}
,
{{4, 9},{
0x00,  /*  ........  */
0x00,  /*  ........  */
0x80,  /*  %.......  */
0x40,  /*  .%......  */
0x20,  /*  ..%.....  */
0x40,  /*  .%......  */
0x80,  /*  %.......  */
0x00,  /*  ........  */
0x00   /*  ........  */
}}
,
{{5, 9},{
0x00,  /*  ........  */
0x60,  /*  .%%.....  */
0x90,  /*  %..%....  */
0x10,  /*  ...%....  */
0x60,  /*  .%%.....  */
0x40,  /*  .%......  */
0x00,  /*  ........  */
0x40,  /*  .%......  */
0x00   /*  ........  */
}}
,
{{8, 9},{
0x00,  /*  ........  */
0x3C,  /*  ..%%%%..  */
0x72,  /*  .%%%..%.  */
0xCA,  /*  %%..%.%.  */
0xCA,  /*  %%..%.%.  */
0xCA,  /*  %%..%.%.  */
0xB4,  /*  %.%%.%..  */
0x40,  /*  .%......  */
0x3C   /*  ..%%%%..  */
}}
,
{{7, 9},{
0x00,  /*  ........  */
0x30,  /*  ..%%....  */
0x78,  /*  .%%%%...  */
0x48,  /*  .%..%...  */
0x78,  /*  .%%%%...  */
0x48,  /*  .%..%...  */
0xCC,  /*  %%..%%..  */
0x00,  /*  ........  */
0x00   /*  ........  */
}}
,
{{6, 9},{
0x00,  /*  ........  */
0xF0,  /*  %%%%....  */
0x48,  /*  .%..%...  */
0x70,  /*  .%%%....  */
0x48,  /*  .%..%...  */
0x48,  /*  .%..%...  */
0xF0,  /*  %%%%....  */
0x00,  /*  ........  */
0x00   /*  ........  */
}}
,
{{5, 9},{
0x00,  /*  ........  */
0x60,  /*  .%%.....  */
0x90,  /*  %..%....  */
0x80,  /*  %.......  */
0x80,  /*  %.......  */
0x90,  /*  %..%....  */
0x60,  /*  .%%.....  */
0x00,  /*  ........  */
0x00   /*  ........  */
}}
,
{{7, 9},{
0x00,  /*  ........  */
0xF8,  /*  %%%%%...  */
0x44,  /*  .%...%..  */
0x44,  /*  .%...%..  */
0x44,  /*  .%...%..  */
0x44,  /*  .%...%..  */
0xF8,  /*  %%%%%...  */
0x00,  /*  ........  */
0x00   /*  ........  */
}}
,
{{6, 9},{
0x00,  /*  ........  */
0xF8,  /*  %%%%%...  */
0x40,  /*  .%......  */
0x70,  /*  .%%%....  */
0x40,  /*  .%......  */
0x40,  /*  .%......  */
0xF8,  /*  %%%%%...  */
0x00,  /*  ........  */
0x00   /*  ........  */
}}
,
{{7, 9},{
0x00,  /*  ........  */
0xFC,  /*  %%%%%%..  */
0x40,  /*  .%......  */
0x70,  /*  .%%%....  */
0x40,  /*  .%......  */
0x40,  /*  .%......  */
0xE0,  /*  %%%.....  */
0x00,  /*  ........  */
0x00   /*  ........  */
}}
,
{{6, 9},{
0x00,  /*  ........  */
0x68,  /*  .%%.%...  */
0x98,  /*  %..%%...  */
0x80,  /*  %.......  */
0x98,  /*  %..%%...  */
0x88,  /*  %...%...  */
0x70,  /*  .%%%....  */
0x00,  /*  ........  */
0x00   /*  ........  */
}}
,
{{7, 9},{
0x00,  /*  ........  */
0xFC,  /*  %%%%%%..  */
0x48,  /*  .%..%...  */
0x78,  /*  .%%%%...  */
0x48,  /*  .%..%...  */
0x48,  /*  .%..%...  */
0xFC,  /*  %%%%%%..  */
0x00,  /*  ........  */
0x00   /*  ........  */
}}
,
{{4, 9},{
0x00,  /*  ........  */
0xE0,  /*  %%%.....  */
0x40,  /*  .%......  */
0x40,  /*  .%......  */
0x40,  /*  .%......  */
0x40,  /*  .%......  */
0xE0,  /*  %%%.....  */
0x00,  /*  ........  */
0x00   /*  ........  */
}}
,
{{4, 9},{
0x00,  /*  ........  */
0xE0,  /*  %%%.....  */
0x40,  /*  .%......  */
0x40,  /*  .%......  */
0x40,  /*  .%......  */
0x40,  /*  .%......  */
0x80,  /*  %.......  */
0x00,  /*  ........  */
0x00   /*  ........  */
}}
,
{{7, 9},{
0x00,  /*  ........  */
0xEC,  /*  %%%.%%..  */
0x48,  /*  .%..%...  */
0x50,  /*  .%.%....  */
0x70,  /*  .%%%....  */
0x48,  /*  .%..%...  */
0xEC,  /*  %%%.%%..  */
0x00,  /*  ........  */
0x00   /*  ........  */
}}
,
{{6, 9},{
0x00,  /*  ........  */
0xE0,  /*  %%%.....  */
0x40,  /*  .%......  */
0x40,  /*  .%......  */
0x40,  /*  .%......  */
0x48,  /*  .%..%...  */
0xF8,  /*  %%%%%...  */
0x00,  /*  ........  */
0x00   /*  ........  */
}}
,
{{8, 9},{
0x00,  /*  ........  */
0xEE,  /*  %%%.%%%.  */
0x6C,  /*  .%%.%%..  */
0x6C,  /*  .%%.%%..  */
0x54,  /*  .%.%.%..  */
0x54,  /*  .%.%.%..  */
0xFE,  /*  %%%%%%%.  */
0x00,  /*  ........  */
0x00   /*  ........  */
}}
,
{{7, 9},{
0x00,  /*  ........  */
0xDC,  /*  %%.%%%..  */
0x48,  /*  .%..%...  */
0x68,  /*  .%%.%...  */
0x58,  /*  .%.%%...  */
0x48,  /*  .%..%...  */
0xEC,  /*  %%%.%%..  */
0x00,  /*  ........  */
0x00   /*  ........  */
}}
,
{{7, 9},{
0x00,  /*  ........  */
0x78,  /*  .%%%%...  */
0x84,  /*  %....%..  */
0x84,  /*  %....%..  */
0x84,  /*  %....%..  */
0x84,  /*  %....%..  */
0x78,  /*  .%%%%...  */
0x00,  /*  ........  */
0x00   /*  ........  */
}}
,
{{6, 9},{
0x00,  /*  ........  */
0xF0,  /*  %%%%....  */
0x48,  /*  .%..%...  */
0x48,  /*  .%..%...  */
0x70,  /*  .%%%....  */
0x40,  /*  .%......  */
0xE0,  /*  %%%.....  */
0x00,  /*  ........  */
0x00   /*  ........  */
}}
,
{{7, 9},{
0x00,  /*  ........  */
0x78,  /*  .%%%%...  */
0x84,  /*  %....%..  */
0x84,  /*  %....%..  */
0x84,  /*  %....%..  */
0x84,  /*  %....%..  */
0x78,  /*  .%%%%...  */
0x10,  /*  ...%....  */
0x0C   /*  ....%%..  */
}}
,
{{7, 9},{
0x00,  /*  ........  */
0xF0,  /*  %%%%....  */
0x48,  /*  .%..%...  */
0x70,  /*  .%%%....  */
0x50,  /*  .%.%....  */
0x48,  /*  .%..%...  */
0xEC,  /*  %%%.%%..  */
0x00,  /*  ........  */
0x00   /*  ........  */
}}
,
{{5, 9},{
0x00,  /*  ........  */
0x60,  /*  .%%.....  */
0x90,  /*  %..%....  */
0x40,  /*  .%......  */
0x20,  /*  ..%.....  */
0x90,  /*  %..%....  */
0x60,  /*  .%%.....  */
0x00,  /*  ........  */
0x00   /*  ........  */
}}
,
{{6, 9},{
0x00,  /*  ........  */
0xF8,  /*  %%%%%...  */
0xA8,  /*  %.%.%...  */
0x20,  /*  ..%.....  */
0x20,  /*  ..%.....  */
0x20,  /*  ..%.....  */
0x70,  /*  .%%%....  */
0x00,  /*  ........  */
0x00   /*  ........  */
}}
,
{{5, 9},{
0x00,  /*  ........  */
0x90,  /*  %..%....  */
0x90,  /*  %..%....  */
0x90,  /*  %..%....  */
0x90,  /*  %..%....  */
0x90,  /*  %..%....  */
0x60,  /*  .%%.....  */
0x00,  /*  ........  */
0x00   /*  ........  */
}}
,
{{8, 9},{
0x00,  /*  ........  */
0xC6,  /*  %%...%%.  */
0x44,  /*  .%...%..  */
0x44,  /*  .%...%..  */
0x28,  /*  ..%.%...  */
0x28,  /*  ..%.%...  */
0x10,  /*  ...%....  */
0x00,  /*  ........  */
0x00   /*  ........  */
}}
,
{{8, 9},{
0x00,  /*  ........  */
0xD6,  /*  %%.%.%%.  */
0x54,  /*  .%.%.%..  */
0x54,  /*  .%.%.%..  */
0x54,  /*  .%.%.%..  */
0x28,  /*  ..%.%...  */
0x28,  /*  ..%.%...  */
0x00,  /*  ........  */
0x00   /*  ........  */
}}
,
{{6, 9},{
0x00,  /*  ........  */
0xD8,  /*  %%.%%...  */
0x50,  /*  .%.%....  */
0x50,  /*  .%.%....  */
0x20,  /*  ..%.....  */
0x50,  /*  .%.%....  */
0xD8,  /*  %%.%%...  */
0x00,  /*  ........  */
0x00   /*  ........  */
}}
,
{{8, 9},{
0x00,  /*  ........  */
0xEE,  /*  %%%.%%%.  */
0x44,  /*  .%...%..  */
0x28,  /*  ..%.%...  */
0x10,  /*  ...%....  */
0x10,  /*  ...%....  */
0x38,  /*  ..%%%...  */
0x00,  /*  ........  */
0x00   /*  ........  */
}}
,
{{6, 9},{
0x00,  /*  ........  */
0xF8,  /*  %%%%%...  */
0x88,  /*  %...%...  */
0x10,  /*  ...%....  */
0x20,  /*  ..%.....  */
0x48,  /*  .%..%...  */
0xF8,  /*  %%%%%...  */
0x00,  /*  ........  */
0x00   /*  ........  */
}}
,
{{3, 9},{
0xC0,  /*  %%......  */
0x80,  /*  %.......  */
0x80,  /*  %.......  */
0x80,  /*  %.......  */
0x80,  /*  %.......  */
0x80,  /*  %.......  */
0x80,  /*  %.......  */
0xC0,  /*  %%......  */
0x00   /*  ........  */
}}
,
{{4, 9},{
0x00,  /*  ........  */
0x80,  /*  %.......  */
0x80,  /*  %.......  */
0x40,  /*  .%......  */
0x40,  /*  .%......  */
0x20,  /*  ..%.....  */
0x20,  /*  ..%.....  */
0x00,  /*  ........  */
0x00   /*  ........  */
}}
,
{{3, 9},{
0xC0,  /*  %%......  */
0x40,  /*  .%......  */
0x40,  /*  .%......  */
0x40,  /*  .%......  */
0x40,  /*  .%......  */
0x40,  /*  .%......  */
0x40,  /*  .%......  */
0xC0,  /*  %%......  */
0x00   /*  ........  */
}}
,
{{6, 9},{
0x00,  /*  ........  */
0x20,  /*  ..%.....  */
0x50,  /*  .%.%....  */
0x88,  /*  %...%...  */
0x00,  /*  ........  */
0x00,  /*  ........  */
0x00,  /*  ........  */
0x00,  /*  ........  */
0x00   /*  ........  */
}}
,
{{6, 9},{
0x00,  /*  ........  */
0x00,  /*  ........  */
0x00,  /*  ........  */
0x00,  /*  ........  */
0x00,  /*  ........  */
0x00,  /*  ........  */
0x00,  /*  ........  */
0xFC,  /*  %%%%%%..  */
0x00   /*  ........  */
}}
,
{{2, 9},{
0x00,  /*  ........  */
0x00,  /*  ........  */
0x80,  /*  %.......  */
0x00,  /*  ........  */
0x00,  /*  ........  */
0x00,  /*  ........  */
0x00,  /*  ........  */
0x00,  /*  ........  */
0x00   /*  ........  */
}}
,
{{6, 9},{
0x00,  /*  ........  */
0x00,  /*  ........  */
0x70,  /*  .%%%....  */
0x90,  /*  %..%....  */
0x90,  /*  %..%....  */
0x90,  /*  %..%....  */
0x68,  /*  .%%.%...  */
0x00,  /*  ........  */
0x00   /*  ........  */
}}
,
{{5, 9},{
0x00,  /*  ........  */
0x80,  /*  %.......  */
0x80,  /*  %.......  */
0xE0,  /*  %%%.....  */
0x90,  /*  %..%....  */
0x90,  /*  %..%....  */
0xE0,  /*  %%%.....  */
0x00,  /*  ........  */
0x00   /*  ........  */
}}
,
{{4, 9},{
0x00,  /*  ........  */
0x00,  /*  ........  */
0x60,  /*  .%%.....  */
0x80,  /*  %.......  */
0x80,  /*  %.......  */
0x80,  /*  %.......  */
0x60,  /*  .%%.....  */
0x00,  /*  ........  */
0x00   /*  ........  */
}}
,
{{5, 9},{
0x00,  /*  ........  */
0x10,  /*  ...%....  */
0x10,  /*  ...%....  */
0x70,  /*  .%%%....  */
0x90,  /*  %..%....  */
0x90,  /*  %..%....  */
0x70,  /*  .%%%....  */
0x00,  /*  ........  */
0x00   /*  ........  */
}}
,
{{5, 9},{
0x00,  /*  ........  */
0x00,  /*  ........  */
0x60,  /*  .%%.....  */
0x90,  /*  %..%....  */
0xF0,  /*  %%%%....  */
0x80,  /*  %.......  */
0x60,  /*  .%%.....  */
0x00,  /*  ........  */
0x00   /*  ........  */
}}
,
{{4, 9},{
0x00,  /*  ........  */
0x20,  /*  ..%.....  */
0x40,  /*  .%......  */
0xE0,  /*  %%%.....  */
0x40,  /*  .%......  */
0x40,  /*  .%......  */
0x40,  /*  .%......  */
0x00,  /*  ........  */
0x00   /*  ........  */
}}
,
{{5, 9},{
0x00,  /*  ........  */
0x00,  /*  ........  */
0x60,  /*  .%%.....  */
0x90,  /*  %..%....  */
0x90,  /*  %..%....  */
0x70,  /*  .%%%....  */
0x10,  /*  ...%....  */
0x90,  /*  %..%....  */
0x60   /*  .%%.....  */
}}
,
{{5, 9},{
0x00,  /*  ........  */
0x80,  /*  %.......  */
0xA0,  /*  %.%.....  */
0xD0,  /*  %%.%....  */
0x90,  /*  %..%....  */
0x90,  /*  %..%....  */
0x90,  /*  %..%....  */
0x00,  /*  ........  */
0x00   /*  ........  */
}}
,
{{2, 9},{
0x00,  /*  ........  */
0x80,  /*  %.......  */
0x00,  /*  ........  */
0x80,  /*  %.......  */
0x80,  /*  %.......  */
0x80,  /*  %.......  */
0x80,  /*  %.......  */
0x00,  /*  ........  */
0x00   /*  ........  */
}}
,
{{5, 9},{
0x00,  /*  ........  */
0x10,  /*  ...%....  */
0x00,  /*  ........  */
0x10,  /*  ...%....  */
0x10,  /*  ...%....  */
0x10,  /*  ...%....  */
0x10,  /*  ...%....  */
0x90,  /*  %..%....  */
0x60   /*  .%%.....  */
}}
,
{{5, 9},{
0x00,  /*  ........  */
0x80,  /*  %.......  */
0x90,  /*  %..%....  */
0xA0,  /*  %.%.....  */
0xC0,  /*  %%......  */
0xA0,  /*  %.%.....  */
0x90,  /*  %..%....  */
0x00,  /*  ........  */
0x00   /*  ........  */
}}
,
{{4, 9},{
0x00,  /*  ........  */
0x80,  /*  %.......  */
0x80,  /*  %.......  */
0x80,  /*  %.......  */
0x80,  /*  %.......  */
0x80,  /*  %.......  */
0x60,  /*  .%%.....  */
0x00,  /*  ........  */
0x00   /*  ........  */
}}
,
{{8, 9},{
0x00,  /*  ........  */
0x00,  /*  ........  */
0xAC,  /*  %.%.%%..  */
0xD2,  /*  %%.%..%.  */
0x92,  /*  %..%..%.  */
0x92,  /*  %..%..%.  */
0x92,  /*  %..%..%.  */
0x00,  /*  ........  */
0x00   /*  ........  */
}}
,
{{5, 9},{
0x00,  /*  ........  */
0x00,  /*  ........  */
0xA0,  /*  %.%.....  */
0xD0,  /*  %%.%....  */
0x90,  /*  %..%....  */
0x90,  /*  %..%....  */
0x90,  /*  %..%....  */
0x00,  /*  ........  */
0x00   /*  ........  */
}}
,
{{5, 9},{
0x00,  /*  ........  */
0x00,  /*  ........  */
0x60,  /*  .%%.....  */
0x90,  /*  %..%....  */
0x90,  /*  %..%....  */
0x90,  /*  %..%....  */
0x60,  /*  .%%.....  */
0x00,  /*  ........  */
0x00   /*  ........  */
}}
,
{{5, 9},{
0x00,  /*  ........  */
0x00,  /*  ........  */
0xE0,  /*  %%%.....  */
0x90,  /*  %..%....  */
0x90,  /*  %..%....  */
0x90,  /*  %..%....  */
0xE0,  /*  %%%.....  */
0x80,  /*  %.......  */
0x80   /*  %.......  */
}}
,
{{5, 9},{
0x00,  /*  ........  */
0x00,  /*  ........  */
0x70,  /*  .%%%....  */
0x90,  /*  %..%....  */
0x90,  /*  %..%....  */
0x90,  /*  %..%....  */
0x70,  /*  .%%%....  */
0x10,  /*  ...%....  */
0x10   /*  ...%....  */
}}
,
{{4, 9},{
0x00,  /*  ........  */
0x00,  /*  ........  */
0xA0,  /*  %.%.....  */
0xC0,  /*  %%......  */
0x80,  /*  %.......  */
0x80,  /*  %.......  */
0x80,  /*  %.......  */
0x00,  /*  ........  */
0x00   /*  ........  */
}}
,
{{4, 9},{
0x00,  /*  ........  */
0x00,  /*  ........  */
0x60,  /*  .%%.....  */
0x80,  /*  %.......  */
0x40,  /*  .%......  */
0x20,  /*  ..%.....  */
0xC0,  /*  %%......  */
0x00,  /*  ........  */
0x00   /*  ........  */
}}
,
{{5, 9},{
0x00,  /*  ........  */
0x40,  /*  .%......  */
0xE0,  /*  %%%.....  */
0x40,  /*  .%......  */
0x40,  /*  .%......  */
0x50,  /*  .%.%....  */
0x20,  /*  ..%.....  */
0x00,  /*  ........  */
0x00   /*  ........  */
}}
,
{{5, 9},{
0x00,  /*  ........  */
0x00,  /*  ........  */
0x90,  /*  %..%....  */
0x90,  /*  %..%....  */
0x90,  /*  %..%....  */
0x90,  /*  %..%....  */
0x60,  /*  .%%.....  */
0x00,  /*  ........  */
0x00   /*  ........  */
}}
,
{{4, 9},{
0x00,  /*  ........  */
0x00,  /*  ........  */
0xA0,  /*  %.%.....  */
0xA0,  /*  %.%.....  */
0xA0,  /*  %.%.....  */
0xA0,  /*  %.%.....  */
0x40,  /*  .%......  */
0x00,  /*  ........  */
0x00   /*  ........  */
}}
,
{{8, 9},{
0x00,  /*  ........  */
0x00,  /*  ........  */
0x92,  /*  %..%..%.  */
0x92,  /*  %..%..%.  */
0x92,  /*  %..%..%.  */
0xAA,  /*  %.%.%.%.  */
0x44,  /*  .%...%..  */
0x00,  /*  ........  */
0x00   /*  ........  */
}}
,
{{6, 9},{
0x00,  /*  ........  */
0x00,  /*  ........  */
0x88,  /*  %...%...  */
0x50,  /*  .%.%....  */
0x20,  /*  ..%.....  */
0x50,  /*  .%.%....  */
0x88,  /*  %...%...  */
0x00,  /*  ........  */
0x00   /*  ........  */
}}
,
{{5, 9},{
0x00,  /*  ........  */
0x00,  /*  ........  */
0x90,  /*  %..%....  */
0x90,  /*  %..%....  */
0x90,  /*  %..%....  */
0x70,  /*  .%%%....  */
0x10,  /*  ...%....  */
0x90,  /*  %..%....  */
0x60   /*  .%%.....  */
}}
,
{{4, 9},{
0x00,  /*  ........  */
0x00,  /*  ........  */
0xE0,  /*  %%%.....  */
0x20,  /*  ..%.....  */
0x40,  /*  .%......  */
0x80,  /*  %.......  */
0xE0,  /*  %%%.....  */
0x00,  /*  ........  */
0x00   /*  ........  */
}}
,
{{4, 9},{
0x20,  /*  ..%.....  */
0x40,  /*  .%......  */
0x40,  /*  .%......  */
0x40,  /*  .%......  */
0x80,  /*  %.......  */
0x40,  /*  .%......  */
0x40,  /*  .%......  */
0x40,  /*  .%......  */
0x20   /*  ..%.....  */
}}
,
{{2, 9},{
0x00,  /*  ........  */
0x80,  /*  %.......  */
0x80,  /*  %.......  */
0x80,  /*  %.......  */
0x00,  /*  ........  */
0x80,  /*  %.......  */
0x80,  /*  %.......  */
0x80,  /*  %.......  */
0x00   /*  ........  */
}}
,
{{4, 9},{
0x80,  /*  %.......  */
0x40,  /*  .%......  */
0x40,  /*  .%......  */
0x40,  /*  .%......  */
0x20,  /*  ..%.....  */
0x40,  /*  .%......  */
0x40,  /*  .%......  */
0x40,  /*  .%......  */
0x80   /*  %.......  */
}}
,
{{4, 9},{
0x00,  /*  ........  */
0xD0,  /*  %%.%....  */
0xB0,  /*  %.%%....  */
0x00,  /*  ........  */
0x00,  /*  ........  */
0x00,  /*  ........  */
0x00,  /*  ........  */
0x00,  /*  ........  */
0x00   /*  ........  */
}}
,
{{4, 9},{
0x00,  /*  ........  */
0x00,  /*  ........  */
0x00,  /*  ........  */
0x40,  /*  .%......  */
0xA0,  /*  %.%.....  */
0xA0,  /*  %.%.....  */
0xE0,  /*  %%%.....  */
0x00,  /*  ........  */
0x00   /*  ........  */
}}
